-7.0937500000e+00 -0.0000000000e+00 -0.0000000000e+00
-7.0898437500e+00 1.2950874485e-25 -2.1737471704e-25
-7.0859375000e+00 1.0108825458e-24 -5.2022194033e-26
-7.0820312500e+00 1.3601123935e-24 1.8269756312e-24
-7.0781250000e+00 -1.3600348208e-24 3.8141478729e-24
-7.0742187500e+00 -6.1374124020e-24 1.5384357569e-24
-7.0703125000e+00 -6.7451558671e-24 -6.1252218118e-24
-7.0664062500e+00 1.8476399852e-24 -1.2262722445e-23
-7.0625000000e+00 1.4667820359e-23 -6.8690298219e-24
-7.0585937500e+00 1.7522313867e-23 1.0635008976e-23
-7.0546875000e+00 1.0524353412e-24 2.5280697897e-23
-7.0507812500e+00 -2.4762269241e-23 1.7998330391e-23
-7.0468750000e+00 -3.4147050661e-23 -1.2680729368e-23
-7.0429687500e+00 -9.7829485543e-24 -4.1607236234e-23
-7.0390625000e+00 3.3911351487e-23 -3.6142184855e-23
-7.0351562500e+00 5.6084683897e-23 9.4811454035e-24
-7.0312500000e+00 2.6289478294e-23 5.9119188777e-23
-7.0273437500e+00 -3.9200244929e-23 6.1606956563e-23
-7.0234375000e+00 -8.1825222026e-23 1.5388558520e-24
-7.0195312500e+00 -5.1777327427e-23 -7.5023151432e-23
-7.0156250000e+00 3.7604254920e-23 -9.3704041795e-23
-7.0117187500e+00 1.0898487627e-22 -2.2459970301e-23
-7.0078125000e+00 8.6536858186e-23 8.6103980741e-23
-7.0039062500e+00 -2.6290801340e-23 1.3075182299e-22
-7.0000000000e+00 -1.3448179765e-22 5.4624912331e-23
-6.9960937500e+00 -1.2984729797e-22 -8.9007693494e-23
-6.9921875000e+00 2.9044101240e-24 -1.7016061177e-22
-6.9882812500e+00 1.5476918274e-22 -9.8455902084e-23
-6.9843750000e+00 1.7996260089e-22 8.0535947735e-23
-6.9804687500e+00 3.4185716438e-23 2.0859056653e-22
-6.9765625000e+00 -1.6610609577e-22 1.5334405257e-22
-6.9726562500e+00 -2.3417703213e-22 -5.7930063615e-23
-6.9687500000e+00 -8.5692011604e-23 -2.4216821764e-22
-6.9648437500e+00 1.6484509641e-22 -2.1761576906e-22
-6.9609375000e+00 2.8896272099e-22 1.9124847826e-23
-6.9570312500e+00 1.5128026383e-22 2.6674417826e-22
-6.9531250000e+00 -1.4771612875e-22 2.8857559986e-22
-6.9492187500e+00 -3.4016713457e-22 3.7043994711e-23
-6.9453125000e+00 -2.2951303811e-22 -2.7817316160e-22
-6.9414062500e+00 1.1208778346e-22 -3.6262003630e-22
-6.9375000000e+00 3.8325538782e-22 -1.1069120578e-22
-6.9335937500e+00 3.1786635049e-22 2.7259709294e-22
-6.9296875000e+00 -5.6189555932e-23 4.3541261543e-22
-6.9257812500e+00 -4.1358029092e-22 2.0079972978e-22
-6.9218750000e+00 -4.1281606027e-22 -2.4671317117e-22
-6.9179687500e+00 -2.0717619002e-23 -5.0210725184e-22
-6.9140625000e+00 4.2666244451e-22 -3.0520781703e-22
-6.9101562500e+00 5.0998636975e-22 1.9801101039e-22
-6.9062500000e+00 1.1823101694e-22 5.5760470649e-22
-6.9023437500e+00 -4.1846332567e-22 4.2066399530e-22
-6.8984375000e+00 -6.0434983097e-22 -1.2496559512e-22
-6.8945312500e+00 -2.3476107569e-22 -5.9682614912e-22
-6.8906250000e+00 3.8563549681e-22 -5.4294491343e-22
-6.8867187500e+00 6.9046566962e-22 2.7176224011e-23
-6.8828125000e+00 3.6755188934e-22 6.1498752899e-22
-6.8789062500e+00 -3.2573652973e-22 6.6702717056e-22
-6.8750000000e+00 -7.6274179781e-22 9.4554570692e-23
-6.8710937500e+00 -5.1276395893e-22 -6.0785962854e-22
-6.8671875000e+00 2.3739646722e-22 -7.8730184026e-22
-6.8632812500e+00 8.1570564363e-22 -2.3820392372e-22
-6.8593750000e+00 6.6561262887e-22 5.7200053713e-22
-6.8554687500e+00 -1.2043115464e-22 8.9781927502e-22
-6.8515625000e+00 -8.4426938122e-22 4.0057307527e-22
-6.8476562500e+00 -8.2055360491e-22 -5.0494908925e-22
-6.8437500000e+00 -2.4102500905e-23 -9.9255038834e-22
-6.8398437500e+00 8.4397609089e-22 -5.7738834695e-22
-6.8359375000e+00 9.7150411519e-22 4.0537098641e-22
-6.8320312500e+00 1.9391007861e-22 1.0656506953e-21
-6.8281250000e+00 -8.1121544021e-22 7.6345169224e-22
-6.8242187500e+00 -1.1120874794e-21 -2.7315260957e-22
-6.8203125000e+00 -3.8551868149e-22 -1.1117143713e-21
-6.8164062500e+00 7.4340010553e-22 -9.5283139037e-22
-6.8125000000e+00 1.2358889641e-21 1.0943977971e-22
-6.8085937500e+00 5.9438809286e-22 1.1260068287e-21
-6.8046875000e+00 -6.3909559331e-22 1.1390833598e-21
-6.8007812500e+00 -1.3367105698e-21 8.3378374700e-23
-6.7968750000e+00 -8.1506577353e-22 -1.1046658715e-21
-6.7929687500e+00 4.9809984208e-22 -1.3154909602e-21
-6.7890625000e+00 1.4088131038e-21 -3.0173724172e-22
-6.7851562500e+00 1.0413773716e-21 1.0448637035e-21
-6.7812500000e+00 -3.2147138693e-22 1.4753120277e-21
-6.7773437500e+00 -1.4471357329e-21 5.4101011876e-22
-6.7734375000e+00 -1.2666418741e-21 -9.4492543516e-22
-6.7695312500e+00 1.1150764588e-22 -1.6120222994e-21
-6.7656250000e+00 1.4474848418e-21 -7.9566154465e-22
-6.7617187500e+00 1.4839031050e-21 8.0439980162e-22
-6.7578125000e+00 1.2832476917e-22 1.7195456155e-21
-6.7539062500e+00 -1.4066855441e-21 1.0594319284e-21
-6.7500000000e+00 -1.6861657441e-21 -6.2408228435e-22
-6.7460937500e+00 -3.9350148862e-22 -1.7924615294e-21
-6.7421875000e+00 1.3226914362e-21 -1.3255443737e-21
-6.7382812500e+00 1.8666267021e-21 4.0599153397e-22
-6.7343750000e+00 6.7858701970e-22 1.8261834434e-21
-6.7304687500e+00 -1.1946513318e-21 1.5869234605e-21
-6.7265625000e+00 -2.0188924729e-21 -1.5330442207e-22
-6.7226562500e+00 -9.7740849075e-22 -1.8171023556e-21
-6.7187500000e+00 1.0229319123e-21 -1.8364184800e-21
-6.7148437500e+00 2.1371762164e-21 -1.2974869004e-22
-6.7109375000e+00 1.2832504289e-21 1.7626920763e-21
-6.7070312500e+00 -8.0909780837e-22 2.0670218915e-21
-6.7031250000e+00 -2.2164671712e-21 4.3802006339e-22
-6.6992187500e+00 -1.5890603167e-21 -1.6615743547e-21
-6.6953125000e+00 5.5585236188e-22 -2.2720749829e-21
-6.6914062500e+00 2.2526680210e-21 -7.6560665170e-22
-6.6875000000e+00 1.8876573951e-21 1.5135438887e-21
-6.6835937500e+00 -2.6694470160e-22 2.4454538572e-21
-6.6796875000e+00 -2.2426979917e-21 1.1060276582e-21
-6.6757812500e+00 -2.1719361711e-21 -1.3195561270e-21
-6.6718750000e+00 -5.2952491479e-23 -2.5817312708e-21
-6.6679687500e+00 2.1845594944e-21 -1.4524153404e-21
-6.6640625000e+00 2.4350604949e-21 1.0816780722e-21
-6.6601562500e+00 3.9838933052e-22 2.6763100239e-21
-6.6562500000e+00 -2.0773685975e-21 1.7977081528e-21
-6.6523437500e+00 -2.6706398080e-21 -8.0300802357e-22
-6.6484375000e+00 -7.6330148616e-22 -2.7255248025e-21
-6.6445312500e+00 1.9213501795e-21 -2.1348411632e-21
-6.6406250000e+00 2.8728838710e-21 4.8756777121e-22
-6.6367187500e+00 1.1411827371e-21 2.7267115470e-21
-6.6328125000e+00 -1.7178022182e-21 2.4569255641e-21
-6.6289062500e+00 -3.0367316048e-21 -1.4017614926e-22
-6.6250000000e+00 -1.5252604033e-21 -2.6782450849e-21
-6.6210937500e+00 1.4690305732e-21 -2.7574152499e-21
-6.6171875000e+00 3.1579536738e-21 -2.3369652413e-22
-6.6132812500e+00 1.9086711912e-21 2.5795448895e-21
-6.6093750000e+00 -1.1782586847e-21 3.0302548406e-21
-6.6054687500e+00 -3.2332256870e-21 6.2808286003e-22
-6.6015625000e+00 -2.2846286678e-21 -2.4310517365e-21
-6.5976562500e+00 8.4951704665e-22 -3.2700056604e-21
-6.5937500000e+00 3.2601723499e-21 -1.0366786360e-21
-6.5898437500e+00 2.6465794950e-21 2.2341775121e-21
-6.5859375000e+00 -4.8751823557e-22 3.4719473899e-21
-6.5820312500e+00 -3.2373843019e-21 1.4529995273e-21
-6.5781250000e+00 -2.9883418424e-21 -1.9912347861e-21
-6.5742187500e+00 9.7522690594e-23 -3.6321548866e-21
-6.5703125000e+00 3.1644086891e-21 -1.8705355692e-21
-6.5664062500e+00 3.3042288003e-21 1.7053447774e-21
-6.5625000000e+00 3.1480370225e-22 3.7475503791e-21
-6.5585937500e+00 -3.0417156066e-21 2.2828962174e-21
-6.5546875000e+00 -3.5891497933e-21 -1.3803317300e-21
-6.5507812500e+00 -7.4353185239e-22 -3.8159303261e-21
-6.5468750000e+00 2.8706432737e-21 -2.6839429442e-21
-6.5429687500e+00 3.8386909367e-21 1.0206054472e-21
-6.5390625000e+00 1.1826097131e-21 3.8359685782e-21
-6.5351562500e+00 -2.6533260661e-21 3.0679058292e-21
-6.5312500000e+00 -4.0491720971e-21 -6.3104097319e-22
-6.5273437500e+00 -1.6259917825e-21 -3.8071991032e-21
-6.5234375000e+00 2.3926096755e-21 -3.4294825771e-21
-6.5195312500e+00 4.2176840241e-21 2.1685289194e-22
-6.5156250000e+00 2.0677644591e-21 3.7299788189e-21
-6.5117187500e+00 -2.0919532914e-21 3.7639218451e-21
-6.5078125000e+00 -4.3421043352e-21 2.1652928683e-22
-6.5039062500e+00 -2.5022569069e-21 -3.6054340689e-21
-6.5000000000e+00 1.7553257184e-21 -4.0670862758e-21
-6.4960937500e+00 4.4210939146e-21 -6.6358154024e-22
-6.4921875000e+00 2.9241394031e-21 3.4353926099e-21
-6.4882812500e+00 -1.3870961841e-21 4.3354974339e-21
-6.4843750000e+00 -4.4540757606e-21 1.1187981280e-21
-6.4804687500e+00 -3.3285034598e-21 -3.2223071477e-21
-6.4765625000e+00 9.9192984308e-22 -4.5663605872e-21
-6.4726562500e+00 4.4411994853e-21 -1.5767928770e-21
-6.4687500000e+00 3.7109288374e-21 2.9691702019e-21
-6.4648437500e+00 -5.7467918858e-22 4.7575755650e-21
-6.4609375000e+00 -4.3832922502e-21 2.0323943845e-21
-6.4570312500e+00 -4.0675350822e-21 -2.6794233331e-21
-6.4531250000e+00 1.4028263643e-22 -4.9077303800e-21
-6.4492187500e+00 4.2817993382e-21 -2.4807264622e-21
-6.4453125000e+00 4.3950167244e-21 2.3568644910e-21
-6.4414062500e+00 3.0633185773e-22 5.0160809573e-21
-6.4375000000e+00 -4.1387154460e-21 2.9172778566e-21
-6.4335937500e+00 -4.6906635769e-21 -2.0055552740e-21
-6.4296875000e+00 -7.6033186783e-22 -5.0825185522e-21
-6.4257812500e+00 3.9565141798e-21 -3.3379524748e-21
-6.4218750000e+00 4.9523653876e-21 1.6297349083e-21
-6.4179687500e+00 1.2170568845e-21 5.1075278304e-21
-6.4140625000e+00 -3.7380706349e-21 3.7391137394e-21
-6.4101562500e+00 -5.1786073214e-21 -1.2337325260e-21
-6.4062500000e+00 -1.6720873611e-21 -5.0921364323e-21
-6.4023437500e+00 3.4865839669e-21 -4.1176131413e-21
-6.3984375000e+00 5.3684522844e-21 8.2188815611e-22
-6.3945312500e+00 2.1213010113e-21 5.0378582623e-21
-6.3906250000e+00 -3.2054997911e-21 4.4708074080e-21
-6.3867187500e+00 -5.5215140184e-21 -3.9847840569e-22
-6.3828125000e+00 -2.5609199343e-21 -4.9466317441e-21
-6.3789062500e+00 2.8984359681e-21 -4.7965632876e-21
-6.3750000000e+00 5.6379213107e-21 -3.2344157859e-23
-6.3710937500e+00 2.9875402258e-21 4.8207588526e-21
-6.3671875000e+00 -2.5691145894e-21 5.0932512377e-21
-6.3632812500e+00 -5.7182772414e-21 4.6660783095e-22
-6.3593750000e+00 -3.3981600068e-21 -4.6628401131e-21
-6.3554687500e+00 2.2212939483e-21 -5.3597336631e-21
-6.3515625000e+00 5.7636131453e-21 -9.0057001116e-22
-6.3476562500e+00 3.7901934976e-21 4.4757115761e-21
-6.3437500000e+00 -1.8587089546e-21 5.5953431717e-21
-6.3398437500e+00 -5.7753389637e-21 1.3307558728e-21
-6.3359375000e+00 -4.1614776806e-21 -4.2623825032e-21
-6.3320312500e+00 1.4850148753e-21 -5.7998554567e-21
-6.3281250000e+00 5.7551914219e-21 -1.7539887902e-21
-6.3242187500e+00 4.5102677400e-21 4.0259785471e-21
-6.3203125000e+00 -1.1037467860e-21 5.9734542707e-21
-6.3164062500e+00 -5.7051834022e-21 2.1674066918e-21
-6.3125000000e+00 -4.8352264832e-21 -3.7696888704e-21
-6.3085937500e+00 7.1827643738e-22 -6.1166962974e-21
-6.3046875000e+00 5.6275520095e-21 -2.5684794065e-21
-6.3007812500e+00 5.1354101820e-21 3.4967149452e-21
-6.2968750000e+00 -3.3177981968e-22 6.2304715931e-21
-6.2929687500e+00 -5.5247087793e-21 2.9550142260e-21
-6.2890625000e+00 -5.4102470560e-21 -3.2102261876e-21
-6.2851562500e+00 -5.2789502254e-23 -6.3159624830e-21
-6.2812500000e+00 5.3991909670e-21 -3.3251573627e-21
-6.2773437500e+00 5.6595131436e-21 2.9133181869e-21
-6.2734375000e+00 4.3271954924e-22 6.3746015436e-21
-6.2695312500e+00 -5.2536186230e-21 3.6773842598e-21
-6.2656250000e+00 -5.8832998547e-21 -2.6089854826e-21
-6.2617187500e+00 -8.0554804421e-22 -6.4080304227e-21
-6.2578125000e+00 5.0906539401e-21 -4.0104886144e-21
-6.2539062500e+00 6.0819859555e-21 2.3000893224e-21
-6.2500000000e+00 1.1690736590e-21 6.4180596326e-21
-6.2460937500e+00 -4.9129630060e-21 4.3235687425e-21
-6.2421875000e+00 -6.2562048176e-21 -1.9893353838e-21
-6.2382812500e+00 -1.5213571689e-21 -6.4066296553e-21
-6.2343750000e+00 4.7231825375e-21 -4.6160085739e-21
-6.2304687500e+00 6.4068116545e-21 1.6792547808e-21
-6.2265625000e+00 1.8607213096e-21 6.3757734313e-21
-6.2226562500e+00 -4.5238890105e-21 4.8874576195e-21
-6.2187500000e+00 -6.5348498143e-21 -1.3721921561e-21
-6.2148437500e+00 -2.1857385006e-21 -6.3275833086e-21
-6.2109375000e+00 4.3175790953e-21 -5.1378020532e-21
-6.2070312500e+00 6.6415174380e-21 1.0703012573e-21
-6.2031250000e+00 2.4952223952e-21 6.2641796467e-21
-6.1992187500e+00 -4.1066454461e-21 5.3671437923e-21
-6.1953125000e+00 -6.7281370822e-21 -7.7553691590e-22
-6.1914062500e+00 -2.7882161151e-21 -6.1876820176e-21
-6.1875000000e+00 3.8933603453e-21 -5.5757742043e-21
-6.1835937500e+00 6.7961252944e-21 4.8965519239e-22
-6.1796875000e+00 3.0639770575e-21 6.1001836469e-21
-6.1757812500e+00 -3.6798611509e-21 5.7641490060e-21
-6.1718750000e+00 -6.8469642271e-21 -2.1421285171e-22
-6.1679687500e+00 -3.3219618226e-21 -6.0037278832e-21
-6.1640625000e+00 3.4681417569e-21 -5.9328613978e-21
-6.1601562500e+00 6.8821745570e-21 -4.9420566098e-23
-6.1562500000e+00 3.5618009610e-21 5.9002925276e-21
-6.1523437500e+00 -3.2600492438e-21 6.0826151310e-21
-6.1484375000e+00 -6.9032916733e-21 3.0005783533e-22
-6.1445312500e+00 -3.7832853110e-21 -5.7917711319e-21
-6.1406250000e+00 3.0572766622e-21 -6.2142026156e-21
-6.1367187500e+00 6.9118435384e-21 -5.3668567179e-22
-6.1328125000e+00 3.9863459021e-21 5.6799597434e-21
-6.1289062500e+00 -2.8613623307e-21 6.3284813562e-21
-6.1250000000e+00 -6.9093306550e-21 7.5845425760e-22
-6.1210937500e+00 -4.1710362001e-21 -5.5665447342e-21
-6.1171875000e+00 2.6736873685e-21 -6.4263535628e-21
-6.1132812500e+00 6.8972079861e-21 -9.6466747109e-22
-6.1093750000e+00 4.3375113654e-21 5.4530952417e-21
-6.1054687500e+00 -2.4954851820e-21 6.5087427682e-21
-6.1015625000e+00 -6.8768704088e-21 1.1547626086e-21
-6.0976562500e+00 -4.4860075579e-21 -5.3410587650e-21
-6.0937500000e+00 2.3278421440e-21 -6.5765770993e-21
-6.0898437500e+00 6.8498967798e-21 -1.3283536909e-21
-6.0859375000e+00 4.6175232804e-21 5.2325421127e-21
-6.0820312500e+00 -2.1724379983e-21 6.6330200447e-21
-6.0781250000e+00 -6.8208571456e-21 1.4858626905e-21
-6.0742187500e+00 -4.7347807817e-21 -5.1311971581e-21
-6.0703125000e+00 2.0306219682e-21 -6.6812705216e-21
-6.0664062500e+00 6.7918636972e-21 -1.6275354935e-21
-6.0625000000e+00 4.8385408792e-21 5.0380853726e-21
-6.0585937500e+00 -1.9028195462e-21 6.7222446068e-21
-6.0546875000e+00 -6.7638878460e-21 1.7534661810e-21
-6.0507812500e+00 -4.9293557511e-21 -4.9539698171e-21
-6.0468750000e+00 1.7893953871e-21 -6.7567734046e-21
-6.0429687500e+00 6.7377966344e-21 -1.8637574534e-21
-6.0390625000e+00 5.0077322737e-21 4.8795184688e-21
-6.0351562500e+00 -1.6906563055e-21 6.7855999746e-21
-6.0312500000e+00 -6.7143520475e-21 1.9585147887e-21
-6.0273437500e+00 -5.0741242118e-21 -4.8153089236e-21
-6.0234375000e+00 1.6068601344e-21 -6.8093747985e-21
-6.0195312500e+00 6.6942115371e-21 -2.0378370372e-21
-6.0156250000e+00 5.1289256287e-21 4.7618324440e-21
-6.0117187500e+00 -1.5382206615e-21 6.8286526615e-21
-6.0078125000e+00 -6.6779272611e-21 2.1018126346e-21
-6.0039062500e+00 -5.1724663630e-21 -4.7194962358e-21
-6.0000000000e+00 1.4849160706e-21 -6.8438890031e-21
-5.9960937500e+00 6.6659489595e-21 -2.1505049709e-21
-5.9921875000e+00 5.2050011897e-21 4.6886330469e-21
-5.9882812500e+00 -1.4470971792e-21 6.8554367054e-21
-5.9843750000e+00 -6.6586229727e-21 2.1839513721e-21
-5.9804687500e+00 -5.2267102733e-21 -4.6694988425e-21
-5.9765625000e+00 1.4248869244e-21 -6.8635449036e-21
-5.9726562500e+00 6.6561919663e-21 -2.2021596288e-21
-5.9687500000e+00 5.2376951819e-21 4.6622752304e-21
-5.9648437500e+00 -1.4183839211e-21 6.8683568870e-21
-5.9609375000e+00 -6.6587943922e-21 2.2051054807e-21
-5.9570312500e+00 -5.2379778413e-21 -4.6670687048e-21
-5.9531250000e+00 1.4276601863e-21 -6.8699092689e-21
-5.9492187500e+00 6.6664629292e-21 -2.1927333184e-21
-5.9453125000e+00 5.2274975286e-21 4.6839121513e-21
-5.9414062500e+00 -1.4527696602e-21 6.8681289658e-21
-5.9375000000e+00 -6.6791262473e-21 2.1649469198e-21
-5.9335937500e+00 -5.2061074965e-21 -4.7127667521e-21
-5.9296875000e+00 1.4937435315e-21 -6.8628328598e-21
-5.9257812500e+00 6.6966052294e-21 -2.1216167524e-21
-5.9218750000e+00 5.1735783011e-21 4.7535163029e-21
-5.9179687500e+00 -1.5505870088e-21 6.8537271515e-21
-5.9140625000e+00 -6.7186113188e-21 2.0625809057e-21
-5.9101562500e+00 -5.1295981693e-21 -4.8059649027e-21
-5.9062500000e+00 1.6232755314e-21 -6.8404068920e-21
-5.9023437500e+00 6.7447435892e-21 -1.9876502728e-21
-5.8984375000e+00 5.0737776072e-21 4.8698302050e-21
-5.8945312500e+00 -1.7117470687e-21 6.8223565667e-21
-5.8906250000e+00 -6.7744866889e-21 1.8966114453e-21
-5.8867187500e+00 -5.0056468680e-21 -4.9447444884e-21
-5.8828125000e+00 1.8159055109e-21 -6.7989481249e-21
-5.8789062500e+00 6.8072091662e-21 -1.7892282382e-21
-5.8750000000e+00 4.9246621408e-21 5.0302464276e-21
-5.8710937500e+00 -1.9356060397e-21 6.7694433834e-21
-5.8671875000e+00 -6.8421588296e-21 1.6652541297e-21
-5.8632812500e+00 -4.8302118032e-21 -5.1257734243e-21
-5.8593750000e+00 2.0706473539e-21 -6.7329952852e-21
-5.8554687500e+00 6.8784599279e-21 -1.5244402098e-21
-5.8515625000e+00 4.7216231365e-21 5.2306541768e-21
-5.8476562500e+00 -2.2207596689e-21 6.6886508484e-21
-5.8437500000e+00 -6.9151094203e-21 1.3665493869e-21
-5.8398437500e+00 -4.5981729684e-21 -5.3440985272e-21
-5.8359375000e+00 2.3855947270e-21 -6.6353542549e-21
-5.8320312500e+00 6.9509760942e-21 -1.1913608222e-21
-5.8281250000e+00 4.4590895569e-21 5.4651959717e-21
-5.8242187500e+00 -2.5647181821e-21 6.5719495746e-21
-5.8203125000e+00 -6.9847975591e-21 9.9868613322e-22
-5.8164062500e+00 -4.3035694696e-21 -5.5929015405e-21
-5.8125000000e+00 2.7575904426e-21 -6.4971883309e-21
-5.8085937500e+00 7.0151783908e-21 -7.8838658617e-22
-5.8046875000e+00 4.1307900217e-21 5.7260275646e-21
-5.8007812500e+00 -2.9635529528e-21 6.4097367349e-21
-5.7968750000e+00 -7.0405897400e-21 5.6039015083e-22
-5.7929687500e+00 -3.9399261209e-21 -5.8632337274e-21
-5.7890625000e+00 3.1818092176e-21 -6.3081868208e-21
-5.7851562500e+00 7.0593700821e-21 -3.1471404508e-22
-5.7812500000e+00 3.7301670143e-21 6.0030193837e-21
-5.7773437500e+00 -3.4114154530e-21 6.1910650030e-21
-5.7734375000e+00 -7.0697285732e-21 5.1474054182e-23
-5.7695312500e+00 -3.5007308759e-21 -6.1437189291e-21
-5.7656250000e+00 3.6512619121e-21 -6.0568465018e-21
-5.7617187500e+00 7.0697485068e-21 2.2908559916e-22
-5.7578125000e+00 3.2508917946e-21 6.2834914423e-21
-5.7539062500e+00 -3.9000539215e-21 5.9039729461e-21
-5.7500000000e+00 -7.0573942215e-21 -5.2656995151e-22
-5.7460937500e+00 -2.9800033615e-21 -6.4203160419e-21
-5.7421875000e+00 4.1562953741e-21 -5.7308719169e-21
-5.7382812500e+00 7.0305208707e-21 8.4040679525e-22
-5.7343750000e+00 2.6875291142e-21 6.5519870875e-21
-5.7304687500e+00 -4.4182693296e-21 5.5359823921e-21
-5.7265625000e+00 -6.9868874908e-21 -1.1698216352e-21
-5.7226562500e+00 -2.3730654927e-21 -6.6761164898e-21
-5.7187500000e+00 4.6840324543e-21 -5.3177739860e-21
-5.7148437500e+00 6.9241722683e-21 1.5138179675e-21
-5.7109375000e+00 2.0363745620e-21 6.7901346535e-21
-5.7070312500e+00 -4.9513944533e-21 5.0747811564e-21
-5.7031250000e+00 -6.8399933434e-21 -1.8711440561e-21
-5.6992187500e+00 -1.6774205119e-21 -6.8912948724e-21
-5.6953125000e+00 5.2179075964e-21 -4.8056360550e-21
-5.6914062500e+00 6.7319335331e-21 2.2402675969e-21
-5.6875000000e+00 1.2964053198e-21 6.9766832475e-21
-5.6835937500e+00 -5.4808570240e-21 4.5091071786e-21
-5.6796875000e+00 -6.5975713659e-21 -2.6193465288e-21
-5.6757812500e+00 -8.9381098519e-22 -7.0432326772e-21
-5.6718750000e+00 5.7372562912e-21 -4.1841406423e-21
-5.6679687500e+00 6.4345140575e-21 3.0062114311e-21
-5.6640625000e+00 4.7042599351e-22 7.0877451292e-21
-5.6601562500e+00 -5.9838513430e-21 3.8298989179e-21
-5.6562500000e+00 -6.2404373219e-21 -3.3983427347e-21
-5.6523437500e+00 -2.7392992791e-23 -7.1069154609e-21
-5.6484375000e+00 6.2171204644e-21 -3.4458141389e-21
-5.6445312500e+00 6.0131324255e-21 3.7928488487e-21
-5.6406250000e+00 -4.3375314657e-22 7.0973644405e-21
-5.6367187500e+00 -6.4332860731e-21 3.0316384673e-21
-5.6328125000e+00 -5.7505578843e-21 -4.1864520907e-21
-5.6289062500e+00 9.1104554348e-22 -7.0556790328e-21
-5.6250000000e+00 6.6283315346e-21 -2.5875013281e-21
-5.6210937500e+00 5.4509003822e-21 4.5754755515e-21
-5.6171875000e+00 -1.4020491392e-21 6.9784609457e-21
-5.6132812500e+00 -6.7980306555e-21 2.1139592414e-21
-5.6093750000e+00 -5.1126301594e-21 -4.9558511790e-21
-5.6054687500e+00 1.9038362958e-21 -6.8623813004e-21
-5.6015625000e+00 6.9379823263e-21 -1.6120517471e-21
-5.5976562500e+00 4.7345738810e-21 5.3231172989e-21
-5.5937500000e+00 -2.4129514769e-21 6.7042455956e-21
-5.5898437500e+00 -7.0436544020e-21 1.0833609578e-21
-5.5859375000e+00 -4.3159868334e-21 -5.6724341060e-21
-5.5820312500e+00 2.9253909991e-21 -6.5010668026e-21
-5.5781250000e+00 7.1104403591e-21 -5.3006541003e-22
-5.5742187500e+00 3.8566307409e-21 5.9986080462e-21
-5.5703125000e+00 -3.4365863862e-21 6.2501487416e-21
-5.5664062500e+00 -7.1337272545e-21 -4.5003197062e-23
-5.5625000000e+00 -3.3568536880e-21 -6.2961294582e-21
-5.5585937500e+00 3.9414067468e-21 -5.9491736565e-21
-5.5546875000e+00 7.1089768346e-21 6.3832807539e-22
-5.5507812500e+00 2.8176620109e-21 6.5592281366e-21
-5.5468750000e+00 -4.4341675637e-21 5.5962977183e-21
-5.5429687500e+00 -7.0318161095e-21 -1.2456597221e-21
-5.5390625000e+00 -2.2408054734e-21 -6.7819341810e-21
-5.5351562500e+00 4.9086492072e-21 -5.1902559206e-21
-5.5312500000e+00 6.8981421141e-21 1.8619884034e-21
-5.5273437500e+00 1.6288519898e-21 6.9581604805e-21
-5.5234375000e+00 -5.3581361838e-21 4.7304695477e-21
-5.5195312500e+00 -6.7042389485e-21 -2.4815265191e-21
-5.5156250000e+00 -9.8526122963e-22 -7.0818006993e-21
-5.5117187500e+00 5.7754700649e-21 -4.2171616454e-21
-5.5078125000e+00 6.4469065588e-21 3.0977068188e-21
-5.5039062500e+00 3.1444038696e-22 7.1468470538e-21
-5.5000000000e+00 -6.1531358986e-21 3.6514568360e-21
-5.4960937500e+00 -6.1235940409e-21 -3.7032089194e-21
-5.4921875000e+00 3.7820857263e-22 -7.1475226113e-21
-5.4882812500e+00 6.4833530736e-21 -3.0354956996e-21
-5.4843750000e+00 5.7325466212e-21 4.2899894635e-21
-5.4804687500e+00 -1.0862506555e-21 7.0784304882e-21
-5.4765625000e+00 -6.7581972786e-21 2.3725357117e-21
-5.4726562500e+00 -5.2729553219e-21 -4.8493458381e-21
-5.4687500000e+00 1.8022047978e-21 -6.9347203792e-21
-5.4648437500e+00 6.9697452203e-21 -1.6670440024e-21
-5.4609375000e+00 4.7451114287e-21 5.3720030034e-21
-5.4570312500e+00 -2.5175478269e-21 6.7122712727e-21
-5.4531250000e+00 -7.1102444464e-21 9.2477563144e-22
-5.4492187500e+00 -4.1505528742e-21 -5.8482364594e-21
-5.4453125000e+00 3.2227662087e-21 -6.4078802321e-21
-5.4414062500e+00 7.1723084971e-21 -1.5281914071e-22
-5.4375000000e+00 3.4922036158e-21 6.2680226607e-21
-5.4335937500e+00 -3.9074164709e-21 6.0194635614e-21
-5.4296875000e+00 -7.1491292698e-21 -6.4036412525e-22
-5.4257812500e+00 -2.7745068937e-21 -6.6212171960e-21
-5.4218750000e+00 4.5602310615e-21 -5.5462607346e-21
-5.4179687500e+00 7.0347131444e-21 1.4449415118e-21
-5.4140625000e+00 2.0035351203e-21 6.8977707483e-21
-5.4101562500e+00 -5.1692619397e-21 4.9890374148e-21
-5.4062500000e+00 -6.8241343665e-21 -2.2497427284e-21
-5.4023437500e+00 -1.1870805554e-21 -7.0879757812e-21
-5.3984375000e+00 5.7220662306e-21 -4.3502813229e-21
-5.3945312500e+00 6.5137990482e-21 3.0423444968e-21
-5.3906250000e+00 3.3469277408e-22 7.1827492878e-21
-5.3867187500e+00 -6.2059444164e-21 3.6343705086e-21
-5.3828125000e+00 -6.1017122416e-21 -3.8092008820e-21
-5.3789062500e+00 5.4230390159e-22 -7.1739346761e-21
-5.3750000000e+00 6.6082075097e-21 -2.8477314651e-21
-5.3710937500e+00 5.5877466838e-21 4.5358171111e-21
-5.3671875000e+00 -1.4308494290e-21 7.0546303122e-21
-5.3632812500e+00 -6.9164964342e-21 1.9989560501e-21
-5.3593750000e+00 -4.9738989018e-21 -5.2069864097e-21
-5.3554687500e+00 2.3162426877e-21 -6.8195342504e-21
-5.3515625000e+00 7.1191407177e-21 -1.0988781419e-21
-5.3476562500e+00 4.2645286635e-21 5.8070804645e-21
-5.3437500000e+00 -3.1822986136e-21 6.4652977265e-21
-5.3398437500e+00 -7.2055563379e-21 1.6058759674e-22
-5.3359375000e+00 -3.4665498151e-21 -6.3204125442e-21
-5.3320312500e+00 4.0115894890e-21 -5.9908684239e-21
-5.3281250000e+00 7.1666694947e-21 8.0062223288e-22
-5.3242187500e+00 2.5895883422e-21 6.7316412056e-21
-5.3203125000e+00 -4.7857385210e-21 5.3978238244e-21
-5.3164062500e+00 -6.9953590317e-21 -1.7673715075e-21
-5.3125000000e+00 -1.6460764982e-21 -7.0262335353e-21
-5.3085937500e+00 5.4858016645e-21 -4.6906717935e-21
-5.3046875000e+00 6.6869084706e-21 2.7204032629e-21
-5.3007812500e+00 6.5127292711e-22 7.1909749145e-21
-5.2968750000e+00 -6.0927230708e-21 3.8771072874e-21
-5.2929687500e+00 -6.2394532258e-21 -3.6388787231e-21
-5.2890625000e+00 3.7680308019e-22 -7.2145155675e-21
-5.2851562500e+00 6.5878699203e-21 -2.9681992579e-21
-5.2812500000e+00 5.6543947911e-21 4.5007887048e-21
-5.2773437500e+00 -1.4175562169e-21 7.0879388640e-21
-5.2734375000e+00 -6.9536321865e-21 1.9784910972e-21
-5.2695312500e+00 -4.9367747052e-21 -5.2834447934e-21
-5.2656250000e+00 2.4480882499e-21 -6.8053305748e-21
-5.2617187500e+00 7.1740722240e-21 -9.2601089632e-22
-5.2578125000e+00 4.0955814617e-21 5.9640749776e-21
-5.2539062500e+00 -3.4436043256e-21 6.3643348259e-21
-5.2500000000e+00 -7.2356208393e-21 -1.6784398064e-22
-5.2460937500e+00 -3.1439669096e-21 -6.5205127073e-21
-5.2421875000e+00 4.3779419727e-21 -5.7666708538e-21
-5.2382812500e+00 7.1277943961e-21 1.2785507024e-21
-5.2343750000e+00 2.0993511420e-21 6.9319670595e-21
-5.2304687500e+00 -5.2242344663e-21 5.0185790794e-21
-5.2265625000e+00 -6.8439071179e-21 -2.3788732341e-21
-5.2226562500e+00 -9.8337067321e-22 -7.1798639954e-21
-5.2187500000e+00 5.9556974847e-21 -4.1311640442e-21
-5.2148437500e+00 6.3817467995e-21 3.4394130864e-21
-5.2109375000e+00 -1.7831134028e-22 7.2487162371e-21
-5.2070312500e+00 -6.5465162660e-21 3.1206178870e-21
-5.2031250000e+00 -5.7441860625e-21 -4.4293259874e-21
-5.1992187500e+00 1.3563848094e-21 -7.1270130720e-21
-5.1953125000e+00 6.9728345776e-21 -2.0082798059e-21
-5.1914062500e+00 4.9396900169e-21 5.3171993597e-21
-5.1875000000e+00 -2.5184621527e-21 6.8080873606e-21
-5.1835937500e+00 -7.2138092535e-21 8.2051314372e-22
-5.1796875000e+00 -3.9826844727e-21 -6.0720764856e-21
-5.1757812500e+00 3.6298563879e-21 -6.2909185215e-21
-5.1718750000e+00 7.2527031698e-21 4.1165142305e-22
-5.1679687500e+00 2.8937245470e-21 6.6646220831e-21
-5.1640625000e+00 -4.6545643567e-21 5.5808199430e-21
-5.1601562500e+00 -7.0779602212e-21 -1.6530920357e-21
-5.1562500000e+00 -1.6994609864e-21 -7.0683663190e-21
-5.1523437500e+00 5.5564263186e-21 -4.6899738666e-21
-5.1484375000e+00 6.6842251908e-21 2.8654218769e-21
-5.1445312500e+00 4.3234302438e-22 7.2610186274e-21
-5.1406250000e+00 -6.3004659154e-21 3.6377557350e-21
-5.1367187500e+00 -6.0732499060e-21 -4.0080695067e-21
-5.1328125000e+00 8.6995875172e-22 -7.2257890891e-21
-5.1289062500e+00 6.8543632861e-21 -2.4508066695e-21
-5.1250000000e+00 5.2546274813e-21 5.0395987204e-21
-5.1210937500e+00 -2.1654386509e-21 6.9526598656e-21
-5.1171875000e+00 -7.1900273072e-21 1.1627864544e-21
-5.1132812500e+00 -4.2462737170e-21 -5.9192658812e-21
-5.1093750000e+00 3.4089587804e-21 -6.4395307234e-21
-5.1054687500e+00 7.2851845973e-21 1.8620151351e-22
-5.1015625000e+00 3.0746220901e-21 6.6087318940e-21
-5.0976562500e+00 -4.5537359345e-21 5.6931715991e-21
-5.0937500000e+00 -7.1249283829e-21 -1.5505508461e-21
-5.0898437500e+00 -1.7744560642e-21 -7.0739126141e-21
-5.0859375000e+00 5.5531162166e-21 -4.7299026388e-21
-5.0820312500e+00 6.7031422226e-21 2.8804740658e-21
-5.0781250000e+00 3.8833878267e-22 7.2868807086e-21
-5.0742187500e+00 -6.3625769930e-21 3.5759286430e-21
-5.0703125000e+00 -6.0237079452e-21 -4.1236915114e-21
-5.0664062500e+00 1.0344033136e-21 -7.2277354417e-21
-5.0625000000e+00 6.9419070160e-21 -2.2672364017e-21
-5.0585937500e+00 5.1013862908e-21 5.2274849893e-21
-5.0546875000e+00 -2.4391639342e-21 6.8863307810e-21
-5.0507812500e+00 -7.2574511898e-21 8.4901646469e-22
-5.0468750000e+00 -3.9622958446e-21 -6.1410110167e-21
-5.0429687500e+00 3.7679714090e-21 -6.2637526805e-21
-5.0390625000e+00 7.2843294930e-21 6.2543996967e-22
-5.0351562500e+00 2.6438894404e-21 6.8178390088e-21
-5.0312500000e+00 -4.9618325038e-21 5.3734319431e-21
-5.0273437500e+00 -7.0085067254e-21 -2.0963974807e-21
-5.0234375000e+00 -1.1943579333e-21 -7.2185925295e-21
-5.0195312500e+00 5.9634253408e-21 -4.2417768794e-21
-5.0156250000e+00 6.4285759084e-21 3.4998703525e-21
-5.0117187500e+00 -3.2860042327e-22 7.3135691835e-21
-5.0078125000e+00 -6.7200640405e-21 2.9082000387e-21
-5.0039062500e+00 -5.5570986441e-21 -4.7703440761e-21
-5.0000000000e+00 1.8596792121e-21 -7.0851806630e-21
-4.9960937500e+00 7.1867781189e-21 -1.4244648307e-21
-4.9921875000e+00 4.4213759715e-21 5.8438879582e-21
-4.9882812500e+00 -3.3284881913e-21 6.5300455359e-21
-4.9843750000e+00 -7.3293631610e-21 -1.4671284742e-22
-4.9804687500e+00 -3.0635125062e-21 -6.6615887832e-21
-4.9765625000e+00 4.6626851154e-21 -5.6605698356e-21
-4.9726562500e+00 7.1272220470e-21 1.7338463053e-21
-4.9687500000e+00 1.5396682169e-21 7.1731302173e-21
-4.9648437500e+00 -5.7915999705e-21 4.5058437431e-21
-4.9609375000e+00 -6.5757934718e-21 -3.2596173932e-21
-4.9570312500e+00 8.1582961030e-23 -7.3403297908e-21
-4.9531250000e+00 6.6502240639e-21 -3.1116834119e-21
-4.9492187500e+00 5.6883462501e-21 4.6445400134e-21
-4.9453125000e+00 -1.7218284528e-21 7.1404024937e-21
-4.9414062500e+00 -7.1833403757e-21 1.5397054386e-21
-4.9375000000e+00 -4.4969491240e-21 -5.8111596104e-21
-4.9335937500e+00 3.2962614171e-21 -6.5687037278e-21
-4.9296875000e+00 7.3495703580e-21 1.3464415862e-22
-4.9257812500e+00 3.0524313442e-21 6.6886550882e-21
-4.9218750000e+00 -4.7179388561e-21 5.6407138293e-21
-4.9179687500e+00 -7.1250708816e-21 -1.8251424978e-21
-4.9140625000e+00 -1.4231931368e-21 -7.2175832021e-21
-4.9101562500e+00 5.9026742292e-21 -4.3930233213e-21
-4.9062500000e+00 6.5065865783e-21 3.4388667134e-21
-4.9023437500e+00 -3.0722477751e-22 7.3544794256e-21
-4.8984375000e+00 -6.7743501186e-21 2.8830959079e-21
-4.8945312500e+00 -5.5135486313e-21 -4.8812063355e-21
-4.8906250000e+00 2.0438391402e-21 -7.0759785948e-21
-4.8867187500e+00 7.2703222419e-21 -1.1876654452e-21
-4.8828125000e+00 4.1889578639e-21 6.0615324369e-21
-4.8789062500e+00 -3.6850707921e-21 6.3821024034e-21
-4.8750000000e+00 -7.3465685505e-21 -6.0030690434e-22
-4.8710937500e+00 -2.5988169417e-21 -6.8992806924e-21
-4.8671875000e+00 5.1286047780e-21 -5.2983816474e-21
-4.8632812500e+00 6.9821944375e-21 2.3761172478e-21
-4.8593750000e+00 8.2995140556e-22 7.3300556703e-21
-4.8554687500e+00 -6.2779686826e-21 3.8764976100e-21
-4.8515625000e+00 -6.1828802376e-21 -4.0291105048e-21
-4.8476562500e+00 1.0138504471e-21 -7.3113259925e-21
-4.8437500000e+00 7.0494699077e-21 -2.1931761419e-21
-4.8398437500e+00 4.9828568807e-21 5.4495759529e-21
-4.8359375000e+00 -2.8173426596e-21 6.8272278753e-21
-4.8320312500e+00 -7.3790016250e-21 3.4718976339e-22
-4.8281250000e+00 -3.4450832184e-21 -6.5363123549e-21
-4.8242187500e+00 4.4607349893e-21 -5.8919961932e-21
-4.8203125000e+00 7.2281994179e-21 1.5455528302e-21
-4.8164062500e+00 1.6593604831e-21 7.2044412825e-21
-4.8125000000e+00 -5.8277248132e-21 4.5515879022e-21
-4.8085937500e+00 -6.5893981608e-21 -3.3587296526e-21
-4.8046875000e+00 2.6174577596e-22 -7.3928785191e-21
-4.8007812500e+00 6.8141542910e-21 -2.8831271642e-21
-4.7968750000e+00 5.4888400933e-21 4.9638432063e-21
-4.7929687500e+00 -2.1891525850e-21 7.0708363484e-21
-4.7890625000e+00 -7.3367071177e-21 9.9190823551e-22
-4.7851562500e+00 -3.9876219576e-21 -6.2395583854e-21
-4.7812500000e+00 3.9854809956e-21 -6.2426957578e-21
-4.7773437500e+00 7.3409242664e-21 9.9411184257e-22
-4.7734375000e+00 2.1800383464e-21 7.0814550508e-21
-4.7695312500e+00 -5.5147873091e-21 4.9506430131e-21
-4.7656250000e+00 -6.8078028910e-21 -2.9321945252e-21
-4.7617187500e+00 -1.8910132492e-22 -7.4115054110e-21
-4.7578125000e+00 6.6532435931e-21 -3.2745649406e-21
-4.7539062500e+00 5.7582496583e-21 4.6747479226e-21
-4.7500000000e+00 -1.8407492773e-21 7.1864217884e-21
-4.7460937500e+00 -7.2999653114e-21 1.3288561437e-21
-4.7421875000e+00 -4.2547315018e-21 -6.0807051973e-21
-4.7382812500e+00 3.7534865818e-21 -6.4040179198e-21
-4.7343750000e+00 7.3870822310e-21 7.4400398468e-22
-4.7304687500e+00 2.3995880037e-21 7.0275849096e-21
-4.7265625000e+00 -5.3933745279e-21 5.1067560733e-21
-4.7226562500e+00 -6.8880480731e-21 -2.7829376638e-21
-4.7187500000e+00 -3.2977361634e-22 -7.4231884924e-21
-4.7148437500e+00 6.6180283127e-21 -3.3818244927e-21
-4.7109375000e+00 5.8232345885e-21 4.6203419929e-21
-4.7070312500e+00 -1.7919736299e-21 7.2158897767e-21
-4.7031250000e+00 -7.3116775401e-21 1.3572943390e-21
-4.6992187500e+00 -4.2619611614e-21 -6.0960014075e-21
-4.6953125000e+00 3.7891701345e-21 -6.4023771892e-21
-4.6914062500e+00 7.3974112192e-21 8.0577747192e-22
-4.6875000000e+00 2.3203275942e-21 7.0717610480e-21
-4.6835937500e+00 -5.4861099193e-21 5.0318093312e-21
-4.6796875000e+00 -6.8471311597e-21 -2.9250834527e-21
-4.6757812500e+00 -1.5449291676e-22 -7.4456893475e-21
-4.6718750000e+00 6.7238142039e-21 -3.2055184594e-21
-4.6679687500e+00 5.6879569763e-21 4.8119713408e-21
-4.6640625000e+00 -2.0504552079e-21 7.1642502428e-21
-4.6601562500e+00 -7.3759809444e-21 1.0717776201e-21
-4.6562500000e+00 -4.0040392899e-21 -6.2884381486e-21
-4.6523437500e+00 4.0955230176e-21 -6.2310904221e-21
-4.6484375000e+00 7.3634130638e-21 1.1844767733e-21
-4.6445312500e+00 1.9330361102e-21 7.2048093701e-21
-4.6406250000e+00 -5.7856898019e-21 4.7111356013e-21
-4.6367187500e+00 -6.6652675365e-21 -3.3565371047e-21
-4.6328125000e+00 3.4303198806e-22 -7.4563810510e-21
-4.6289062500e+00 6.9491702895e-21 -2.7290121748e-21
-4.6250000000e+00 5.3255863948e-21 5.2344837189e-21
-4.6210937500e+00 -2.6123278228e-21 6.9971907219e-21
-4.6171875000e+00 -7.4562365183e-21 4.6124333144e-22
-4.6132812500e+00 -3.4538470466e-21 -6.6258925603e-21
-4.6093750000e+00 4.6521926329e-21 -5.8490980554e-21
-4.6054687500e+00 7.2355140346e-21 1.8776430141e-21
-4.6015625000e+00 1.2187862319e-21 7.3767308923e-21
-4.5976562500e+00 -6.2511312923e-21 4.1046775388e-21
-4.5937500000e+00 -6.2857468811e-21 -4.0543627889e-21
-4.5898437500e+00 1.1646461570e-21 -7.3902335531e-21
-4.5859375000e+00 7.2317392353e-21 -1.9228653863e-21
-4.5820312500e+00 4.6811902726e-21 5.8399882056e-21
-4.5781250000e+00 -3.4545629641e-21 6.6414283315e-21
-4.5742187500e+00 -7.4721403554e-21 -4.8300628791e-22
-4.5703125000e+00 -2.5692730506e-21 -7.0348165360e-21
-4.5664062500e+00 5.4062546494e-21 -5.1851595639e-21
-4.5625000000e+00 6.9233365637e-21 2.8643623128e-21
-4.5585937500e+00 1.5988698925e-22 7.4923506794e-21
-4.5546875000e+00 -6.7988742071e-21 3.1559379558e-21
-4.5507812500e+00 -5.6199813285e-21 -4.9622804740e-21
-4.5468750000e+00 2.2933923614e-21 -7.1395085549e-21
-4.5429687500e+00 7.4619328834e-21 -7.5870445712e-22
-4.5390625000e+00 3.6825884668e-21 6.5359384583e-21
-4.5351562500e+00 -4.5189003678e-21 5.9902749577e-21
-4.5312500000e+00 -7.2984393432e-21 -1.7494495655e-21
-4.5273437500e+00 -1.3099213221e-21 -7.3916076477e-21
-4.5234375000e+00 6.2569895801e-21 -4.1504019866e-21
-4.5195312500e+00 6.3015103594e-21 4.0854315800e-21
-4.5156250000e+00 -1.2386480134e-21 7.4087512374e-21
-4.5117187500e+00 -7.2915203140e-21 1.8115369776e-21
-4.5078125000e+00 -4.5616512029e-21 -5.9718837152e-21
-4.5039062500e+00 3.6697659622e-21 -6.5596515102e-21
-4.5000000000e+00 7.4789150686e-21 7.6565280581e-22
-4.4960937500e+00 2.2627648784e-21 7.1710882009e-21
-4.4921875000e+00 -5.6893352323e-21 4.9193823811e-21
-4.4882812500e+00 -6.7708788162e-21 -3.2784657230e-21
-4.4843750000e+00 3.3386511655e-22 -7.5170461062e-21
-4.4804687500e+00 7.0388950220e-21 -2.6637843852e-21
-4.4765625000e+00 5.2271482463e-21 5.4169258451e-21
-4.4726562500e+00 -2.9168850439e-21 6.9413508656e-21
-4.4687500000e+00 -7.5307404377e-21 5.4372058142e-23
-4.4648437500e+00 -3.0154969827e-21 -6.9026267031e-21
-4.4609375000e+00 5.1611463606e-21 -5.4887655533e-21
-4.4570312500e+00 7.0770026445e-21 2.5893138666e-21
-4.4531250000e+00 3.9755011197e-22 7.5269537306e-21
-4.4492187500e+00 -6.7690611785e-21 3.3192600618e-21
-4.4453125000e+00 -5.7080686243e-21 -4.9275003309e-21
-4.4414062500e+00 2.2991588345e-21 -7.1833723473e-21
-4.4375000000e+00 7.5119199326e-21 -6.9478319048e-22
-4.4335937500e+00 3.5766901669e-21 6.6440710291e-21
-4.4296875000e+00 -4.7205730748e-21 5.8887471034e-21
-4.4257812500e+00 -7.2654842482e-21 -2.0490690818e-21
-4.4218750000e+00 -9.4564598202e-22 -7.4910963621e-21
-4.4179687500e+00 6.5326402899e-21 -3.7894907583e-21
-4.4140625000e+00 6.0341973405e-21 4.5441152065e-21
-4.4101562500e+00 -1.8410628592e-21 7.3277508297e-21
-4.4062500000e+00 -7.4691261620e-21 1.1500244229e-21
-4.4023437500e+00 -3.9592972861e-21 -6.4388940821e-21
-4.3984375000e+00 4.4011406782e-21 -6.1473877450e-21
-4.3945312500e+00 7.3738860313e-21 1.6766862371e-21
-4.3906250000e+00 1.3079308875e-21 7.4498240665e-21
-4.3867187500e+00 -6.3661516823e-21 4.0875173213e-21
-4.3828125000e+00 -6.2307490627e-21 -4.2940200196e-21
-4.3789062500e+00 1.5571116734e-21 -7.4068505650e-21
-4.3750000000e+00 7.4361625690e-21 -1.4194161301e-21
-4.3710937500e+00 4.1752485161e-21 6.3169465136e-21
-4.3671875000e+00 -4.2245307564e-21 6.2861072675e-21
-4.3632812500e+00 -7.4288094963e-21 -1.4832124663e-21
-4.3593750000e+00 -1.4844858485e-21 -7.4302618038e-21
-4.3554687500e+00 6.2930438145e-21 -4.2232074518e-21
-4.3515625000e+00 6.3146297292e-21 4.1938955623e-21
-4.3476562500e+00 -1.4556232501e-21 7.4410974095e-21
-4.3437500000e+00 -7.4333834031e-21 1.5030223517e-21
-4.3398437500e+00 -4.2316426868e-21 -6.2954741492e-21
-4.3359375000e+00 4.2028529693e-21 -6.3167543451e-21
-4.3320312500e+00 7.4441840512e-21 1.4748154913e-21
-4.3281250000e+00 1.4747268454e-21 7.4459230826e-21
-4.3242187500e+00 -6.3245304134e-21 4.2003062229e-21
-4.3203125000e+00 -6.2921774798e-21 -4.2516422764e-21
-4.3164062500e+00 1.5410823648e-21 -7.4376583377e-21
-4.3125000000e+00 7.4673896466e-21 -1.3991283025e-21
-4.3085937500e+00 4.1284526677e-21 6.3797455534e-21
-4.3046875000e+00 -4.3399822927e-21 6.2398453542e-21
-4.3007812500e+00 -7.4202147717e-21 -1.6545107235e-21
-4.2968750000e+00 -1.2756136547e-21 -7.4963800985e-21
-4.2929687500e+00 6.4598601983e-21 -4.0148546677e-21
-4.2890625000e+00 6.1579511909e-21 4.4670427827e-21
-4.2851562500e+00 -1.8149704461e-21 7.3896369372e-21
-4.2812500000e+00 -7.5305620274e-21 1.1034221732e-21
-4.2773437500e+00 -3.8578062341e-21 -6.5627985421e-21
-4.2734375000e+00 4.6313988269e-21 -6.0439443150e-21
-4.2695312500e+00 7.3427959941e-21 2.0220348681e-21
-4.2656250000e+00 8.8175012140e-22 7.5666366753e-21
-4.2617187500e+00 -6.6855912219e-21 3.6552121108e-21
-4.2578125000e+00 -5.8945856721e-21 -4.8309246498e-21
-4.2539062500e+00 2.2748621055e-21 -7.2756634939e-21
-4.2500000000e+00 7.6003078495e-21 -6.0986657156e-22
-4.2460937500e+00 3.4046953658e-21 6.8242979176e-21
-4.2421875000e+00 -5.0626731755e-21 5.7060270907e-21
-4.2382812500e+00 -7.1833402301e-21 -2.5720568780e-21
-4.2343750000e+00 -2.8724459124e-22 -7.6262591776e-21
-4.2304687500e+00 6.9739455611e-21 -3.1036983421e-21
-4.2265625000e+00 5.4738756286e-21 5.3227909878e-21
-4.2226562500e+00 -2.9115500397e-21 7.0600913293e-21
-4.2187500000e+00 -7.6381411128e-21 -8.6285915387e-23
-4.2148437500e+00 -2.7496528401e-21 -7.1284446242e-21
-4.2109375000e+00 5.6063514444e-21 -5.1933459859e-21
-4.2070312500e+00 6.8994319450e-21 3.2903799899e-21
-4.2031250000e+00 -5.1030045148e-22 7.6285735766e-21
-4.1992187500e+00 -7.2805082125e-21 2.3402047847e-21
-4.1953125000e+00 -4.8594439405e-21 -5.9072004411e-21
-4.1914062500e+00 3.7044709733e-21 -6.6942511790e-21
-4.1875000000e+00 7.5891852719e-21 9.8351410644e-22
-4.1835937500e+00 1.8734755434e-21 7.4215961281e-21
-4.1796875000e+00 -6.2178168136e-21 4.4671868144e-21
-4.1757812500e+00 -6.4369644100e-21 -4.1484376754e-21
-4.1718750000e+00 1.5035584407e-21 -7.5106882380e-21
-4.1679687500e+00 7.5419019134e-21 -1.3483171252e-21
-4.1640625000e+00 4.0118622963e-21 6.5291929222e-21
-4.1601562500e+00 -4.6153492781e-21 6.1197339971e-21
-4.1562500000e+00 -7.3830086870e-21 -2.0666417021e-21
-4.1523437500e+00 -7.6468823367e-22 -7.6303569656e-21
-4.1484375000e+00 6.8307077446e-21 -3.4893890450e-21
-4.1445312500e+00 5.7347700339e-21 5.0964854512e-21
-4.1406250000e+00 -2.6672152359e-21 7.1954916309e-21
-4.1367187500e+00 -7.6747098544e-21 1.2405576313e-22
-4.1328125000e+00 -2.8967400914e-21 -7.1100577354e-21
-4.1289062500e+00 5.5811271158e-21 -5.2747081497e-21
-4.1250000000e+00 6.9371867802e-21 3.2976516222e-21
-4.1210937500e+00 -5.7021534213e-22 7.6616904666e-21
-4.1171875000e+00 -7.3532885428e-21 2.2323558725e-21
-4.1132812500e+00 -4.7330289138e-21 -6.0564313269e-21
-4.1093750000e+00 3.9479540379e-21 -6.5972175419e-21
-4.1054687500e+00 7.5772628477e-21 1.3124194286e-21
-4.1015625000e+00 1.4966947062e-21 7.5448683279e-21
-4.0976562500e+00 -6.5073080667e-21 4.1046181949e-21
-4.0937500000e+00 -6.1652796037e-21 -4.6054458568e-21
-4.0898437500e+00 2.0940423189e-21 -7.4070024931e-21
-4.0859375000e+00 7.6678972879e-21 -6.9280965259e-22
-4.0820312500e+00 3.3864060919e-21 6.9164197825e-21
-4.0781250000e+00 -5.2545402474e-21 5.6322669006e-21
-4.0742187500e+00 -7.1366207883e-21 -2.9033295238e-21
-4.0703125000e+00 1.7306496599e-22 -7.7044676838e-21
-4.0664062500e+00 7.2643383077e-21 -2.5780415472e-21
-4.0625000000e+00 4.9909639965e-21 5.8766796381e-21
-4.0585937500e+00 -3.7249742184e-21 6.7526193946e-21
-4.0546875000e+00 -7.6361878729e-21 -1.0909598694e-21
-4.0507812500e+00 -1.6826405735e-21 -7.5298457575e-21
-4.0468750000e+00 6.4503370386e-21 -4.2369030079e-21
-4.0429687500e+00 6.2431255697e-21 4.5398191178e-21
-4.0390625000e+00 -2.0465966277e-21 7.4448933670e-21
-4.0351562500e+00 -7.6904342929e-21 7.0758529712e-22
-4.0312500000e+00 -3.3693091399e-21 -6.9512383960e-21
-4.0273437500e+00 5.3247422064e-21 -5.5988948732e-21
-4.0234375000e+00 7.1135872761e-21 3.0209211967e-21
-4.0195312500e+00 -3.3470625483e-22 7.7230620534e-21
-4.0156250000e+00 -7.3528400238e-21 2.3920969654e-21
-4.0117187500e+00 -4.8144309339e-21 -6.0527968203e-21
-4.0078125000e+00 3.9898819347e-21 -6.6275703525e-21
-4.0039062500e+00 7.6051754233e-21 1.4261652747e-21
-4.0000000000e+00 1.3148419773e-21 7.6271008370e-21
-3.9960937500e+00 -6.6936038220e-21 3.8892187636e-21
-3.9921875000e+00 -5.9757905098e-21 -4.9243479605e-21
-3.9882812500e+00 2.5425223251e-21 -7.3159973988e-21
-3.9843750000e+00 7.7455536970e-21 -1.5375542145e-22
-3.9804687500e+00 2.8290402981e-21 7.2140710679e-21
-3.9765625000e+00 -5.7903740146e-21 5.1523731756e-21
-3.9726562500e+00 -6.8381159247e-21 -3.6530376519e-21
-3.9687500000e+00 1.0674990334e-21 -7.6807639626e-21
-3.9648437500e+00 7.5795403561e-21 -1.6472631601e-21
-3.9609375000e+00 4.1582585691e-21 6.5498897201e-21
-3.9570312500e+00 -4.7206368279e-21 6.1593069833e-21
-3.9531250000e+00 -7.4081532135e-21 -2.3173451858e-21
-3.9492187500e+00 -3.6591668140e-22 -7.7554058096e-21
-3.9453125000e+00 7.1618938303e-21 -3.0028196881e-21
-3.9414062500e+00 5.2745333190e-21 5.7024929813e-21
-3.9375000000e+00 -3.5561387459e-21 6.9081493524e-21
-3.9335937500e+00 -7.7091577426e-21 -9.8341409488e-22
-3.9296875000e+00 -1.7054282433e-21 -7.5841506402e-21
-3.9257812500e+00 6.5511614784e-21 -4.1880501115e-21
-3.9218750000e+00 6.1686334047e-21 4.7365747648e-21
-3.9179687500e+00 -2.3591532697e-21 7.4129155394e-21
-3.9140625000e+00 -7.7755159471e-21 2.9674804835e-22
-3.9101562500e+00 -2.9154507882e-21 -7.2164177753e-21
-3.9062500000e+00 5.8048041314e-21 -5.1875488942e-21
-3.9023437500e+00 6.8463477692e-21 3.7099672731e-21
-3.8984375000e+00 -1.1805376775e-21 7.6988720566e-21
-3.8945312500e+00 -7.6478750508e-21 1.4853677913e-21
-3.8906250000e+00 -3.9754573919e-21 -6.7023953877e-21
-3.8867187500e+00 4.9757855001e-21 -5.9998353595e-21
-3.8828125000e+00 7.3245536891e-21 2.6716145809e-21
-3.8789062500e+00 -5.9252161212e-23 7.7982877152e-21
-3.8750000000e+00 -7.3691393049e-21 2.5578945217e-21
-3.8710937500e+00 -4.8777182579e-21 -6.0897606686e-21
-3.8671875000e+00 4.1103776864e-21 -6.6341874620e-21
-3.8632812500e+00 7.6275920561e-21 1.6606808361e-21
-3.8593750000e+00 9.7718906623e-22 7.7468407935e-21
-3.8554687500e+00 -6.9813707549e-21 3.5013381036e-21
-3.8515625000e+00 -5.6246929393e-21 -5.4214617049e-21
-3.8476562500e+00 3.2470824623e-21 -7.1074911884e-21
-3.8437500000e+00 7.7840322779e-21 7.0669741630e-22
-3.8398437500e+00 1.9114261205e-21 7.5807440718e-21
-3.8359375000e+00 -6.5236508662e-21 4.3120653131e-21
-3.8320312500e+00 -6.2262884691e-21 -4.7345542495e-21
-3.8281250000e+00 2.4165174922e-21 -7.4413645445e-21
-3.8242187500e+00 7.8240365156e-21 -1.6956913982e-22
-3.8203125000e+00 2.7345960179e-21 7.3346554659e-21
-3.8164062500e+00 -6.0307403256e-21 4.9936248986e-21
-3.8125000000e+00 -6.6974467154e-21 -4.0597174362e-21
-3.8085937500e+00 1.6418001115e-21 -7.6598053303e-21
-3.8046875000e+00 7.7773555145e-21 -9.5495614340e-22
-3.8007812500e+00 3.4445632385e-21 7.0402632466e-21
-3.7968750000e+00 -5.5324223799e-21 5.5546192840e-21
-3.7929687500e+00 -7.0559632203e-21 -3.4214169690e-21
-3.7890625000e+00 9.3947629333e-22 -7.7872563648e-21
-3.7851562500e+00 7.6718908173e-21 -1.6423712293e-21
-3.7812500000e+00 4.0440392267e-21 6.7255038185e-21
-3.7773437500e+00 -5.0534249323e-21 6.0067431034e-21
-3.7734375000e+00 -7.3206943685e-21 -2.8384784909e-21
-3.7695312500e+00 3.2061347272e-22 -7.8471805002e-21
-3.7656250000e+00 7.5327665588e-21 -2.2293542163e-21
-3.7617187500e+00 4.5389727635e-21 6.4141971370e-21
-3.7578125000e+00 -4.6136253429e-21 6.3632000873e-21
-3.7539062500e+00 -7.5101772202e-21 -2.3248219271e-21
-3.7500000000e+00 -2.0803565658e-22 -7.8610453568e-21
-3.7460937500e+00 7.3818016418e-21 -2.7166378117e-21
-3.7421875000e+00 4.9370328240e-21 6.1260653378e-21
-3.7382812500e+00 -4.2286030548e-21 6.6373028198e-21
-3.7343750000e+00 -7.6415367692e-21 -1.8904340983e-21
-3.7304687500e+00 -6.4279713751e-22 -7.8476518700e-21
-3.7265625000e+00 7.2373003754e-21 -3.1068254164e-21
-3.7226562500e+00 5.2463671366e-21 5.8769563419e-21
-3.7187500000e+00 -3.9102113810e-21 6.8414460748e-21
-3.7148437500e+00 -7.7297444783e-21 -1.5422035252e-21
-3.7109375000e+00 -9.8208778228e-22 -7.8227296786e-21
-3.7070312500e+00 7.1140047062e-21 -3.4033569434e-21
-3.7031250000e+00 5.4746253243e-21 5.6791491730e-21
-3.6992187500e+00 -3.6672012266e-21 6.9862937470e-21
-3.6953125000e+00 -7.7870703170e-21 -1.2847799847e-21
-3.6914062500e+00 -1.2254235873e-21 -7.7987159627e-21
-3.6875000000e+00 7.0232148553e-21 -3.6095218660e-21
-3.6835937500e+00 5.6281094986e-21 5.5417678990e-21
-3.6796875000e+00 -3.5058412025e-21 7.0801518442e-21
-3.6757812500e+00 -7.8227163342e-21 -1.1212931609e-21
-3.6718750000e+00 -1.3727079264e-21 -7.7846406895e-21
-3.6679687500e+00 6.9728860759e-21 -3.7278194890e-21
-3.6640625000e+00 5.7112424978e-21 5.4710474714e-21
-3.6601562500e+00 -3.4303050950e-21 7.1285751460e-21
-3.6562500000e+00 -7.8425756636e-21 -1.0538318342e-21
-3.6523437500e+00 -1.4237019057e-21 -7.7860553607e-21
-3.6484375000e+00 6.9677339367e-21 -3.7594351242e-21
-3.6445312500e+00 5.7261097481e-21 5.4706007237e-21
-3.6406250000e+00 -3.4430656594e-21 7.1340236602e-21
-3.6367187500e+00 -7.8490408857e-21 -1.0838794963e-21
-3.6328125000e+00 -1.3776124495e-21 -7.8049803213e-21
-3.6289062500e+00 7.0092791912e-21 -3.7039018483e-21
-3.6250000000e+00 5.6722151359e-21 5.5415036421e-21
-3.6210937500e+00 -3.5449676082e-21 7.0956993408e-21
-3.6171875000e+00 -7.8408804488e-21 -1.2123735252e-21
-3.6132812500e+00 -1.2330509915e-21 -7.8397963277e-21
-3.6093750000e+00 7.0957438989e-21 -3.5590531663e-21
-3.6054687500e+00 5.5464105648e-21 5.6822042297e-21
-3.6015625000e+00 -3.7351635468e-21 7.0094505535e-21
-3.5976562500e+00 -7.8131292953e-21 -1.4396658805e-21
-3.5937500000e+00 -9.8804230924e-22 -7.8851276436e-21
-3.5898437500e+00 7.2219191469e-21 -3.3210303751e-21
-3.5859375000e+00 5.3429067502e-21 5.8883490818e-21
-3.5820312500e+00 -4.0108746628e-21 6.8677649732e-21
-3.5781250000e+00 -7.7570238174e-21 -1.7652059515e-21
-3.5742187500e+00 -6.4041059588e-22 -7.9316681537e-21
-3.5703125000e+00 7.3788483945e-21 -2.9846695708e-21
-3.5664062500e+00 5.0535939310e-21 6.1523224089e-21
-3.5625000000e+00 -4.3668150683e-21 6.6599618202e-21
-3.5585937500e+00 -7.6600200344e-21 -2.1869150050e-21
-3.5546875000e+00 -1.8838708380e-22 -7.9660159267e-21
-3.5507812500e+00 7.5534890613e-21 -2.5440428964e-21
-3.5468750000e+00 4.6684691188e-21 6.4627591528e-21
-3.5429687500e+00 -4.7945806986e-21 6.3724737027e-21
-3.5390625000e+00 -7.5059025682e-21 -2.7004581476e-21
-3.5351562500e+00 3.6858170773e-22 -7.9705630085e-21
-3.5312500000e+00 7.7283409860e-21 -1.9932911471e-21
-3.5273437500e+00 4.1764133276e-21 6.8038834517e-21
-3.5234375000e+00 -5.2817093784e-21 5.9894621041e-21
-3.5195312500e+00 -7.2751333260e-21 -3.2980987080e-21
-3.5156250000e+00 1.0285708983e-21 -7.9235111921e-21
-3.5117187500e+00 7.8811019087e-21 -1.3278728244e-21
-3.5078125000e+00 3.5663118193e-21 7.1548247819e-21
-3.5039062500e+00 -5.8107078930e-21 5.4937158650e-21
-3.5000000000e+00 -6.9454581346e-21 -3.9674995542e-21
-3.4960937500e+00 1.7858407379e-21 -7.7991329160e-21
-3.4921875000e+00 7.9845423388e-21 -5.4598895546e-22
-3.4882812500e+00 2.8284681611e-21 7.4890697813e-21
-3.4843750000e+00 -6.3580668143e-21 4.8679381646e-21
-3.4804687500e+00 -6.4929362761e-21 -4.6903209659e-21
-3.4765625000e+00 2.6290785338e-21 -7.5684103060e-21
-3.4726562500e+00 8.0066462235e-21 3.4945780660e-22
-3.4687500000e+00 1.9566132761e-21 7.7740494554e-21
-3.4648437500e+00 -6.8932967916e-21 4.0966298144e-21
-3.4609375000e+00 -5.8935359847e-21 -5.4407670794e-21
-3.4570312500e+00 3.5395553142e-21 -7.2002165081e-21
-3.4531250000e+00 7.9112832933e-21 1.3487340853e-21
-3.4492187500e+00 9.5017878552e-22 7.9712373847e-21
-3.4453125000e+00 -7.3784059823e-21 3.1683796303e-21
-3.4414062500e+00 -5.1252920617e-21 -6.1844147579e-21
-3.4375000000e+00 4.4893250204e-21 -6.6631619420e-21
-3.4335937500e+00 7.6595629786e-21 2.4329168076e-21
-3.4296875000e+00 -1.8291183736e-22 8.0368412405e-21
-3.4257812500e+00 -7.7678103686e-21 2.0788800855e-21
-3.4218750000e+00 -4.1713116117e-21 -6.8772951251e-21
-3.4179687500e+00 5.4394932138e-21 -5.9283566883e-21
-3.4140625000e+00 7.2121283369e-21 3.5714475085e-21
-3.4101562500e+00 -1.4232256813e-21 7.9234497957e-21
-3.4062500000e+00 -8.0091914871e-21 8.3434884756e-22
-3.4023437500e+00 -3.0233974167e-21 -7.4658606681e-21
-3.3984375000e+00 6.3392379075e-21 -4.9730126151e-21
-3.3945312500e+00 6.5325063567e-21 4.7201694829e-21
-3.3906250000e+00 -2.7369224189e-21 7.5828626454e-21
-3.3867187500e+00 -8.0455428721e-21 -5.4476110474e-22
-3.3828125000e+00 -1.6863669976e-21 -7.8880117545e-21
-3.3789062500e+00 7.1256418466e-21 -3.7850883296e-21
-3.3750000000e+00 5.5917358930e-21 5.8199073496e-21
-3.3710937500e+00 -4.0730911769e-21 6.9703651943e-21
-3.3671875000e+00 -7.8187619285e-21 -2.0199801867e-21
-3.3632812500e+00 -1.8275844197e-22 -8.0757239619e-21
-3.3593750000e+00 7.7251248601e-21 -2.3686682100e-21
-3.3554687500e+00 4.3741207935e-21 6.7965212154e-21
-3.3515625000e+00 -5.3623315938e-21 6.0505031766e-21
-3.3476562500e+00 -7.2750738206e-21 -3.5318707056e-21
-3.3437500000e+00 1.4427495803e-21 -7.9597091705e-21
-3.3398437500e+00 8.0569378110e-21 -7.4966795220e-22
-3.3359375000e+00 2.8839222496e-21 7.5628737857e-21
-3.3320312500e+00 -6.5169090674e-21 4.8043572309e-21
-3.3281250000e+00 -6.3723951204e-21 -4.9982480753e-21
-3.3242187500e+00 3.1196087282e-21 -7.4763602518e-21
-3.3203125000e+00 8.0391815762e-21 1.0186095919e-21
-3.3164062500e+00 1.1524842132e-21 8.0234617079e-21
-3.3125000000e+00 -7.4336057365e-21 3.2378823887e-21
-3.3085937500e+00 -5.0894420458e-21 -6.3149222229e-21
-3.3046875000e+00 4.7498276862e-21 -6.5770931289e-21
-3.3007812500e+00 7.5977924950e-21 2.8514887652e-21
-3.2968750000e+00 -7.5540919791e-22 8.0824059453e-21
-3.2929687500e+00 -8.0000796397e-21 1.3904002522e-21
-3.2890625000e+00 -3.4359492289e-21 -7.3598482692e-21
-3.2851562500e+00 6.2094393038e-21 -5.2397206366e-21
-3.2812500000e+00 6.6783693447e-21 4.6314096897e-21
-3.2773437500e+00 -2.7369468443e-21 7.6549675266e-21
-3.2734375000e+00 -8.1052814268e-21 -6.5781543951e-22
-3.2695312500e+00 -1.4629547406e-21 -8.0016900308e-21
-3.2656250000e+00 7.3545319840e-21 -3.4809740957e-21
-3.2617187500e+00 5.2603035444e-21 6.2108485171e-21
-3.2578125000e+00 -4.6506680359e-21 6.6825070835e-21
-3.2539062500e+00 -7.6543532576e-21 -2.7811404204e-21
-3.2500000000e+00 7.2896548295e-22 -8.1136796464e-21
-3.2460937500e+00 8.0330711851e-21 -1.3683378220e-21
-3.2421875000e+00 3.3717173406e-21 7.4211567217e-21
-3.2382812500e+00 -6.3215000180e-21 5.1497783832e-21
-3.2343750000e+00 -6.5873101158e-21 -4.8092132014e-21
-3.2304687500e+00 2.9855641449e-21 -7.5925799821e-21
-3.2265625000e+00 8.1029502720e-21 9.7098434462e-22
-3.2226562500e+00 1.1030307995e-21 8.0884954368e-21
-3.2187500000e+00 -7.5534325960e-21 3.1025772022e-21
-3.2148437500e+00 -4.8999807305e-21 -6.5353258889e-21
-3.2109375000e+00 5.1021699480e-21 -6.3818646560e-21
-3.2070312500e+00 7.4561439318e-21 3.3475908151e-21
-3.2031250000e+00 -1.3845159764e-21 8.0575273603e-21
-3.1992187500e+00 -8.1512157410e-21 6.6224768359e-22
-3.1953125000e+00 -2.6640352775e-21 -7.7346065203e-21
-3.1914062500e+00 6.8369469714e-21 -4.4964189904e-21
-3.1875000000e+00 6.0468688801e-21 5.5170176730e-21
-3.1835937500e+00 -3.8590243181e-21 7.2215367077e-21
-3.1796875000e+00 -7.9507340702e-21 -1.9670071574e-21
-3.1757812500e+00 -4.1852806427e-23 -8.1928164113e-21
-3.1718750000e+00 7.9362719857e-21 -2.0445922067e-21
-3.1679687500e+00 3.9200222966e-21 7.1999339295e-21
-3.1640625000e+00 -6.0313504763e-21 5.5560204546e-21
-3.1601562500e+00 -6.8561222610e-21 -4.5034590586e-21
-3.1562500000e+00 2.7098080420e-21 -7.7450355891e-21
-3.1523437500e+00 8.1727744729e-21 7.5864969749e-22
-3.1484375000e+00 1.2337143631e-21 8.1172023011e-21
-3.1445312500e+00 -7.5848720159e-21 3.1499285178e-21
-3.1406250000e+00 -4.8784622225e-21 -6.6101683125e-21
-3.1367187500e+00 5.2528361579e-21 -6.3200390588e-21
-3.1328125000e+00 7.3931907015e-21 3.5940857741e-21
-3.1289062500e+00 -1.7315391375e-21 8.0386635034e-21
-3.1250000000e+00 -8.2224485054e-21 2.2665930738e-22
-3.1210937500e+00 -2.1682064209e-21 -7.9372972694e-21
-3.1171875000e+00 7.2026773657e-21 -3.9831014552e-21
-3.1132812500e+00 5.5698336813e-21 6.0632121111e-21
-3.1093750000e+00 -4.5857340484e-21 6.8409531663e-21
-3.1054687500e+00 -7.7277275516e-21 -2.8551552492e-21
-3.1015625000e+00 9.6941703250e-22 -8.1836472314e-21
-3.0976562500e+00 8.1866133576e-21 -9.6615700910e-22
-3.0937500000e+00 2.8448093955e-21 7.7397340453e-21
-3.0898437500e+00 -6.8707084683e-21 4.5642299089e-21
-3.0859375000e+00 -6.0320616076e-21 -5.6298799666e-21
-3.0820312500e+00 4.0871002344e-21 -7.1707387344e-21
-3.0781250000e+00 7.9214120181e-21 2.3276085059e-21
-3.0742187500e+00 -4.4717648662e-22 8.2467746002e-21
-3.0703125000e+00 -8.1326675170e-21 1.4531988287e-21
-3.0664062500e+00 -3.2727573952e-21 -7.5884134043e-21
-3.0625000000e+00 6.6458957885e-21 -4.9162995302e-21
-3.0585937500e+00 6.2990876569e-21 5.3574696922e-21
-3.0546875000e+00 -3.7928548384e-21 7.3510799324e-21
-3.0507812500e+00 -8.0203093186e-21 -2.0351860263e-21
-3.0468750000e+00 1.7646631881e-22 -8.2752344929e-21
-3.0429687500e+00 8.1059823663e-21 -1.6873297797e-21
-3.0390625000e+00 3.4612393714e-21 7.5244483461e-21
-3.0351562500e+00 -6.5632827934e-21 5.0561222782e-21
-3.0312500000e+00 -6.3930598507e-21 -5.2738482897e-21
-3.0273437500e+00 3.7232819013e-21 -7.4071305248e-21
-3.0234375000e+00 8.0503902072e-21 1.9908373548e-21
-3.0195312500e+00 -1.6370912685e-22 8.2939318170e-21
-3.0156250000e+00 -8.1289463223e-21 1.6674267837e-21
-3.0117187500e+00 -3.4129347585e-21 -7.5667705586e-21
-3.0078125000e+00 6.6379430166e-21 -4.9885868081e-21
-3.0039062500e+00 6.3195487486e-21 5.3903451403e-21
-3.0000000000e+00 -3.8865482919e-21 7.3438121479e-21
-2.9960937500e+00 -8.0149207152e-21 -2.2005190663e-21
-2.9921875000e+00 4.1386171134e-22 -8.3038814488e-21
-2.9882812500e+00 8.2001942161e-21 -1.3882077621e-21
-2.9843750000e+00 3.1209554466e-21 7.7119781925e-21
-2.9804687500e+00 -6.8652174891e-21 4.7040951785e-21
-2.9765625000e+00 -6.0654461976e-21 -5.7021859718e-21
-2.9726562500e+00 4.2791626268e-21 -7.1441064863e-21
-2.9687500000e+00 7.8930341193e-21 2.6635538015e-21
-2.9648437500e+00 -9.3057614373e-22 8.2809201986e-21
-2.9609375000e+00 -8.2932897674e-21 8.4032726050e-22
-2.9570312500e+00 -2.5691686646e-21 -7.9328091154e-21
-2.9531250000e+00 7.2188101193e-21 -4.1790239421e-21
-2.9492187500e+00 5.5994066020e-21 6.1860786248e-21
-2.9453125000e+00 -4.8829854120e-21 6.7692635533e-21
-2.9414062500e+00 -7.6394712198e-21 -3.3690648626e-21
-2.9375000000e+00 1.7121670975e-21 -8.1747376788e-21
-2.9335937500e+00 8.3548465798e-21 -1.4682767977e-23
-2.9296875000e+00 1.7365432237e-21 8.1752070650e-21
-2.9257812500e+00 -7.6467201767e-21 3.3798329912e-21
-2.9218750000e+00 -4.8754475633e-21 -6.7949769011e-21
-2.9179687500e+00 5.6588515766e-21 -6.1615980581e-21
-2.9140625000e+00 7.1862603913e-21 4.2885705907e-21
-2.9101562500e+00 -2.7433563206e-21 7.9091434065e-21
-2.9062500000e+00 -8.3031093182e-21 -1.0887604746e-21
-2.9023437500e+00 -6.0619045992e-22 -8.3550057300e-21
-2.8984375000e+00 8.0658949321e-21 -2.2719120338e-21
-2.8945312500e+00 3.8411182120e-21 7.4506917853e-21
-2.8906250000e+00 -6.5372421740e-21 5.2515053228e-21
-2.8867187500e+00 -6.4481361340e-21 -5.3649160970e-21
-2.8828125000e+00 3.9827635843e-21 -7.3854867517e-21
-2.8789062500e+00 8.0290388672e-21 2.4473427612e-21
-2.8750000000e+00 -8.2031207043e-22 8.3563907847e-21
-2.8710937500e+00 -8.3578565541e-21 8.3410780698e-22
-2.8671875000e+00 -2.4516970607e-21 -8.0365479590e-21
-2.8632812500e+00 7.4079549108e-21 -3.9707230946e-21
-2.8593750000e+00 5.3342556891e-21 6.4990589649e-21
-2.8554687500e+00 -5.3470315174e-21 6.4922273414e-21
-2.8515625000e+00 -7.4031694885e-21 -3.9975807470e-21
-2.8476562500e+00 2.5030240321e-21 -8.0355676431e-21
-2.8437500000e+00 8.3687956060e-21 9.2018555343e-22
-2.8398437500e+00 6.9183258697e-22 8.3936257009e-21
-2.8359375000e+00 -8.1122900152e-21 2.2738816756e-21
-2.8320312500e+00 -3.7689324210e-21 -7.5381189558e-21
-2.8281250000e+00 6.6947843912e-21 -5.1240952859e-21
-2.8242187500e+00 6.2924263671e-21 5.6151903444e-21
-2.8203125000e+00 -4.3400653121e-21 7.2344610967e-21
-2.8164062500e+00 -7.9194306433e-21 -2.9163188148e-21
-2.8125000000e+00 1.3952305455e-21 -8.3261295254e-21
-2.8085937500e+00 8.4434169621e-21 -1.6945972219e-22
-2.8046875000e+00 1.7234804685e-21 8.2703463563e-21
-2.8007812500e+00 -7.8159401691e-21 3.2139076514e-21
-2.7968750000e+00 -4.5909531977e-21 -7.0986254805e-21
-2.7929687500e+00 6.1453640162e-21 -5.8095740662e-21
-2.7890625000e+00 6.8308690784e-21 4.9905205496e-21
-2.7851562500e+00 -3.6745185378e-21 7.6232212916e-21
-2.7812500000e+00 -8.1631573597e-21 -2.2423373693e-21
-2.7773437500e+00 7.4190845067e-22 -8.4359063993e-21
-2.7734375000e+00 8.4356519441e-21 -7.7753193096e-22
-2.7695312500e+00 2.2670763545e-21 8.1654812609e-21
-2.7656250000e+00 -7.6370441178e-21 3.6797176176e-21
-2.7617187500e+00 -4.9717908939e-21 -6.8699498426e-21
-2.7578125000e+00 5.8909320207e-21 -6.1042683888e-21
-2.7539062500e+00 7.0438660787e-21 4.7328096264e-21
-2.7500000000e+00 -3.4332955120e-21 7.7639222579e-21
-2.7460937500e+00 -8.2450395920e-21 -2.0336929372e-21
-2.7421875000e+00 5.7752673024e-22 -8.4754783564e-21
-2.7382812500e+00 8.4512992570e-21 -8.9084517666e-22
-2.7343750000e+00 2.3275957832e-21 8.1762622509e-21
-2.7304687500e+00 -7.6614951330e-21 3.6907275711e-21
-2.7265625000e+00 -4.9412686512e-21 -6.9249521457e-21
-2.7226562500e+00 5.9906833689e-21 -6.0443395719e-21
-2.7187500000e+00 6.9700412763e-21 4.8879640609e-21
-2.7148437500e+00 -3.6502913390e-21 7.6941855693e-21
-2.7109375000e+00 -8.1988239581e-21 -2.3142958624e-21
-2.7070312500e+00 9.1860604272e-22 -8.4725742845e-21
-2.7031250000e+00 8.5107476656e-21 -4.9730303857e-22
-2.6992187500e+00 1.8942411259e-21 8.3152800807e-21
-2.6953125000e+00 -7.8944795417e-21 3.2343830340e-21
-2.6914062500e+00 -4.4822691655e-21 -7.2626045898e-21
-2.6875000000e+00 6.4392938912e-21 -5.6057016703e-21
-2.6835937500e+00 6.5765159489e-21 5.4488699228e-21
-2.6796875000e+00 -4.3195339463e-21 7.3712166114e-21
-2.6757812500e+00 -7.9714420717e-21 -3.0825145561e-21
-2.6718750000e+00 1.7711372656e-21 -8.3643020761e-21
-2.6679687500e+00 8.5425391554e-21 4.1989079984e-22
-2.6640625000e+00 9.3650232959e-22 8.5045381840e-21
-2.6601562500e+00 -8.2541881379e-21 2.2639839988e-21
-2.6562500000e+00 -3.5300049263e-21 -7.8006067864e-21
-2.6523437500e+00 7.1577422816e-21 -4.7042958199e-21
-2.6484375000e+00 5.7595487100e-21 6.3438681099e-21
-2.6445312500e+00 -5.3809897673e-21 6.6719952938e-21
-2.6406250000e+00 -7.4218732274e-21 -4.2941816861e-21
-2.6367187500e+00 3.1108710066e-21 -7.9937741564e-21
-2.6328125000e+00 8.3768589806e-21 1.8601187090e-21
-2.6289062500e+00 -5.7185738858e-22 8.5649735007e-21
-2.6250000000e+00 -8.5566319886e-21 7.2384045155e-22
-2.6210937500e+00 -1.9974698112e-21 -8.3548928743e-21
-2.6171875000e+00 7.9671320925e-21 -3.2207564980e-21
-2.6132812500e+00 4.3672625869e-21 7.4047248956e-21
-2.6093750000e+00 -6.6826485549e-21 5.4129225549e-21
-2.6054687500e+00 -6.3365010076e-21 -5.8190195630e-21
-2.6015625000e+00 4.8345797099e-21 -7.1199653770e-21
-2.5976562500e+00 7.7487707607e-21 3.7521430072e-21
-2.5937500000e+00 -2.5960230695e-21 8.2120503412e-21
-2.5898437500e+00 -8.5027130911e-21 -1.3914675687e-21
-2.5859375000e+00 1.6407105513e-22 -8.6174661346e-21
-2.5820312500e+00 8.5567430640e-21 -1.0607757385e-21
-2.5781250000e+00 2.2584104376e-21 8.3245576516e-21
-2.5742187500e+00 -7.9282878150e-21 3.4053835326e-21
-2.5703125000e+00 -4.4798944471e-21 -7.3783984647e-21
-2.5664062500e+00 6.6881126924e-21 -5.4621724006e-21
-2.5625000000e+00 6.3347969706e-21 5.8730413062e-21
-2.5585937500e+00 -4.9507754122e-21 7.0829588252e-21
-2.5546875000e+00 -7.6946396589e-21 -3.9404756000e-21
-2.5507812500e+00 2.8624314161e-21 -8.1607467396e-21
-2.5468750000e+00 8.4751730972e-21 1.7376262412e-21
-2.5429687500e+00 -5.8731020334e-22 8.6347961026e-21
-2.5390625000e+00 -8.6394180832e-21 5.6741142904e-22
-2.5351562500e+00 -1.7059664876e-21 -8.4916531634e-21
-2.5312500000e+00 8.1967657903e-21 -2.8086743791e-21
-2.5273437500e+00 3.8570694495e-21 7.7624670417e-21
-2.5234375000e+00 -7.1986734980e-21 4.8341876044e-21
-2.5195312500e+00 -5.7248045203e-21 -6.5172391924e-21
-2.5156250000e+00 5.7316713476e-21 -6.5156269183e-21
-2.5117187500e+00 7.1954526474e-21 4.8568202482e-21
-2.5078125000e+00 -3.9085671097e-21 7.7552737293e-21
-2.5039062500e+00 -8.1883371510e-21 -2.9035087459e-21
-2.5000000000e+00 1.8586463297e-21 -8.4901624653e-21
-2.4960937500e+00 8.6585185866e-21 7.9108373612e-22
-2.4921875000e+00 2.8225961975e-22 8.6933627877e-21
-2.4882812500e+00 -8.5967454069e-21 1.3449171669e-21
-2.4843750000e+00 -2.3811295112e-21 -8.3726817933e-21
-2.4804687500e+00 8.0270041079e-21 -3.3760429329e-21
-2.4765625000e+00 4.3159202793e-21 7.5671866964e-21
-2.4726562500e+00 -7.0021551682e-21 5.1883009059e-21
-2.4687500000e+00 -5.9821346007e-21 -6.3420824512e-21
-2.4648437500e+00 5.5981762500e-21 -6.6878851902e-21
-2.4609375000e+00 7.2976040223e-21 4.7824620982e-21
-2.4570312500e+00 -3.9075659501e-21 7.8049741025e-21
-2.4531250000e+00 -8.2053261221e-21 -2.9864999684e-21
-2.4492187500e+00 2.0324504491e-21 -8.4956290617e-21
-2.4453125000e+00 8.6744519658e-21 1.0585856003e-21
-2.4414062500e+00 -7.7873837573e-23 8.7419078195e-21
-2.4375000000e+00 -8.6995790200e-21 8.9709658792e-22
-2.4335937500e+00 -1.8542711554e-21 -8.5504223122e-21
-2.4296875000e+00 8.2986601273e-21 -2.7822679250e-21
-2.4257812500e+00 3.6704981434e-21 7.9496601078e-21
-2.4218750000e+00 -7.5098055173e-21 4.5092680256e-21
-2.4179687500e+00 -5.2898614907e-21 -6.9863591711e-21
-2.4140625000e+00 6.3873229082e-21 -6.0046044978e-21
-2.4101562500e+00 6.6469147283e-21 5.7212902588e-21
-2.4062500000e+00 -4.9973211530e-21 7.2113130996e-21
-2.4023437500e+00 -7.6934488871e-21 -4.2247919526e-21
-2.3984375000e+00 3.4132645523e-21 -8.0900905949e-21
-2.3945312500e+00 8.3991059088e-21 2.5723587691e-21
-2.3906250000e+00 -1.7116322342e-21 8.6194283708e-21
-2.3867187500e+00 -8.7510122415e-21 -8.4046893770e-22
-2.3828125000e+00 -3.2022647635e-23 -8.7947770697e-21
-2.3789062500e+00 8.7525435211e-21 -8.9710116110e-22
-2.3750000000e+00 1.7464792248e-21 8.6269607859e-21
-2.3710937500e+00 -8.4214300037e-21 2.5723815771e-21
-2.3671875000e+00 -3.3676050698e-21 -8.1400251830e-21
-2.3632812500e+00 7.7874080148e-21 -4.1255726824e-21
-2.3593750000e+00 4.8403678193e-21 7.3687427219e-21
-2.3554687500e+00 -6.8896104570e-21 5.5067605212e-21
-2.3515625000e+00 -6.1202236451e-21 -6.3559246395e-21
-2.3476562500e+00 5.7738482569e-21 -6.6769395910e-21
-2.3437500000e+00 7.1737982377e-21 5.1497140418e-21
-2.3398437500e+00 -4.4899467573e-21 7.6083877303e-21
-2.3359375000e+00 -7.9789783701e-21 -3.8009867531e-21
-2.3320312500e+00 3.0892411563e-21 -8.2844889338e-21
-2.3281250000e+00 8.5244676643e-21 2.3610066788e-21
-2.3242187500e+00 -1.6224175454e-21 8.6990550741e-21
-2.3203125000e+00 -8.8089455368e-21 -8.7939534255e-22
-2.3164062500e+00 1.3760486005e-22 -8.8553456396e-21
-2.3125000000e+00 8.8399300594e-21 -5.9758404000e-22
-2.3085937500e+00 1.3211285732e-21 8.7647956945e-21
-2.3046875000e+00 -8.6324147372e-21 2.0283393218e-21
-2.3007812500e+00 -2.7149087012e-21 -8.4455847880e-21
-2.2968750000e+00 8.2073853197e-21 -3.3769087091e-21
-2.2929687500e+00 4.0108089793e-21 7.9211312541e-21
-2.2890625000e+00 -7.5903262937e-21 4.6134854021e-21
-2.2851562500e+00 -5.1822189866e-21 -7.2186195834e-21
-2.2812500000e+00 6.8097638384e-21 -5.7146925342e-21
-2.2773437500e+00 6.2089836004e-21 6.3675756871e-21
-2.2734375000e+00 -5.8958984733e-21 6.6635541421e-21
-2.2695312500e+00 -7.0772372521e-21 -5.3985677091e-21
-2.2656250000e+00 4.8793766537e-21 -7.4492231201e-21
-2.2617187500e+00 7.7790407535e-21 4.3420458022e-21
-2.2578125000e+00 -3.7902124428e-21 8.0665293933e-21
-2.2539062500e+00 -8.3118282042e-21 -3.2273928129e-21
-2.2500000000e+00 2.6569659375e-21 -8.5153512280e-21
-2.2460937500e+00 8.6777646018e-21 2.0821564064e-21
-2.2421875000e+00 -1.5060199427e-21 8.7999633494e-21
-2.2382812500e+00 -8.8830480174e-21 -9.3143165776e-22
-2.2343750000e+00 3.6107686817e-22 -8.9283014088e-21
-2.2304687500e+00 8.9371656370e-21 -2.0255566538e-22
-2.2265625000e+00 7.5718903957e-22 8.9112187699e-21
-2.2226562500e+00 -8.8521535461e-21 1.3007349390e-21
-2.2187500000e+00 -1.8313105751e-21 -8.7617576195e-21
-2.2148437500e+00 8.6418932107e-21 -2.3472369780e-21
-2.2109375000e+00 2.8470348619e-21 8.4944782759e-21
-2.2070312500e+00 -8.3214687916e-21 3.3294203625e-21
-2.2031250000e+00 -3.7932995325e-21 -8.1248422466e-21
-2.1992187500e+00 7.9065823828e-21 -4.2377617635e-21
-2.1953125000e+00 4.6620722966e-21 7.6686652116e-21
-2.1914062500e+00 -7.4130435449e-21 5.0656680187e-21
-2.1875000000e+00 -5.4481448112e-21 -7.1416368667e-21
-2.1835937500e+00 6.8563293857e-21 -5.8092381931e-21
-2.1796875000e+00 6.1488277881e-21 6.5589519594e-21
-2.1757812500e+00 -6.2512769743e-21 6.4669231416e-21
-2.1718750000e+00 -6.7636537199e-21 -5.9350117546e-21
-2.1679687500e+00 5.6117930717e-21 -7.0392588883e-21
-2.1640625000e+00 7.2940779550e-21 5.2831826966e-21
-2.1601562500e+00 -4.9506633463e-21 7.5285407485e-21
-2.1562500000e+00 -7.7431619427e-21 -4.6156292373e-21
-2.1523437500e+00 4.2794040184e-21 -7.9385190775e-21
-2.1484375000e+00 8.1152546778e-21 3.9432242025e-21
-2.1445312500e+00 -3.6082426064e-21 8.2740649891e-21
-2.1406250000e+00 -8.4156917495e-21 -3.2755287903e-21
-2.1367187500e+00 2.9460700834e-21 -8.5409143873e-21
-2.1328125000e+00 8.6505426627e-21 2.6207731302e-21
-2.1289062500e+00 -2.3004658987e-21 8.7454097680e-21
-2.1250000000e+00 -8.8263675927e-21 -1.9858924964e-21
-2.1210937500e+00 1.6777316992e-21 -8.8942764207e-21
-2.1171875000e+00 8.9500019307e-21 1.3765937108e-21
-2.1132812500e+00 -1.0830199034e-21 8.9944108789e-21
-2.1093750000e+00 -9.0283660601e-21 -7.9748796423e-22
-2.1054687500e+00 5.2041550378e-22 -9.0527221475e-21
-2.1015625000e+00 9.0683219507e-21 2.5216377453e-22
-2.0976562500e+00 6.9585380626e-24 9.0759930753e-21
-2.0937500000e+00 -9.0765448398e-21 2.5669574384e-22
-2.0898437500e+00 -4.9683814169e-22 -9.0707652897e-21
-2.0859375000e+00 9.0594197508e-21 -7.2720701529e-22
-2.0820312500e+00 9.4766471209e-22 9.0432487029e-21
-2.0781250000e+00 -9.0229661225e-21 1.1581071618e-21
-2.0742187500e+00 -1.3584602520e-21 -8.9992580829e-21
-2.0703125000e+00 8.9727815986e-21 -1.5486763008e-21
-2.0664062500e+00 1.7287306417e-21 8.9441636864e-21
-2.0625000000e+00 -8.9140004157e-21 1.8986192988e-21
-2.0585937500e+00 -2.0583643887e-21 -8.8828542531e-21
-2.0546875000e+00 8.8512593755e-21 -2.2079848931e-21
-2.0507812500e+00 2.3475156558e-21 8.8197170324e-21
-2.0468750000e+00 -8.7886963519e-21 2.4769995058e-21
-2.0429687500e+00 -2.5964847030e-21 -8.7586342309e-21
-2.0390625000e+00 8.7299352928e-21 -2.7060225453e-21
-2.0351562500e+00 2.8056651378e-21 8.7029718961e-21
-2.0312500000e+00 -8.6780841772e-21 2.8954633279e-21
-2.0273437500e+00 -2.9754737197e-21 -8.6555770355e-21
-2.0234375000e+00 8.6357265689e-21 -3.0457378204e-21
-2.0195312500e+00 3.1062891517e-21 8.6187774926e-21
-2.0156250000e+00 -8.6049419593e-21 3.1571552467e-21
-2.0117187500e+00 -3.1983545955e-21 -8.5944001603e-21
-2.0078125000e+00 8.5873002711e-21 -3.2298955936e-21
-2.0039062500e+00 3.2517756635e-21 8.5837583453e-21
-2.0000000000e+00 -8.5838581514e-21 3.2639805514e-21
-1.9960937500e+00 -3.2664887195e-21 -8.5876490674e-21
-1.9921875000e+00 8.5951474074e-21 -3.2592668125e-21
-1.9882812500e+00 3.2422580381e-21 8.6063404575e-21
-1.9843750000e+00 -8.6211803552e-21 3.2153970203e-21
-1.9804687500e+00 -3.1786059281e-21 -8.6395851205e-21
-1.9765625000e+00 8.6614380564e-21 -3.1317948888e-21
-1.9726562500e+00 3.0748626065e-21 8.6865870788e-21
-1.9687500000e+00 -8.7148439813e-21 3.0076971903e-21
-1.9648437500e+00 -2.9301784954e-21 -8.7459832068e-21
-1.9609375000e+00 8.7797380354e-21 -2.8421887529e-21
-1.9570312500e+00 2.7435846092e-21 8.8158095905e-21
-1.9531250000e+00 -8.8538574113e-21 2.6342235285e-21
-1.9492187500e+00 -2.5139599386e-21 -8.8935005386e-21
-1.9453125000e+00 8.9343165790e-21 -2.3826474852e-21
-1.9414062500e+00 2.2401415543e-21 8.9758407894e-21
-1.9375000000e+00 -9.0175652048e-21 2.0863020710e-21
-1.9335937500e+00 -1.9209965835e-21 -9.0589378340e-21
-1.9296875000e+00 9.0993597676e-21 -1.7441149432e-21
-1.9257812500e+00 1.5555485116e-21 9.1381899975e-21
-1.9218750000e+00 -9.1747418724e-21 1.3552058888e-21
-1.9179687500e+00 -1.1430206430e-21 -9.2082822374e-21
-1.9140625000e+00 9.2380318512e-21 -9.1895379027e-22
-1.9101562500e+00 6.8299866893e-22 9.2631656258e-21
-1.9062500000e+00 -9.2828131781e-21 4.3518610878e-22
-1.9023437500e+00 -1.7558988582e-22 -9.2960597396e-21
-1.8984375000e+00 9.3019475341e-21 9.5661004002e-23
-1.8945312500e+00 -3.7838267310e-22 9.2994782995e-21
-1.8906250000e+00 -9.2876147348e-21 -6.7234365681e-22
-1.8867187500e+00 9.7724017458e-22 -9.2652831655e-21
-1.8828125000e+00 9.2313771013e-21 1.2926946599e-21
-1.8789062500e+00 -1.6182490678e-21 9.1847613678e-21
-1.8750000000e+00 -9.1242769747e-21 -1.9533581136e-21
-1.8710937500e+00 2.2973825046e-21 -9.0487467729e-21
-1.8671875000e+00 8.9569824846e-21 2.6495804431e-21
-1.8632812500e+00 -3.0090907783e-21 8.8477959818e-21
-1.8593750000e+00 -8.7199970873e-21 -3.3749614667e-21
-1.8554687500e+00 3.7461137590e-21 -8.5724106395e-21
-1.8515625000e+00 8.4038850269e-21 4.1213437292e-21
-1.8476562500e+00 -4.4993172471e-21 8.2133035739e-21
-1.8437500000e+00 -7.9995969970e-21 -4.8785656419e-21
-1.8398437500e+00 5.2574822006e-21 -7.7617569396e-21
-1.8359375000e+00 7.4988505776e-21 5.6343196557e-21
-1.8320312500e+00 -6.0071781728e-21 7.2100451284e-21
-1.8281250000e+00 -6.8946060511e-21 -6.3740306013e-21
-1.8242187500e+00 6.7327091462e-21 -6.5519235544e-21
-1.8203125000e+00 6.1815329646e-21 7.0809067362e-21
-1.8164062500e+00 -7.4161839628e-21 5.7831325109e-21
-1.8125000000e+00 -5.3566031740e-21 -7.7359761770e-21
-1.8085937500e+00 8.0376028556e-21 -4.9020289959e-21
-1.8046875000e+00 4.4197232942e-21 8.3182764204e-21
-1.8007812500e+00 -8.5751218988e-21 3.9102425691e-21
-1.7968750000e+00 -3.3743995302e-21 -8.8051964958e-21
-1.7929687500e+00 9.0055033056e-21 -2.8132940678e-21
-1.7890625000e+00 2.2283292582e-21 9.1730164238e-21
-1.7851562500e+00 -9.3047074252e-21 1.6212291237e-21
-1.7812500000e+00 -9.9405474147e-22 -9.3975751039e-21
-1.7773437500e+00 9.4486783859e-21 -3.4922140551e-22
-1.7734375000e+00 -3.1048621821e-22 9.4551738467e-21
-1.7695312500e+00 -9.4143552872e-21 -9.8192928495e-22
-1.7656250000e+00 1.6615886253e-21 -9.3236941814e-21
-1.7617187500e+00 9.1808855546e-21 2.3455691170e-21
-1.7578125000e+00 -3.0296038290e-21 8.9838958904e-21
-1.7539062500e+00 -8.7310132236e-21 -3.7090634817e-21
-1.7500000000e+00 4.3789716789e-21 -8.4208990131e-21
-1.7460937500e+00 8.0526488885e-21 5.0340143135e-21
-1.7421875000e+00 -5.6686014391e-21 7.6258289271e-21
-1.7382812500e+00 -7.1405399249e-21 -6.2768773513e-21
-1.7343750000e+00 6.8527699575e-21 -6.5974670801e-21
-1.7304687500e+00 5.9979298504e-21 7.3900428503e-21
-1.7265625000e+00 -7.8823557792e-21 5.3439285721e-21
-1.7226562500e+00 -4.6381866478e-21 -8.3233336293e-21
-1.7187500000e+00 8.7066393656e-21 -3.8841970957e-21
-1.7148437500e+00 3.0862328275e-21 9.0260715841e-21
-1.7109375000e+00 -9.2756520690e-21 2.2493720105e-21
-1.7070312500e+00 -1.3795151987e-21 -9.4497237688e-21
-1.7031250000e+00 9.5430593550e-21 -4.8338259350e-22
-1.6992187500e+00 -4.3149936290e-22 9.5509739496e-21
-1.6953125000e+00 -9.4694419552e-21 -1.3568257476e-21
-1.6914062500e+00 2.2835498942e-21 -9.2952180318e-21
-1.6875000000e+00 9.0259582051e-21 3.2019508831e-21
-1.6835937500e+00 -4.1017256032e-21 8.6603322228e-21
-1.6796875000e+00 -8.1981411089e-21 -4.9720671127e-21
-1.6757812500e+00 5.8017856304e-21 -7.6404242223e-21
-1.6718750000e+00 6.9895574263e-21 6.5794441746e-21
-1.6679687500e+00 -7.2935134570e-21 6.2493385439e-21
-1.6640625000e+00 -5.4250592340e-21 -7.9325437022e-21
-1.6601562500e+00 8.4853531214e-21 -4.5235630222e-21
-1.6562500000e+00 3.5532435046e-21 8.9412528221e-21
-1.6523437500e+00 -9.2902479457e-21 2.5240675416e-21
-1.6484375000e+00 -1.4475415873e-21 -9.5232721748e-21
-1.6445312500e+00 9.6324247932e-21 -3.3665040353e-22
-1.6406250000e+00 -7.9423953767e-22 9.6112103142e-21
-1.6367187500e+00 -9.4547757565e-21 -1.9295141987e-21
-1.6328125000e+00 3.0524684503e-21 -9.1601456130e-21
-1.6289062500e+00 8.7264288998e-21 4.1455622406e-21
-1.6250000000e+00 -5.1906439956e-21 8.1550153927e-21
-1.6210937500e+00 -7.4497427507e-21 -6.1692468924e-21
-1.6171875000e+00 7.0629187979e-21 -6.6170286026e-21
-1.6132812500e+00 5.6659606586e-21 7.8535851063e-21
-1.6093750000e+00 -8.5239404928e-21 4.6083374891e-21
-1.6054687500e+00 -3.4586648060e-21 -9.0578589956e-21
-1.6015625000e+00 9.4408371091e-21 -2.2340577437e-21
-1.5976562500e+00 9.5409349789e-22 9.6604237347e-21
-1.5937500000e+00 -9.7066469447e-21 -3.5939527669e-22
-1.5898437500e+00 1.6826170816e-21 -9.5724321832e-21
-1.5859375000e+00 9.2539903264e-21 2.9901908979e-21
-1.5820312500e+00 -4.2555908462e-21 8.7511639404e-21
-1.5781250000e+00 -8.0677217455e-21 -5.4516568124e-21
-1.5742187500e+00 6.5511835291e-21 -7.2115804448e-21
-1.5703125000e+00 6.1949224170e-21 7.5275805469e-21
-1.5664062500e+00 -8.3555353925e-21 5.0342457964e-21
-1.5625000000e+00 -3.7502888486e-21 -9.0117392247e-21
-1.5585937500e+00 9.4756217835e-21 -2.3678367440e-21
-1.5546875000e+00 9.1539979187e-22 9.7300819436e-21
-1.5507812500e+00 -9.7621918607e-21 -5.7523929129e-22
-1.5468750000e+00 2.0696021357e-21 -9.5638551142e-21
-1.5429687500e+00 9.1323790767e-21 3.5312843858e-21
-1.5390625000e+00 -4.9227617993e-21 8.4709460797e-21
-1.5351562500e+00 -7.5889593842e-21 -6.2063563115e-21
-1.5312500000e+00 7.3452859362e-21 -6.5022342649e-21
-1.5273437500e+00 5.2330119894e-21 8.3047840342e-21
-1.5234375000e+00 -9.0532540175e-21 3.8097882860e-21
-1.5195312500e+00 -2.2668968344e-21 -9.5634505258e-21
-1.5156250000e+00 9.8136023100e-21 -6.4389563956e-22
-1.5117187500e+00 -1.0152684455e-21 9.7884667964e-21
-1.5078125000e+00 -9.4802691451e-21 -2.6633227970e-21
-1.5039062500e+00 4.2509356995e-21 -8.8894745702e-21
-1.5000000000e+00 8.0253534135e-21 5.7281603523e-21
-1.4960937500e+00 -7.0460372775e-21 6.9062921241e-21
-1.4921875000e+00 -5.5597925635e-21 -8.1583150160e-21
-1.4882812500e+00 9.0231854541e-21 -4.0221761631e-21
-1.4843750000e+00 2.3379306185e-21 9.6050369436e-21
-1.4804687500e+00 -9.8761269554e-21 5.5870317677e-22
-1.4765625000e+00 1.2580589515e-21 -9.8181059100e-21
-1.4726562500e+00 9.4233222287e-21 3.0507875366e-21
-1.4687500000e+00 -4.7558390781e-21 8.6958152292e-21
-1.4648437500e+00 -7.6519399899e-21 -6.3097098296e-21
-1.4609375000e+00 7.6514756522e-21 -6.3205599431e-21
-1.4570312500e+00 4.7427518716e-21 8.7253262266e-21
-1.4531250000e+00 -9.4831023433e-21 2.9709869557e-21
-1.4492187500e+00 -1.0677825541e-21 -9.8867255791e-21
-1.4453125000e+00 9.9104158590e-21 8.9621437961e-22
-1.4414062500e+00 -2.8446337348e-21 9.5425456588e-21
-1.4375000000e+00 -8.7870363732e-21 -4.6982151752e-21
-1.4335937500e+00 6.3780192821e-21 -7.6641870047e-21
-1.4296875000e+00 6.2108345463e-21 7.8088815950e-21
-1.4257812500e+00 -8.9229724491e-21 4.4797785328e-21
-1.4218750000e+00 -2.5384237602e-21 -9.6633103586e-21
-1.4179687500e+00 9.9870580500e-21 -4.6658428411e-22
-1.4140625000e+00 -1.6464158970e-21 9.8683723598e-21
-1.4101562500e+00 -9.3006837163e-21 -3.7053657712e-21
-1.4062500000e+00 5.6133610030e-21 -8.2982043759e-21
-1.4023437500e+00 6.8965185284e-21 7.2764131332e-21
-1.3984375000e+00 -8.6082626179e-21 5.1521535362e-21
-1.3945312500e+00 -3.1409856983e-21 -9.5352177281e-21
-1.3906250000e+00 1.0000647489e-20 -9.5556303199e-22
-1.3867187500e+00 -1.2986776520e-21 9.9689497849e-21
-1.3828125000e+00 -9.4286932931e-21 -3.5081808601e-21
-1.3789062500e+00 5.5568521349e-21 -8.3946798398e-21
-1.3750000000e+00 6.9087184751e-21 7.3321982854e-21
-1.3710937500e+00 -8.7317596205e-21 5.0389255164e-21
-1.3671875000e+00 -2.8774512723e-21 -9.6694444200e-21
-1.3632812500e+00 1.0081366891e-20 -5.3667786408e-22
-1.3593750000e+00 -1.8560789227e-21 9.9308445187e-21
-1.3554687500e+00 -9.2121407490e-21 -4.1651541963e-21
-1.3515625000e+00 6.2541147496e-21 -7.9526139816e-21
-1.3476562500e+00 6.2130037343e-21 7.9939484415e-21
-1.3437500000e+00 -9.2714475944e-21 4.0856004602e-21
-1.3398437500e+00 -1.6903383651e-21 -9.9971253381e-21
-1.3359375000e+00 1.0112240215e-20 8.3119872458e-22
-1.3320312500e+00 -3.3236197548e-21 9.5943229132e-21
-1.3281250000e+00 -8.4607068998e-21 -5.6270563573e-21
-1.3242187500e+00 7.5874594490e-21 -6.7696594428e-21
-1.3203125000e+00 4.6187658591e-21 9.0673040914e-21
-1.3164062500e+00 -9.9558579973e-21 2.1404990781e-21
-1.3125000000e+00 5.0496510144e-22 -1.0178328688e-20
-1.3085937500e+00 9.7031208953e-21 3.1394284824e-21
-1.3046875000e+00 -5.5783425977e-21 8.5464933610e-21
-1.3007812500e+00 -6.7740526061e-21 -7.6437717507e-21
-1.2968750000e+00 9.1778083509e-21 -4.4986827098e-21
-1.2929687500e+00 1.8747296112e-21 1.0055430392e-20
-1.2890625000e+00 -1.0195707233e-20 -9.1133553908e-22
-1.2851562500e+00 3.6534267795e-21 -9.5704154223e-21
-1.2812500000e+00 8.2091087235e-21 6.1407679760e-21
-1.2773437500e+00 -8.1742237952e-21 6.1999520206e-21
-1.2734375000e+00 -3.6858337799e-21 -9.5828774749e-21
-1.2695312500e+00 1.0239380426e-20 -8.5574914895e-22
-1.2656250000e+00 -2.0682451584e-21 1.0072766638e-20
-1.2617187500e+00 -9.0774008961e-21 -4.8477678474e-21
-1.2578125000e+00 7.2473924011e-21 -7.3169604471e-21
-1.2539062500e+00 4.9226848500e-21 9.0550033150e-21
-1.2500000000e+00 -1.0101513288e-20 2.0855236345e-21
-1.2460937500e+00 9.5752354869e-22 -1.0278033212e-20
-1.2421875000e+00 9.5488054255e-21 3.9421755171e-21
-1.2382812500e+00 -6.5994071774e-21 7.9583072969e-21
-1.2343750000e+00 -5.6313968700e-21 -8.6799415172e-21
-1.2304687500e+00 9.9785783250e-21 -2.7658578741e-21
-1.2265625000e+00 -3.8250235137e-22 1.0355890490e-20
-1.2226562500e+00 -9.7550206416e-21 -3.5213543469e-21
-1.2187500000e+00 6.3483780870e-21 -8.2115079106e-21
-1.2148437500e+00 5.8545810507e-21 8.5805518505e-21
-1.2109375000e+00 -9.9834490421e-21 2.8991005253e-21
-1.2070312500e+00 3.7184871697e-22 -1.0397530960e-20
-1.2031250000e+00 9.7583568926e-21 3.6325081898e-21
-1.1992187500e+00 -6.5461905602e-21 8.1081813691e-21
-1.1953125000e+00 -5.5969534136e-21 -8.8002701049e-21
-1.1914062500e+00 1.0140868744e-20 -2.4717825396e-21
-1.1875000000e+00 -9.4495297362e-22 1.0403419918e-20
-1.1835937500e+00 -9.5352821467e-21 -4.2872492670e-21
-1.1796875000e+00 7.1840459247e-21 -7.6072668353e-21
-1.1757812500e+00 4.8118792203e-21 9.3008948971e-21
-1.1718750000e+00 -1.0380102163e-20 1.4474139760e-21
-1.1679687500e+00 2.1113232848e-21 -1.0274504709e-20
-1.1640625000e+00 8.9703304653e-21 5.4533312467e-21
-1.1601562500e+00 -8.1785456462e-21 6.5954892994e-21
-1.1562500000e+00 -3.4112006574e-21 -9.9467162391e-21
-1.1523437500e+00 1.0522036011e-20 2.1334035138e-22
-1.1484375000e+00 -3.8413760995e-21 9.8075904891e-21
-1.1445312500e+00 -7.8644398007e-21 -7.0201698792e-21
-1.1406250000e+00 9.3378940387e-21 -4.9116280809e-21
-1.1367187500e+00 1.3057160407e-21 1.0478768368e-20
-1.1328125000e+00 -1.0269091210e-20 -2.4990696177e-21
-1.1289062500e+00 6.0062158015e-21 -8.7072408177e-21
-1.1250000000e+00 5.9723635367e-21 8.7414887275e-21
-1.1210937500e+00 -1.0318598985e-20 2.4088065348e-21
-1.1171875000e+00 1.5132513763e-21 -1.0496666036e-20
-1.1132812500e+00 9.2209432154e-21 5.2573042170e-21
-1.1093750000e+00 -8.2931691323e-21 6.6396182266e-21
-1.1054687500e+00 -3.0924532145e-21 -1.0173254070e-20
-1.1015625000e+00 1.0601559949e-20 9.2925737695e-22
-1.0976562500e+00 -4.8476399724e-21 9.4845275665e-21
-1.0937500000e+00 -6.9547239916e-21 -8.0801015202e-21
-1.0898437500e+00 1.0127009622e-20 -3.3617448070e-21
-1.0859375000e+00 -7.7075840764e-22 1.0652046470e-20
-1.0820312500e+00 -9.5421390336e-21 -4.8178159126e-21
-1.0781250000e+00 8.1463024542e-21 -6.9358657464e-21
-1.0742187500e+00 3.2134801228e-21 1.0215079429e-20
-1.0703125000e+00 -1.0666444875e-20 -1.0527137542e-21
-1.0664062500e+00 5.1824317050e-21 -9.3931751444e-21
-1.0625000000e+00 6.5681479016e-21 8.4945865924e-21
-1.0585937500e+00 -1.0421071644e-20 2.6287299204e-21
-1.0546875000e+00 1.7847030023e-21 -1.0608267750e-20
-1.0507812500e+00 8.9878286928e-21 5.9289271681e-21
-1.0468750000e+00 -9.0820254273e-21 5.8020665996e-21
-1.0429687500e+00 -1.5759821791e-21 -1.0671389943e-20
-1.0390625000e+00 1.0382672017e-20 2.9628933083e-21
-1.0351562500e+00 -7.0061397338e-21 8.2286193159e-21
-1.0312500000e+00 -4.5621296229e-21 -9.8082583867e-21
-1.0273437500e+00 1.0827477311e-20 -2.6999849926e-23
-1.0234375000e+00 -4.5490639694e-21 9.8367831769e-21
-1.0195312500e+00 -6.9816459767e-21 -8.3027385949e-21
-1.0156250000e+00 1.0499167453e-20 -2.7695083442e-21
-1.0117187500e+00 -2.0119571228e-21 1.0680817475e-20
-1.0078125000e+00 -8.7704991726e-21 -6.4368178150e-21
-1.0039062500e+00 9.6190817501e-21 -5.1044403380e-21
-1.0000000000e+00 3.8363448853e-22 1.0893299220e-20
-9.9609375000e-01 -9.9604113024e-21 -4.4522838099e-21
-9.9218750000e-01 8.4079069723e-21 -6.9673934623e-21
-9.8828125000e-01 2.4978039686e-21 1.0638918001e-20
-9.8437500000e-01 -1.0638735988e-20 -2.5326338708e-21
-9.8046875000e-01 7.0578439711e-21 -8.3629091979e-21
-9.7656250000e-01 4.2598534669e-21 1.0086754041e-20
-9.7265625000e-01 -1.0925220402e-20 -8.0565398337e-22
-9.6875000000e-01 5.7267124275e-21 -9.3443996405e-21
-9.6484375000e-01 5.6533298179e-21 9.3935795530e-21
-9.6093750000e-01 -1.0947296859e-20 6.5228462946e-22
-9.5703125000e-01 4.5306174697e-21 -9.9897165834e-21
-9.5312500000e-01 6.6972503376e-21 8.6892305898e-21
-9.4921875000e-01 -1.0822100121e-20 1.8043792301e-21
-9.4531250000e-01 3.5482518156e-21 -1.0381910267e-20
-9.4140625000e-01 7.4283105978e-21 8.0732664334e-21
-9.3750000000e-01 -1.0646858640e-20 2.6396713631e-21
-9.3359375000e-01 2.8289823405e-21 -1.0595712107e-20
-9.2968750000e-01 7.8861657090e-21 7.6165743333e-21
-9.2578125000e-01 -1.0494342165e-20 3.1602112590e-21
-9.2187500000e-01 2.4013845640e-21 -1.0688715748e-20
-9.1796875000e-01 8.1028609135e-21 7.3647066129e-21
-9.1406250000e-01 -1.0411271048e-20 3.3709818317e-21
-9.1015625000e-01 2.2806931887e-21 -1.0695898499e-20
-9.0625000000e-01 8.0955393029e-21 7.3413020046e-21
-9.0234375000e-01 -1.0417783826e-20 3.2732111026e-21
-8.9843750000e-01 2.4732973708e-21 -1.0626459378e-20
-8.9453125000e-01 7.8623902813e-21 7.5497999010e-21
-8.9062500000e-01 -1.0506703559e-20 2.8612658625e-21
-8.8671875000e-01 2.9777815667e-21 -1.0462061857e-20
-8.8281250000e-01 7.3816461000e-21 7.9725038487e-21
-8.7890625000e-01 -1.0641960281e-20 2.1234917015e-21
-8.7500000000e-01 3.7819642820e-21 -1.0156368305e-20
-8.7109375000e-01 6.6138526730e-21 8.5668065421e-21
-8.6718750000e-01 -1.0756270500e-20 1.0477286047e-21
-8.6328125000e-01 4.8557085807e-21 -9.6365388715e-21
-8.5937500000e-01 5.5083330108e-21 9.2589792231e-21
-8.5546875000e-01 -1.0749352023e-20 -3.6819525913e-22
-8.5156250000e-01 6.1395469013e-21 -8.8084051323e-21
-8.4765625000e-01 4.0153025908e-21 9.9368811479e-21
-8.4375000000e-01 -1.0488975440e-20 -2.1005580342e-21
-8.3984375000e-01 7.5307268925e-21 -7.5677207537e-21
-8.3593750000e-01 2.1051872072e-21 1.0444447454e-20
-8.3203125000e-01 -9.8184769968e-21 -4.0788190040e-21
-8.2812500000e-01 8.8695040150e-21 -5.8204107732e-21
-8.2421875000e-01 -2.0435576329e-22 1.0582758793e-20
-8.2031250000e-01 -8.5754548208e-21 -6.1623684711e-21
-8.1640625000e-01 9.9309871448e-21 -3.5143913956e-21
-8.1250000000e-01 -2.8153313500e-21 1.0124098030e-20
-8.0859375000e-01 -6.6262700297e-21 -8.1209567206e-21
-8.0468750000e-01 1.0431261322e-20 -6.8282679270e-22
-8.0078125000e-01 -5.5158155913e-21 8.8464478936e-21
-7.9687500000e-01 -3.9186439594e-21 -9.6291749897e-21
-7.9296875000e-01 1.0058525842e-20 2.5064886737e-21
-7.8906250000e-01 -7.9585318700e-21 6.5942989411e-21
-7.8515625000e-01 -5.4901175936e-22 -1.0289573323e-20
-7.8125000000e-01 8.5394890964e-21 5.7091983254e-21
-7.7734375000e-01 -9.6708090363e-21 3.3648091649e-21
-7.7343750000e-01 3.1704134377e-21 -9.7011051724e-21
-7.6953125000e-01 5.7447340081e-21 8.3943732274e-21
-7.6562500000e-01 -1.0119589762e-20 -5.9510292129e-22
-7.6171875000e-01 6.6742095839e-21 -7.5826411442e-21
-7.5781250000e-01 1.8202155475e-21 9.8994117144e-21
-7.5390625000e-01 -8.8506176312e-21 -4.7156233801e-21
-7.5000000000e-01 9.1801454179e-21 -3.9425494046e-21
-7.4609375000e-01 -2.6951047388e-21 9.5808603684e-21
-7.4218750000e-01 -5.6991100163e-21 -8.1119701984e-21
-7.3828125000e-01 9.8457621909e-21 7.4987319738e-22
-7.3437500000e-01 -6.8374673463e-21 7.0681013827e-21
-7.3046875000e-01 -1.0245226970e-21 -9.7394841893e-21
-7.2656250000e-01 8.0661810740e-21 5.4802257711e-21
-7.2265625000e-01 -9.3629599543e-21 2.5712104669e-21
-7.1875000000e-01 4.1391525369e-21 -8.7358375308e-21
-7.1484375000e-01 3.8653143758e-21 8.8130394236e-21
-7.1093750000e-01 -9.1338307802e-21 -2.8875913422e-21
-7.0703125000e-01 8.1755958699e-21 -4.9062754108e-21
-7.0312500000e-01 -1.7753795567e-21 9.3219739372e-21
-6.9921875000e-01 -5.7096376853e-21 -7.5221777456e-21
-6.9531250000e-01 9.3602547923e-21 8.3286634118e-22
-6.9140625000e-01 -6.9090149603e-21 6.3001360138e-21
-6.8750000000e-01 7.5585182882e-23 -9.3022679127e-21
-6.8359375000e-01 6.7055779268e-21 6.3779812402e-21
-6.7968750000e-01 -9.1924875891e-21 4.9113748213e-22
-6.7578125000e-01 5.9581544245e-21 -6.9525145256e-21
-6.7187500000e-01 8.6801422425e-22 9.0648946189e-21
-6.6796875000e-01 -7.0628538683e-21 -5.6679388004e-21
-6.6406250000e-01 8.9424618337e-21 -1.0586526985e-21
-6.6015625000e-01 -5.5167849882e-21 7.0518040150e-21
-6.5625000000e-01 -1.0671659974e-21 -8.8371003811e-21
-6.5234375000e-01 6.9266814242e-21 5.5064267753e-21
-6.4843750000e-01 -8.7497309081e-21 8.9707990730e-22
-6.4453125000e-01 5.6315064881e-21 -6.6864255692e-21
-6.4062500000e-01 5.5117266146e-22 8.6703505406e-21
-6.3671875000e-01 -6.3220299198e-21 -5.8791687823e-21
-6.3281250000e-01 8.5780618625e-21 -3.2418919829e-23
-6.2890625000e-01 -6.2280732139e-21 5.8176188050e-21
-6.2500000000e-01 6.5371737445e-22 -8.4411963995e-21
-6.2109375000e-01 5.1526139291e-21 6.6466329931e-21
-6.1718750000e-01 -8.2178802524e-21 -1.4961173220e-21
-6.1328125000e-01 7.0909068682e-21 -4.3052012770e-21
-6.0937500000e-01 -2.4735001839e-21 7.8575205580e-21
-6.0546875000e-01 -3.2571951266e-21 -7.5028146495e-21
-6.0156250000e-01 7.3039089369e-21 3.5492340139e-21
-5.9765625000e-01 -7.8091712349e-21 2.0009395766e-21
-5.9375000000e-01 4.6660480304e-21 -6.5006247365e-21
-5.8984375000e-01 5.4773961128e-22 7.9230070949e-21
-5.8593750000e-01 -5.3996399648e-21 -5.7413309809e-21
-5.8203125000e-01 7.7483207784e-21 1.0624141281e-21
-5.7812500000e-01 -6.6652967480e-21 3.9732563604e-21
-5.7421875000e-01 2.7511102879e-21 -7.1898470296e-21
-5.7031250000e-01 2.2293777388e-21 7.3036993194e-21
-5.6640625000e-01 -6.1689874837e-21 -4.3945108948e-21
-5.6250000000e-01 7.5081679309e-21 -2.2833361731e-22
-5.5859375000e-01 -5.8221865634e-21 4.6461079008e-21
-5.5468750000e-01 1.9020276846e-21 -7.1364583746e-21
-5.5078125000e-01 2.6475438906e-21 6.8266539791e-21
-5.4687500000e-01 -6.0838500984e-21 -3.9584124516e-21
-5.4296875000e-01 7.1881904530e-21 -2.9260223590e-22
-5.3906250000e-01 -5.6688093422e-21 4.3241009280e-21
-5.3515625000e-01 2.1877108475e-21 -6.7178174634e-21
-5.3125000000e-01 1.9535063406e-21 6.7220126546e-21
-5.2734375000e-01 -5.3171504822e-21 -4.4520630465e-21
-5.2343750000e-01 6.8256420956e-21 7.7455029301e-22
-5.1953125000e-01 -6.0837606395e-21 3.0461146874e-21
-5.1562500000e-01 3.4430433056e-21 -5.7916793328e-21
-5.1171875000e-01 1.7922805979e-22 6.6692448505e-21
-5.0781250000e-01 -3.6363495283e-21 -5.5142264723e-21
-5.0390625000e-01 5.9190809657e-21 2.7783326798e-21
-5.0000000000e-01 -6.4377315412e-21 6.6447515214e-22
-4.9609375000e-01 5.1479418963e-21 -3.8108287528e-21
-4.9218750000e-01 -2.5063504610e-21 5.8212091907e-21
-4.8828125000e-01 -7.0676280337e-22 -6.2305886028e-21
-4.8437500000e-01 3.6289725087e-21 5.0307957017e-21
-4.8046875000e-01 -5.5470182399e-21 -2.6219908806e-21
-4.7656250000e-01 6.0585615043e-21 -3.3385770398e-22
-4.7265625000e-01 -5.1342386859e-21 3.1045541412e-21
-4.6875000000e-01 3.0804360522e-21 -5.0693622251e-21
-4.6484375000e-01 -4.2824346998e-22 5.8481595164e-21
-4.6093750000e-01 -2.2129275210e-21 -5.3565194470e-21
-4.5703125000e-01 4.2971110292e-21 3.7864852230e-21
-4.5312500000e-01 -5.4481245163e-21 -1.5304589975e-21
-4.4921875000e-01 5.5135015946e-21 -9.2519590136e-22
-4.4531250000e-01 -4.5640595794e-21 3.1085525099e-21
-4.4140625000e-01 2.8493371614e-21 -4.6500461745e-21
-4.3750000000e-01 -7.2616386113e-22 5.3358449353e-21
-4.3359375000e-01 -1.4204993751e-21 -5.1231585634e-21
-4.2968750000e-01 3.2479813544e-21 4.1219457023e-21
-4.2578125000e-01 -4.5061574484e-21 -2.5532244160e-21
-4.2187500000e-01 5.0629843351e-21 6.9616061408e-22
-4.1796875000e-01 -4.9057368773e-21 1.1643827092e-21
-4.1406250000e-01 4.1231489962e-21 -2.7811729738e-21
-4.1015625000e-01 -2.8754008213e-21 3.9737045512e-21
-4.0625000000e-01 1.3595654604e-21 -4.6414049954e-21
-4.0234375000e-01 2.2327580313e-22 4.7627628664e-21
-3.9843750000e-01 -1.6944619727e-21 -4.3835194174e-21
-3.9453125000e-01 2.9156487681e-21 3.5983557180e-21
-3.9062500000e-01 -3.7973870997e-21 -2.5301898682e-21
-3.8671875000e-01 4.2997261444e-21 1.3104847464e-21
-3.8281250000e-01 -4.4265414113e-21 -6.3026480859e-23
-3.7890625000e-01 4.2160219684e-21 -1.1076521864e-21
-3.7500000000e-01 -3.7294485444e-21 2.1229108045e-21
-3.7109375000e-01 3.0401204578e-21 -2.9321240885e-21
-3.6718750000e-01 -2.2236654136e-21 3.5113414589e-21
-3.6328125000e-01 1.3505887541e-21 -3.8594093628e-21
-3.5937500000e-01 -4.8112293346e-22 3.9928680785e-21
-3.5546875000e-01 -3.3744388558e-22 -3.9403535618e-21
-3.5156250000e-01 1.0716824160e-21 3.7373754191e-21
-3.4765625000e-01 -1.7012353456e-21 -3.4218340884e-21
-3.4375000000e-01 2.2172342200e-21 3.0305347546e-21
-3.3984375000e-01 -2.6200154540e-21 -2.5967952984e-21
-3.3593750000e-01 2.9168049219e-21 2.1489675867e-21
-3.3203125000e-01 -3.1193845076e-21 -1.7098683146e-21
-3.2812500000e-01 3.2421374403e-21 1.2967416843e-21
-3.2421875000e-01 -3.3003748996e-21 -9.2177310598e-22
-3.2031250000e-01 3.3091169355e-21 5.9275588604e-22
-3.1640625000e-01 -3.2821926580e-21 -3.1399254098e-22
-3.1250000000e-01 3.2316878654e-21 8.7107207790e-23
-3.0859375000e-01 -3.1676246728e-21 8.8112431405e-23
-3.0468750000e-01 3.0978349874e-21 -2.1305739866e-22
-3.0078125000e-01 -3.0279523791e-21 2.8971942975e-22
-2.9687500000e-01 2.9614746581e-21 -3.2029669264e-22
-2.9296875000e-01 -2.8998558593e-21 3.0694004894e-22
-2.8906250000e-01 2.8426076040e-21 -2.5160868019e-22
-2.8515625000e-01 -2.7873841654e-21 1.5614863843e-22
-2.8125000000e-01 2.7300729249e-21 -2.2417564281e-23
-2.7734375000e-01 -2.6648905134e-21 -1.4738805393e-22
-2.7343750000e-01 2.5845291998e-21 3.5029306541e-22
-2.6953125000e-01 -2.4803907886e-21 -5.8203576614e-22
-2.6562500000e-01 2.3429821393e-21 8.3637661192e-22
-2.6171875000e-01 -2.1625189484e-21 -1.1044769241e-21
-2.5781250000e-01 1.9298330893e-21 1.3742428010e-21
-2.5390625000e-01 -1.6376276896e-21 -1.6298721349e-21
-2.5000000000e-01 1.2820710493e-21 1.8517736704e-21
-2.4609375000e-01 -8.6474311650e-22 -2.0170017205e-21
-2.4218750000e-01 3.9471655605e-22 2.1005479568e-21
-2.3828125000e-01 1.0952090426e-22 -2.0776751432e-21
-2.3437500000e-01 -6.1872467084e-22 1.9274358185e-21
-2.3046875000e-01 1.0928497059e-21 -1.6373620148e-21
-2.2656250000e-01 -1.4830555538e-21 1.2089172642e-21
-2.2265625000e-01 1.7364397109e-21 -6.6291119805e-22
-2.1875000000e-01 -1.8040133021e-21 4.3491041606e-23
-2.1484375000e-01 1.6516827397e-21 5.8119086952e-22
-2.1093750000e-01 -1.2729458396e-21 -1.1236502600e-21
-2.0703125000e-01 7.0064769399e-22 1.4888686826e-21
-2.0312500000e-01 -1.3670334096e-23 -1.5935722514e-21
-1.9921875000e-01 -6.6639936810e-22 1.3909743813e-21
-1.9531250000e-01 1.1929678988e-21 -8.9556022001e-22
-1.9140625000e-01 -1.4278612879e-21 1.9906152948e-22
-1.8750000000e-01 1.2861461343e-21 5.3311211915e-22
-1.8359375000e-01 -7.8021466176e-22 -1.0937134264e-21
-1.7968750000e-01 4.3948461410e-23 1.2946093388e-21
-1.7578125000e-01 6.8391645545e-22 -1.0437817686e-21
-1.7187500000e-01 -1.1292212190e-21 4.0923484459e-22
-1.6796875000e-01 1.0943806149e-21 3.6917120837e-22
-1.6406250000e-01 -5.7193425150e-22 -9.5077686284e-22
-1.6015625000e-01 -2.0545572541e-22 1.0448079405e-21
-1.5625000000e-01 8.3782640231e-22 -5.8317047755e-22
-1.5234375000e-01 -9.5910310772e-22 -1.8882630934e-22
-1.4843750000e-01 4.7981745368e-22 8.0244831516e-22
-1.4453125000e-01 2.9349651070e-22 -8.4354889201e-22
-1.4062500000e-01 -8.0756392075e-22 2.7185876896e-22
-1.3671875000e-01 6.5816862481e-22 4.7523601178e-22
-1.3281250000e-01 3.4727460992e-23 -7.7152218390e-22
-1.2890625000e-01 -6.4602767645e-22 3.4756132138e-22
-1.2500000000e-01 5.8109337612e-22 3.8248224672e-22
-1.2109375000e-01 8.6853908370e-23 -6.5282197436e-22
-1.1718750000e-01 -5.9967541359e-22 1.6627548456e-22
-1.1328125000e-01 3.4294057671e-22 4.7623780963e-22
-1.0937500000e-01 3.3177102736e-22 -4.4152148352e-22
-1.0546875000e-01 -4.7846768933e-22 -1.9992753131e-22
-1.0156250000e-01 -9.8118384397e-23 4.7569807327e-22
-9.7656250000e-02 4.5264257809e-22 3.1746479256e-23
-9.3750000000e-02 -5.6866979572e-25 -4.2269936110e-22
-8.9843750000e-02 -3.9255056923e-22 2.9014780302e-24
-8.5937500000e-02 -2.0158211152e-23 3.6279379384e-22
-8.2031250000e-02 3.2897569264e-22 6.3724572281e-23
-7.8125000000e-02 1.2113496633e-22 -2.8294908579e-22
-7.4218750000e-02 -2.1528965886e-22 -1.8130566363e-22
-7.0312500000e-02 -2.2626162522e-22 1.2003456348e-22
-6.6406250000e-02 2.5012515282e-24 2.3179394052e-22
-6.2500000000e-02 1.7588880099e-22 1.1198608307e-22
-5.8593750000e-02 1.7696140279e-22 -5.8137041128e-23
-5.4687500000e-02 7.7212975023e-23 -1.4591868091e-22
-5.0781250000e-02 -2.1933039019e-23 -1.4333133546e-22
-4.6875000000e-02 -7.6275069092e-23 -1.0032152803e-22
-4.2968750000e-02 -9.0661963649e-23 -5.9037021337e-23
-3.9062500000e-02 -8.4098078443e-23 -3.6106423266e-23
-3.5156250000e-02 -6.9236730312e-23 -3.1466846378e-23
-3.1250000000e-02 -4.8604275492e-23 -3.8194904027e-23
-2.7343750000e-02 -1.9670023041e-23 -4.4719205806e-23
-2.3437500000e-02 1.3420035381e-23 -3.4708424362e-23
-1.9531250000e-02 2.6882970804e-23 -1.8631604208e-24
-1.5625000000e-02 1.4331367287e-24 1.8071394683e-23
-1.1718750000e-02 -9.7353712554e-24 -4.7780879312e-24
-7.8125000000e-03 5.1602209667e-24 8.1100207838e-25
-3.9062500000e-03 -8.6076430123e-25 -1.1870599798e-24
0.0000000000e+00 -0.0000000000e+00 -0.0000000000e+00
