816185392 816185502
816211274 816211384
816291552 816291662
816380066 816380176
816439311 816439421
816500123 816500233
816631409 816631519
816897939 816898049
817225369 817225479
817233155 817233265
817235334 817235444
817236806 817236916
817236980 817237090
817328579 817328689
817401203 817401313
817447648 817447758
817449567 817449677
817454587 817454697
817459711 817459821
817504966 817505076
817505428 817505538
817565755 817565865
817627028 817627138
817662190 817662300
817781836 817781946
817931950 817932060
818012232 818012342
818034373 818034483
818068482 818068592
818068884 818068994
818113239 818113349
818115434 818115668
818160993 818161103
818162606 818162716
818162841 818162951
818327113 818327223
818327288 818327398
818345490 818345600
818457162 818457272
818479720 818479830
818546678 818546788
818550001 818550111
818551526 818551636
818552601 818552711
818557919 818558029
818558627 818558737
818561481 818561591
818561628 818561738
818561767 818561932
818564844 818564954
818569770 818569880
818571844 818571954
818572070 818572180
818572242 818572352
818572695 818572805
818572938 818573048
818573143 818573417
818573677 818573787
818573883 818574101
818574248 818574358
818574664 818574774
818574844 818575037
818575313 818575423
818734877 818734987
818793864 818793974
818878585 818878695
818971275 818971385
819028995 819029105
819035372 819035482
819037412 819037522
819037741 819037851
819057929 819058039
819093868 819093978
819139938 819140048
819144599 819144709
819239072 819239182
819240647 819240757
819308258 819308368
819325387 819325497
819348000 819348110
819401374 819401484
819409789 819410066
819656602 819656712
819735078 819735188
819790977 819791087
819826084 819826194
819827036 819827146
819881059 819881169
819887410 819887520
819928448 819928558
819928794 819928904
820002950 820003060
820196401 820196511
820196678 820196839
820199668 820199778
820210673 820210783
820211023 820211133
820218668 820218778
820321583 820321693
820355439 820355549
820372194 820372304
820539403 820539513
820554549 820554659
820636312 820636422
820875965 820876075
820955576 820955686
820957841 820957951
820957986 820958096
820961959 820962069
820966573 820966683
820986534 820986644
820988899 820989009
820989415 820989525
820991059 820991169
821070983 821071093
821073445 821073555
821104019 821104129
821104812 821104922
821107515 821107625
821113331 821113441
821120329 821120439
821122948 821123058
821124001 821124111
821124212 821124594
821125046 821125156
821126551 821126661
821127519 821127629
821127757 821127867
821129326 821129436
821131171 821131281
821131395 821131505
821131520 821131676
821287442 821287552
821513389 821513499
821592293 821592403
821783057 821783167
821831938 821832198
821834451 821834561
821990696 821990806
822012116 822012226
822090608 822090718
822153588 822153698
822153960 822154127
822154707 822154817
822156063 822156173
822170885 822170995
822177501 822177611
822179733 822179843
822199683 822199793
822205521 822205631
822205803 822205913
822208681 822208791
822209074 822209184
822222296 822222406
822223026 822223136
822233846 822233956
822263686 822263796
822267459 822267569
822271306 822271416
822282906 822283016
822328196 822328306
822329073 822329183
822329204 822329314
822329400 822329510
822332439 822332638
822339243 822339353
822344132 822344242
822357778 822357888
822375858 822375968
822376050 822376160
822382993 822383103
822383169 822383279
822385949 822386059
822386573 822386683
822413351 822413461
822417172 822417282
822424808 822424918
822477528 822477638
822477831 822477941
822481807 822481917
822487893 822488003
822488732 822488842
822488963 822489073
822489434 822489544
822493160 822493270
822494685 822494795
822497804 822497914
822511768 822511878
822554227 822554337
822576573 822576683
822578848 822578958
822579147 822579257
822579989 822580099
822584067 822584177
822605241 822605351
822610249 822610359
822632864 822632974
822633100 822633249
822633274 822633384
822634169 822634279
822638560 822638670
822639038 822639148
822651045 822651155
822654135 822654245
822664729 822664839
822665111 822665221
822666867 822666977
822667118 822667228
822694360 822694470
822714392 822714502
822714599 822714709
822725831 822725941
822732743 822732853
822734966 822735076
822737937 822738047
822766714 822766824
822768864 822768974
822771703 822771813
822804951 822805061
822806425 822806535
822850863 822850973
822853307 822853417
822853588 822853698
822853702 822853883
822859382 822859492
822862273 822862383
822862487 822862597
822862603 822862819
822862917 822863027
822863107 822863217
822865568 822865678
822865777 822865887
822866661 822866771
822866798 822866908
822944165 822944275
822947100 822947210
822947247 822947407
822968041 822968184
822973531 822973641
822985597 822985707
822985744 822985854
822994800 822994910
823032431 823032541
823078023 823078133
823150617 823150727
823151512 823151622
823161934 823162044
823162525 823162635
823165517 823165627
823187874 823187984
823190132 823190242
823192333 823192443
823192557 823192667
823351253 823351363
823355485 823355595
823357672 823357782
823362311 823362421
823363567 823363677
823369980 823370090
823373671 823373781
823377425 823377535
823380893 823381003
823381948 823382058
823383453 823383563
823395317 823395427
823395470 823395645
823395878 823395988
823400411 823400521
823403945 823404055
823404204 823404314
823407729 823407839
823407912 823408022
823423479 823423589
823462415 823462525
823476502 823476612
823476660 823476946
823477017 823477127
823477181 823477291
823542963 823543073
823543114 823543433
823543508 823543618
823543725 823543835
823543919 823544029
823544068 823544178
823546424 823546534
823579406 823579516
823580683 823580793
823583900 823584010
823618165 823618275
823635391 823635501
823636178 823636288
823639120 823639230
823639658 823639768
823640735 823640845
823643370 823643480
823646934 823647044
823649917 823650027
823768722 823768832
823769157 823769267
823770141 823770251
823770803 823770913
823771127 823771237
823771554 823771664
823771833 823771943
823772467 823772577
823773422 823773532
823773944 823774054
823775027 823775137
823775282 823775392
823777429 823777539
823778270 823778380
823778431 823778541
823784667 823784777
823789412 823789522
823789602 823789712
823792697 823792807
823800470 823800580
823807749 823807859
823812658 823812910
823813033 823813281
823817724 823817834
823826689 823826799
823830018 823830128
823834178 823834288
823838491 823838601
823865604 823865714
823865876 823865986
823870748 823870858
823871066 823871250
823871462 823871572
823876286 823876396
823886291 823886401
823899345 823899455
823901926 823902036
823903281 823903391
823903890 823904000
823905223 823905333
823906128 823906238
823906314 823906424
823906902 823907012
823907015 823907125
823916606 823916716
823917997 823918107
823922095 823922205
823966768 823966878
823967395 823967505
823967730 823967840
823968267 823968377
823968598 823968708
823969096 823969206
823971033 823971143
824066479 824066589
824073278 824073428
824147258 824147368
824180268 824180378
824189561 824189671
824190921 824191031
824191333 824191443
824194584 824194694
824194824 824194934
824195051 824195161
824195188 824195298
824195390 824195500
824195615 824195832
824196085 824196195
824196472 824196582
824197786 824197896
824200977 824201087
824202110 824202220
824211937 824212047
824212092 824212202
824214437 824214547
824214598 824214814
824215355 824215465
824217441 824217551
824282218 824282328
824287705 824287815
824288683 824288793
824289251 824289361
824300226 824300336
824319569 824319679
824324877 824324987
824328808 824328918
824329266 824329376
824329693 824329803
824390242 824390352
824392962 824393072
824393412 824393522
824397922 824398032
824409173 824409283
824411912 824412022
824412304 824412414
824413034 824413144
824413857 824413967
824414295 824414405
824428380 824428490
824428515 824428696
824428916 824429026
824438064 824438174
824449027 824449137
824454259 824454369
824455300 824455410
824494672 824494782
824495253 824495439
824495460 824495570
824501194 824501304
824502075 824502185
824618471 824618581
824671764 824671874
824674552 824674662
824676260 824676370
824676420 824676530
824676654 824676764
824679978 824680088
824683006 824683116
824720663 824720773
824738454 824738564
824749283 824749393
824756195 824756305
824774323 824774433
824778380 824778490
824807221 824807331
824808786 824808896
824818786 824818896
824825549 824825659
824825722 824825832
824833102 824833212
824837898 824838008
824842055 824842165
824846457 824846567
824846897 824847007
824855342 824855452
824858298 824858408
824865585 824865695
824866082 824866192
824866388 824866550
824867983 824868093
824868881 824868991
824871049 824871159
824871569 824871679
824872767 824872877
824877220 824877330
824877569 824877679
824879088 824879198
824879935 824880045
824880723 824880833
824881072 824881182
824882435 824882545
824883230 824883340
824883690 824883800
824886033 824886143
824887770 824887880
824888239 824888349
824888770 824888880
824932273 824932383
824937553 824937663
824938830 824938940
824939572 824939682
824941150 824941260
824941266 824941376
824942189 824942299
824943069 824943179
824944008 824944118
824944529 824944639
824946124 824946234
824947099 824947209
824947450 824947560
824948689 824948799
824950015 824950125
824950194 824950304
824952451 824952561
824954134 824954244
824954468 824954578
824955276 824955386
824956015 824956125
824958162 824958272
824960312 824960422
824960560 824960670
824961429 824961539
824961814 824961924
824962184 824962294
824962906 824963016
824963484 824963594
824964401 824964511
824965150 824965260
824965793 824965903
824966227 824966337
824966553 824966663
824967008 824967207
824968202 824968312
824968766 824968876
824975991 824976187
824977266 824977376
824978079 824978189
824978430 824978540
824979129 824979239
824979596 824979706
824983326 824983436
824996773 824996883
824998781 824998891
824999938 825000048
825001010 825001120
825002584 825002694
825004171 825004281
825004346 825004456
825014702 825014812
825015981 825016091
825019592 825019702
825019913 825020023
825020649 825020759
825020975 825021085
825021862 825021972
825022205 825022315
825024117 825024227
825026213 825026323
825027813 825027923
825028138 825028248
825028689 825028799
825029425 825029535
825030175 825030285
825031128 825031238
825032010 825032120
825032811 825032921
825035293 825035403
825035553 825035663
825035751 825035861
825044523 825044778
825045786 825045896
825047111 825047221
825048077 825048187
825048311 825048421
825048448 825048558
825050300 825050410
825050457 825050567
825050906 825051016
825051113 825051301
825089294 825089404
825093208 825093318
825093768 825093878
825097925 825098112
825105162 825105272
825105597 825105707
825105976 825106086
825106348 825106458
825109980 825110090
825110875 825110985
825119844 825119954
825120061 825120171
825120596 825120706
825150266 825150376
825150549 825150659
825150818 825150928
825151639 825151749
825202673 825202783
825203185 825203295
825204981 825205091
825208401 825208607
825240634 825240744
825428905 825429015
825437678 825437788
825437912 825438022
825442674 825442784
825443005 825443115
825448424 825448534
825459078 825459188
825459307 825459627
825484273 825484383
825485209 825485319
825519845 825519955
825528749 825528859
825529051 825529223
825546430 825546540
825547274 825547484
825579040 825579150
825580322 825580432
825584505 825584615
825588275 825588385
825590168 825590278
825605398 825605508
825607392 825607586
825609683 825609920
825610154 825610264
825610681 825610791
825615181 825615291
825697374 825697484
825702880 825702990
825711345 825711455
825712020 825712130
825781374 825781484
825807633 825807743
825808107 825808217
825841438 825841548
825873739 825873849
825880411 825880521
825881516 825881626
825889613 825889723
825894885 825894995
825898706 825898816
825899130 825899240
825899308 825899523
825900088 825900290
825900781 825900891
825904459 825904569
825906152 825906262
825906649 825906759
825907141 825907251
825910190 825910300
825912817 825912927
825913645 825913755
825913862 825913972
825940213 825940323
825940366 825940476
825940654 825940764
825941483 825941593
825941603 825941713
825941896 825942006
825942361 825942471
825944817 825944927
825962165 825962275
825962409 825962519
825965882 825965992
825975589 825975699
825987895 825988005
825988913 825989023
826000552 826000662
826002050 826002160
826014462 826014572
826015459 826015569
826017173 826017283
826062500 826062610
826079036 826079146
826083642 826083752
826092500 826092610
826093659 826093769
826111613 826111723
826112654 826112764
826127321 826127431
826135512 826135622
826137074 826137184
826142348 826142458
826169183 826169293
826172386 826172496
826172919 826173029
826194467 826194577
826194704 826194814
826194822 826194932
826195000 826195110
826195200 826195310
826196704 826196883
826196946 826197056
826229387 826229497
826237076 826237186
826260144 826260254
826265001 826265111
826265812 826265922
826266291 826266401
826266985 826267095
826268783 826268893
826270589 826270699
826271975 826272085
826272196 826272306
826272609 826272820
826272904 826273014
826273018 826273181
826273184 826273440
826273539 826273842
826274050 826274160
826274175 826274285
826275622 826275732
826277397 826277507
826280826 826280936
826281005 826281115
826316361 826316471
826320702 826320812
826326919 826327029
826339639 826339749
826340098 826340267
826341464 826341574
826342211 826342321
826342390 826342500
826342681 826342791
826347025 826347135
826355829 826355939
826356790 826356900
826368310 826368420
826439473 826439583
826440981 826441091
826443851 826443961
826445411 826445521
826468350 826468460
826468802 826468912
826478625 826478735
826497018 826497128
826507294 826507404
826554052 826554162
826562239 826562349
826564584 826564694
826564837 826564947
826569539 826569649
826570706 826570816
826573758 826573868
826580411 826580521
826582965 826583075
826602671 826602781
826626624 826626734
826626914 826627024
826627264 826627374
826640996 826641106
826642213 826642323
826658331 826658441
826660954 826661064
826681296 826681406
826681889 826681999
826682155 826682295
826685506 826685616
826686415 826686525
826686672 826686782
826700232 826700342
826700509 826700653
826709211 826709321
826717542 826717652
826717684 826717794
826718285 826718395
826718746 826718856
826724400 826724510
826744905 826745015
826746602 826746712
826801542 826801652
826804228 826804338
826829306 826829416
826829561 826829671
826830035 826830145
826830177 826830287
826920653 826920763
827031819 827031929
827032370 827032480
827041451 827041561
827082782 827082892
827083016 827083126
827089674 827089784
827093000 827093110
827101432 827101542
827104839 827104949
827115571 827115681
827156401 827156511
827189397 827189507
827189897 827190007
827247748 827247858
827250132 827250242
827250762 827250872
827251114 827251224
827255692 827255802
827267785 827267895
827274977 827275087
827277334 827277444
827278761 827278871
827291878 827291988
827352957 827353067
827364347 827364457
827366216 827366326
827369423 827369533
827370466 827370576
827373600 827373710
827375189 827375299
827378591 827378701
827385447 827385557
827386044 827386154
827462042 827462260
827465094 827465303
827466463 827466573
827503844 827503954
827528713 827528823
827536994 827537104
827588640 827588750
827599211 827599321
827602723 827602833
827606844 827606954
827609602 827609712
827618493 827618603
827687654 827687764
827688648 827688758
827689325 827689435
827696519 827696629
827698205 827698315
827706857 827706967
827771566 827771676
827772647 827772757
827773012 827773122
827784120 827784230
827786477 827786587
827791536 827791646
827793108 827793218
827794765 827794875
827868899 827869009
827869200 827869310
827876386 827876496
827882119 827882229
827921742 827921852
827945828 827945938
827971455 827971565
827980702 827980812
828038108 828038218
828038284 828038394
828038444 828038554
828039724 828039834
828041324 828041434
828112520 828112630
828138377 828138487
828162400 828162510
828163577 828163687
828167460 828167570
828167618 828167728
828167879 828167989
828170897 828171007
828172795 828172905
828173093 828173203
828173475 828173585
828174262 828174372
828178620 828178730
828178797 828178907
828179066 828179176
828182111 828182221
828185941 828186051
828186820 828186930
828190769 828190879
828190956 828191066
828191800 828191910
828192634 828192744
828193635 828193745
828195039 828195149
828233681 828233791
828239227 828239337
828265893 828266003
828282091 828282201
828347394 828347504
828434505 828434615
828457821 828457931
828527904 828528014
828588593 828588703
828591287 828591397
828704204 828704314
828712760 828712870
828758447 828758557
828759011 828759121
828798856 828798966
828799525 828799718
828800887 828800997
828801959 828802069
828802478 828802588
828804879 828804989
828830560 828830670
828910550 828910660
828968224 828968334
828970344 828970454
828985270 828985380
828987213 828987323
828987509 828987619
828994350 828994460
829022328 829022438
829066446 829066556
829076404 829076514
829083910 829084020
829204546 829204656
829205605 829205715
829248325 829248435
829259518 829259628
829265660 829265770
829331024 829331134
829333752 829333862
829335967 829336077
829349138 829349248
829363326 829363436
829408868 829408978
829518024 829518134
829521859 829521969
829522470 829522580
829523218 829523328
829523360 829523470
829524843 829524953
829601381 829601491
829603383 829603493
829607458 829607568
829611192 829611302
829627667 829627777
829627856 829627966
829628260 829628370
829633304 829633414
829653747 829653857
829669553 829669663
829701812 829701922
829703282 829703392
829703593 829703703
829705041 829705151
829705960 829706070
829707311 829707421
829709010 829709120
829710658 829710768
829726208 829726318
829744759 829744869
829782914 829783024
829842595 829842705
829886968 829887078
829887216 829887326
829893910 829894020
829928597 829928707
829929581 829929691
829936058 829936168
829937790 829937900
829942123 829942233
829948708 829948818
829956072 829956182
829981968 829982078
830015526 830015636
830015749 830015859
830015996 830016106
830016214 830016324
830016479 830016589
830016690 830016800
830018429 830018539
830031623 830031733
830031832 830031942
830032313 830032423
830035718 830035828
830044422 830044532
830057200 830057310
830058144 830058254
830063026 830063136
830113129 830113239
830124680 830124790
830144013 830144123
830145383 830145493
830191969 830192079
830194153 830194263
830200517 830200627
830204581 830204691
830204934 830205044
830206105 830206215
830210482 830210592
830273065 830273175
830273393 830273503
830280106 830280216
830294056 830294166
830324470 830324580
830334784 830334894
830360277 830360387
830361097 830361207
830365580 830365690
830393869 830393979
830394468 830394578
830395957 830396067
830434133 830434243
830434522 830434632
830437196 830437405
830440480 830440590
830450760 830450870
830460615 830460725
830461535 830461645
830469271 830469381
830533724 830533834
830534937 830535047
830542540 830542650
830545233 830545343
830547549 830547659
830548459 830548569
830548594 830548704
830550779 830550889
830551570 830551680
830574538 830574648
830574771 830574881
830574914 830575024
830575979 830576089
830602713 830602823
830612781 830612891
830702286 830702396
830705947 830706057
830719766 830719876
830722082 830722192
830722711 830722821
830770969 830771079
830777910 830778020
830800848 830800958
830811438 830811548
830857512 830857622
830862343 830862453
830872562 830872672
830874801 830874911
830877868 830877978
830882786 830882896
830889191 830889301
830895298 830895408
830904867 830904977
830906553 830906663
830985449 830985559
830999187 830999297
831000662 831000772
831001252 831001362
831001374 831001484
831001785 831001895
831005211 831005321
831008361 831008471
831022699 831022809
831038955 831039065
831096932 831097042
831099668 831099778
831100146 831100256
831100336 831100446
831138621 831138731
831141205 831141315
831142241 831142351
831142862 831142972
831144499 831144609
831147064 831147174
831151221 831151331
831153012 831153122
831158231 831158341
831162248 831162358
831163708 831163818
831164744 831164854
831165506 831165616
831166949 831167059
831167531 831167641
831168020 831168130
831171528 831171638
831176195 831176305
831180540 831180650
831208284 831208394
831222703 831222813
831233233 831233343
831235580 831235690
831235905 831236015
831236529 831236639
831236697 831236807
831242145 831242255
831247142 831247252
831263361 831263471
831264576 831264686
831273258 831273368
831274079 831274189
831277177 831277287
831312275 831312385
831323509 831323619
831331582 831331692
831344026 831344136
831350986 831351096
831396080 831396190
831402039 831402149
831402485 831402595
831412651 831412761
831420180 831420290
831465639 831465749
831475526 831475636
831484035 831484145
831496313 831496467
831498830 831498940
831510547 831510657
831518648 831518758
831552815 831552925
831569550 831569660
831569732 831569842
831582610 831582720
831588780 831588890
831610502 831610612
831630995 831631105
831669178 831669288
831688946 831689056
831699391 831699501
831705659 831705769
831706106 831706216
831706232 831706342
831706901 831707011
831747218 831747328
831765199 831765309
831790842 831790952
831811966 831812076
831827195 831827305
831843012 831843122
831844034 831844144
831848907 831849017
831850435 831850545
831851682 831851792
831871249 831871359
831872358 831872468
831911441 831911551
831923480 831923590
831934036 831934146
831938833 831938943
831983803 831983913
832001414 832001524
832008899 832009009
832012680 832012790
832017717 832017827
832019057 832019167
832029215 832029325
832031833 832031943
832037640 832037750
832044153 832044263
832045368 832045478
832046553 832046663
832049754 832049864
832052298 832052408
832054193 832054303
832072751 832072861
832106699 832106809
832109374 832109484
832110178 832110288
832111497 832111607
832112063 832112173
832116469 832116579
832117081 832117191
832117785 832117895
832118404 832118514
832205706 832205816
832206305 832206415
832234833 832234943
832272013 832272123
832284914 832285024
832295739 832295849
832300415 832300525
832338072 832338182
832427158 832427268
832449985 832450095
832450432 832450542
832450698 832450808
832450920 832451030
832451089 832451199
832451434 832451544
832452795 832452905
832454599 832454709
832458531 832458641
832461998 832462108
832465138 832465248
832472664 832472774
832493920 832494030
832504102 832504212
832509027 832509137
832520440 832520550
832542556 832542666
832553352 832553462
832555482 832555592
832601921 832602031
832613863 832613973
832619101 832619211
832621016 832621126
832625488 832625598
832627545 832627655
832630419 832630529
832640529 832640639
832640824 832640934
832643528 832643638
832643908 832644018
832658073 832658183
832688377 832688487
832690166 832690276
832698914 832699024
832713996 832714106
832716684 832716794
832772776 832772886
832801956 832802066
832821935 832822045
832853033 832853143
832853394 832853504
832858424 832858534
832860501 832860611
832865496 832865606
832882973 832883083
832940004 832940114
832940409 832940628
832940793 832940903
832954462 832954572
833016167 833016277
833020524 833020634
833026177 833026287
833026749 833026859
833039688 833039798
833042207 833042317
833042515 833042625
833042959 833043069
833050512 833050622
833051357 833051467
833053719 833053829
833054479 833054589
833057372 833057482
833057914 833058024
833061549 833061659
833137597 833137707
833140809 833140919
833144691 833144801
833147264 833147374
833148490 833148600
833210654 833210764
833210866 833210976
833227321 833227431
833233723 833233833
833235208 833235318
833269404 833269514
833320143 833320253
833369503 833369613
833369655 833369765
833386767 833386877
833389832 833389942
833393809 833393919
833396796 833396906
833414790 833414900
833425443 833425553
833426204 833426314
833446731 833446841
833451127 833451237
833574157 833574267
833580702 833580812
833641872 833641982
833658800 833658910
833664180 833664290
833728668 833728778
833742348 833742458
833749181 833749291
833750181 833750291
833756535 833756645
833827220 833827330
833827660 833827770
833828692 833828802
833833872 833833982
833836616 833836726
833839550 833839660
833845568 833845678
833868606 833868716
833885539 833885649
833957675 833957785
833958441 833958551
833958642 833958752
833959513 833959623
833960766 833960980
833962000 833962110
833962540 833962650
833963021 833963131
833963328 833963438
833964530 833964640
833965773 833965883
833965930 833966040
833968289 833968399
833968985 833969095
833987324 833987434
833987525 833987635
833990721 833990831
833996178 833996288
833996641 833996845
833997180 833997290
833998025 833998195
833998378 833998912
833999207 833999496
833999635 833999788
834003198 834003308
834003316 834003513
834003781 834003891
834004026 834004136
834004272 834004382
834005227 834005427
834095640 834095750
834156418 834156528
834184878 834184988
834185832 834185942
834271645 834271755
834294403 834294513
834307684 834307794
834322705 834322815
834346948 834347058
834350573 834350683
834353340 834353450
834358418 834358528
834390158 834390268
834435524 834435634
834450498 834450608
834518378 834518488
834525353 834525463
834528997 834529107
834635673 834635783
834635835 834635945
834691110 834691220
834744434 834744544
834779956 834780066
834780246 834780356
834795917 834796027
834796546 834796656
834796741 834796851
834797286 834797396
834797588 834797698
834800219 834800329
834802881 834802991
834804417 834804571
834806342 834806452
834807237 834807347
834808611 834808721
834811536 834811646
834839925 834840035
834840083 834840193
834847407 834847517
834954005 834954115
834963571 834963681
835009407 835009517
835010067 835010177
835039732 835039842
835099655 835099765
835100815 835100925
835247121 835247231
835374896 835375006
835393155 835393265
835393416 835393526
835393648 835393758
835411648 835411758
835443443 835443553
835480050 835480160
835490033 835490143
835490358 835490468
835495962 835496072
835499837 835499947
835501734 835501844
835545175 835545285
835567481 835567591
835648026 835648136
835689117 835689227
835689296 835689406
835689503 835689613
835689689 835689799
835689800 835689910
835721846 835721956
835723100 835723210
835727948 835728058
835770751 835770861
835771444 835771554
835818142 835818252
835848137 835848247
835895149 835895259
835900487 835900597
835954340 835954450
836039534 836039644
836040063 836040173
836069501 836069611
836069754 836069864
836069897 836070007
836072114 836072224
836073504 836073614
836080686 836080796
836108886 836108996
836118818 836118928
836188660 836188770
836189227 836189337
836247770 836247880
836261529 836261639
836293102 836293212
836331643 836331753
836335209 836335319
836352737 836352847
836375220 836375330
836412532 836412642
836426855 836426965
836461558 836461668
836485070 836485180
836601985 836602095
836691320 836691430
836692157 836692267
836694518 836694628
836695724 836695834
836695916 836696026
836699359 836699469
836769616 836769726
836783017 836783127
836783917 836784027
836784113 836784223
836784485 836784595
836787219 836787329
836787735 836787845
836788192 836788302
836790738 836790848
836790950 836791060
836791106 836791301
836853271 836853381
836932110 836932220
837025897 837026007
837033734 837033844
837088318 837088428
837088549 837088659
837089841 837089951
837135039 837135149
837160811 837160921
837224007 837224117
837224926 837225036
837227386 837227496
837272171 837272281
837290204 837290314
837294550 837294660
837296966 837297076
837300468 837300578
837333090 837333200
837369543 837369653
837384582 837384692
837452443 837452553
837452709 837452819
837454089 837454199
837458184 837458294
837548047 837548157
837548264 837548374
837549242 837549352
837549498 837549608
837579804 837579914
837801653 837801763
837834790 837834900
838078967 838079077
838153981 838154091
838174526 838174636
838257953 838258063
838325705 838325815
838326798 838326908
838373687 838373797
838399513 838399623
838406363 838406473
838415432 838415542
838419180 838419290
838469775 838469885
838569433 838569543
838584574 838584684
838584714 838584824
838584898 838585008
838607544 838607654
838629610 838629720
838635768 838635878
838683805 838683915
838688375 838688485
838689498 838689608
838713251 838713361
838714175 838714285
838831632 838831742
838831816 838831926
838831929 838832257
838911828 838911938
838912232 838912342
838923981 838924091
839020530 839020640
839025072 839025182
839073628 839073738
839099620 839099730
839103142 839103252
839127737 839127847
839185873 839185983
839186554 839186664
839186933 839187043
839193199 839193309
839258187 839258297
839258851 839258968
839259256 839259366
839284954 839285064
839285486 839285596
839296856 839296966
839297711 839297821
839299275 839299385
839300115 839300225
839300932 839301042
839302211 839302321
839304203 839304313
839342234 839342344
839343858 839343968
839347366 839347476
839362499 839362609
839371049 839371159
839564699 839564809
839565437 839565547
839565702 839565812
839565847 839565957
839566121 839566231
839618645 839618755
839626499 839626609
839629593 839629703
839630687 839630797
839680438 839680548
839681106 839681316
839682462 839682572
839684098 839684208
839705358 839705468
839705536 839705646
839718674 839718784
839721972 839722082
839801321 839801431
839808216 839808326
839828566 839828676
839829450 839829560
839848816 839848926
839863874 839863984
839869620 839869730
839870021 839870131
839870250 839870360
839870650 839870760
839871171 839871281
839872048 839872158
839872442 839872552
839872697 839872807
839872901 839873011
839873118 839873228
839885319 839885429
839953922 839954032
839977655 839977765
840039690 840039800
840047977 840048087
840049268 840049378
840078669 840078779
840081689 840081799
840176712 840176822
840194158 840194268
840196470 840196580
840196597 840196707
840197539 840197649
840200735 840200845
840200875 840200985
840222288 840222398
840222487 840222597
840225004 840225114
840230218 840230328
840231610 840231720
840238331 840238441
840243996 840244106
840293057 840293167
840293693 840293803
840308656 840308766
840317217 840317327
840403592 840403702
840488407 840488517
840491998 840492108
840500896 840501006
840504130 840504240
840576651 840576761
840580789 840580899
840582323 840582433
840671290 840671400
840734651 840734761
840736824 840736934
840737676 840737786
840740752 840740862
840752614 840752724
840836519 840836629
840858555 840858665
840883320 840883430
840926216 840926326
840931144 840931254
840932656 840932766
840995755 840995865
841063347 841063457
841063743 841063869
841141943 841142053
841147837 841147947
841178610 841178720
841236734 841236844
841242301 841242411
841242820 841242930
841245352 841245462
841305686 841305796
841306427 841306537
841342889 841342999
841471835 841471945
841517027 841517137
841517162 841517272
841517288 841517498
841517535 841517795
841533339 841533449
841554523 841554633
841586004 841586114
841691469 841691579
841767475 841767585
841777394 841777504
841811475 841811585
841811620 841811750
841827857 841827967
841828207 841828317
841863908 841864018
841922198 841922308
841960898 841961008
841961387 841961497
841962357 841962467
842038023 842038133
842038746 842038856
842046994 842047104
842048458 842048568
842103822 842103932
842108532 842108642
842108985 842109095
842109123 842109311
842109357 842109467
842119540 842119650
842137735 842137845
842189737 842189847
842205443 842205553
842206084 842206194
842236246 842236356
842294332 842294442
842295380 842295490
842303969 842304079
842325891 842326001
842385178 842385288
842385759 842385869
842387839 842387949
842409987 842410097
842428671 842428781
842429161 842429271
842443963 842444073
842458195 842458305
842458396 842458506
842468464 842468574
842472488 842472598
842478525 842478635
842478753 842478863
842479063 842479173
842485353 842485463
842495243 842495353
842495792 842496007
842496168 842496355
842521633 842521743
842561780 842561890
842586537 842586647
842652960 842653070
842653174 842653284
842654838 842654948
842666995 842667105
842670974 842671084
842678806 842678916
842689189 842689299
842713763 842713873
842715398 842715508
842716412 842716522
842719973 842720083
842720660 842720770
842720844 842720989
842762975 842763085
842803544 842803654
842814226 842814336
842815142 842815252
842821920 842822030
842823608 842823718
842825878 842825988
842832928 842833038
842900149 842900259
842907859 842907969
842911008 842911118
842911286 842911396
842911457 842911567
842915642 842915752
842917518 842917628
842918797 842918907
842919736 842919846
842920608 842920718
842922617 842922727
842923001 842923111
842923468 842923578
842928267 842928377
842967534 842967644
842981159 842981269
842981532 842981642
842981696 842981806
842986091 842986201
842988990 842989100
842994528 842994638
842996043 842996153
842997991 842998101
842999793 842999903
843025611 843025721
843105382 843105492
843108855 843108965
843132716 843132826
843174996 843175106
843223883 843223993
843251638 843251748
843257752 843257862
843272265 843272375
843311705 843311815
843331889 843331999
843333037 843333147
843340444 843340554
843342555 843342665
843346776 843346886
843421653 843421763
843429362 843429472
843431666 843431776
843435862 843435972
843443221 843443331
843445278 843445388
843460458 843460568
843464676 843464786
843503051 843503161
843506097 843506207
843571115 843571225
843635624 843635734
843637977 843638087
843638172 843638282
843638628 843638738
843640993 843641103
843642855 843642965
843643677 843643787
843644524 843644634
843645028 843645138
843656425 843656535
843656756 843656866
843669568 843669678
843674429 843674539
843678892 843679002
843703587 843703697
843704170 843704280
843704746 843704856
843709095 843709205
843710900 843711010
843721521 843721631
843722304 843722414
843729372 843729482
843742080 843742190
843795783 843795893
843796102 843796212
843801525 843801635
843802755 843802865
843803313 843803423
843833301 843833411
843836181 843836291
843837439 843837549
843839446 843839556
843840425 843840535
843842277 843842387
843843240 843843350
843855614 843855724
843857146 843857256
843857377 843857487
843861511 843861621
843861780 843861890
843887073 843887183
843888404 843888514
843902034 843902144
843906350 843906460
843906549 843906659
843906707 843906817
843907363 843907473
843907523 843907633
843912288 843912398
843921451 843921561
843922223 843922333
843923618 843923728
843939632 843939742
843940227 843940337
843965914 843966024
843966314 843966424
843966580 843966690
843966750 843966860
844007066 844007176
844008226 844008336
844008738 844008848
844010704 844010814
844011328 844011438
844012238 844012348
844012421 844012531
844012532 844012642
844013652 844013762
844015215 844015325
844016027 844016137
844016182 844016292
844017726 844017836
844018113 844018223
844018656 844018766
844024645 844024755
844025837 844025947
844028489 844028599
844029833 844029943
844035232 844035342
844051578 844051688
844097068 844097178
844122032 844122142
844122686 844122796
844201166 844201276
844245204 844245314
844246378 844246488
844328739 844328849
844345196 844345306
844354659 844354769
844356898 844357008
844370467 844370577
844370611 844370794
844371521 844371631
844423965 844424075
844430938 844431048
844440038 844440148
844446098 844446208
844448062 844448205
844448268 844448378
844448779 844448889
844450668 844450778
844457490 844457600
844459369 844459479
844459526 844459636
844463092 844463298
844464569 844464679
844467905 844468015
844468666 844468776
844485661 844485771
844497540 844497650
844508485 844508595
844514901 844515011
844516737 844516847
844555486 844555596
844558244 844558354
844558508 844558618
844562824 844562934
844567234 844567344
844570374 844570484
844575033 844575143
844578542 844578652
844592033 844592143
844606649 844606759
844619226 844619336
844619849 844619959
844622442 844622645
844631808 844631918
844631976 844632086
844632569 844632825
844633146 844633256
844637215 844637325
844639168 844639278
844639321 844639431
844639457 844639567
844639572 844639682
844639918 844640028
844640049 844640159
844640215 844640325
844640335 844640445
844640535 844640645
844640648 844640758
844640870 844640980
844640986 844641096
844641297 844641407
844641532 844641642
844641951 844642061
844642079 844642189
844643755 844643865
844647763 844647873
844657283 844657393
844661822 844661932
844662344 844662454
844663188 844663298
844673007 844673117
844684703 844684813
844696899 844697009
844697174 844697284
844697321 844697489
844700976 844701086
844701391 844701501
844702934 844703044
844703103 844703213
844706467 844706577
844708854 844708964
844723558 844723668
844726543 844726653
844741509 844741619
844741680 844741790
844741814 844741924
844743314 844743424
844752885 844752995
844756169 844756279
844764457 844764567
844773625 844773735
844782562 844782672
844789218 844789328
844807686 844807796
844811266 844811376
844811634 844811848
844811857 844812076
844812094 844812309
844812373 844812483
844812485 844812812
844813458 844813568
844835514 844835624
844850756 844850866
844856801 844856911
844857261 844857371
844864246 844864356
844865245 844865355
844870259 844870369
844871046 844871156
844873351 844873461
844875102 844875212
844877927 844878037
844884759 844884869
844889574 844889684
844895137 844895247
844898177 844898287
844913497 844913607
844933896 844934006
844936143 844936253
844941710 844941820
844942357 844942467
844942990 844943100
844943240 844943350
844943757 844943867
844967731 844967841
845026559 845026669
845041174 845041284
845047114 845047224
845057219 845057329
845061724 845061834
845065696 845065806
845066623 845066733
845067704 845067814
845069319 845069429
845070517 845070627
845074631 845074741
845074790 845074900
845075065 845075175
845075311 845075468
845078514 845078624
845138810 845138920
845140327 845140437
845140990 845141100
845141196 845141306
845144265 845144375
845144898 845145149
845149594 845149704
845151229 845151339
845152128 845152238
845153675 845153785
845154585 845154695
845158683 845158793
845159182 845159292
845160640 845160766
845176189 845176299
845186723 845186833
845187636 845187746
845224568 845224678
845232690 845232926
845238273 845238383
845239567 845239677
845309396 845309506
845316279 845316389
845319958 845320068
845321562 845321672
845324259 845324369
845329963 845330073
845360333 845360443
845377229 845377339
845398955 845399065
845406870 845406980
845446606 845446716
845476795 845476905
845477465 845477575
845478675 845478785
845492592 845492702
845504066 845504176
845533118 845533228
845533593 845533703
845533971 845534081
845534156 845534266
845534340 845534450
845542090 845542370
845542492 845542602
845542677 845542787
845542934 845543044
845543187 845543297
845543762 845543872
845544158 845544268
845544735 845544845
845547552 845547662
845560842 845560952
845561120 845561230
845561459 845561569
845561572 845561682
845562275 845562385
845562801 845562911
845563058 845563168
845575386 845575496
845585749 845585859
845587330 845587440
845587674 845587784
845587934 845588044
845589499 845589609
845636166 845636276
845657694 845657804
845665848 845665958
845668159 845668269
845674159 845674269
845674991 845675101
845688452 845688562
845690029 845690139
845700276 845700386
845704944 845705054
845705423 845705533
845708482 845708592
845715028 845715138
845722240 845722350
845725098 845725208
845780215 845780325
845781188 845781298
845781398 845781508
845834263 845834373
845942684 845942794
845943499 845943609
845946570 845946680
846013221 846013441
846016670 846016780
846020905 846021015
846031636 846031746
846032374 846032484
846037616 846037726
846095566 846095676
846106896 846107006
846116845 846116955
846117211 846117321
846117597 846117790
846118896 846119006
846136038 846136148
846136899 846137009
846137307 846137417
846137653 846137763
846138142 846138252
846143454 846143564
846143741 846143851
846188971 846189081
846191780 846191890
846192264 846192374
846193711 846193821
846194644 846194754
846194807 846194917
846197998 846198108
846344149 846344259
846345387 846345497
846356716 846356826
846357142 846357289
846358918 846359028
846360546 846360656
846362568 846362678
846362912 846363022
846363990 846364100
846370203 846370641
846372671 846372781
846373598 846373708
846373833 846373943
846441846 846441956
846444269 846444379
846446718 846446828
846449572 846449682
846450871 846450981
846457821 846457931
846510722 846510832
846513447 846513557
846514062 846514172
846529467 846529577
846529604 846529714
846545021 846545223
846623382 846623492
846624716 846624826
846632748 846632858
846633520 846633630
846633797 846633907
846675241 846675351
846675677 846675787
846689897 846690007
846692426 846692536
846692652 846692762
846698861 846698971
846746052 846746162
846746931 846747041
846748008 846748118
846751161 846751271
846751620 846751730
846751904 846752014
846752626 846752736
846753356 846753466
846754209 846754319
846826560 846826670
846834626 846834736
846853821 846853931
846854468 846854578
846855155 846855265
846855763 846855873
847096864 847096974
847097062 847097172
847120121 847120231
847121710 847121820
847136952 847137062
847141610 847141720
847149721 847149831
847150145 847150255
847150458 847150568
847179179 847179289
847230650 847230760
847230842 847230952
847237386 847237496
847256998 847257108
847317984 847318094
847335338 847335448
847336323 847336433
847381451 847381671
847383641 847383751
847384374 847384484
847386447 847386557
847393811 847393921
847394287 847394397
847395208 847395318
847395577 847395687
847402649 847402759
847417118 847417228
847421846 847421956
847422904 847423014
847424176 847424286
847424752 847424862
847425384 847425494
847425889 847425999
847426391 847426501
847426677 847426787
847427149 847427259
847427391 847427501
847427694 847427804
847430491 847430601
847432103 847432213
847468017 847468234
847469291 847469401
847473283 847473393
847473930 847474040
847555141 847555251
847555317 847555427
847588592 847588702
847604957 847605067
847622493 847622603
847623353 847623463
847624066 847624176
847624465 847624575
847625060 847625170
847661531 847661641
847664947 847665057
847668018 847668128
847669310 847669420
847669642 847669752
847670140 847670250
847670287 847670397
847670973 847671083
847680169 847680279
847731461 847731571
847735501 847735611
847735896 847736006
847736635 847736745
847737140 847737250
847738140 847738250
847738608 847738718
847739080 847739190
847739532 847739642
847740631 847740741
847741027 847741137
847741423 847741533
847744316 847744426
847745118 847745228
847745507 847745617
847747296 847747406
847747993 847748103
847748393 847748503
847748558 847748668
847749290 847749400
847750175 847750285
847750335 847750445
847756309 847756419
847762253 847762363
847767212 847767322
847774007 847774117
847797111 847797221
847797296 847797406
847802579 847802689
847802829 847802939
847811801 847811911
847812679 847812789
847814843 847814953
847815054 847815164
847815229 847815339
847815384 847815494
847815609 847815719
847815770 847815880
847816192 847816302
847816556 847816666
847818783 847818893
847822244 847822354
847823963 847824073
847834714 847834824
847834848 847834958
847835015 847835125
847836322 847836432
847837431 847837541
847841063 847841173
847841364 847841474
847883722 847883832
847883942 847884052
847884072 847884182
847915369 847915479
847922245 847922355
847945279 847945389
847998429 847998539
847998726 847998836
848000077 848000187
848004646 848004756
848032507 848032617
848033342 848033452
848035724 848035834
848069432 848069542
848071472 848071582
848086238 848086348
848095213 848095323
848099934 848100044
848100085 848100195
848100832 848100942
848101153 848101263
848116322 848116432
848116591 848116701
848156009 848156119
848157759 848157869
848159077 848159187
848180386 848180496
848183566 848183676
848184166 848184276
848185940 848186050
848188689 848188799
848191564 848191674
848192889 848192999
848219980 848220090
848229935 848230045
848231088 848231198
848231639 848231749
848233984 848234094
848237098 848237208
848258220 848258330
848258652 848258762
848286681 848286791
848288151 848288261
848288573 848288764
848288994 848289104
848302822 848302932
848311662 848311772
848311860 848311970
848317905 848318015
848318323 848318433
848319594 848319704
848319973 848320083
848320802 848320912
848321565 848321675
848323270 848323380
848323744 848323854
848324957 848325067
848325669 848325779
848325790 848325900
848326022 848326132
848330592 848330702
848331139 848331249
848335492 848335602
848348085 848348195
848361041 848361151
848361159 848361269
848361605 848361715
848363519 848363629
848367798 848367908
848372825 848372935
848376115 848376225
848378748 848378858
848379660 848379770
848381177 848381287
848382508 848382618
848418270 848418380
848418572 848418682
848418990 848419154
848424947 848425057
848430974 848431084
848431593 848431703
848432709 848432819
848439982 848440092
848441044 848441154
848458140 848458250
848458269 848458379
848458495 848458605
848466307 848466417
848492204 848492314
848527662 848527772
848529437 848529547
848530170 848530280
848581265 848581576
848582109 848582219
848619437 848619547
848624016 848624126
848625713 848625823
848626394 848626504
848627928 848628038
848630002 848630112
848638823 848638933
848641342 848641452
848641470 848641580
848642264 848642374
848642507 848642617
848642775 848642937
848648686 848648796
848648852 848648962
848673434 848673544
848684656 848684766
848691435 848691545
848691993 848692103
848692448 848692558
848701448 848701558
848702220 848702330
848702737 848702847
848735309 848735419
848736708 848736818
848741976 848742190
848742193 848742468
848744555 848744665
848745083 848745193
848750515 848750625
848755591 848755788
848757264 848757374
848776904 848777014
848785897 848786007
848786268 848786378
848789433 848789543
848816655 848816765
848842326 848842436
848843330 848843440
848846388 848846498
848850544 848850654
848853393 848853503
848855642 848855752
848865355 848865465
848866263 848866373
848876453 848876657
848896824 848896934
848918531 848918641
848918900 848919010
848922358 848922468
848942071 848942181
848944314 848944424
848970237 848970347
848981899 848982009
848982183 848982337
848982909 848983019
849037135 849037245
849037473 849037583
849037590 849037720
849037974 849038084
849044947 849045057
849050344 849050454
849053467 849053577
849076412 849076522
849080960 849081070
849082456 849082566
849087827 849087937
849089101 849089211
849147700 849147810
849153661 849153771
849160715 849160937
849162071 849162181
849162209 849162319
849164618 849164728
849164921 849165031
849213039 849213149
849248228 849248338
849248739 849248849
849300029 849300246
849300259 849300369
849301231 849301341
849301953 849302063
849369911 849370021
849370184 849370294
849370364 849370474
849397200 849397499
849398478 849398630
849399234 849399344
849399823 849399933
849400008 849400118
849413740 849413850
849413930 849414040
849443408 849443518
849470622 849470732
849477119 849477229
849554417 849554527
849564285 849564395
849568092 849568202
849568609 849568772
849637557 849637667
849639281 849639391
849705309 849705419
849705510 849705620
849719493 849719603
849720092 849720202
849726063 849726173
849729312 849729422
849774038 849774148
849774367 849774477
849775155 849775296
849775363 849775473
849776200 849776310
849776441 849776551
849776657 849776767
849786116 849786226
849786832 849787014
849787303 849787413
849822498 849822608
849823399 849823509
849827632 849827742
849870131 849870241
849892656 849892766
849892830 849892940
849893191 849893301
849894250 849894445
849894767 849894877
849895402 849895512
849896199 849896309
849901325 849901435
849950618 849950728
849951217 849951423
849951485 849951595
849953358 849953468
849958677 849958787
849958853 849958963
849959549 849959659
849959926 849960036
849960079 849960189
849974927 849975136
849976102 849976212
849991422 849991532
849992436 849992546
849994281 849994391
850020508 850020618
850020899 850021009
850061104 850061214
850062186 850062296
850063195 850063305
850064038 850064148
850064564 850064674
850065183 850065293
850065378 850065488
850065845 850065955
850101591 850101701
850101878 850101988
850153573 850153683
850161571 850161681
850164457 850164567
850170214 850170324
850172995 850173105
850173280 850173390
850182175 850182285
850187428 850187538
850240308 850240418
850241301 850241411
850264496 850264606
850271905 850272015
850275996 850276106
850282736 850282846
850283680 850283790
850283857 850283967
850317444 850317554
850320246 850320356
850320420 850320532
850330621 850330731
850331146 850331256
850346061 850346171
850362310 850362420
850362733 850362867
850370167 850370277
850372271 850372381
850395833 850395943
850405260 850405370
850488184 850488294
850488694 850488804
850490762 850490872
850514493 850514603
850532643 850532753
850602905 850603015
850666511 850666621
850674315 850674425
850677420 850677530
850679378 850679488
850692251 850692361
850694594 850694704
850697183 850697293
850715820 850715930
850825149 850825259
850825418 850825528
850825610 850825769
850825849 850826064
850841077 850841187
850841360 850841470
850841590 850841789
850853412 850853522
850857544 850857654
850880233 850880343
850881245 850881355
851033104 851033214
851033418 851033594
851038868 851038978
851071150 851071260
851071982 851072092
851072235 851072450
851072451 851072561
851072625 851072735
851072754 851072939
851072984 851073094
851073290 851073400
851073646 851073756
851074040 851074150
851074570 851074680
851074720 851074830
851075905 851076015
851077039 851077149
851395809 851395919
851395929 851396039
851400060 851400170
851400270 851400567
851400588 851400698
851408099 851408297
851464259 851464369
851466665 851466775
851466847 851467032
851467350 851467460
851467676 851467786
851513388 851513498
851513565 851513675
851520002 851520112
851522153 851522263
851646561 851646671
851660183 851660387
851665982 851666092
851667254 851667364
851667803 851667913
851670390 851670500
851674107 851674217
851674233 851674343
851675352 851675462
851676209 851676319
851698045 851698155
851729491 851729601
851778335 851778445
851780791 851780901
851784637 851784747
851785378 851785488
851786455 851786565
851787956 851788066
851801956 851802066
851802922 851803032
851934655 851934765
851936962 851937072
851937246 851937356
851970266 851970486
851978296 851978406
851978453 851978563
852025694 852025804
852051479 852051589
852065277 852065387
852065620 852065730
852070797 852070907
852076993 852077103
852077692 852077802
852090772 852090882
852098376 852098486
852099039 852099149
852100364 852100474
852101177 852101287
852101920 852102030
852138922 852139032
852139712 852139822
852141666 852141776
852142550 852142660
852143207 852143317
852144747 852144857
852144923 852145033
852147402 852147512
852148899 852149009
852149435 852149545
852156159 852156269
852212321 852212431
852213475 852213585
852213799 852213909
852214275 852214385
852246565 852246675
852247723 852247833
852249066 852249176
852250935 852251045
852251516 852251626
852263403 852263513
852263810 852263920
852264238 852264348
852266202 852266312
852266706 852266816
852266905 852267096
852276909 852277019
852312974 852313084
852314250 852314360
852314863 852314973
852315144 852315254
852323447 852323557
852325454 852325564
852358205 852358315
852360663 852360773
852360794 852360904
852361026 852361136
852361679 852361789
852393217 852393327
852397608 852397718
852398814 852398924
852409138 852409248
852410384 852410494
852410503 852410613
852410662 852410772
852410858 852411022
852411044 852411154
852411708 852411818
852412119 852412229
852412375 852412485
852412570 852412680
852412686 852412796
852412814 852412924
852412980 852413238
852413316 852413426
852413574 852413873
852413948 852414058
852414197 852414434
852414532 852414642
852414917 852415027
852415134 852415244
852415260 852415370
852415671 852415790
852415998 852416108
852416307 852416417
852416934 852417044
852417980 852418090
852418828 852418938
852419093 852419203
852419413 852419523
852419833 852419943
852421841 852421951
852422162 852422272
852422534 852422644
852422811 852422921
852423163 852423273
852423773 852423883
852435981 852436091
852440083 852440193
852458892 852459002
852489585 852489695
852490443 852490553
852493275 852493385
852497245 852497355
852502422 852502532
852504074 852504259
852504336 852504446
852506277 852506387
852507509 852507619
852507884 852507994
852509083 852509193
852520749 852520859
852520871 852520981
852566254 852566364
852568700 852568810
852575031 852575141
852576309 852576419
852577437 852577547
852577722 852577832
852578843 852578953
852580469 852580579
852581738 852581848
852581920 852582030
852583848 852583958
852595322 852595432
852597008 852597118
852627999 852628109
852633514 852633624
852634787 852634999
852635263 852635373
852635663 852635849
852636378 852636488
852636532 852636642
852637074 852637184
852652948 852653058
852661378 852661702
852663184 852663294
852669929 852670039
852671865 852671975
852672267 852672377
852672715 852672825
852679325 852679435
852681573 852681683
852681801 852681911
852687756 852687866
852688280 852688390
852688501 852688611
852688945 852689055
852689105 852689215
852697994 852698104
852712145 852712255
852715726 852715836
852716873 852716983
852745650 852745760
852752869 852752979
852758778 852758888
852758928 852759038
852794529 852794639
852825687 852825797
852920961 852921071
852931501 852931611
852953060 852953170
852953299 852953409
853020883 853020993
853024162 853024272
853034317 853034427
853067354 853067464
853196725 853196835
853264007 853264117
853272972 853273082
853280288 853280398
853290943 853291053
853316786 853316896
853322681 853322791
853324907 853325017
853346156 853346266
853346903 853347070
853347141 853347251
853414940 853415050
853444752 853444862
853453952 853454062
853479051 853479161
853483082 853483192
853522317 853522427
853531632 853531742
853533773 853533883
853535505 853535615
853535678 853535939
853536072 853536182
853536260 853536370
853536426 853536536
853539653 853539820
853551280 853551390
853556487 853556640
853556671 853556852
853557984 853558094
853558133 853558578
853558815 853558925
853558946 853559056
853559163 853559273
853559374 853559622
853559647 853559757
853559844 853559954
853560031 853560141
853560254 853560364
853561061 853561171
853561443 853561650
853561856 853562054
853562147 853562450
853562682 853562792
853563007 853563117
853563235 853563345
853563455 853563565
853563633 853563812
853563971 853564081
853564304 853564472
853564479 853564677
853564704 853564814
853564834 853564944
853564946 853565122
853565296 853565406
853565447 853565557
853565580 853565690
853565925 853566035
853566070 853566180
853571500 853571610
853571884 853571994
853572613 853572723
853572780 853572927
853573360 853573470
853573584 853573694
853573735 853573845
853573937 853574047
853574135 853574245
853575014 853575124
853575321 853575431
853575859 853575969
853577109 853577219
853577648 853577758
853578624 853578734
853595429 853595539
853616964 853617074
853625852 853625962
853628788 853628898
853631045 853631155
853633095 853633205
853635155 853635265
853635354 853635464
853668729 853668839
853673729 853673839
853694139 853694249
853703775 853703885
853709548 853709658
853710505 853710675
853711474 853711584
853712151 853712261
853712297 853712407
853713190 853713300
853713780 853713890
853758767 853758877
853781118 853781228
853782630 853782740
853794949 853795059
853838692 853838802
853839918 853840113
853869011 853869121
853880806 853880916
853883741 853883851
853886336 853886446
853890060 853890170
853896005 853896115
853908042 853908152
853949427 853949537
853950132 853950242
853950308 853950418
853955039 853955149
854041760 854041870
854058631 854058741
854071364 854071474
854074820 854074930
854086955 854087065
854220722 854220832
854249351 854249461
854292417 854292527
854294909 854295019
854295681 854295791
854295857 854296214
854296520 854296630
854297652 854297762
854306096 854306206
854311872 854311982
854316507 854316617
854408770 854408880
854427605 854427715
854476871 854477049
854478778 854478888
854482234 854482344
854483448 854483558
854504684 854504871
854584199 854584309
854585771 854585881
854586000 854586110
854618027 854618137
854658323 854658433
854666478 854666588
854667093 854667203
854705316 854705426
854706545 854706655
854751265 854751375
854751810 854751920
854752345 854752455
854770229 854770339
854794523 854794633
854815543 854815653
854825269 854825379
854826869 854826979
854910438 854910548
854916989 854917099
854917554 854917664
854926280 854926390
855004893 855005003
855011522 855011632
855030915 855031025
855086951 855087061
855158557 855158667
855159193 855159303
855199431 855199541
855220541 855220651
855243392 855243502
855258371 855258481
855268093 855268203
855312461 855312571
855414974 855415084
855418935 855419045
855425172 855425282
855431997 855432107
855433012 855433122
855444153 855444263
855450352 855450462
855452956 855453066
855454094 855454204
855455017 855455127
855455637 855455747
855457679 855457789
855461360 855461470
855476962 855477072
855478241 855478351
855486918 855487028
855487905 855488015
855488439 855488549
855489638 855489748
855491160 855491270
855498035 855498145
855501668 855501778
855506459 855506569
855508570 855508680
855509417 855509527
855526480 855526590
855544104 855544214
855599318 855599428
855599437 855599626
855604234 855604344
855604640 855604750
855605229 855605339
855606347 855606457
855608321 855608431
855609360 855609470
855609488 855609598
855610174 855610284
855610733 855610843
855611391 855611501
855611570 855611680
855611795 855611905
855615398 855615508
855616006 855616116
855620229 855620339
855621045 855621155
855689326 855689436
855691203 855691313
855691767 855691877
855692073 855692183
855692355 855692465
855706440 855706550
855783262 855783372
855809723 855809833
855812523 855812633
855824228 855824338
855862436 855862546
855864493 855864603
855864878 855864988
855865435 855865545
855866238 855866348
855866583 855866693
855866828 855866938
855867703 855867813
855869762 855869872
855870422 855870532
855873787 855873897
855907803 855907913
855943447 855943557
855949023 855949133
855954987 855955097
855955874 855955984
855956440 855956550
855957185 855957295
855959157 855959267
855960509 855960619
855962711 855962821
855963333 855963443
855988716 855988826
856003092 856003202
856003721 856003831
856005099 856005209
856006450 856006560
856007049 856007159
856008264 856008374
856008414 856008524
856023159 856023269
856040840 856041058
856049486 856049596
856049710 856049820
856050237 856050347
856050772 856050882
856067902 856068012
856069680 856069790
856075785 856075895
856105824 856105934
856127818 856127928
856133542 856133652
856135771 856135881
856142938 856143048
856150235 856150345
856167370 856167480
856167500 856167610
856210350 856210460
856210922 856211032
856218072 856218182
856223835 856223945
856224287 856224397
856233107 856233217
856258807 856258917
856276901 856277011
856294330 856294440
856295091 856295201
856295898 856296008
856320430 856320540
856323747 856323857
856331102 856331212
856331357 856331467
856383002 856383112
856396271 856396381
856401857 856401967
856402040 856402150
856411004 856411114
856414768 856414878
856436341 856436451
856437000 856437110
856452905 856453015
856453039 856453149
856466328 856466438
856466657 856466767
856467178 856467288
856500900 856501010
856501087 856501197
856501343 856501453
856502491 856502601
856502675 856502785
856502853 856502963
856503069 856503179
856503460 856503628
856504535 856504645
856505569 856505679
856505712 856505822
856506149 856506259
856509021 856509131
856527710 856527820
856536430 856536540
856571524 856571634
856583613 856583723
856591055 856591165
856613471 856613581
856628849 856628959
856646945 856647055
856647219 856647329
856647747 856647857
856648187 856648297
856648668 856648778
856695738 856695848
856698648 856698758
856699436 856699546
856703019 856703129
856710919 856711029
856718678 856718788
856726125 856726235
856727673 856727783
856728797 856728907
856729522 856729632
856730216 856730326
856739784 856739894
856742928 856743038
856745741 856745963
856746030 856746309
856778889 856778999
856826551 856826725
856827403 856827513
856876843 856876953
856900929 856901039
856922497 856922607
856928236 856928346
856987267 856987377
857007030 857007140
857007984 857008094
857094668 857094778
857131824 857131934
857132311 857132421
857215132 857215362
857215412 857215522
857232585 857232695
857258007 857258117
857262630 857262740
857262747 857262857
857268809 857268919
857334916 857335026
857362643 857362753
857366113 857366223
857402373 857402483
857409520 857409630
857410393 857410503
857411130 857411240
857412754 857412864
857419564 857419674
857419851 857419961
857420946 857421056
857422575 857422685
857424109 857424219
857424446 857424657
857424801 857424911
857426586 857426696
857428082 857428192
857428719 857428829
857435213 857435323
857436357 857436467
857445588 857445698
857461690 857461800
857495724 857495834
857498079 857498189
857500962 857501072
857502331 857502441
857505411 857505521
857507492 857507602
857509765 857509875
857511500 857511670
857512014 857512124
857514490 857514600
857516521 857516631
857522141 857522251
857529338 857529448
857531053 857531234
857544371 857544481
857551803 857551913
857559164 857559274
857582003 857582113
857582213 857582356
857592078 857592188
857596918 857597028
857632791 857632901
857636334 857636444
857637115 857637225
857639331 857639441
857641343 857641453
857645438 857645548
857646091 857646201
857646339 857646449
857652038 857652148
857652713 857652823
857667275 857667385
857668081 857668264
857673914 857674024
857678593 857678703
857678728 857678904
857682030 857682140
857686188 857686298
857688220 857688330
857695468 857695578
857706568 857706678
857707555 857707665
857715502 857715612
857735288 857735398
857735936 857736046
857739013 857739123
857743029 857743139
857755024 857755134
857755485 857755595
857755922 857756032
857756125 857756235
857758151 857758261
857759859 857759969
857760994 857761104
857761667 857761777
857761798 857761908
857762795 857762905
857763711 857763821
857764570 857764680
857765409 857765519
857767572 857767682
857769458 857769568
857773038 857773148
857774439 857774549
857777930 857778040
857778616 857778726
857790240 857790350
857834858 857834968
857846778 857846888
857847663 857847773
857848351 857848461
857848542 857848652
857848947 857849057
857862311 857862421
857862734 857862844
857863315 857863425
857898529 857898639
857900624 857900734
857932506 857932616
857940937 857941047
857945256 857945366
857945703 857945813
857946460 857946570
857947042 857947152
857947763 857947873
857947999 857948109
857949058 857949168
858107575 858107685
858115527 858115637
858116203 858116313
858116469 858116579
858116822 858116932
858116943 858117053
858117344 858117454
858117691 858117801
858118051 858118161
858118990 858119100
858119535 858119645
858120834 858120944
858121147 858121257
858122737 858122847
858132586 858132696
858165025 858165135
858207173 858207283
858217005 858217115
858217758 858217868
858219643 858219753
858268975 858269085
858291795 858291905
858377799 858377909
858390354 858390464
858439728 858439838
858447776 858447886
858447972 858448082
858448408 858448518
858449017 858449127
858449849 858449959
858451127 858451237
858451955 858452065
858453191 858453301
858455603 858455713
858463004 858463218
858463237 858463347
858465397 858465507
858467825 858467935
858470032 858470142
858470353 858470561
858489769 858489879
858528516 858528687
858532044 858532154
858535254 858535364
858556065 858556175
858594465 858594575
858607770 858607880
858608371 858608508
858609102 858609212
858617700 858617810
858620383 858620493
858626653 858626763
858627127 858627237
858643077 858643187
858693365 858693475
858724952 858725062
858741273 858741383
858766018 858766128
858785011 858785121
858785884 858785994
858797946 858798056
858798115 858798225
858805155 858805265
858805822 858805932
858806785 858806895
858819203 858819313
858892100 858892210
858892320 858892430
858951734 858951844
858952236 858952346
858961265 858961375
858963331 858963441
858964074 858964184
858965038 858965148
858973800 858973910
859056872 859056982
859057351 859057461
859058216 859058326
859068987 859069097
859075132 859075242
859075260 859075370
859077723 859077833
859079161 859079271
859080208 859080318
859082345 859082455
859082793 859082903
859083132 859083242
859084715 859084825
859085217 859085327
859085608 859085718
859085900 859086010
859091593 859091703
859093684 859093794
859094148 859094258
859094941 859095051
859095885 859095995
859096242 859096352
859096836 859096946
859097154 859097264
859123617 859123727
859128247 859128357
859128488 859128598
859140892 859141002
859145859 859145969
859182074 859182184
859182779 859182889
859231925 859232035
859232241 859232351
859242788 859242898
859243315 859243425
859281365 859281475
859282780 859282890
859312556 859312666
859312750 859312915
859313762 859313872
859320132 859320242
859348550 859348660
859431749 859431859
859474812 859474922
859477536 859477646
859478077 859478187
859496001 859496111
859551346 859551456
859551642 859551752
859576019 859576129
859591363 859591473
859592249 859592359
859607396 859607506
859656324 859656434
859656531 859656641
859656833 859657015
859659452 859659562
859661443 859661553
859662726 859662836
859704490 859704690
859704720 859704830
859720437 859720547
859720552 859720662
859751626 859751736
859761479 859761589
859781281 859781391
859787094 859787204
859791890 859792000
859795366 859795476
859831600 859831710
859848847 859848957
859898977 859899087
859899109 859899219
859934490 859934600
860000752 860000929
860010994 860011104
860060484 860060594
860061204 860061314
860091132 860091242
860092547 860092657
860094155 860094265
860094458 860094617
860095305 860095415
860095419 860095529
860096933 860097043
860097400 860097510
860097837 860097947
860098649 860098759
860099149 860099259
860099710 860099820
860100114 860100224
860101630 860101777
860102119 860102229
860102375 860102485
860102631 860102776
860103590 860103700
860104150 860104370
860104937 860105178
860106335 860106445
860149693 860149803
860149857 860149967
860160353 860160463
860160520 860160630
860162615 860162725
860166855 860166965
860168685 860168795
860169332 860169442
860169807 860169917
860170439 860170549
860253644 860253754
860264628 860264738
860265547 860265657
860266075 860266185
860266748 860266858
860266879 860266989
860269068 860269178
860269729 860269839
860271245 860271355
860271706 860271816
860273706 860273816
860274366 860274476
860274955 860275065
860276730 860276840
860284327 860284437
860292939 860293049
860356309 860356419
860356647 860356757
860357880 860357990
860364239 860364349
860364351 860364461
860371731 860371841
860371946 860372056
860440193 860440303
860453999 860454109
860478568 860478678
860489469 860489579
860489776 860489886
860490333 860490443
860497450 860497560
860506938 860507048
860507145 860507255
860509667 860509777
860509798 860509908
860510213 860510323
860510600 860510710
860510939 860511049
860527302 860527412
860527874 860527984
860528100 860528274
860550849 860550959
860552184 860552294
860585211 860585321
860624070 860624180
860790284 860790394
860796795 860796905
860796929 860797039
860857378 860857488
860874374 860874484
860879022 860879132
860894438 860894548
860894811 860894921
860947986 860948155
860970708 860970818
860970866 860970976
860990007 860990117
861038238 861038348
861038911 861039021
861040892 861041002
861041438 861041548
861042054 861042164
861042838 861042948
861043349 861043563
861044661 861044771
861055430 861055540
861055925 861056093
861056495 861056605
861064797 861064907
861065744 861065854
861069542 861069652
861071842 861071952
861073825 861073935
861084197 861084307
861089137 861089322
861111712 861111822
861133839 861133949
861175523 861175633
861176339 861176449
861214948 861215162
861233120 861233230
861278794 861278904
861279968 861280078
861306866 861306976
861310029 861310139
861315718 861315914
861390955 861391065
861398713 861398823
861424465 861424575
861428463 861428573
861462523 861462633
861476774 861476884
861477397 861477532
861477855 861477965
861478039 861478149
861478422 861478532
861483183 861483293
861483512 861483622
861484279 861484389
861484395 861484505
861484885 861484995
861485477 861485587
861486479 861486679
861487626 861487736
861489563 861489673
861495226 861495336
861495435 861495623
861501245 861501355
861501526 861501636
861501724 861501834
861504693 861504888
861544085 861544195
861544347 861544558
861566200 861566310
861566434 861566544
861569138 861569306
861577259 861577369
861616381 861616572
861625593 861625703
861629587 861629697
861641348 861641458
861641725 861641835
861644411 861644631
861647528 861647638
861647671 861647781
861650107 861650217
861654558 861654668
861693172 861693282
861693395 861693510
861739770 861739880
861739898 861740008
861740265 861740375
861750941 861751051
861824195 861824305
861843045 861843155
861843783 861843893
861866592 861866702
861886159 861886269
861919907 861920017
861924511 861924621
861924636 861924746
861924771 861924991
861925283 861925393
861931763 861931873
861946268 861946378
861992530 861992640
861992864 861992974
861996881 861996991
862139816 862139926
862159046 862159156
862159447 862159557
862159634 862159744
862159957 862160067
862160614 862160724
862161320 862161430
862163226 862163336
862165238 862165348
862168386 862168496
862168680 862168790
862177032 862177142
862177645 862177838
862179438 862179548
862187307 862187417
862187970 862188080
862207604 862207714
862258337 862258447
862262550 862262660
862278835 862279110
862312808 862312918
862313460 862313618
862324861 862324971
862351895 862352005
862381099 862381209
862381998 862382108
862384727 862384837
862404452 862404562
862408495 862408605
862409253 862409424
862409552 862409662
862409740 862409850
862409896 862410006
862462609 862462719
862521808 862521918
862524764 862524874
862525376 862525486
862533383 862533493
862543209 862543418
862556183 862556293
862556861 862556971
862565809 862565919
862566946 862567056
862568015 862568125
862583635 862583745
862599892 862600002
862600684 862600794
862601522 862601632
862602129 862602239
862605866 862605976
862646157 862646267
862698688 862698798
862701048 862701158
862701518 862701628
862701731 862701841
862701850 862701960
862704854 862704964
862705966 862706076
862706588 862706698
862708806 862708916
862710070 862710180
862711825 862711935
862711981 862712091
862712327 862712437
862713546 862713656
862716230 862716340
862732322 862732432
862733985 862734095
862768797 862768907
862773085 862773195
862773404 862773514
862804280 862804390
862813915 862814025
862855429 862855539
862855565 862855718
862858304 862858414
862858571 862858681
862870012 862870122
862870163 862870273
862870597 862870707
862871536 862871689
862872603 862872713
862872737 862872847
862880083 862880193
862897005 862897115
862942194 862942304
862944117 862944227
862947244 862947354
862948340 862948450
862948648 862948758
862950273 862950383
862954136 862954246
862976646 862976756
863034387 863034497
863052305 863052479
863052655 863052765
863073115 863073225
863073486 863073596
863074305 863074415
863091503 863091719
863119440 863119550
863119618 863119728
863146681 863146791
863147735 863147845
863147848 863147958
863158078 863158188
863158415 863158525
863158629 863158821
863160931 863161142
863161660 863161770
863161822 863162039
863163009 863163119
863163180 863163492
863163540 863163650
863163802 863163912
863164363 863164473
863164678 863164788
863165229 863165339
863165657 863165767
863167006 863167116
863167164 863167487
863167666 863167776
863168012 863168122
863168162 863168272
863168277 863168387
863168771 863168881
863169356 863169466
863169581 863169790
863169910 863170020
863170122 863170232
863201548 863201658
863202521 863202631
863205203 863205313
863205903 863206013
863206780 863206890
863207211 863207321
863216956 863217066
863230100 863230210
863295680 863295790
863301801 863301911
863317378 863317488
863371788 863371898
863372032 863372142
863372219 863372329
863377897 863378007
863401065 863401175
863401394 863401504
863402571 863402681
863402922 863403032
863403042 863403152
863457768 863457878
863459427 863459537
863461397 863461507
863462852 863462962
863464061 863464171
863464482 863464592
863470482 863470731
863474097 863474207
863477234 863477344
863486305 863486599
863486895 863487005
863539877 863539987
863541079 863541189
863547532 863547642
863555464 863555574
863556018 863556128
863557079 863557189
863569300 863569410
863635500 863635610
863637344 863637454
863648267 863648377
863667988 863668098
863668558 863668668
863668691 863668801
863669768 863669878
863670658 863670768
863672349 863672459
863683952 863684062
863713663 863713773
863715656 863715766
863718372 863718482
863719501 863719611
863720713 863720823
863721259 863721369
863734110 863734220
863734363 863734473
863735011 863735121
863770796 863770906
863805585 863805695
863810260 863810370
863830585 863830695
863831067 863831177
863848318 863848428
863848488 863848598
863891664 863891774
863892492 863892602
863893221 863893331
863894733 863894843
863895845 863895955
863898884 863898994
863931139 863931249
863932557 863932667
863932710 863932924
863938116 863938226
863945547 863945657
863951342 863951452
863965458 863965568
863965658 863965834
863966565 863966675
863966849 863966959
863969686 863969796
863971537 863971647
863977652 863977762
863979282 863979392
863982947 863983057
863984370 863984480
863993749 863993859
864014655 864014765
864015265 864015375
864058986 864059096
864059549 864059659
864069322 864069432
864107882 864107992
864131983 864132093
864146468 864146578
864149871 864149981
864150235 864150345
864158796 864158906
864168563 864168673
864193841 864193951
864253432 864253542
864258817 864258927
864267200 864267310
864272182 864272292
864273348 864273458
864274509 864274619
864280527 864280637
864305752 864305862
864314463 864314573
864325509 864325619
864328185 864328295
864328450 864328560
864339200 864339310
864340127 864340237
864340344 864340454
864340784 864340894
864353216 864353326
864354018 864354128
864416215 864416325
864416329 864416439
864417120 864417230
864434089 864434199
864436597 864436707
864437196 864437306
864464145 864464311
864486289 864486493
864494314 864494424
864495374 864495484
864495490 864495600
864495988 864496098
864497671 864497781
864499314 864499424
864501119 864501229
864501607 864501717
864503100 864503313
864503321 864503489
864503582 864503692
864503930 864504057
864505103 864505213
864505448 864505615
864506315 864506425
864510606 864510716
864585219 864585329
864586024 864586190
864586329 864586439
864593460 864593570
864594239 864594349
864604554 864604664
864606926 864607036
864607398 864607508
864607640 864607750
864607773 864607883
864628203 864628313
864673450 864673560
864678546 864678656
864751169 864751279
864751656 864751766
864753358 864753468
864753650 864753760
864753938 864754048
864754273 864754383
864754434 864754544
864761261 864761371
864761531 864761641
864771374 864771484
864778538 864778648
864859055 864859165
864921834 864922009
864922042 864922152
864963097 864963207
864963358 864963468
864968382 864968492
864969406 864969516
865029061 865029171
865029591 865029701
865030608 865030718
865031412 865031522
865055965 865056075
865129586 865129792
865134178 865134288
865181809 865181919
865183437 865183547
865184795 865184905
865185094 865185204
865187635 865187745
865188733 865188936
865189237 865189347
865190292 865190402
865192690 865192800
865193030 865193140
865193992 865194102
865194365 865194475
865196750 865196860
865198283 865198393
865199399 865199509
865200196 865200306
865200636 865200933
865216550 865216660
865217040 865217231
865288842 865288952
865288993 865289103
865330304 865330414
865331579 865331689
865345189 865345299
865346149 865346259
865349007 865349117
865354327 865354437
865397990 865398100
865398574 865398684
865399437 865399547
865465053 865465163
865465497 865465607
865474636 865474746
865490976 865491086
865542465 865542677
865542931 865543041
865557039 865557149
865613979 865614089
865615759 865615869
865615959 865616069
865616823 865616933
865625904 865626014
865668372 865668482
865669676 865669786
865684200 865684310
865695519 865695629
865710708 865710818
865717616 865717726
865718371 865718481
865718647 865718859
865720714 865720824
865720843 865720953
865721414 865721524
865737501 865737611
865737825 865737935
865744042 865744152
865744951 865745061
865745299 865745409
865795311 865795421
865796170 865796280
865798649 865798759
865802071 865802181
865808666 865808776
865824192 865824302
865825036 865825146
865828740 865828850
865828982 865829092
865829363 865829473
865829612 865829828
865853741 865853851
865876524 865876634
865893514 865893624
865947214 865947324
865966160 865966270
865971918 865972028
865982209 865982319
865990577 865990791
865990983 865991093
865991175 865991285
865992328 865992438
866032212 866032322
866075664 866075774
866075817 866075927
866078356 866078466
866079080 866079190
866081699 866081809
866084031 866084141
866084328 866084438
866086263 866086373
866087083 866087193
866099699 866099809
866110357 866110467
866110970 866111080
866112045 866112155
866123135 866123245
866125781 866125891
866129099 866129249
866150399 866150509
866152072 866152265
866159756 866159866
866160056 866160166
866160695 866160805
866161241 866161351
866162809 866162919
866164159 866164269
866164795 866164905
866165823 866165933
866166492 866166602
866166691 866166801
866167962 866168072
866168685 866168795
866169477 866169687
866169854 866169964
866170627 866170737
866170850 866170960
866171037 866171147
866171391 866171501
866171744 866171957
866172227 866172337
866172658 866172768
866173330 866173440
866183546 866183656
866184117 866184227
866209939 866210049
866210390 866210500
866216780 866216890
866217262 866217372
866221938 866222048
866222196 866222306
866222609 866222719
866223061 866223171
866223577 866223687
866225169 866225279
866225480 866225590
866225821 866225931
866226682 866226792
866229748 866229858
866231543 866231653
866231694 866231804
866231953 866232063
866232348 866232458
866232475 866232585
866235993 866236103
866237547 866237729
866241555 866241665
866246021 866246131
866259343 866259453
866318149 866318259
866321893 866322003
866322780 866322890
866325905 866326015
866333482 866333592
866353941 866354051
866354115 866354225
866354768 866354878
866355083 866355256
866355947 866356057
866388761 866388871
866391988 866392098
866396833 866396943
866397897 866398007
866399465 866399636
866401519 866401629
866402072 866402182
866402297 866402407
866410908 866411018
866411263 866411373
866413727 866413837
866414979 866415089
866477792 866477902
866479246 866479356
866490903 866491013
866491627 866491737
866498059 866498169
866498589 866498699
866498809 866498919
866499530 866499640
866500017 866500127
866500300 866500410
866501356 866501466
866524481 866524591
866524782 866524892
866567579 866567689
866569725 866569835
866569844 866569954
866571374 866571484
866571596 866571706
866571794 866571904
866576164 866576274
866578540 866578817
866579906 866580016
866580057 866580167
866580404 866580514
866581347 866581457
866583662 866583772
866593671 866593781
866600581 866600691
866601321 866601541
866601786 866601896
866602319 866602429
866602741 866602851
866603976 866604086
866604159 866604269
866605056 866605220
866605496 866605606
866605762 866605872
866605965 866606199
866658020 866658130
866672706 866672816
866673457 866673652
866674151 866674333
866698419 866698529
866711282 866711392
866711448 866711558
866736411 866736521
866737141 866737251
866762354 866762464
866762657 866762767
866762994 866763188
866770954 866771064
866774057 866774167
866825721 866825831
866827439 866827549
866827557 866827694
866828002 866828112
866829464 866829574
866836132 866836242
866843075 866843185
866850466 866850576
866907168 866907278
866934217 866934327
866934375 866934485
866935978 866936088
866941665 866941775
866944866 866944976
866945462 866945572
866946028 866946138
866946639 866946749
866947077 866947187
866948519 866948629
866949155 866949265
866949553 866949746
866950217 866950327
866950853 866950963
866951409 866951519
866952747 866952857
866953323 866953433
866953901 866954011
866954169 866954279
866954792 866954902
866955651 866955761
866956273 866956383
866956686 866956796
866957000 866957110
866957211 866957321
866961680 866961790
866961847 866962014
866966113 866966277
866989890 866990000
867000105 867000215
867000860 867000970
867006213 867006437
867006477 867006587
867006896 867007116
867008032 867008142
867008199 867008309
867008900 867009010
867009226 867009336
867014595 867014705
867017286 867017396
867017481 867017591
867019119 867019229
867019794 867019904
867021144 867021254
867027857 867027967
867028216 867028326
867028561 867028671
867033730 867033840
867034771 867034881
867035683 867035793
867056198 867056308
867078144 867078254
867081768 867081878
867082772 867082882
867089622 867089732
867092242 867092352
867108854 867108964
867109607 867109717
867109989 867110099
867110529 867110639
867111260 867111370
867120021 867120131
867121051 867121248
867143117 867143227
867174296 867174406
867176039 867176149
867178092 867178202
867191163 867191273
867191770 867191880
867191923 867192033
867206350 867206460
867212083 867212193
867246618 867246728
867275334 867275444
867277029 867277139
867278228 867278338
867281754 867281864
867285593 867285988
867285989 867286099
867298964 867299074
867319763 867319873
867364088 867364198
867378792 867378902
867449555 867449665
867450747 867450857
867501130 867501240
867501702 867501812
867502144 867502254
867502649 867502759
867510467 867510577
867531523 867531720
867532361 867532471
867532571 867532759
867532863 867532973
867533799 867533909
867534017 867534127
867534361 867534471
867534848 867534958
867535566 867535676
867535856 867535966
867536058 867536168
867536234 867536344
867536484 867536594
867558674 867558784
867619682 867619792
867628386 867628496
867628741 867628851
867687405 867687515
867771682 867771792
867774880 867774990
867776572 867776682
867777490 867777600
867779586 867779696
867782784 867782894
867783918 867784028
867784736 867784846
867787327 867787437
867789499 867789609
867791003 867791113
867795622 867795732
867797223 867797333
867815999 867816109
867956641 867956751
868045689 868045799
868046045 868046155
868054782 868054892
868055803 868055913
868057820 868057930
868060781 868060891
868143067 868143177
868144472 868144582
868144588 868144698
868213011 868213121
868214729 868214839
868214906 868215016
868216385 868216495
868220880 868220990
868224671 868224781
868228551 868228661
868232606 868232716
868236187 868236297
868236610 868236720
868247664 868247774
868253679 868253789
868254678 868254788
868262639 868262749
868300766 868300922
868300957 868301090
868301406 868301516
868305174 868305372
868391917 868392027
868401629 868401739
868472288 868472398
868527529 868527639
868540486 868540596
868584291 868584401
868602709 868602819
868603007 868603117
868603233 868603343
868603691 868603801
868608382 868608492
868612601 868612795
868612827 868612937
868631322 868631432
868651846 868651956
868661469 868661579
868662741 868662851
868701168 868701278
868701442 868701552
868720378 868720488
868732590 868732700
868734414 868734524
868735476 868735586
868745028 868745138
868753249 868753359
868794190 868794300
868831846 868831956
868833109 868833312
868851572 868851682
868909135 868909245
868909289 868909399
868919357 868919467
868930303 868930413
868931492 868931602
868932341 868932451
868933254 868933364
868933413 868933613
868933623 868933733
868934563 868934673
868937112 868937222
868937279 868937389
868937524 868937746
868938401 868938582
868938598 868938759
868938804 868939093
868941331 868941441
868942144 868942254
868942436 868942546
868943786 868943896
868943956 868944066
868944363 868944473
868944641 868944780
868987990 868988100
869006687 869006797
869006859 869006969
869007207 869007317
869020200 869020310
869020490 869020600
869060237 869060347
869061493 869061603
869068023 869068133
869164320 869164430
869177770 869177880
869234001 869234111
869255656 869255766
869282799 869283089
869283898 869284008
869367616 869367726
869420148 869420258
869428440 869428550
869437240 869437350
869439124 869439234
869439783 869439893
869442636 869442746
869443733 869443843
869464566 869464676
869465114 869465224
869472332 869472442
869473771 869473881
869505232 869505342
869524299 869524409
869535589 869535699
869540714 869540824
869540921 869541031
869541290 869541400
869542031 869542141
869583597 869583707
869583720 869583995
869600606 869600716
869601416 869601526
869604866 869604976
869613887 869613997
869616265 869616375
869617367 869617477
869617951 869618061
869648699 869648809
869661184 869661294
869668108 869668218
869720577 869720687
869722043 869722153
869773254 869773364
869775234 869775344
869776710 869776820
869777141 869777251
869858202 869858312
869859810 869859920
869868640 869868750
869871452 869871562
869922593 869922703
869931345 869931455
869936327 869936437
869949641 869949751
869950641 869950751
869950939 869951049
869951933 869952043
869954380 869954490
869954896 869955006
869986915 869987025
869992033 869992143
870024112 870024222
870029708 870029818
870034076 870034186
870038684 870038794
870039259 870039369
870058123 870058233
870058453 870058563
870060558 870060668
870067988 870068098
870071463 870071573
870103412 870103522
870103663 870103773
870122292 870122402
870211144 870211254
870214723 870214833
870261899 870262009
870262490 870262600
870262617 870262727
870273267 870273377
870290001 870290234
870292488 870292598
870293443 870293553
870294233 870294343
870296233 870296343
870296940 870297050
870297337 870297447
870298087 870298197
870299684 870299794
870300063 870300173
870302245 870302355
870303664 870303774
870304056 870304166
870304595 870304705
870342116 870342226
870453095 870453282
870467412 870467522
870467990 870468100
870526856 870526966
870535219 870535329
870544906 870545016
870560550 870560660
870561873 870561983
870562075 870562185
870578145 870578255
870578458 870578568
870629014 870629124
870645640 870645844
870716147 870716257
870788355 870788465
870813956 870814066
870815192 870815302
870824948 870825058
870891407 870891517
870939908 870940018
870956303 870956413
870959779 870959889
870991916 870992026
871061229 871061339
871105566 871105676
871105684 871105948
871140979 871141089
871141316 871141426
871143829 871143939
871152418 871152528
871177789 871177899
871178086 871178196
871178632 871178742
871178935 871179045
871179263 871179373
871180038 871180148
871182930 871183040
871184381 871184491
871184654 871184764
871187914 871188024
871188081 871188191
871188427 871188772
871236633 871236743
871241223 871241333
871243430 871243540
871251875 871251985
871272637 871272747
871277325 871277435
871289569 871289679
871290128 871290238
871300090 871300200
871301158 871301268
871312989 871313099
871441442 871441552
871443624 871443734
871522462 871522572
871590273 871590383
871619295 871619405
871653652 871653762
871653879 871653989
871672015 871672125
871679612 871679722
871685674 871685784
871686901 871687011
871695397 871695507
871718972 871719082
871803504 871803614
871857002 871857209
871920982 871921092
871933676 871933786
872015154 872015264
872049099 872049209
872092903 872093013
872103992 872104102
872104563 872104673
872142129 872142239
872142509 872143042
872167779 872167889
872183079 872183189
872201832 872201942
872299574 872299684
872304715 872304825
872315355 872315465
872331580 872331690
872345471 872345581
872345780 872345890
872348617 872348727
872349205 872349315
872349724 872349834
872367562 872367672
872368210 872368320
872374893 872375003
872419754 872419864
872420724 872420834
872442801 872442911
872461197 872461307
872461717 872461827
872635359 872635469
872643799 872643909
872644487 872644597
872645300 872645509
872704671 872704781
872706064 872706174
872706723 872706833
872708235 872708345
872731127 872731237
872731693 872731803
872731818 872731928
872816908 872817076
872817082 872817269
872871893 872872003
872885764 872885874
872886724 872886834
872886988 872887098
872887171 872887281
872887296 872887406
872887682 872887792
872894726 872894836
872895387 872895497
872918013 872918123
872953224 872953334
872970737 872970847
872979797 872979907
872997221 872997331
872997720 872997830
872998198 872998369
873039669 873039779
873039920 873040030
873057754 873057864
873058061 873058171
873060196 873060306
873061424 873061534
873104411 873104521
873137071 873137181
873141108 873141218
873141745 873141855
873222856 873222966
873245572 873245747
873257944 873258054
873274724 873274834
873318429 873318539
873318686 873318796
873413477 873413587
873413989 873414099
873416032 873416142
873424746 873424856
873436439 873436549
873489657 873489767
873489784 873489894
873492843 873492953
873565819 873565929
873566073 873566183
873569294 873569404
873574993 873575103
873583011 873583121
873583456 873583675
873583723 873583833
873583852 873583962
873618100 873618210
873618214 873618324
873631783 873631893
873648738 873648848
873651422 873651532
873652155 873652265
873653141 873653251
873653320 873653430
873653688 873653798
873657118 873657228
873657770 873657880
873658105 873658215
873658739 873658849
873659206 873659316
873659607 873659717
873660243 873660353
873661265 873661375
873665971 873666081
873668106 873668216
873670939 873671049
873677293 873677403
873689401 873689511
873690884 873690994
873713262 873713372
873714550 873714660
873733475 873733585
873734093 873734203
873736112 873736222
873745613 873745723
873769282 873769392
873786061 873786171
873786546 873786656
873806618 873806728
873814254 873814364
873814963 873815073
873834763 873834936
873844508 873844618
873903831 873903941
873915988 873916098
873939379 873939489
873939920 873940030
873940277 873940387
873940389 873940532
873940639 873940829
873940875 873940985
873964106 873964216
874015305 874015415
874023764 874023874
874087553 874087663
874087688 874087798
874088195 874088305
874164219 874164329
874189117 874189227
874265677 874265855
874272867 874272977
874275428 874275538
874275997 874276107
874313432 874313542
874314348 874314458
874348539 874348649
874352749 874352859
874354136 874354246
874360663 874360773
874436873 874436983
874439970 874440080
874478790 874479060
874501481 874501591
874502045 874502155
874514087 874514197
874524806 874524916
874526304 874526414
874530200 874530310
874530389 874530499
874531307 874531417
874536284 874536394
874536624 874536734
874537401 874537511
874567559 874567669
874567965 874568075
874568324 874568434
874622909 874623019
874650115 874650225
874687188 874687298
874695974 874696084
874706767 874706877
874768928 874769038
874802178 874802545
874817612 874817722
874846212 874846322
874868730 874868840
874874462 874874572
874875254 874875364
874878333 874878443
874901674 874901784
874902136 874902246
874952426 874952536
874953185 874953295
