815627850 815627977
815691861 815691988
815719381 815719524
815761380 815761516
815780197 815780332
815837525 815837668
815843596 815843740
815880284 815880420
815886533 815886676
815894765 815894900
815914012 815914156
815962932 815963060
815977748 815977876
815994588 815994715
816001596 816001732
816020397 816020540
816055465 816055625
816077185 816077346
816087846 816088006
816095269 816095429
816107745 816107908
816155163 816155290
816161777 816161905
816251673 816251801
816312249 816312386
816335738 816335873
816351625 816351752
816366393 816366521
816374537 816374673
816383633 816383768
816399426 816399562
816415849 816415985
816430966 816431099
816497346 816497473
816506025 816506162
816552473 816552617
816561769 816561912
816579633 816579769
816597722 816597848
816618873 816619002
816627417 816627552
816639465 816639609
816665017 816665145
816703514 816703643
816782993 816783123
816823928 816824066
816865203 816865337
816885225 816885361
816896017 816896145
816942314 816942448
816957050 816957185
816967369 816967505
816991305 816991442
816996843 816996985
817003433 817003562
817042729 817042856
817064865 817065001
817095913 817096056
817192609 817192744
817201441 817201569
817261562 817261698
817268672 817268800
817299152 817299288
817310761 817310898
817339348 817339475
817356062 817356188
817372932 817373076
817393972 817394100
817403956 817404092
817416348 817416484
817426836 817426964
817444476 817444604
817468035 817468162
817494074 817494219
817500739 817500882
817511546 817511682
817528019 817528146
817554021 817554156
817559980 817560114
817570449 817570593
817645634 817645770
817657585 817657729
817685649 817685778
819335893 819336236
821723053 821723181
821729211 821729359
821734869 821735012
821741487 821741620
821760133 821760261
821781933 821782077
821787548 821787691
821808837 821808981
821832893 821833020
821850637 821850781
821863821 821863949
821897448 821897589
821904581 821904726
821921933 821922060
821933630 821933757
821967477 821967613
822004876 822005005
822031532 822031668
822040405 822040548
822047128 822047263
822058837 822058982
822100284 822100428
822108940 822109076
822117885 822118013
822131085 822131212
822176614 822176758
822191319 822191459
822210609 822210745
822217129 822217257
822279049 822279176
822300337 822300464
822359043 822359167
822369552 822369688
822388664 822388791
822463545 822463673
822543307 822543434
822548860 822549002
822556700 822556835
822577907 822578034
822619124 822619267
822650395 822650524
822705636 822705764
822722036 822722179
822756004 822756149
822779246 822779373
822788918 822789046
822800782 822800926
822817942 822818070
822860550 822860694
822867646 822867773
822898382 822898517
822914334 822914478
822931022 822931157
822939611 822939745
822948303 822948446
822956534 822956669
822963694 822963894
822971566 822971702
822979302 822979430
823044038 823044181
823066302 823066430
823217942 823218086
823255463 823255591
823350694 823350822
823517606 823517741
823525918 823526062
823785938 823786082
823795379 823795514
823862363 823862491
823873667 823873795
823948612 823948740
824035212 824035340
824128980 824129108
824207309 824207444
824214372 824214508
824375141 824375285
824385124 824385332
824470779 824470907
824496764 824496892
824516388 824516516
824526020 824526148
824547388 824547516
824555644 824555788
824615692 824615892
824681108 824681307
824716156 824716284
824780204 824780332
824791716 824791852
824798948 824799075
824839894 824840028
824894564 824894691
824911132 824911332
824925372 824925515
824988052 824988180
825074772 825074907
825092499 825092627
825126916 825127059
825165380 825165508
825220548 825220675
825245404 825245531
825313268 825313412
825407932 825408140
825420659 825420795
825445215 825445341
825471076 825471204
825482075 825482211
825496852 825496980
825522724 825522860
825557812 825557940
825616836 825616964
825622820 825623028
825633108 825633235
825639956 825640099
825666644 825666787
825691620 825691827
825732334 825732469
825747467 825747675
825826780 825826908
825868124 825868251
825884484 825884612
825943572 825943700
825956627 825956755
826013027 826013155
826043531 826043667
826059492 826059620
826107213 826107348
826126908 826127052
826150340 826150476
826177612 826177740
826222926 826223068
826231700 826231843
826241140 826241276
826248076 826248204
826288356 826288499
826296364 826296492
826352524 826352660
826362948 826363084
826377140 826377267
826412229 826412364
826437069 826437196
826448316 826448452
826457836 826457964
826466236 826466364
826473812 826473940
826511990 826512132
826550990 826551189
826593252 826593469
826622732 826622876
826628556 826628700
826660444 826660580
826674549 826674684
826693276 826693420
826707732 826707949
826722356 826722484
826737876 826738004
826748892 826749020
826795030 826795164
826833332 826833476
826852276 826852403
826868830 826868965
826891772 826891909
826897244 826897380
826910532 826910659
826916116 826916260
826953269 826953404
826962949 826963091
826982524 826982740
827026332 827026459
827045724 827045860
827097957 827098100
827123652 827123789
827158164 827158292
827166470 827166604
827192269 827192404
827243556 827243684
827266084 827266212
827295492 827295636
827303156 827303300
827311684 827311829
827332740 827332869
827389924 827390060
827420661 827420804
827452364 827452500
827484710 827484852
827490832 827490974
827516580 827516716
827523652 827523779
827555284 827555419
827571790 827571916
827586029 827586235
827625252 827625450
827643523 827643651
827684476 827684610
827742434 827742570
827752139 827752266
827768955 827769083
827779955 827780098
827795707 827795851
827804155 827804290
827826347 827826483
827865022 827865155
827879051 827879195
827887435 827887579
827893102 827893237
827924915 827925042
827934459 827934587
827942867 827942995
827948275 827948411
827958451 827958594
827970787 827970987
827978404 827978539
827989331 827989474
828002403 828002531
828016163 828016306
828033840 828033981
828054163 828054291
828077803 828077930
828095571 828095715
828148967 828149180
828230835 828230979
828242811 828242947
828272171 828272315
828281347 828281490
828323931 828324067
828337443 828337570
828360403 828360531
828400571 828400714
828485467 828485594
828490931 828491066
828516275 828516418
828525443 828525571
828531939 828532067
828545067 828545210
828578339 828578466
828602803 828602938
828612291 828612418
828622811 828622998
828747684 828747812
828753102 828753245
828768492 828768619
828775492 828775636
828785940 828786085
828842052 828842180
828861500 828861644
828904052 828904180
828922140 828922284
828929812 828929940
828944468 828944603
828968091 828968227
828975212 828975347
829029171 829029315
829044612 829044756
829060236 829060379
829075860 829075996
829115699 829115827
829148460 829148587
829186437 829186564
829217284 829217420
829311068 829311196
829338228 829338372
829346660 829346788
829354604 829354747
829370756 829370972
829377956 829378084
829391252 829391379
829399708 829399916
829442732 829442875
829475476 829475611
829484908 829485036
829508468 829508683
829557292 829557428
829599700 829599843
829647621 829647755
829655756 829655900
829680261 829680387
829686124 829686267
829714212 829714347
829758348 829758476
829767051 829767251
829772541 829772667
829785188 829785316
829826341 829826467
829836036 829836164
829864076 829864211
829892781 829892907
829904502 829904644
829915747 829915891
829945835 829945963
829980564 829980700
829988021 829988164
830005643 830005787
830052092 830052236
830059316 830059444
830111252 830111461
830129372 830129500
830138781 830138924
830156172 830156307
830202462 830202596
830214452 830214580
830242707 830242835
830271181 830271315
830285261 830285396
830301364 830301491
830320421 830320548
830347396 830347541
830357836 830357972
830372508 830372636
830426525 830426660
830454676 830454884
830465108 830465244
830490332 830490468
830495764 830495901
830503036 830503165
830521068 830521196
830539125 830539324
830655716 830655852
830667724 830667931
830697796 830697923
830705701 830705836
830744908 830745044
830758996 830759124
830775943 830776068
830782555 830782700
830812011 830812140
830825012 830825141
830849996 830850124
830864221 830864348
830918701 830918836
830931827 830931971
830940868 830941004
830954012 830954221
831017924 831018061
831028623 831028757
831038044 831038188
831052588 831052715
831065217 831065412
831083892 831084021
831118836 831118971
831187332 831187476
831203652 831203781
831214621 831214748
831261826 831262042
831267482 831267610
831292914 831293058
831306434 831306570
831362602 831362730
831385850 831385977
831394002 831394202
831404754 831404898
831410330 831410457
831429042 831429186
831439650 831439849
831450786 831450914
831495409 831495553
831523770 831523914
831545931 831546058
831556218 831556353
831563250 831563377
831569050 831569194
831622996 831623131
831633078 831633221
831638780 831638916
831644891 831645091
831654196 831654339
831662591 831662717
831677923 831678059
831704995 831705211
831717516 831717644
831735027 831735163
831746212 831746355
831758868 831759004
831773028 831773171
831791972 831792100
831824763 831824891
831881732 831881876
831944795 831944939
831953108 831953243
831986844 831986980
831995908 831996052
832487895 832488094
832554835 832554968
832561926 832562054
832571313 832571445
832588535 832588662
832595382 832595518
832601494 832601621
832608072 832608198
832654862 832654991
832661655 832661791
832737702 832737838
832748238 832748453
832755502 832755718
832764702 832764846
832786679 832786805
832817086 832817214
832849062 832849206
832885686 832885831
832901377 832901512
832927582 832927710
832948422 832948558
832961478 832961606
832968918 832969062
832980318 832980462
832988155 832988287
833002622 833002751
833062804 833062940
833086067 833086274
833099083 833099211
833108915 833109050
833125627 833125755
833174475 833174620
833193340 833193474
833201700 833201906
833220587 833220723
833242931 833243060
833257547 833257674
833289931 833290059
833336444 833336571
833363995 833364140
833403340 833403466
833413731 833413860
833429380 833429506
833437043 833437250
833463234 833463370
833470667 833470810
833484731 833484860
833494620 833494754
833510821 833510963
833519530 833519660
833535045 833535172
833545971 833546115
833572027 833572171
833579354 833579490
833596580 833596707
833608930 833609066
833636347 833636484
833675261 833675404
833682965 833683109
833712381 833712509
833717973 833718101
833728038 833728172
833763733 833763869
833800893 833801037
833811333 833811461
833826605 833826742
833841006 833841133
833874454 833874597
833903997 833904125
833913637 833913772
833941901 833942108
834040035 834040163
834051675 834051811
834106579 834106723
834115259 834115386
834124764 834124908
834135268 834135412
834146107 834146251
834169428 834169564
834182524 834182651
834190228 834190356
834210060 834210195
834231684 834231820
834268635 834268779
834278068 834278212
834286476 834286684
834314636 834314844
834334204 834334332
834346164 834346372
834372308 834372436
834385707 834385843
834405820 834405964
834421620 834421763
834431876 834432004
834448660 834448803
834484270 834484412
834491980 834492108
834508036 834508163
834558316 834558444
834634659 834634803
834677764 834677892
834717044 834717171
834729916 834730060
834741779 834741907
834787971 834788115
834817524 834817660
834829886 834830020
834879195 834879325
834897675 834897874
835007900 835008044
835034228 835034355
835062811 835062947
835085779 835085915
835110884 835111011
835125036 835125179
835135707 835135914
835154566 835154691
835186418 835186546
835199565 835199691
835229299 835229444
835244964 835245108
835251659 835251787
835257686 835257828
835265171 835265307
835270699 835270844
835291991 835292125
835304526 835304659
835323988 835324131
835355259 835355395
835377552 835377676
835388355 835388485
835397971 835398098
835422125 835422251
835429939 835430066
835439699 835439835
835477772 835477908
835495836 835495931
835514885 835515028
835525996 835526141
835541525 835541668
835548821 835548947
835562924 835563141
835574932 835575061
835584116 835584261
835626468 835626604
835652652 835652788
835710076 835710220
835735196 835735326
835764237 835764373
835784574 835784788
835793021 835793148
835868041 835868175
835883245 835883380
835897941 835898069
835915237 835915381
835928725 835928869
835934788 835934924
835942509 835942644
835967741 835967885
835979965 835980101
835988877 835989021
836031773 836031908
836047965 836048109
836056157 836056284
836087309 836087516
836112213 836112341
836139581 836139709
836152477 836152693
836160893 836161021
836169293 836169493
836203444 836203572
836234485 836234612
836260429 836260565
836282437 836282581
836365845 836365973
836406813 836406941
836416509 836416652
836442376 836442518
836451429 836451572
836490173 836490317
836509341 836509468
836530862 836531004
836575733 836575869
836584125 836584269
836600317 836600460
836613565 836613693
836632021 836632149
836637493 836637621
836644513 836644639
836660965 836661093
836706427 836706554
836719523 836719666
836733907 836734051
836747427 836747554
836811530 836811665
836818052 836818179
836846716 836846859
836852738 836852866
836863666 836863793
836884642 836884786
836902578 836902714
836931586 836931722
836962660 836962802
836968898 836969042
837033138 837033282
837051306 837051433
837076844 837076979
837129706 837129841
837140730 837140866
837147170 837147306
837168290 837168425
837179930 837180138
837187578 837187706
837199802 837199938
837209522 837209730
837230626 837230762
837241458 837241602
837247489 837247633
837313104 837313230
837372095 837372223
837393844 837393969
837399855 837399983
837408920 837409055
837437320 837437455
837467076 837467221
837480213 837480348
837498396 837498524
837511116 837511252
837570915 837571051
837587155 837587300
837616195 837616330
837630044 837630187
837635930 837636059
837653013 837653140
837715843 837715987
837737011 837737140
837745795 837745940
837753940 837754082
837765555 837765770
837775684 837775827
837801227 837801371
837815186 837815314
837834731 837834862
837856171 837856307
837912758 837912884
837927492 837927621
837939308 837939435
837950588 837950732
837994804 837994940
838003916 838004044
838017764 838017901
838025908 838026044
838049885 838050012
838069308 838069523
838086764 838086971
838092221 838092355
838098068 838098212
838150036 838150180
838176924 838177051
838183164 838183301
838199326 838199462
838210652 838210787
838221772 838221900
838227541 838227741
838240581 838240723
838286974 838287109
838309061 838309188
838331916 838332051
838352795 838352931
838368044 838368172
838375476 838375612
838383084 838383220
838407165 838407292
838415068 838415195
838421365 838421500
838433861 838433996
838458486 838458613
838468907 838469115
838498572 838498700
838504716 838504843
838528443 838528587
838545878 838546021
838557596 838557739
838577836 838577980
838587363 838587491
838597124 838597267
838621004 838621147
838647523 838647739
838660062 838660205
838693908 838694052
838718030 838718156
838725604 838725748
838733708 838733836
838744852 838744979
838748547 838752689
838753359 838753477
838753419 838756579
838758450 838766527
838793580 838793706
838812995 838813131
838838251 838838459
838874875 838875011
838891327 838891469
838909771 838909987
838921371 838921507
838979371 838979507
838992171 838992299
839015059 839015267
839031844 839031988
839059908 839060035
839078492 839078699
839101171 839101307
839122892 839123019
839147595 839147723
839158467 839158595
839164355 839164491
839175427 839175555
839210035 839210163
839221972 839222107
839233220 839233348
839246356 839246491
839262924 839263068
839276236 839276435
839283452 839283652
839290660 839290788
839328637 839328781
839352167 839352303
839380968 839381103
839401110 839401238
839415366 839415574
839432358 839432502
839441422 839441558
839447237 839447381
839466888 839467031
839483870 839484085
839504486 839504630
839518406 839518550
839530996 839531132
839546684 839546811
839562444 839562652
839575164 839575292
839589302 839589518
839611848 839611991
839617822 839617950
839654653 839654797
839660398 839660605
839670222 839670366
839735581 839735709
839743100 839743316
839753941 839754069
839766261 839766397
839784750 839784877
839817547 839817691
839824971 839825107
839859154 839859362
839882131 839882259
839891858 839892002
839904627 839904763
839916410 839916618
839949026 839949162
839969684 839969820
839988484 839988619
840010196 840010331
840019572 840019708
840025380 840025508
840047819 840047963
840074460 840074588
840094371 840094499
840159772 840159899
840183499 840183635
840198382 840198510
840214566 840214693
840255086 840255230
840269965 840270101
840288477 840288605
840314261 840314388
840331725 840331852
840367884 840368020
840375356 840375484
840384292 840384421
840394301 840394443
840414708 840414844
840455621 840455747
840487292 840487420
840502341 840502468
840519332 840519468
840525748 840525964
840544756 840544901
840558948 840559084
840566828 840566971
840596307 840596435
840608621 840608836
840620270 840620412
840645292 840645436
840659692 840659820
840669741 840669868
840680772 840680980
840700124 840700252
840709004 840709132
840736188 840736324
840750662 840750796
840756116 840756244
840781908 840782044
840794276 840794421
840804012 840804227
840812652 840812781
840838844 840838980
840853381 840853508
840868492 840868635
840889347 840889475
840929093 840929222
840956782 840956926
841000277 841000404
841011037 841011165
841038157 841038301
841093029 841093173
841119782 841119924
841128269 841128397
841150502 841150628
841167443 841167577
841183609 841183745
841195020 841195146
841224429 841224571
841244065 841244201
841251049 841251185
841281692 841281827
841289217 841289354
841329889 841330033
841337556 841337689
841356545 841356753
841387417 841387545
841412585 841412714
841422394 841422601
841441634 841441760
841486555 841486681
841538340 841538548
841577260 841577388
841625244 841625388
841644875 841645003
841654564 841654707
841685053 841685197
841698572 841698708
841705956 841706099
841739260 841739395
841753308 841753436
841767276 841767420
841776892 841777100
841785052 841785180
841802364 841802508
841811036 841811172
841820123 841820251
841832996 841833140
841842756 841842900
841849843 841849979
841864980 841865108
841886837 841886965
841974236 841974363
841986316 841986460
842016964 842017108
842027563 842027699
842033164 842033307
842045068 842045212
842053692 842053828
842060469 842060611
842076060 842076196
842091748 842091883
842103540 842103668
842151835 842151962
842158403 842158547
842197227 842197363
842203420 842203619
842217515 842217715
842227027 842227155
842253675 842253819
842259932 842260068
842287995 842288139
842300443 842300578
842430571 842430707
842459827 842459955
842480443 842480578
842511315 842511443
842516779 842516907
842530819 842530946
842634284 842634492
842642659 842642795
842659459 842659587
842707506 842707650
842746083 842746220
842759507 842759643
842765747 842765874
842791411 842791541
842819131 842819340
842862907 842863034
842882931 842883074
842895661 842895803
842934387 842934515
842963380 842963523
842985483 842985627
842999301 842999443
843010909 843011034
843021060 843021187
843058212 843058340
843083667 843083795
843095951 843096077
843111780 843111907
843121611 843121746
843153544 843153677
843162420 843162563
843173531 843173675
843203061 843203187
843214915 843215059
843234324 843234452
843241971 843242100
843255588 843255716
843277901 843278107
843301684 843301811
843365588 843365731
843384118 843384252
843421252 843421387
843481132 843481267
843497092 843497221
843516964 843517164
843538676 843538803
843545612 843545755
843560605 843560740
843580844 843580972
843686100 843686227
843699998 843700125
843717100 843717243
843747852 843747981
843761796 843761932
843770980 843771107
843790252 843790381
843885165 843885292
843896421 843896628
843921348 843921491
843960334 843960462
843974972 843975115
843986996 843987124
844047006 844047149
844064236 844064381
844101981 844102108
844108092 844108221
844128502 844128630
844141999 844142134
844161418 844161560
844199302 844199446
844226718 844226846
844232262 844232406
844242598 844242726
844285939 844286075
844294034 844294170
844382570 844382698
844389275 844389402
844402163 844402291
844474731 844474866
845349987 845350131
845389740 845389866
845429692 845429820
845453067 845453211
845476507 845476634
845520222 845520347
845595196 845595331
845629221 845629365
845680101 845680227
845697301 845697436
845814101 845814227
845983298 845983504
845994513 845994641
846010979 846011105
846075978 846076112
846083121 846083248
846093753 846093898
846110089 846110232
846125793 846125928
846206538 846206665
846219904 846220048
846225464 846225608
846237042 846237178
846248872 846249002
846272481 846272609
846280298 846280424
846308962 846309088
846323033 846323161
846332129 846332258
846393676 846393804
846400195 846400331
846412606 846412749
846456080 846456286
846463927 846464062
846488351 846488494
846521871 846522015
846551831 846551966
846558911 846559111
846565735 846565863
846602176 846602311
846615463 846615599
846643191 846643319
846654103 846654247
846660319 846660455
846668375 846668502
846677415 846677551
846697951 846698094
846710007 846710135
846728258 846728385
846804374 846804574
846822974 846823118
846834334 846834462
846918060 846918196
846946364 846946492
847016501 847016636
847035908 847036052
847096516 847096644
847117268 847117475
847133428 847133564
847190860 847191004
847201820 847201947
847213876 847214004
847267252 847267395
847298060 847298204
847332654 847332780
847349020 847349155
847357980 847358108
847373452 847373587
847479772 847479972
847494419 847494619
847503636 847503851
847519108 847519244
847530020 847530147
847541804 847541948
847784575 847784703
847804368 847804575
847810199 847810343
847875343 847875479
847904495 847904631
847918463 847918591
847962128 847962254
847981911 847982047
847989351 847989488
847994971 847995097
848008175 848008311
848030391 848030519
848053743 848053879
848080519 848080648
848089775 848089919
848137191 848137328
848147369 848147495
848205501 848205636
848211612 848211748
848228364 848228507
848238596 848238741
848291388 848291532
848313212 848313348
848385228 848385365
848396236 848396380
848408948 848409084
848421421 848421563
848456452 848456581
848476062 848476196
848488828 848488955
848498885 848499021
848507844 848507972
848517148 848517291
848522924 848523051
848531964 848532101
848543620 848543755
848613668 848613796
848623005 848623204
848687021 848687155
848712942 848713156
848722404 848722531
848728268 848728411
848743916 848744044
848750387 848750523
848783456 848783584
848789377 848789504
848803353 848803481
848829673 848829817
848848025 848848152
848858921 848859129
848877953 848878096
848889305 848889513
848899768 848899904
848936329 848936456
848956832 848956976
848995145 848995288
849002721 849002857
849008817 849008961
849014952 849015096
849056617 849056816
849072624 849072768
849120665 849120793
849129169 849129297
849172425 849172552
849185753 849185897
849197481 849197608
849220512 849220640
849234913 849235049
849240377 849240513
849263945 849264072
849278656 849278784
849309880 849310080
849325113 849325241
849336457 849336657
849360977 849361113
849430803 849430931
849449708 849449844
849558427 849558570
849584379 849584522
849613146 849613346
849689467 849689603
849717651 849717787
849731050 849731178
849740027 849740155
849759354 849759498
849770211 849770355
849795075 849795210
849831939 849832067
849875514 849875650
849955635 849955763
849967322 849967450
850001372 850001507
850039412 850039556
850115771 850115907
850122316 850122523
850133812 850133941
850166902 850167028
850179636 850179763
850190764 850190908
850271707 850271834
850299187 850299314
850332115 850332260
850345483 850345620
850368803 850368931
850376186 850376322
850383739 850383882
850394603 850394731
850422051 850422179
850444091 850444226
850455220 850455363
850495020 850495146
850508867 850509003
850527219 850527363
850534995 850535122
850562820 850562946
850604885 850605101
850620374 850620516
850630525 850630669
850679068 850679196
850693749 850693965
850724774 850724901
850773854 850774053
850853293 850853420
850866261 850866397
850873574 850873701
850899549 850899693
850924797 850924934
850931205 850931341
850955629 850955765
850979677 850979804
851044789 851044917
851069661 851069804
851078669 851078869
851092973 851093173
851122894 851123028
851143781 851143917
851227525 851227661
851281692 851281827
851288941 851289076
851300884 851301012
851310588 851310715
851343701 851343835
851351661 851351788
851359316 851359460
851368884 851369020
851379988 851380124
851397982 851398108
851419874 851420010
851446443 851446571
851458691 851458834
851475939 851476075
851484474 851484618
851525731 851525867
851533795 851533939
851545714 851545850
851579395 851579530
851601178 851601306
851630978 851631106
851643131 851643267
851665348 851665491
851691827 851691955
851697508 851697651
851747683 851747827
851761668 851761884
851806587 851806723
851815020 851815235
851820908 851821036
851848892 851849019
851919356 851919492
851928667 851928803
851940460 851940596
851970204 851970334
852021612 852021739
852058708 852058852
852184211 852184355
852192514 852192650
852258387 852258514
852305818 852306026
852332411 852332539
852347178 852347322
852366107 852366235
852388451 852388586
852430768 852430904
852438567 852438711
852454857 852455056
852491192 852491328
852499791 852499920
852516232 852516368
852534568 852534696
852547944 852548072
852608857 852608992
852624992 852625119
852692048 852692192
852734136 852734279
852768984 852769127
852797697 852797839
852817224 852817360
852831320 852831447
852847064 852847192
852853759 852853967
852881671 852881799
852913400 852913527
852945857 852945983
852965392 852965528
852974623 852974760
852987048 852987192
853071452 853071581
853086116 853086244
853092276 853092475
853108061 853108261
853121155 853121284
853129876 853130012
853162244 853162380
853177235 853177363
853194988 853195124
853230885 853231028
853238275 853238420
853246596 853246795
853260221 853260356
853272868 853273011
853283461 853283588
853289796 853289925
853357492 853357620
853365396 853365541
853390988 853391115
853396748 853396884
853453796 853453931
853489604 853489741
853506981 853507115
853591124 853591251
853769132 853769268
853860012 853860139
853941420 853941564
853956292 853956435
854008212 854008339
854015428 854015571
854034371 854034587
854117301 854117501
854134773 854134909
854161021 854161156
854187693 854187901
854253109 854253236
854259749 854259885
854276861 854276988
854300508 854300652
854314565 854314693
854338861 854338988
854355045 854355189
854362492 854362620
854381757 854381885
854412365 854412493
854456285 854456412
854492293 854492437
854506276 854506404
854552021 854552149
854579773 854579900
854588710 854588837
854616669 854616877
854645181 854645317
854650925 854651053
854668877 854669005
854675973 854676101
854682669 854682805
854690348 854690484
854698997 854699133
854713205 854713412
854719292 854719436
854729189 854729332
854736477 854736613
854760901 854761029
854778644 854778844
854797317 854797461
854848536 854848665
854862146 854862282
854913329 854913545
854932865 854933001
854946785 854946929
854957752 854957882
854968553 854968697
854987512 854987656
855013225 855013352
855020713 855020841
855045224 855045352
855068602 855068737
855091833 855091962
855101185 855101312
855115442 855115569
855129176 855129312
855137112 855137256
855151522 855151657
855157728 855157856
855167202 855167345
855182249 855182377
855207713 855207857
855232009 855232216
855276952 855277082
855309256 855309402
855321089 855321305
855336688 855336832
855362073 855362202
855379482 855379681
855392113 855392242
855405377 855405521
855414106 855414313
855483066 855483202
855514194 855514322
855520146 855520281
855551674 855551801
855561746 855561874
855574897 855575034
855625578 855625714
855632418 855632546
855643011 855643217
855669571 855669697
855889740 855889868
855918140 855918268
855928397 855928597
855954932 855955044
856074178 856074306
856104386 856104530
856122586 856122722
856132074 856132202
856169937 856170081
856186730 856186866
856197010 856197154
856214378 856214578
856244498 856244634
856253362 856253570
856261865 856262009
856317505 856317641
856338842 856338986
856418690 856418817
856432978 856433114
856446602 856446737
856457482 856457618
856500169 856500385
856539802 856539938
856546450 856546594
856558857 856558993
856584642 856584786
856603834 856603978
856612538 856612674
856624762 856624889
856663434 856663562
856670626 856670762
856683730 856683865
856707681 856707817
856713498 856713633
856754685 856754821
856766988 856767188
856783269 856783397
856797764 856797892
856816741 856816885
856848934 856849061
856897637 856897781
856951869 856952004
856992133 856992269
857015037 857015164
857025701 857025829
857038276 857038412
857053813 857053941
857060748 857060892
857085333 857085477
857105477 857105605
857110925 857111053
857136773 857136901
857148317 857148461
857192469 857192604
857208405 857208540
857219717 857219844
857265509 857265653
857299222 857299356
857318902 857319037
857364532 857364676
857373862 857373997
857384469 857384606
857436285 857436422
857457829 857457956
857489037 857489165
857524453 857524582
857532184 857532325
857547565 857547692
857574237 857574364
857590766 857590973
857638029 857638172
857644702 857644829
857656822 857656948
857713877 857714006
857733062 857733206
857789822 857789965
857800943 857801069
857808581 857808708
857814189 857814316
857831069 857831213
857888013 857888222
857914182 857914325
857927388 857927588
857936862 857936996
857971342 857971485
857989332 857989461
858007517 858007646
858018565 858018692
858031469 858031575
858054477 858054676
858079445 858079572
858091222 858091357
858105303 858105516
858127773 858127902
858134316 858134452
858194645 858194788
858200702 858200828
858209262 858209389
858227156 858227301
858272223 858272349
858298133 858298342
858310756 858310886
858329542 858329677
858335469 858335606
858365453 858365597
858395909 858396053
858403525 858403662
858419702 858419837
858425373 858425502
858459148 858459284
858477772 858477981
858490884 858491028
858503557 858503773
858515149 858515285
858553932 858554062
858564792 858564920
858579831 858579975
858591488 858591615
858603792 858603928
858628512 858628640
858634528 858634656
858666744 858666872
858717760 858717896
858730951 858731167
858738592 858738719
858765952 858766064
858773256 858773400
858784200 858784328
858800472 858800608
858838008 858838136
858888600 858888728
858903864 858904000
858919456 858919584
858933968 858934112
858951336 858951472
858990000 858990144
858998088 858998215
859007888 859008016
859018240 859018368
859028543 859028671
859069776 859069904
859115320 859115455
859126464 859126600
859189944 859190080
859195880 859196008
859229599 859229743
859269880 859270007
859296005 859296148
859310861 859310989
859318748 859318884
859324749 859324876
859340669 859340813
859360637 859360780
859379276 859379404
859397469 859397597
859446989 859447188
859454821 859454949
859460901 859461029
859469701 859469828
859488973 859489109
859522213 859522357
859595837 859595964
859607197 859607333
859615676 859615820
859626301 859626428
859637597 859637733
859643308 859643444
859690130 859690258
859714762 859714889
859730570 859730706
859760810 859761019
859812626 859812755
859826835 859826961
859840155 859840290
859865330 859865465
859878635 859878762
859936890 859937098
859945578 859945706
859957555 859957689
859975738 859975875
859993578 859993706
859999042 859999186
860006074 860006217
860023618 860023746
860031770 860031915
860056995 860057139
860065434 860065578
860120877 860121005
860153052 860153182
860213725 860213852
860232302 860232429
860248509 860248646
860281773 860281901
860289589 860289733
860295717 860295846
860324797 860324926
860354543 860354686
860419006 860419142
860452846 860453045
860467877 860468077
860478508 860478636
860501693 860501837
860521622 860521748
860535293 860535437
860547165 860547293
860561813 860561957
860573092 860573236
860610157 860610372
860632252 860632388
860653422 860653557
860661076 860661221
860679302 860679445
860685476 860685606
860695469 860695596
860706717 860706926
860756942 860757068
860768253 860768389
860779942 860780084
860791853 860791997
860832197 860832333
860846749 860846884
860881151 860881286
860893903 860894031
860907510 860907654
860919063 860919207
860951135 860951271
860963894 860964022
860976535 860976743
861007735 861007879
861071775 861071894
861077263 861077399
861102239 861102367
861111318 861111462
861119359 861119486
861158479 861158607
861169174 861169318
861183695 861183831
861193071 861193215
861200110 861200254
861236047 861236174
861244399 861244615
861274671 861274807
861296679 861296822
861306479 861306607
861342671 861342807
861354127 861354262
861369255 861369383
861405726 861405854
861419279 861419423
861438582 861438718
861510685 861510813
861549069 861549197
861560133 861560268
861591333 861591460
861599301 861599429
861611948 861612092
861621765 861621908
861633269 861633397
861649605 861649732
861659741 861659949
861676900 861677036
861687973 861688116
861694853 861694997
861711701 861711900
861756077 861756213
861771573 861771700
861778077 861778213
861788021 861788149
861795604 861795732
861817701 861817829
861832677 861832812
861939364 861939500
861954509 861954637
861961517 861961733
861978717 861978844
861990069 861990205
862003180 862003308
862032140 862032268
862038581 862038724
862049669 862049813
862116908 862117035
862134076 862134212
862151940 862152076
862167761 862167897
862174634 862174761
862200585 862200713
862216946 862217074
862246842 862246971
862289545 862289673
862311955 862312082
862326098 862326234
862354138 862354265
862383562 862383697
862420132 862420266
862431314 862431531
862471931 862472057
862492211 862492354
862575906 862576042
862611402 862611530
862628802 862628946
862656691 862656826
862742117 862742332
862747677 862747813
862765485 862765622
862811462 862811597
862834013 862834213
862841309 862841437
862900822 862900949
862919613 862919742
862927317 862927517
862966302 862966444
862974765 862974902
862981277 862981405
863002302 863002502
863011542 863011677
863041949 863042077
863062613 863062756
863095573 863095716
863126230 863126356
863175148 863175276
863181462 863181588
863213069 863213196
863228189 863228326
863251277 863251405
863273502 863273628
863297740 863297876
863305893 863306028
863316173 863316309
863325140 863325348
863346917 863347061
863353100 863353236
863376045 863376181
863382108 863382244
863389004 863389132
863405445 863405573
863433061 863433197
863445964 863446092
863517925 863518069
863530341 863530469
863595356 863595492
863615621 863615749
863624764 863624980
863631405 863631548
863689085 863689228
863694709 863694836
863713108 863713236
863728357 863728485
863740140 863740276
863748205 863748348
863755333 863755461
863763310 863763517
863780701 863780844
863789989 863790133
863799052 863799180
863819797 863819925
863862468 863862604
863874365 863874493
863902437 863902572
863908789 863908925
863920436 863920572
863942189 863942317
863955341 863955476
863963493 863963621
863982172 863982380
863988909 863989052
864000869 864001005
864008724 864008852
864021309 864021437
864030469 864030613
864068332 864068476
864077605 864077748
864094277 864094405
864123693 864123837
864171293 864171421
864187340 864187476
864224277 864224412
864230461 864230604
864241685 864241821
864252348 864252492
864270005 864270133
864282493 864282628
864291141 864291269
864303564 864303700
864358541 864358677
864375469 864375613
864392820 864392964
864421421 864421629
864428196 864428324
864469557 864469765
864529168 864529296
864550984 864551119
864562752 864562896
864596825 864596952
864603711 864603847
864641048 864641175
864664639 864664784
864676585 864676720
864696385 864696527
864708288 864708416
864714048 864714256
864726225 864726351
864740112 864740256
864760785 864760928
864807947 864808075
864814259 864814394
864825747 864825883
864842674 864842810
864850683 864850820
864871994 864872139
864885451 864885651
864901810 864901954
864924987 864925131
864984637 864984773
865016036 865016164
865049412 865049549
865067245 865067382
865073429 865073557
865088806 865088942
865137525 865137652
865146422 865146622
865222029 865222173
865229332 865229462
865259982 865260125
865273846 865273989
865301623 865301749
865308613 865308742
865320308 865320445
865327229 865327436
865339997 865340142
865370102 865370246
865409669 865409812
865439622 865439765
865447782 865447925
865457637 865457782
865464509 865464651
865485646 865485773
865492662 865492788
865534102 865534237
865576182 865576317
865596229 865596356
865624721 865624848
865683313 865683441
865725857 865725993
865748625 865748769
865780337 865780465
865791008 865791224
865810977 865811121
865816865 865817009
865896497 865896633
865902209 865902409
865945672 865945816
866007025 866007160
866014505 866014641
866057512 866057656
866062928 866063064
866071497 866071624
866108057 866108265
866114657 866114873
866133937 866134065
866614433 866614569
866684780 866684916
866690371 866690515
866716387 866716603
866750395 866750531
866761844 866761972
866770188 866770388
866779539 866779667
866794644 866794780
866804827 866804955
866818964 866819092
866834251 866834379
867070028 867070228
867131052 867131196
867149316 867149461
867200364 867200500
867238285 867238421
867258941 867259075
867291164 867291301
867313755 867313971
867336781 867336908
867350388 867350531
867394772 867394901
867403907 867404035
867441972 867442101
867476627 867476771
867494901 867495026
867506235 867506380
867571263 867571390
867588870 867588997
867603198 867603326
867614573 867614702
867633143 867633286
867646838 867647037
867662574 867662703
867670269 867670405
867676397 867676533
867684614 867684758
867695854 867695990
867729965 867730093
867739014 867739142
867763886 867764013
867806710 867806847
867820213 867820357
867833806 867833934
867856526 867856669
867867967 867868102
867879367 867879493
867887878 867888087
867895367 867895503
867901143 867901287
867907270 867907406
867915854 867915983
867925414 867925558
867941053 867941263
867949374 867949517
867968526 867968669
867985030 867985166
867994558 867994703
868008046 868008182
868032918 868033062
868088942 868089069
868156692 868156828
868165020 868165156
868200092 868200308
868258316 868258444
868265555 868265700
868288660 868288876
868309892 868310036
868324740 868324883
868338804 868338932
868347156 868347292
868374044 868374172
868408380 868408508
868431292 868431428
868454340 868454475
868474883 868475011
868489660 868489876
868504915 868505059
868518508 868518652
868529748 868529892
868589508 868589652
868598179 868598307
868623379 868623515
868635796 868635940
868645516 868645660
868667884 868668011
868674084 868674220
868681700 868681828
868744683 868744811
868756148 868756356
868763580 868763708
868770740 868770868
868776283 868776427
868842805 868842932
868849837 868850053
868855469 868855605
868889468 868889596
868960509 868960636
868969317 868969445
868990477 868990613
868998653 868998797
869015781 869015916
869026613 869026741
869042916 869043044
869081061 869081196
869088301 869088429
869097964 869098092
869107669 869107796
869113189 869113317
869146413 869146629
869155972 869156108
869165437 869165644
869189644 869189772
869206973 869207101
869213829 869213973
869237165 869237293
869244477 869244605
869257677 869257820
869266861 869267005
869286149 869286284
869350725 869350853
869357485 869357629
869450285 869450421
869467645 869467772
869475741 869475885
869493997 869494132
869516740 869516868
869528877 869529005
869537749 869537893
869547028 869547164
869561901 869562117
869572749 869572877
869589301 869589444
869599597 869599797
869607052 869607188
869622245 869622373
869650933 869651061
869702493 869702620
869709149 869709276
869751461 869751597
869766517 869766644
869783388 869783516
869813788 869814004
869831949 869832093
869858133 869858275
869877740 869877876
869893725 869893861
869958784 869958991
869973928 869974055
870008119 870008264
870035199 870035326
870041287 870041424
870048655 870048791
870067487 870067623
870082199 870082327
870093959 870094094
870153495 870153638
870161359 870161495
870171224 870171359
870177974 870178118
870186111 870186254
870240664 870240870
870247359 870247494
870274471 870274598
870310927 870311071
870334807 870334934
870358144 870358278
870391135 870391263
870405775 870405904
870419344 870419494
870428175 870428304
870436439 870436567
870443294 870443423
870461479 870461607
870472070 870472198
870487431 870487575
870515647 870515775
870524967 870525095
870530614 870530759
870571213 870571421
870583693 870583822
870609037 870609245
870615222 870615349
870626556 870626692
870643557 870643702
870655772 870655901
870663325 870663462
870677813 870677949
870696317 870696445
870705197 870705325
870732893 870733023
870741276 870741476
870757126 870757262
870765566 870765709
870775453 870775588
870800445 870800572
870807093 870807236
870817397 870817533
870831765 870831908
870872565 870872702
870907566 870907701
870920581 870920708
870928093 870928236
870939046 870939189
870951132 870951268
870965773 870965917
870972917 870973046
870993566 870993709
871004493 871004622
871016669 871016812
871022165 871022309
871027877 871028013
871040492 871040621
871056463 871056605
871086429 871086557
871094607 871094742
871112662 871112877
871120902 871121029
871175166 871175302
871202366 871202502
871211213 871211413
871221245 871221388
871316183 871316309
871362567 871362694
871371149 871371293
871382894 871383038
871389598 871389726
871397294 871397437
871422230 871422358
871438430 871438566
871446663 871446790
871457422 871457550
871467238 871467373
871479950 871480078
871485534 871485678
871499694 871499823
871522198 871522343
871528926 871529143
871535558 871535686
871595623 871595774
871624687 871624814
871640637 871640837
871652670 871652798
871716438 871716574
871721863 871721998
871735558 871735702
871773813 871773957
871779624 871779757
871797333 871797468
871812317 871812453
871819212 871819341
871847524 871847732
871868285 871868413
871881892 871882028
871889197 871889332
871905142 871905276
871917997 871918125
871936982 871937124
871950493 871950629
871957502 871957629
871979349 871979485
871989413 871989557
872007382 872007509
872023916 872024062
872048365 872048493
872069053 872069196
872075589 872075805
872081373 872081503
872096797 872096932
872132357 872132485
872145046 872145172
872156662 872156796
872204366 872204502
872211957 872212156
872223597 872223726
872273822 872273948
872323908 872324036
872369933 872370077
872427837 872427982
872446476 872446605
872455197 872455342
872470757 872470893
872482197 872482332
872498389 872498517
872506757 872506885
872515982 872516108
872567469 872567612
872591053 872591189
872600013 872600156
872608357 872608485
872616702 872616829
872639709 872639845
872656988 872657116
872668422 872668565
872674086 872674213
872687012 872687221
872780245 872780372
872832732 872832861
872840702 872840845
872849053 872849189
872878277 872878422
872907357 872907502
872936583 872936725
873031725 873031853
873044365 873044492
873066573 873066709
873077885 873078012
873097942 873098076
873108982 873109108
873132181 873132308
873175885 873176029
873185382 873185509
873205766 873205909
873217788 873217932
873231357 873231502
873255422 873255548
873261557 873261685
873272005 873272134
873314949 873315164
873350309 873350444
873356389 873356517
873393629 873393765
873409789 873409916
873419037 873419237
873431068 873431276
873441213 873441342
873447477 873447693
873481629 873481765
873493957 873494101
873501693 873501829
873515188 873515316
873550805 873550932
873586229 873586372
873594245 873594373
873601566 873601709
873645317 873645452
873656942 873657069
873701622 873701765
873709149 873709357
873724108 873724236
873780013 873780149
873789012 873789212
873811622 873811757
873856845 873856972
873864023 873864157
873880908 873881052
873910853 873910988
873955262 873955397
873963821 873963964
873981062 873981189
873991052 873991182
874029813 874029942
874066229 874066373
874084502 874084636
874094533 874094661
874107013 874107157
874141582 874141724
874157829 874157957
874183046 874183181
874195526 874195653
874204092 874204228
874251509 874251637
874330765 874330892
874367989 874368117
874394997 874395133
874406333 874406469
874415276 874415421
874429629 874429765
874447541 874447685
874465926 874466142
874472956 874473092
874484333 874484469
874516317 874516453
874540749 874540886
874554486 874554629
874566502 874566636
874586869 874587005
874622228 874622356
874627885 874628012
874671613 874671749
874678286 874678484
874693005 874693133
874720422 874720548
874736085 874736222
874750462 874750596
874812805 874812941
874864916 874865052
874905832 874905976
874982648 874982792
875018305 875018431
875033000 875033208
875052840 875052968
875060296 875060425
875070591 875070719
875080643 875080770
875087627 875087771
875094580 875094724
875143907 875144043
875174940 875175067
875181884 875182011
875202395 875202523
