861189180 861189240
861301260 861301320
861361800 861361860
861375240 861375300
861391440 861391500
861391920 861391980
861457260 861457320
861477060 861477120
861479220 861479280
861483060 861483120
861555720 861555780
861559200 861559260
861567180 861567240
861597960 861598020
861601020 861601080
861602160 861602220
861602940 861603000
861608700 861608760
861642480 861642540
861717240 861717300
861745500 861745560
861751800 861751860
861995640 861995700
861997500 861997560
862000380 862000440
862056540 862056600
862057140 862057200
862158000 862158060
862170900 862170960
862265100 862265160
862289220 862289280
862324320 862324380
862412880 862412940
862418280 862418340
862584840 862585020
862585260 862585320
862591080 862591140
862598340 862598400
862605000 862605060
862636560 862636620
862668000 862668060
862696380 862696500
862697820 862697880
862745520 862745580
862811100 862811160
862824120 862824180
862834200 862834260
862835820 862835880
862836720 862836780
862843020 862843080
862844640 862844760
862846860 862846920
862849320 862849500
862851120 862851180
862855200 862855260
862863000 862863120
862872840 862872900
862884300 862884360
862911840 862911900
862916640 862916700
862922340 862922400
862929960 862930020
862932840 862932900
862933140 862933200
862934760 862934820
862937280 862937340
862937940 862938000
862938780 862938840
862939380 862939440
862943040 862943100
862945500 862945560
863039220 863039340
863042940 863043000
863205120 863205240
863265240 863265300
863297220 863297280
863297400 863297460
863299320 863299380
863306820 863306880
863307720 863307780
863359200 863359260
863360880 863361000
863363940 863364000
863364300 863364420
863371260 863371380
863375700 863375880
863386440 863386500
863386860 863386920
863388360 863388540
863388720 863388780
863421660 863421720
863446980 863447040
863454780 863454840
863456400 863456460
863457000 863457180
863458380 863458500
863459280 863459460
863459700 863459820
863483400 863483460
863532120 863532180
863539740 863539800
863542620 863542740
863544720 863544840
863545440 863545620
863546520 863546580
863547240 863547360
863562180 863562240
863580840 863580900
863629740 863629800
863632140 863632200
863641740 863641800
863642820 863642940
863644860 863644920
863645940 863646000
863646120 863646180
863730660 863730780
863788080 863788260
863790360 863790480
863795100 863795160
863796180 863796240
863796420 863796480
863798160 863798220
863801580 863801640
863804100 863804160
863805720 863805840
863806620 863806680
863806740 863806800
863808180 863808240
863813100 863813160
863817180 863817300
863820600 863820660
863831280 863831340
863862600 863862660
863870760 863870880
863873040 863873100
863873160 863873220
863919600 863919660
863920980 863921040
863921340 863921400
863925720 863925780
863926200 863926320
863927100 863927340
863927400 863927460
863928060 863928180
863928540 863928660
863930280 863930340
863930520 863930580
863930940 863931000
863931420 863931480
863938740 863938860
863942760 863942820
863944500 863944560
863946840 863946900
863949240 863949300
863949600 863949660
863955060 863955180
863958180 863958240
863972940 863973000
863975640 863975760
864053760 864053820
864138720 864138780
864356040 864356100
864504120 864504180
864505680 864505740
864507300 864507360
864508740 864508800
864513000 864513120
864679920 864680040
864742020 864742080
864758460 864758520
864990780 864990900
865022400 865022460
865038480 865038600
865101780 865101840
865177080 865177200
865193340 865193400
865194420 865194480
865261440 865261500
865277520 865277580
865363740 865363800
865364460 865364520
865608060 865608120
865616160 865616280
865618560 865618620
865619340 865619400
865620480 865620660
865621200 865621260
865623720 865623780
865626900 865626960
865774680 865774740
865776900 865776960
865871280 865871340
865871460 865871520
865879380 865879500
865889940 865890060
865929060 865929120
865941060 865941180
865942500 865942560
865946460 865946520
866217300 866217360
866331840 866331900
866337360 866337420
866363460 866363580
866380020 866380080
866381460 866381520
866387400 866387520
866389920 866389980
866462520 866462580
866482500 866482560
866485980 866486040
866554440 866554500
866567100 866567160
866636400 866636460
866660820 866660880
866809200 866809260
866809380 866809500
866823360 866823420
866827980 866828040
866831400 866831460
866833380 866833500
866894400 866894460
866982600 866982720
866982780 866982840
866983500 866983560
866983620 866983680
866983740 866983800
866983860 866984040
866984280 866984340
867006720 867006780
867065040 867065100
867065340 867065400
867086760 867086820
867087420 867087480
867119820 867120060
867168480 867168540
867171960 867172020
867178080 867178200
867181260 867181320
867192480 867192540
867281280 867281340
867412680 867412740
867416220 867416280
867443520 867443580
867500580 867500640
867530460 867530520
867533400 867533460
867684540 867684600
868030980 868031100
868033080 868033140
868042260 868042320
868044960 868045080
868047120 868047180
868051260 868051320
868218240 868218360
868218780 868218840
868219860 868219920
868223640 868223700
868297080 868297140
868299840 868299900
868309320 868309380
868363080 868363140
868394940 868395000
868395540 868395600
868396080 868396140
868397160 868397220
868398360 868398420
868399260 868399320
868399500 868399560
868399920 868399980
868400280 868400400
868400760 868400820
868453320 868453380
868456980 868457040
868650120 868650180
868651140 868651200
868805700 868805760
868913460 868913520
868916280 868916340
868987020 868987080
868993860 868993920
869157540 869157720
869239020 869239080
869240700 869240760
869241000 869241060
869258100 869258160
869312580 869312640
869316360 869316420
869324340 869324400
869427960 869428020
869431860 869431920
869502720 869502780
869515560 869515620
869573580 869573760
869675340 869675400
869707800 869707860
869832780 869832840
869845560 869845620
869913840 869913900
869914860 869914920
869927280 869927340
870001620 870001740
870099900 870099960
870106980 870107040
870107100 870107160
870108900 870108960
870115860 870115920
870290700 870290760
870362760 870362820
870449400 870449460
870465600 870465660
870531240 870531300
870547140 870547260
870551700 870551760
870558300 870558420
870563100 870563160
870777060 870777120
870784920 870784980
870793020 870793080
870806700 870806820
870807360 870807420
870919320 870919380
870922260 870922320
870926280 870926340
870927540 870927600
870928320 870928380
870929880 870929940
870931260 870931320
870933240 870933300
870933480 870933540
870933600 870933660
870940260 870940320
871044660 871044720
871125360 871125480
871131060 871131120
871210800 871210860
871211100 871211160
871212000 871212060
871228260 871228320
871234080 871234140
871234680 871234740
871236300 871236360
871306440 871306500
871389780 871389840
871413300 871413420
871467420 871467480
871472280 871472340
871674840 871675020
871738920 871739040
871821540 871821600
871843500 871843560
871844280 871844340
871845360 871845420
871849200 871849260
871858380 871858440
871908660 871908720
871934580 871934640
872374200 872374260
872435880 872435940
872442900 872442960
872451720 872451780
872463240 872463300
872610180 872610300
872941440 872941560
873032220 873032280
873061560 873061620
873069900 873069960
873130020 873130080
873133140 873133200
873160680 873160800
873193620 873193680
873221280 873221340
873223020 873223080
873283320 873283440
873310500 873310560
873310620 873310680
873385500 873385560
873390300 873390360
873396240 873396300
873414300 873414360
873481140 873481200
873486900 873486960
873493560 873493620
873527100 873527160
873580920 873581100
873663720 873663780
873664800 873664860
873670320 873670440
873675840 873675900
873675960 873676020
873708420 873708480
873751620 873751680
873810300 873810420
873814980 873815040
873816900 873816960
873819420 873819480
873821580 873821640
873831660 873831720
873885960 873886020
874018380 874018440
874087500 874087560
874162980 874163040
874163100 874163280
874242180 874242240
874244460 874244580
874247640 874247700
874252200 874252260
874257120 874257180
874258680 874258800
874261260 874261320
874262940 874263000
874268940 874269000
874329180 874329240
874333980 874334040
874337940 874338060
874343100 874343220
874351920 874352040
874373220 874373640
874432800 874432860
874438320 874438560
874442220 874442280
874442640 874442700
874442820 874442880
874505700 874505760
874516500 874516560
874541220 874541280
874591260 874591320
874806660 874806720
874818540 874818660
874846980 874847040
874945200 874945380
874952040 874952100
874955400 874955520
874958820 874958880
874961400 874961460
875108820 875108880
875126700 875126820
875129820 875129880
875137380 875137560
875205900 875205960
875222100 875222160
