H1:LSC-MICH_IN1_DQ 16384
H1:LSC-PRCL_IN1_DQ 16384
H1:OAF-CAL_MICH_CTRL_DQ 2048
H1:OAF-CAL_PRCL_CTRL_DQ 2048
H1:IMC-F_OUT_DQ 16384
H1:IMC-L_OUT_DQ 16384
H1:HPI-HAM2_SENSCOR_X_FIR_IN1_DQ 512
H1:HPI-HAM2_SENSCOR_Y_FIR_IN1_DQ 512
H1:HPI-HAM2_SENSCOR_Z_FIR_IN1_DQ 512
H1:HPI-HAM2_BLND_L4C_X_IN1_DQ 1024
H1:HPI-HAM2_BLND_L4C_Y_IN1_DQ 1024
H1:HPI-HAM2_BLND_L4C_Z_IN1_DQ 1024
H1:HPI-HAM2_BLND_L4C_RX_IN1_DQ 1024
H1:HPI-HAM2_BLND_L4C_RY_IN1_DQ 1024
H1:HPI-HAM2_BLND_L4C_RZ_IN1_DQ 1024
H1:ISI-HAM2_BLND_GS13X_IN1_DQ 2048
H1:ISI-HAM2_BLND_GS13Y_IN1_DQ 2048
H1:ISI-HAM2_BLND_GS13Z_IN1_DQ 2048
H1:ISI-HAM2_BLND_GS13RX_IN1_DQ 2048 
H1:ISI-HAM2_BLND_GS13RY_IN1_DQ 2048
H1:ISI-HAM2_BLND_GS13RZ_IN1_DQ 2048
H1:HPI-HAM3_BLND_L4C_X_IN1_DQ 1024
H1:HPI-HAM3_BLND_L4C_Y_IN1_DQ 1024
H1:HPI-HAM3_BLND_L4C_Z_IN1_DQ 1024
H1:HPI-HAM3_BLND_L4C_RX_IN1_DQ 1024
H1:HPI-HAM3_BLND_L4C_RY_IN1_DQ 1024
H1:HPI-HAM3_BLND_L4C_RZ_IN1_DQ 1024
H1:ISI-HAM3_BLND_GS13X_IN1_DQ 2048
H1:ISI-HAM3_BLND_GS13Y_IN1_DQ 2048
H1:ISI-HAM3_BLND_GS13Z_IN1_DQ 2048
H1:ISI-HAM3_BLND_GS13RX_IN1_DQ 2048
H1:ISI-HAM3_BLND_GS13RY_IN1_DQ 2048
H1:ISI-HAM3_BLND_GS13RZ_IN1_DQ 2048
H1:SUS-MC1_M1_DAMP_L_IN1_DQ 256
H1:SUS-MC1_M1_DAMP_T_IN1_DQ 256
H1:SUS-MC1_M1_DAMP_V_IN1_DQ 256
H1:SUS-MC1_M1_DAMP_R_IN1_DQ 256
H1:SUS-MC1_M1_DAMP_P_IN1_DQ 256
H1:SUS-MC1_M1_DAMP_Y_IN1_DQ 256
H1:SUS-MC2_M1_DAMP_L_IN1_DQ 256
H1:SUS-MC2_M1_DAMP_T_IN1_DQ 256
H1:SUS-MC2_M1_DAMP_V_IN1_DQ 256
H1:SUS-MC2_M1_DAMP_R_IN1_DQ 256
H1:SUS-MC2_M1_DAMP_P_IN1_DQ 256
H1:SUS-MC2_M1_DAMP_Y_IN1_DQ 256
H1:SUS-MC3_M1_DAMP_L_IN1_DQ 256
H1:SUS-MC3_M1_DAMP_T_IN1_DQ 256
H1:SUS-MC3_M1_DAMP_V_IN1_DQ 256
H1:SUS-MC3_M1_DAMP_R_IN1_DQ 256 
H1:SUS-MC3_M1_DAMP_P_IN1_DQ 256
H1:SUS-MC3_M1_DAMP_Y_IN1_DQ 256
H1:SUS-MC1_M3_WIT_L_DQ 256
H1:SUS-MC1_M3_WIT_T_DQ 256
H1:SUS-MC1_M3_WIT_V_DQ 256
H1:SUS-MC1_M3_WIT_R_DQ 256
H1:SUS-MC1_M3_WIT_P_DQ 256
H1:SUS-MC1_M3_WIT_Y_DQ 256
H1:SUS-MC2_M3_WIT_L_DQ 256
H1:SUS-MC2_M3_WIT_T_DQ 256
H1:SUS-MC2_M3_WIT_V_DQ 256
H1:SUS-MC2_M3_WIT_R_DQ 256
H1:SUS-MC2_M3_WIT_P_DQ 256
H1:SUS-MC2_M3_WIT_Y_DQ 256
H1:SUS-MC3_M3_WIT_L_DQ 256
H1:SUS-MC3_M3_WIT_T_DQ 256
H1:SUS-MC3_M3_WIT_V_DQ 256
H1:SUS-MC3_M3_WIT_R_DQ 256
H1:SUS-MC3_M3_WIT_P_DQ 256
H1:SUS-MC3_M3_WIT_Y_DQ 256
H1:SUS-BS_M1_DAMP_L_IN1_DQ 256
H1:SUS-BS_M1_DAMP_T_IN1_DQ 256
H1:SUS-BS_M1_DAMP_V_IN1_DQ 256
H1:SUS-BS_M1_DAMP_R_IN1_DQ 256
H1:SUS-BS_M1_DAMP_P_IN1_DQ 256
H1:SUS-BS_M1_DAMP_Y_IN1_DQ 256
H1:SUS-ITMY_M0_DAMP_L_IN1_DQ 256
H1:SUS-ITMY_M0_DAMP_T_IN1_DQ 256
H1:SUS-ITMY_M0_DAMP_V_IN1_DQ 256
H1:SUS-ITMY_M0_DAMP_R_IN1_DQ 256
H1:SUS-ITMY_M0_DAMP_P_IN1_DQ 256
H1:SUS-ITMY_M0_DAMP_Y_IN1_DQ 256
H1:SUS-ITMX_M0_DAMP_L_IN1_DQ 256
H1:SUS-ITMX_M0_DAMP_T_IN1_DQ 256
H1:SUS-ITMX_M0_DAMP_V_IN1_DQ 256
H1:SUS-ITMX_M0_DAMP_R_IN1_DQ 256
H1:SUS-ITMX_M0_DAMP_P_IN1_DQ 256
H1:SUS-ITMX_M0_DAMP_Y_IN1_DQ 256
H1:SUS-ITMY_L3_OPLEV_PIT_OUT_DQ 256
H1:SUS-ITMY_L3_OPLEV_YAW_OUT_DQ 256
H1:SUS-ITMX_L3_OPLEV_PIT_OUT_DQ 256
H1:SUS-ITMX_L3_OPLEV_YAW_OUT_DQ 256
H1:SUS-BS_M3_OPLEV_PIT_OUT_DQ 256
H1:SUS-BS_M3_OPLEV_YAW_OUT_DQ 256
H1:SUS-BS_M1_ISIWIT_L_DQ 1024
H1:SUS-BS_M1_ISIWIT_T_DQ 1024
H1:SUS-BS_M1_ISIWIT_V_DQ 1024
H1:SUS-BS_M1_ISIWIT_R_DQ 1024
H1:SUS-BS_M1_ISIWIT_P_DQ 1024
H1:SUS-BS_M1_ISIWIT_Y_DQ 1024
H1:SUS-ITMY_M0_ISIWIT_L_DQ 1024
H1:SUS-ITMY_M0_ISIWIT_T_DQ 1024
H1:SUS-ITMY_M0_ISIWIT_V_DQ 1024
H1:SUS-ITMY_M0_ISIWIT_R_DQ 1024
H1:SUS-ITMY_M0_ISIWIT_P_DQ 1024
H1:SUS-ITMY_M0_ISIWIT_Y_DQ 1024
H1:SUS-ITMX_M0_ISIWIT_L_DQ 1024
H1:SUS-ITMX_M0_ISIWIT_T_DQ 1024
H1:SUS-ITMX_M0_ISIWIT_V_DQ 1024
H1:SUS-ITMX_M0_ISIWIT_R_DQ 1024
H1:SUS-ITMX_M0_ISIWIT_P_DQ 1024
H1:SUS-ITMX_M0_ISIWIT_Y_DQ 1024
H1:ISI-BS_ST1_BLND_X_T240_CUR_IN1_DQ 512
H1:ISI-BS_ST1_BLND_Y_T240_CUR_IN1_DQ 512
H1:ISI-BS_ST1_BLND_Z_T240_CUR_IN1_DQ 512
H1:ISI-BS_ST1_BLND_RX_T240_CUR_IN1_DQ 512
H1:ISI-BS_ST1_BLND_RY_T240_CUR_IN1_DQ 512
H1:ISI-BS_ST1_BLND_RZ_T240_CUR_IN1_DQ 512
H1:ISI-ITMY_ST1_BLND_X_T240_CUR_IN1_DQ 512
H1:ISI-ITMY_ST1_BLND_Y_T240_CUR_IN1_DQ 512
H1:ISI-ITMY_ST1_BLND_Z_T240_CUR_IN1_DQ 512
H1:ISI-ITMY_ST1_BLND_RX_T240_CUR_IN1_DQ 512
H1:ISI-ITMY_ST1_BLND_RY_T240_CUR_IN1_DQ 512
H1:ISI-ITMY_ST1_BLND_RZ_T240_CUR_IN1_DQ 512
H1:ISI-ITMX_ST1_BLND_X_T240_CUR_IN1_DQ 512
H1:ISI-ITMX_ST1_BLND_Y_T240_CUR_IN1_DQ 512
H1:ISI-ITMX_ST1_BLND_Z_T240_CUR_IN1_DQ 512
H1:ISI-ITMX_ST1_BLND_RX_T240_CUR_IN1_DQ 512
H1:ISI-ITMX_ST1_BLND_RY_T240_CUR_IN1_DQ 512
H1:ISI-ITMX_ST1_BLND_RZ_T240_CUR_IN1_DQ 512
H1:HPI-ITMY_BLND_L4C_X_IN1_DQ 1024
H1:HPI-ITMY_BLND_L4C_Y_IN1_DQ 1024
H1:HPI-ITMY_BLND_L4C_Z_IN1_DQ 1024
H1:HPI-ITMY_BLND_L4C_RX_IN1_DQ 1024
H1:HPI-ITMY_BLND_L4C_RY_IN1_DQ 1024
H1:HPI-ITMY_BLND_L4C_RZ_IN1_DQ 1024
H1:HPI-ITMX_BLND_L4C_X_IN1_DQ 1024
H1:HPI-ITMX_BLND_L4C_Y_IN1_DQ 1024
H1:HPI-ITMX_BLND_L4C_Z_IN1_DQ 1024
H1:HPI-ITMX_BLND_L4C_RX_IN1_DQ 1024
H1:HPI-ITMX_BLND_L4C_RY_IN1_DQ 1024
H1:HPI-ITMX_BLND_L4C_RZ_IN1_DQ 1024
H1:HPI-BS_BLND_L4C_X_IN1_DQ 1024
H1:HPI-BS_BLND_L4C_Y_IN1_DQ 1024
H1:HPI-BS_BLND_L4C_Z_IN1_DQ 1024
H1:HPI-BS_BLND_L4C_RX_IN1_DQ 1024
H1:HPI-BS_BLND_L4C_RY_IN1_DQ 1024
H1:HPI-BS_BLND_L4C_RZ_IN1_DQ 1024
H1:HPI-BS_SENSCOR_X_FIR_IN1_DQ 512
H1:HPI-BS_SENSCOR_Y_FIR_IN1_DQ 512
H1:HPI-BS_SENSCOR_Z_FIR_IN1_DQ 512
