862139823 862139824
862158456 862158457
862163234 862163235
862167832 862167833
862177039 862177041
862179445 862179446
862187315 862187317
862207612 862207613
862258344 862258345
862262557 862262558
862278843 862278845
862312815 862312817
862324869 862324870
862351902 862351903
862381106 862381107
862384734 862384736
862404459 862404460
862408502 862408503
862462617 862462618
862521815 862521816
862533390 862533392
862543217 862543218
862565816 862565817
862568022 862568023
862583642 862583643
862599899 862599901
862605874 862605876
862646164 862646165
862668096 862668098
862689709 862689710
862698695 862698697
862701055 862701056
862704861 862704862
862705973 862705974
862716237 862716239
862732329 862732330
862768804 862768806
862773092 862773094
862813923 862813924
862858312 862858313
862870020 862870022
862880091 862880092
862897013 862897015
862942201 862942203
862944125 862944127
862947251 862947253
862948347 862948348
862954143 862954145
862976653 862976654
863034394 863034395
863052312 863052314
863073122 863073124
863091511 863091512
863119447 863119448
863201555 863201556
863202528 863202530
863216963 863216965
863301808 863301810
863317386 863317387
863371796 863371797
863377904 863377906
863457775 863457777
863539884 863539885
863547539 863547541
863635507 863635508
863637352 863637353
863669776 863669778
863683959 863683960
863734117 863734120
863770803 863770804
863805593 863805594
863830593 863830594
863848325 863848327
863931146 863931147
863945555 863945556
863979289 863979290
863982955 863982956
863984377 863984379
863993756 863993758
864014662 864014663
864058994 864058995
864069329 864069330
864131990 864131992
864146475 864146477
864149878 864149880
864168570 864168571
864253440 864253441
864280534 864280535
864305759 864305760
864314470 864314471
864325517 864325518
864328192 864328194
864339207 864339208
864340134 864340135
864416222 864416224
864434096 864434098
864436604 864436605
864464152 864464153
864592284 864592286
864594247 864594249
864604561 864604562
864606934 864606935
864612165 864612166
864628211 864628212
864673457 864673459
864678553 864678554
864761268 864761270
864777348 864777349
864778545 864778547
864859063 864859064
864921841 864921843
864963104 864963105
864969413 864969414
865019925 865019926
865029069 865029071
865030615 865030617
865129594 865129595
865134185 865134186
865181816 865181818
865183445 865183446
865196758 865196759
865198291 865198292
865199406 865199407
865345196 865345197
865364615 865364617
865397997 865397999
865465060 865465061
865474644 865474645
865490983 865490985
865542472 865542474
865557046 865557047
865613986 865613987
865625911 865625913
865668380 865668381
865684207 865684209
865695526 865695529
865720721 865720722
865743332 865743334
865795318 865795320
865798657 865798658
865808673 865808675
865828747 865828749
865829370 865829372
865864247 865864249
865876531 865876533
865893521 865893523
865947221 865947222
865971926 865971927
865982216 865982217
866032220 866032221
866075671 866075673
866078363 866078366
866110364 866110365
866123142 866123143
866150406 866150407
866160703 866160705
866162817 866162818
866164166 866164168
866183553 866183554
866209946 866209948
866231551 866231552
866325912 866325914
866333489 866333491
866410915 866410917
866524489 866524490
866583670 866583672
866593678 866593680
866600589 866600590
866601328 866601329
866603983 866603984
866605063 866605065
866672713 866672714
866698427 866698428
866711289 866711291
866736418 866736420
866762361 866762363
866770962 866770963
866774064 866774065
866776181 866776182
867056206 867056208
867120029 867120031
867143124 867143125
867206357 867206358
867212090 867212092
867246625 867246627
867275341 867275343
867298972 867298973
867319770 867319771
867364096 867364097
867449562 867449564
867501138 867501139
867558681 867558682
867628393 867628395
867687412 867687414
867708200 867708201
867710116 867710117
867771689 867771690
867795629 867795630
867816007 867816009
868045697 868045698
868054790 868054792
868060789 868060790
868143074 868143076
868144480 868144482
868213018 868213019
868216392 868216394
868232613 868232615
868236195 868236196
868247672 868247674
868253686 868253688
868262647 868262648
868300773 868300774
868305181 868305182
868391924 868391925
868399323 868399325
868527536 868527538
868540494 868540495
868584298 868584299
868602716 868602717
868608389 868608391
868612609 868612611
868631329 868631330
868651854 868651856
868661476 868661477
868701175 868701176
868745035 868745037
868753257 868753258
868851580 868851581
868909143 868909144
868919364 868919366
868987998 868987999
869006694 869006696
869020207 869020209
869060244 869060246
869068030 869068032
869164328 869164329
869177777 869177779
869234009 869234010
869255663 869255664
869282806 869282807
869342357 869342358
869367623 869367624
869442643 869442644
869464573 869464574
869505240 869505242
869524307 869524308
869535596 869535598
869540722 869540724
869600613 869600615
869604873 869604874
869613895 869613896
869616272 869616274
869617375 869617376
869648706 869648708
869720585 869720586
869773262 869773263
869858209 869858211
869868648 869868650
869871459 869871461
869954388 869954389
869986922 869986923
869992040 869992042
870024120 870024122
870038692 870038693
870058130 870058131
870060565 870060566
870067996 870067998
870071471 870071472
870103420 870103421
870122299 870122300
870214730 870214731
870261906 870261908
870273274 870273276
870290008 870290010
870292496 870292498
870342124 870342126
870453102 870453104
870467419 870467421
870526863 870526864
870560020 870560022
870568818 870568819
870578153 870578154
870629021 870629022
870645648 870645650
870716154 870716155
870788363 870788364
870813963 870813964
870815200 870815201
870824955 870824957
870891414 870891415
870905951 870905952
870939916 870939918
870956310 870956311
870981006 870981008
870991923 870991925
871061236 871061238
871075845 871075846
871105574 871105575
871236640 871236642
871243437 871243439
871257150 871257151
871272644 871272646
871277332 871277334
871289576 871289578
871293929 871293931
871300098 871300099
871312996 871312997
871352672 871352674
871356238 871356240
871392597 871392599
871404367 871404368
871409405 871409406
871414322 871414323
871441450 871441451
871522469 871522470
871590281 871590282
871597099 871597101
871619303 871619304
871653659 871653661
871672023 871672024
871679619 871679621
871685682 871685683
871695405 871695406
871718979 871718980
871803512 871803513
871920989 871920991
871933683 871933684
872015161 872015162
872049106 872049108
872092910 872092911
872104000 872104002
872129967 872129969
872142137 872142138
872167787 872167788
872183086 872183088
872201839 872201840
872299581 872299582
872304722 872304723
872315362 872315364
872331587 872331589
872345479 872345480
872367569 872367571
872373274 872373275
872442808 872442810
872461204 872461205
872635367 872635368
872643806 872643808
872704678 872704679
872712958 872712959
872731135 872731136
872816916 872816917
872871901 872871902
872885771 872885773
872894734 872894735
872918020 872918023
872979804 872979805
872997228 872997230
873039676 873039678
873060203 873060205
873141115 873141117
873222863 873222864
873245579 873245581
873257951 873257952
873274731 873274733
873318437 873318438
873413485 873413486
873424754 873424756
873583018 873583019
873618107 873618109
873631791 873631793
873645669 873645671
873648745 873648747
873651429 873651431
873657125 873657127
873665978 873665979
873677301 873677302
873689408 873689410
873690891 873690893
873713269 873713271
873733482 873733484
873736119 873736120
873745620 873745622
873769289 873769291
873786069 873786070
873806625 873806626
873814261 873814262
873834770 873834771
873844515 873844516
873903838 873903839
873964113 873964114
873995565 873995566
874015312 874015313
874023771 874023772
874189124 874189126
874272874 874272875
874275435 874275437
874313439 874313441
874347702 874347704
874352757 874352758
874354144 874354145
874360670 874360672
874436881 874436882
874439977 874439980
874478797 874478798
874501488 874501489
874514094 874514096
874524813 874524815
874526311 874526313
874530207 874530208
874536291 874536292
874567567 874567568
874622916 874622917
874650122 874650123
874687196 874687197
874695981 874695983
874706775 874706777
874802185 874802186
874817619 874817621
874846220 874846221
874878340 874878341
874901682 874901683
874952434 874952435
874959078 874959080
874977379 874977380
874979367 874979368
874985586 874985587
874987925 874987926
875022652 875022654
875041720 875041722
875056061 875056063
875104051 875104053
875109334 875109336
875120303 875120304
875154090 875154092
875166380 875166381
875167238 875167240
875182064 875182066
875200567 875200568
875230316 875230317
