0.00100 1.6e-45
2.00000 1.6e-45
4.00000 1.6e-45
6.00000 1.6e-45
8.00000 1.6e-45
10.00000 1.6e-45
12.00000 1.6e-45
14.00000 1.6e-45
16.00000 1.6e-45
18.00000 1.6e-45
20.10000 1.6e-45
20.50000 1.6e-45
20.90000 1.6e-45
21.30000 1.6e-45
21.70000 1.6e-45
22.10000 1.6e-45
22.50000 1.6e-45
22.90000 1.6e-45
23.30000 1.6e-45
23.80000 1.6e-45
24.20000 1.6e-45
24.70000 1.6e-45
25.10000 1.6e-45
25.60000 1.6e-45
26.10000 1.6e-45
26.50000 1.6e-45
27.00000 1.6e-45
27.50000 1.6e-45
28.10000 1.6e-45
28.60000 1.6e-45
29.10000 1.6e-45
29.60000 1.6e-45
30.20000 1.6e-45
30.80000 1.6e-45
31.30000 1.6e-45
31.90000 1.6e-45
32.50000 1.6e-45
33.10000 1.6e-45
33.70000 1.6e-45
34.40000 1.6e-45
35.00000 1.6e-45
35.60000 1.6e-45
36.30000 1.6e-45
37.00000 1.6e-45
37.70000 1.6e-45
38.40000 1.6e-45
39.10000 1.6e-45
39.80000 1.6e-45
40.60000 1.6e-45
41.30000 1.6e-45
42.10000 1.6e-45
42.90000 1.6e-45
43.70000 1.6e-45
44.50000 1.6e-45
45.30000 1.6e-45
46.10000 1.6e-45
47.00000 1.6e-45
47.90000 1.6e-45
48.80000 1.6e-45
49.70000 1.6e-45
50.60000 1.6e-45
51.50000 1.6e-45
52.50000 1.6e-45
53.50000 1.6e-45
54.50000 1.6e-45
55.50000 1.6e-45
56.50000 1.6e-45
57.50000 1.6e-45
58.60000 1.6e-45
59.70000 1.6e-45
60.80000 1.6e-45
61.90000 1.6e-45
63.10000 1.6e-45
64.30000 1.6e-45
65.50000 1.6e-45
66.70000 1.6e-45
67.90000 1.6e-45
69.20000 1.6e-45
70.50000 1.6e-45
71.80000 1.6e-45
73.10000 1.6e-45
74.50000 1.6e-45
75.90000 1.6e-45
77.30000 1.6e-45
78.70000 1.6e-45
80.20000 1.6e-45
81.70000 1.6e-45
83.20000 1.6e-45
84.70000 1.6e-45
86.30000 1.6e-45
87.90000 1.6e-45
89.50000 1.6e-45
91.20000 1.6e-45
92.90000 1.6e-45
94.60000 1.6e-45
96.40000 1.6e-45
98.20000 1.6e-45
100.00000 1.6e-45
102.00000 1.6e-45
104.00000 1.6e-45
106.00000 1.6e-45
108.00000 1.6e-45
110.00000 1.6e-45
112.00000 1.6e-45
114.00000 1.6e-45
116.00000 1.6e-45
118.00000 1.6e-45
120.00000 1.6e-45
122.00000 1.6e-45
125.00000 1.6e-45
127.00000 1.6e-45
129.00000 1.6e-45
132.00000 1.6e-45
134.00000 1.6e-45
137.00000 1.6e-45
139.00000 1.6e-45
142.00000 1.6e-45
145.00000 1.6e-45
147.00000 1.6e-45
150.00000 1.6e-45
153.00000 1.6e-45
156.00000 1.6e-45
158.00000 1.6e-45
161.00000 1.6e-45
164.00000 1.6e-45
167.00000 1.6e-45
171.00000 1.6e-45
174.00000 1.6e-45
177.00000 1.6e-45
180.00000 1.6e-45
184.00000 1.6e-45
187.00000 1.6e-45
191.00000 1.6e-45
194.00000 1.6e-45
198.00000 1.6e-45
201.00000 1.6e-45
205.00000 1.6e-45
209.00000 1.6e-45
213.00000 1.6e-45
217.00000 1.6e-45
221.00000 1.6e-45
225.00000 1.6e-45
229.00000 1.6e-45
233.00000 1.6e-45
238.00000 1.6e-45
242.00000 1.6e-45
247.00000 1.6e-45
251.00000 1.6e-45
256.00000 1.6e-45
261.00000 1.6e-45
265.00000 1.6e-45
270.00000 1.6e-45
275.00000 1.6e-45
281.00000 1.6e-45
286.00000 1.6e-45
291.00000 1.6e-45
296.00000 1.6e-45
302.00000 1.6e-45
308.00000 1.6e-45
313.00000 1.6e-45
319.00000 1.6e-45
325.00000 1.6e-45
331.00000 1.6e-45
337.00000 1.6e-45
344.00000 1.6e-45
350.00000 1.6e-45
356.00000 1.6e-45
363.00000 1.6e-45
370.00000 1.6e-45
377.00000 1.6e-45
384.00000 1.6e-45
391.00000 1.6e-45
398.00000 1.6e-45
406.00000 1.6e-45
413.00000 1.6e-45
421.00000 1.6e-45
429.00000 1.6e-45
437.00000 1.6e-45
445.00000 1.6e-45
453.00000 1.6e-45
461.00000 1.6e-45
470.00000 1.6e-45
479.00000 1.6e-45
488.00000 1.6e-45
497.00000 1.6e-45
506.00000 1.6e-45
515.00000 1.6e-45
525.00000 1.6e-45
535.00000 1.6e-45
545.00000 1.6e-45
555.00000 1.6e-45
565.00000 1.6e-45
575.00000 1.6e-45
586.00000 1.6e-45
597.00000 1.6e-45
608.00000 1.6e-45
619.00000 1.6e-45
631.00000 1.6e-45
643.00000 1.6e-45
655.00000 1.6e-45
667.00000 1.6e-45
679.00000 1.6e-45
692.00000 1.6e-45
705.00000 1.6e-45
718.00000 1.6e-45
731.00000 1.6e-45
745.00000 1.6e-45
759.00000 1.6e-45
773.00000 1.6e-45
787.00000 1.6e-45
802.00000 1.6e-45
817.00000 1.6e-45
832.00000 1.6e-45
847.00000 1.6e-45
863.00000 1.6e-45
879.00000 1.6e-45
895.00000 1.6e-45
912.00000 1.6e-45
929.00000 1.6e-45
946.00000 1.6e-45
964.00000 1.6e-45
982.00000 1.6e-45
1000.00000 1.6e-45
1020.00000 1.6e-45
1040.00000 1.6e-45
1060.00000 1.6e-45
1080.00000 1.6e-45
1100.00000 1.6e-45
1120.00000 1.6e-45
1140.00000 1.6e-45
1160.00000 1.6e-45
1180.00000 1.6e-45
1200.00000 1.6e-45
1220.00000 1.6e-45
1250.00000 1.6e-45
1270.00000 1.6e-45
1290.00000 1.6e-45
1320.00000 1.6e-45
1340.00000 1.6e-45
1370.00000 1.6e-45
1390.00000 1.6e-45
1420.00000 1.6e-45
1450.00000 1.6e-45
1470.00000 1.6e-45
1500.00000 1.6e-45
1530.00000 1.6e-45
1560.00000 1.6e-45
1580.00000 1.6e-45
1610.00000 1.6e-45
1640.00000 1.6e-45
1670.00000 1.6e-45
1710.00000 1.6e-45
1740.00000 1.6e-45
1770.00000 1.6e-45
1800.00000 1.6e-45
1840.00000 1.6e-45
1870.00000 1.6e-45
1910.00000 1.6e-45
1940.00000 1.6e-45
1980.00000 1.6e-45
2010.00000 1.6e-45
2050.00000 1.6e-45
2090.00000 1.6e-45
2130.00000 1.6e-45
2170.00000 1.6e-45
2210.00000 1.6e-45
2250.00000 1.6e-45
2290.00000 1.6e-45
2330.00000 1.6e-45
2380.00000 1.6e-45
2420.00000 1.6e-45
2470.00000 1.6e-45
2510.00000 1.6e-45
2560.00000 1.6e-45
2610.00000 1.6e-45
2650.00000 1.6e-45
2700.00000 1.6e-45
2750.00000 1.6e-45
2810.00000 1.6e-45
2860.00000 1.6e-45
2910.00000 1.6e-45
2960.00000 1.6e-45
3020.00000 1.6e-45
3080.00000 1.6e-45
3130.00000 1.6e-45
3190.00000 1.6e-45
3250.00000 1.6e-45
3310.00000 1.6e-45
3370.00000 1.6e-45
3440.00000 1.6e-45
3500.00000 1.6e-45
3560.00000 1.6e-45
3630.00000 1.6e-45
3700.00000 1.6e-45
3770.00000 1.6e-45
3840.00000 1.6e-45
3910.00000 1.6e-45
3980.00000 1.6e-45
4060.00000 1.6e-45
4130.00000 1.6e-45
4210.00000 1.6e-45
4290.00000 1.6e-45
4370.00000 1.6e-45
4450.00000 1.6e-45
4530.00000 1.6e-45
4610.00000 1.6e-45
4700.00000 1.6e-45
4790.00000 1.6e-45
4880.00000 1.6e-45
4970.00000 1.6e-45
5060.00000 1.6e-45
5150.00000 1.6e-45
5250.00000 1.6e-45
5350.00000 1.6e-45
5450.00000 1.6e-45
5550.00000 1.6e-45
5650.00000 1.6e-45
5750.00000 1.6e-45
5860.00000 1.6e-45
5970.00000 1.6e-45
6080.00000 1.6e-45
6190.00000 1.6e-45
6310.00000 1.6e-45
6430.00000 1.6e-45
6550.00000 1.6e-45
6670.00000 1.6e-45
6790.00000 1.6e-45
6920.00000 1.6e-45
7050.00000 1.6e-45
7180.00000 1.6e-45
7310.00000 1.6e-45
7450.00000 1.6e-45
7590.00000 1.6e-45
7730.00000 1.6e-45
7870.00000 1.6e-45
8020.00000 1.6e-45
8170.00000 1.6e-45
8320.00000 1.6e-45
8470.00000 1.6e-45
8630.00000 1.6e-45
8790.00000 1.6e-45
8950.00000 1.6e-45
9120.00000 1.6e-45
9290.00000 1.6e-45
9460.00000 1.6e-45
9640.00000 1.6e-45
9820.00000 1.6e-45
