815805180 815805240
816361380 816361440
817339320 817339380
819361980 819362040
819362340 819362400
820148460 820148520
820150200 820150320
820437660 820437720
820717800 820718100
820718220 820718280
820718340 820718460
820718700 820718820
820718880 820719120
820719240 820719300
820731720 820731780
820733700 820733760
820735440 820735500
820736400 820736460
820871940 820872000
820911900 820911960
820933260 820933320
820933380 820933440
820933740 820933800
820933920 820933980
821065920 821065980
821066640 821066940
821067240 821067420
821067840 821067900
821795880 821795940
821804760 821804820
821804940 821805060
821821740 821821800
821821860 821821920
822104820 822104880
822116940 822117000
822138120 822138180
822192540 822192600
822350340 822350400
822415260 822415320
822431580 822431640
822438060 822438120
822460800 822460860
822495720 822495780
822496020 822496080
822496320 822496440
822511380 822511500
822539220 822539280
822539580 822539640
822539880 822539940
822540660 822540780
822541500 822541560
822541620 822541680
822543600 822543660
822545880 822545940
822546000 822546060
822546360 822546420
822551640 822551700
822553860 822553920
822562020 822562080
822644340 822644460
822733380 822733440
822750000 822750060
822824520 822824640
822824880 822825060
822825120 822825420
822825480 822825540
822825780 822825960
822826020 822826200
822826500 822826560
822860400 822860460
822860520 822860580
822869340 822869400
822877260 822877320
822877440 822877560
822877860 822878040
822878100 822878160
822899700 822899760
822970860 822970920
823788240 823788300
823788360 823788540
824209260 824209320
824209740 824209800
824210400 824210460
824210880 824210940
824213400 824213460
824524440 824524620
824707140 824707260
824709180 824709300
824709540 824709780
824709900 824709960
824710020 824710080
824710620 824710680
824720100 824720160
824720400 824720580
824789460 824789580
824913120 824913240
825425520 825425580
825719640 825719700
825879780 825879840
825884040 825884100
825884520 825884640
825909600 825909660
825909720 825909840
825909960 825910140
825943440 825943500
825943980 825944040
825944400 825944580
825944700 825944820
825967500 825967560
825967620 825967680
825973920 825973980
826010760 826010880
826152180 826152300
826152660 826152720
826237020 826237080
826287240 826287300
826315680 826315740
826352760 826352820
826487700 826487760
826755840 826755900
826788180 826788240
826847100 826847160
826897440 826897500
826916580 826916700
827035860 827036040
827036460 827036520
827121900 827122020
827156340 827156400
827233860 827233920
827236740 827236800
827248800 827248860
827249040 827249100
827249940 827250000
827373480 827373600
827378520 827378580
827525880 827525940
827571120 827571180
827709420 827709480
827716560 827716620
827808840 827808960
827886240 827886300
827915340 827915400
828043440 828043500
828355320 828355380
828355620 828355680
828357780 828357900
828360840 828360900
828839700 828839760
829170180 829170240
829206840 829206960
829207020 829207080
829207140 829207260
829207500 829207560
829207680 829207800
829207860 829207980
829208520 829208640
829209300 829209360
829209420 829209480
829209540 829209600
829210920 829210980
829239360 829239420
829255740 829255800
829285920 829285980
829322040 829322100
829345620 829345680
829345800 829345860
829345980 829346040
829354920 829354980
829366500 829366560
829385520 829385580
829394280 829394340
829436520 829436580
829451700 829451760
829463160 829463220
829552860 829552980
829638360 829638420
829700760 829700820
829700880 829700940
829701300 829701360
829708200 829708260
829708380 829708440
829708620 829708680
829708740 829708800
829708920 829708980
829711920 829711980
829718820 829718940
829849980 829850040
829859580 829859640
829866960 829867020
829873080 829873140
829873320 829873380
829907700 829907760
829925460 829925520
829937220 829937280
829939980 829940040
829940160 829940220
829940400 829940460
829946040 829946160
829965900 829965960
830083200 830083260
830092980 830093040
830134140 830134200
830142120 830142180
830143260 830143320
830145180 830145240
830146740 830146800
830147100 830147160
830147460 830147520
830148840 830148900
830149920 830149980
830153460 830153520
830170800 830170860
830179560 830179620
830179800 830179860
830223120 830223180
830307960 830308020
830322000 830322060
830351160 830351220
830390160 830390220
830390280 830390340
830392380 830392440
830393100 830393160
830414700 830414760
830471280 830471340
830481360 830481420
830481540 830481600
830486640 830486700
830532720 830532780
830533320 830533380
830544480 830544540
830574180 830574360
830574480 830574540
830575800 830575860
830584500 830584560
830587200 830587260
830589300 830589360
830601840 830601900
830604480 830604540
830605620 830605680
831086640 831086700
831087780 831087840
831092700 831092760
831099420 831099480
831160440 831160500
831160920 831160980
831161460 831161520
831176040 831176100
831212280 831212340
831321720 831321780
831352020 831352080
831372600 831372660
831392580 831392640
831521640 831521700
831522360 831522420
831523260 831523320
831523860 831523920
831524040 831524100
831758820 831758940
831903900 831903960
831965100 831965160
832012620 832012680
832049220 832049520
832053420 832053480
832057320 832057380
832057680 832057740
832063980 832064040
832064160 832064220
832065000 832065120
832070880 832070940
832072500 832072560
832097160 832097220
832189260 832189320
832189560 832189620
832189920 832189980
832190700 832190760
832190880 832190940
832191300 832191360
832195680 832195740
832196160 832196220
832208880 832209000
832209420 832209540
832211520 832211580
832211640 832211700
832211880 832211940
832212420 832212600
832213080 832213140
832213680 832213740
832214580 832214640
832215060 832215120
832215240 832215300
832215360 832215420
832215780 832215840
832215900 832215960
832216620 832216680
832216920 832216980
832217040 832217160
832217220 832217340
832217760 832217820
832218540 832218600
832219200 832219260
832221480 832221540
832224360 832224480
832224720 832224840
832225020 832225080
832225380 832225440
832225500 832225620
832225740 832225800
832226040 832226100
832226340 832226400
832226460 832226520
832226580 832226640
832227120 832227180
832227660 832227720
832227840 832227900
832228800 832228860
832228920 832228980
832229100 832229160
832229760 832229820
832229940 832230000
832230180 832230240
832230540 832230600
832232640 832232700
832233060 832233120
832233240 832233300
832233720 832233780
832233900 832233960
832235820 832235880
832238340 832238400
832241040 832241100
832241460 832241520
832243080 832243140
832243620 832243740
832243800 832243860
832244340 832244400
832244820 832244880
832245060 832245120
832246140 832246200
832246920 832246980
832247040 832247100
832247400 832247460
832247760 832247820
832248900 832248960
832249080 832249140
832249980 832250040
832250160 832250220
832250580 832250640
832251540 832251660
832254600 832254720
832255920 832255980
832256340 832256400
832256880 832256940
832257120 832257180
832257300 832257360
832257480 832257540
832258020 832258080
832261260 832261320
832265580 832265640
832270680 832270740
832271160 832271220
832282980 832283040
832283580 832283700
832283820 832283940
832287960 832288020
832292400 832292460
832303920 832303980
832306200 832306260
832309260 832309320
832309560 832309620
832309800 832309860
832310160 832310220
832310400 832310460
832312020 832312080
832312680 832312740
832313460 832313520
832314360 832314420
832315020 832315080
832315920 832315980
832316520 832316580
832317120 832317180
832317420 832317480
832318920 832318980
832319100 832319160
832320300 832320420
832320600 832320660
832320780 832320840
832320960 832321020
832321200 832321260
832321500 832321560
832322880 832322940
832323180 832323240
832323300 832323360
832325340 832325400
832326060 832326120
832326480 832326660
832328040 832328100
832328160 832328220
832328640 832328700
832328940 832329000
832330140 832330200
832404060 832404120
832461420 832461480
832464000 832464060
832464660 832464720
832466760 832466820
832473600 832473660
832473840 832473900
832476660 832476720
832476780 832476840
832486320 832486500
832493280 832493400
832501440 832501500
832503420 832503480
832503900 832503960
832548660 832548720
832552740 832552800
832560060 832560180
832564080 832564140
832590120 832590180
832593720 832593780
832593900 832593960
832601040 832601100
832643160 832643280
832650540 832650600
832721820 832721880
832723380 832723440
832724880 832724940
832728540 832728600
832730460 832730520
832746300 832746360
832749600 832749660
832750020 832750080
832764060 832764120
832765200 832765260
832765560 832765620
832765980 832766040
832766400 832766460
832766940 832767000
832767480 832767540
832767600 832767720
832768200 832768260
832768500 832768560
832769520 832769580
832769640 832769760
832772460 832772520
832780320 832780380
832782120 832782240
832783500 832783560
832790880 832790940
832791360 832791420
832791840 832791900
832841220 832841280
832841700 832841760
832841820 832841880
832852620 832852680
832855860 832855920
832857780 832857840
832863960 832864020
832864800 832864860
832866600 832866660
832866840 832866900
832877340 832877400
832878180 832878240
832886880 832886940
832894080 832894140
832894620 832894680
832894980 832895040
832895520 832895640
832896720 832896780
832898040 832898100
832898580 832898640
832898820 832898880
832899720 832899780
832901880 832901940
832902960 832903020
832903620 832903680
832904460 832904520
832905480 832905540
832906020 832906080
832911180 832911240
832920120 832920180
832921020 832921080
832921740 832921800
832936020 832936080
832947240 832947300
832962540 832962600
832965480 832965540
832974840 832975020
832978320 832978380
832978860 832978920
832984980 832985040
832990500 832990560
832994940 832995000
832999920 832999980
833003400 833003460
833003520 833003580
833014200 833014260
833014320 833014380
833014620 833014680
833018220 833018280
833019960 833020020
833020440 833020500
833021760 833021820
833022180 833022240
833024100 833024160
833024400 833024460
833025060 833025120
833025840 833025900
833028120 833028180
833028360 833028420
833028600 833028660
833028720 833028840
833029080 833029140
833066160 833066220
833068080 833068140
833075280 833075340
833101080 833101140
833266620 833266680
833341260 833341320
833342100 833342160
833342640 833342700
833622840 833622960
833625300 833625360
833629500 833629560
833629860 833629920
833667660 833667780
833671980 833672040
833679300 833679360
833688480 833688540
833699820 833699880
833700240 833700300
833700900 833700960
833701500 833701560
833704080 833704140
833704860 833704920
833712840 833712900
833714520 833714580
833716680 833716740
833718600 833718660
833719800 833719860
833722620 833722680
833723820 833723880
833782080 833782140
833819820 833819880
833844420 833844480
833854320 833854380
833854680 833854740
833854860 833854920
833855220 833855280
833855580 833855640
833857860 833857920
833877360 833877420
833881260 833881320
833887500 833887560
834017160 834017220
834017460 834017520
834018060 834018120
834019080 834019140
834022860 834022920
834026940 834027000
834027600 834027660
834029520 834029580
834029820 834029880
834030720 834030780
834031440 834031500
834031740 834031800
834032520 834032580
834033180 834033240
834034080 834034140
834034740 834034800
834036660 834036720
834041040 834041160
834041220 834041280
834042060 834042120
834042420 834042480
834045000 834045060
834045900 834045960
834062040 834062100
834063720 834063780
834066300 834066360
834067020 834067080
834068880 834068940
834069180 834069300
834078600 834078660
834084960 834085020
834091320 834091440
834100380 834100440
834137160 834137220
834140700 834140760
834141120 834141180
834141420 834141480
834142620 834142680
834143820 834143880
834146160 834146220
834146280 834146340
834147840 834147900
834193080 834193140
834203400 834203460
834214620 834214680
834228720 834228780
834272280 834272340
834318960 834319020
834319800 834319860
834320040 834320100
834320520 834320580
834366720 834366780
834367560 834367620
834367740 834367800
834371880 834371940
834372660 834372720
834374160 834374220
834400200 834400260
834400380 834400440
834405660 834405720
834405900 834405960
834407400 834407460
834409620 834409740
834409920 834409980
834454260 834454320
834457980 834458040
834458160 834458220
834459060 834459120
834459420 834459480
834459960 834460020
834460080 834460200
834460740 834460800
834462120 834462180
834464400 834464460
834475320 834475380
834475740 834475860
834482040 834482100
834488640 834488700
834489540 834489600
834699480 834699600
834722340 834722400
834744360 834744420
834750180 834750300
834799800 834799860
834810660 834810720
834812700 834812760
834812820 834813000
834814260 834814320
834827640 834827700
835049400 835049460
835410000 835410060
835441020 835441140
835498800 835498860
835738620 835738680
835961040 835961100
836038560 836038680
836039100 836039220
836186580 836186700
836651520 836651580
836706780 836706900
836967120 836967180
837227040 837227100
837245700 837245820
837378420 837378480
837924240 837924300
838015020 838015140
838272300 838272360
838291140 838291260
838436160 838436280
838678740 838678860
838736460 838736580
838851240 838851300
839296740 839296800
839300040 839300100
839303040 839303100
839303280 839303400
839303940 839304000
839853420 839853540
840188580 840188700
840287160 840287220
840743460 840743520
840852420 840852480
840887640 840887760
841848480 841848540
842409180 842409240
842839140 842839200
842912940 842913000
847314480 847314540
847371480 847371540
847371600 847371660
847371840 847371900
848307600 848307660
848308560 848308680
848308980 848309100
848309280 848309400
848309580 848309700
848347080 848347140
852427440 852427500
852427680 852427740
855949920 855949980
855952440 855952500
856122780 856122840
857616300 857616360
857732400 857732520
857732700 857732760
857732880 857732940
857734080 857734200
857734380 857734440
857734500 857734560
857735100 857735160
857803020 857803080
858783300 858783360
858792720 858792780
860115600 860115720
860162400 860162460
860208660 860208780
860563500 860563560
