854504880 854505060
854597220 854597280
854658780 854662500
854662560 854662680
854662740 854662920
854662980 854663100
854663160 854663220
854663340 854663640
854664060 854664120
854667840 854667900
854706780 854706900
854707020 854707080
854707260 854707320
854707620 854707920
854708220 854708280
855197820 855197880
855221280 855221400
855243600 855243780
855284280 855284340
855286620 855286680
855313620 855313680
855313860 855313920
855314040 855314760
855314880 855315120
855315600 855315660
855321900 855321960
855322560 855322740
855322860 855322920
855419820 855419880
855420060 855420360
855420840 855420960
855453120 855453240
855454080 855455100
855455280 855455340
855455400 855455460
855522180 855522240
855522540 855522660
855522720 855522780
855522840 855522900
855526680 855527220
855547380 855547440
855610260 855610380
855610560 855610620
855610860 855611040
855611520 855611820
855611940 855612000
855612060 855612120
855612420 855612600
855613740 855613800
855613980 855614160
855614220 855614280
855615420 855615540
855617220 855617280
855617340 855617400
855618060 855618120
855618180 855618240
855618660 855618720
855630060 855630120
855630300 855630420
855630480 855630540
855630720 855630780
855707040 855707220
855707520 855707580
855707880 855708420
855708480 855708600
855708660 855708780
855708840 855709020
855709140 855709260
855709440 855709500
855709680 855709740
855710400 855710460
855760080 855760140
855813660 855813720
855813960 855814020
855814260 855814320
855814440 855814500
855814560 855814740
855814860 855815040
855815160 855815280
855815520 855815580
855815640 855815700
855815940 855816000
855825300 855825360
855857160 855857220
855858660 855858720
855860400 855860460
855861360 855861420
855861480 855861540
855861840 855861900
855862320 855862440
855862560 855862620
855862680 855862740
855862800 855862860
855863040 855863100
855863280 855863340
855863760 855863880
855864180 855864240
855865080 855865140
855865620 855865740
855865860 855866100
855866160 855866220
855866340 855866400
855866520 855866580
855866700 855866820
855866940 855867120
855867180 855867300
855867420 855867660
855867720 855867780
855867900 855867960
855868020 855868380
855868500 855868620
855868800 855868920
855868980 855869160
855869460 855869580
855870060 855870180
855870480 855870600
855870720 855870900
855871020 855871200
855871320 855871560
855871620 855872040
855872100 855872220
855872340 855872460
855872940 855873000
855873060 855873120
855874560 855874620
855874860 855874920
855875220 855875280
855875520 855875700
855875820 855876060
855876300 855876360
855876900 855877020
855877320 855877440
855877560 855877620
855877740 855877860
855878340 855878460
855878700 855878760
855882060 855882120
855886320 855886380
855886500 855886560
855933180 855933300
855953460 855953580
855953700 855953760
855953940 855954060
855954960 855955020
855955380 855955500
855955680 855955740
855956220 855956280
855956640 855956760
855956880 855957060
855957120 855957180
855957540 855957660
855957720 855958200
855958260 855958320
855958380 855958500
855958740 855958980
855959040 855959160
855960060 855960180
855960240 855960420
855960540 855960720
855960780 855960840
855960900 855960960
855961200 855961260
855961320 855961380
855961440 855961800
855961860 855962040
855962100 855962160
855962280 855962340
855962640 855962700
855963000 855963060
855963600 855963660
855963780 855963960
855964020 855964080
855964140 855964200
855964260 855964500
855964560 855965400
855965460 855966780
855966840 855967440
855967560 855968100
855968160 855968220
855968280 855968400
855968460 855969120
855969180 855969300
855969360 855969540
855969780 855971340
855971400 855971580
855971640 855972000
855972060 855972240
855972360 855972480
855972540 855972600
855972720 855972780
855972840 855972900
855973020 855973140
855973260 855973320
855973380 855973440
855974580 855974700
855975300 855975420
855975600 855975720
855975840 855975900
855976140 855976200
855976260 855976320
855976440 855976560
855976740 855976860
855976920 855976980
855977100 855977160
855977220 855977280
855977340 855977400
855977460 855977520
855977880 855978000
855978060 855978180
855978240 855978300
855978420 855978480
855978540 855978600
855978900 855978960
855979200 855979260
855979380 855979440
855979560 855979620
855979740 855979920
855979980 855980100
855980160 855980400
855980460 855980640
855980700 855980940
855981000 855981060
855981120 855981180
855981300 855981360
855981420 855981480
855981540 855981660
855981720 855981780
855981840 855981900
855981960 855982020
855982080 855982140
855982320 855982440
855983220 855983280
855983400 855983460
855983580 855983640
855984000 855984120
855984240 855984300
855985080 855985200
855985560 855985620
855985800 855985920
855986160 855986220
855987660 855987720
855988320 855988380
855989460 855989520
855990600 855990660
855990960 855991020
855991260 855991380
855991440 855991500
855991620 855991800
855991860 855992100
855992220 855992280
855992340 855992580
855992640 855992760
855992820 855992940
855993060 855993120
855993180 855993240
855993360 855993600
855993660 855993720
855993840 855994020
855994140 855994200
855994320 855994500
855994620 855994740
855994800 855994920
855994980 855995040
855995160 855995280
855995400 855995940
855996000 856000980
856001040 856001160
856001280 856001340
856001400 856002600
856002660 856002720
856002840 856002960
856003020 856003080
856003140 856003200
856003680 856003740
856004340 856004400
856006140 856006260
856007400 856007460
856007520 856007640
856008000 856008060
856008300 856008480
856010220 856010280
856019940 856020000
856020180 856020240
856020300 856020360
856020660 856020720
856022220 856022340
856022520 856022760
856023420 856023540
856030080 856030140
856030260 856030320
856030380 856030440
856032900 856032960
856034220 856034340
856034400 856034460
856034580 856034640
856035780 856035840
856036140 856036200
856036260 856036380
856036440 856036620
856036800 856036860
856037100 856037220
856037520 856037640
856037760 856037940
856038000 856038180
856038240 856038300
856038360 856038540
856038600 856038720
856038780 856039140
856039200 856039500
856039560 856039920
856039980 856040040
856040100 856040160
856040220 856040280
856040580 856040640
856040760 856041060
856041180 856041240
856041300 856041360
856041660 856041900
856041960 856042020
856042080 856042200
856042380 856042440
856042500 856042740
856042860 856043280
856043400 856043880
856043940 856044120
856044180 856044360
856044420 856044600
856044660 856044720
856044780 856045260
856045320 856045380
856045500 856045560
856045620 856045680
856045800 856045860
856045980 856046220
856046340 856046460
856046580 856046640
856046700 856047000
856047060 856047240
856047300 856047420
856047600 856047780
856047900 856048020
856048080 856048140
856048200 856048500
856048560 856048620
856048800 856048920
856049220 856049340
856049400 856049640
856049940 856050000
856050120 856050720
856050900 856051080
856051140 856051200
856051260 856051500
856055160 856055220
856069500 856069560
856093860 856093920
856094400 856094520
856094580 856094640
856169940 856170000
856240320 856240380
856250820 856251180
856251900 856252500
856299120 856299180
856308180 856308360
856308420 856308480
856309860 856309920
856320540 856320660
856321020 856321680
856321800 856324200
856324380 856324440
856324680 856324740
856324800 856324920
856325220 856325340
856325400 856325460
856325520 856325700
856339560 856339920
856339980 856340100
856397100 856397160
856402380 856402740
856451220 856451280
856451340 856451400
856451460 856455240
856474380 856474440
856477560 856477800
856514700 856514760
856527900 856528680
856529040 856529100
856592520 856592580
856612800 856612860
856631340 856631400
856631460 856631820
856632480 856632720
856635120 856635480
856636620 856637220
856637340 856639500
856639560 856639620
856738500 856738560
856738680 856738740
856740600 856740720
856741020 856741080
856741200 856741260
856741320 856741380
856741560 856741620
856741740 856742040
856742100 856742400
856742520 856742580
856742640 856742760
856742820 856742880
856743180 856743300
856743420 856743480
856743600 856744620
856744680 856744800
856744920 856745220
856745340 856745460
856745520 856745580
856745820 856745940
856814460 856814520
856827060 856827240
856827360 856827660
856827720 856829340
856829460 856829580
856830180 856830240
856979520 856979580
857044680 857044740
857044800 857044920
857190480 857190540
857190600 857190720
857190900 857190960
857191200 857191260
857191440 857191500
857191560 857191680
857191740 857191920
857191980 857194380
857194440 857194620
857194680 857194740
857194860 857194920
857194980 857195100
857195160 857195220
857195520 857195580
857195760 857195820
857196420 857196480
857198040 857198100
857198400 857198460
857198640 857198700
857198940 857199000
857199060 857199120
857199180 857199300
857199360 857199480
857199540 857200980
857201040 857201160
857201220 857201520
857201580 857201700
857201940 857202000
857202240 857202300
857202780 857202840
857357940 857358000
857358060 857358120
857366820 857366940
857390220 857390280
857392140 857392620
857392740 857393040
857403900 857403960
857406360 857406420
857406900 857407020
857407080 857407440
857407500 857407620
857407740 857407800
857407920 857407980
857408100 857408220
857408340 857408400
857408580 857408640
857408700 857408820
857409000 857409060
857409120 857409240
857409420 857409480
857409960 857410020
857410560 857410620
857410740 857410860
857411520 857411700
857412300 857412360
857412420 857412480
857412720 857412840
857413080 857413200
857413500 857413560
857413860 857413920
857414100 857414160
857414460 857414520
857414640 857414760
857415780 857415840
857416920 857417040
857417160 857417220
857417280 857417340
857418120 857418180
857419920 857420160
857422500 857422560
857445840 857446020
857582820 857582880
857583180 857584080
857597640 857597700
857598000 857598240
857598300 857598360
857598420 857598600
857631360 857631420
857632380 857632440
857633880 857633940
857634000 857634120
857634180 857634300
857635680 857635740
857636880 857637000
857638320 857638380
857638800 857638860
857639400 857639700
857639940 857640060
857640240 857640420
857640480 857640540
857640600 857640840
857641140 857641200
857658660 857658720
857668800 857668860
857670420 857670480
857670900 857670960
857673600 857673660
857674140 857674200
857674320 857674380
857674440 857674560
857674620 857674680
857674740 857674800
857674860 857674920
857675100 857675160
857675340 857675400
857675940 857676000
857676900 857676960
857686860 857686920
857687220 857687520
857688180 857688300
857688360 857688420
857688480 857688540
857688600 857688720
857688840 857688900
857689200 857689320
857690100 857690160
857690340 857690400
857690460 857690520
857690640 857690700
857690760 857690880
857691000 857691480
857691660 857691720
857691780 857691840
857692380 857692440
857696100 857696220
857696940 857697000
857697060 857697120
857697360 857697420
857697480 857697660
857697720 857697780
857697960 857698020
857698140 857698200
857698320 857698380
857698440 857698500
857698740 857698800
857698860 857698920
857722380 857722440
857732280 857732400
857732640 857732700
857733180 857733240
857733300 857733360
857733480 857733540
857734020 857734080
857734380 857734440
857734500 857734860
857734980 857735100
857735280 857735340
857735400 857735520
857735580 857735640
857735760 857735820
857735940 857736060
857736120 857736300
857736360 857736420
857736480 857736540
857739660 857739720
857739780 857739840
857740140 857740500
857740620 857740800
857740860 857741040
857741160 857741220
857741280 857741340
857741880 857742060
857742120 857742600
857742660 857742720
857743140 857743200
857743260 857743320
857743560 857743680
857745480 857745540
857745660 857745720
857745900 857745960
857765160 857765220
857766600 857766660
857767920 857767980
857776440 857776500
857778120 857778180
857790300 857790420
857790480 857794320
857794440 857794560
857794620 857794740
857794980 857795040
857946600 857946660
857946720 857946900
857946960 857947020
857947080 857947140
858000960 858001200
858191580 858192000
858192180 858192240
858207420 858207480
858207660 858207780
858207900 858208140
858208200 858208260
858208320 858209280
858209820 858209880
858218400 858218460
858219660 858219960
858220140 858221880
858221940 858222540
858222600 858222720
858222840 858222960
858223020 858223080
858225120 858225180
858225420 858225480
858226320 858226380
858226740 858226800
858373260 858373440
858373500 858373560
858376860 858376920
858378180 858378300
858378780 858378840
858379380 858379500
858393900 858394020
858394080 858394140
858394920 858394980
858419580 858419640
858419880 858419940
858420000 858420300
858421320 858421380
858425880 858425940
858426300 858426360
858438000 858438060
858440520 858440580
858443700 858443760
858443880 858443940
858444060 858444180
858445320 858445440
858445500 858445560
858445680 858445740
858446640 858446700
858447300 858447360
858447780 858447840
858448440 858448500
858448680 858448860
858448980 858449040
858458280 858458340
858460620 858460740
858461460 858461520
858461640 858461700
858462000 858462060
858462120 858462180
858462660 858462720
858462840 858462900
858463500 858463560
858463680 858463740
858464220 858464280
858464580 858464700
858465180 858465420
858465480 858465600
858465780 858465900
858466380 858466440
858466500 858466620
858467280 858467340
858468060 858468120
858468360 858468480
858469140 858469200
858470340 858470400
858471060 858471120
858472080 858472140
858474240 858474300
858489900 858490020
858584100 858584160
858584220 858584340
858745740 858745800
858746160 858746220
858769500 858769560
858770340 858770400
858781980 858782100
858786000 858786060
858786120 858786360
858787140 858787200
858787440 858787500
858788040 858788100
858788400 858788520
858788880 858788940
858789000 858789180
858801840 858801900
858806520 858806580
858807120 858807420
858807720 858807780
858807900 858807960
858808020 858808140
858808260 858808320
858808560 858808740
858808860 858808920
858810360 858810420
858812340 858812400
858819300 858830340
858830400 858830640
858830760 858830820
858830940 858831240
858831360 858831540
858831840 858831960
858869040 858869940
858870060 858870120
858895140 858895200
858900660 858900720
858901560 858901620
858903960 858904020
858904920 858905040
858905100 858905160
858905280 858905400
858905460 858905580
858905640 858905700
858906120 858906240
858906540 858906600
858906660 858906780
858907020 858907080
858907680 858907740
858907860 858907980
858908400 858908520
858908640 858908700
858909600 858909660
858931680 858931980
859065060 859065120
859069080 859069140
859069860 859069980
859072860 859072920
859073040 859073100
859073160 859073520
859073580 859073640
859073940 859074060
859074120 859074180
859074240 859074360
859074420 859074720
859074780 859074900
859075140 859075260
859075320 859075380
859075560 859075740
859075800 859076100
859076160 859076220
859076340 859076640
859076700 859077120
859077180 859077240
859077300 859077420
859077480 859077600
859077660 859079280
859079340 859080060
859080120 859080540
859080600 859080660
859080720 859081080
859081140 859081200
859081740 859081800
859081860 859081920
859082940 859083000
859083420 859083480
859085160 859085280
859085400 859085460
859085820 859085880
859086060 859086120
859086240 859086420
859087620 859087740
859087800 859087920
859087980 859088040
859088340 859088400
859088940 859089000
859089060 859089120
859089180 859089900
859089960 859090080
859090140 859090200
859090380 859090680
859090860 859090980
859091160 859091280
859091340 859091400
859093020 859093080
859093200 859093440
859094340 859094400
859094460 859094520
859094880 859095000
859095600 859095660
859096260 859096320
859096680 859096740
859096800 859096920
859097460 859097520
859098300 859098360
859099500 859099560
859099860 859099920
859100100 859100220
859101060 859101120
859105380 859105440
859105680 859105740
859106040 859106100
859124160 859124700
859125300 859125360
859125480 859125540
859128120 859128720
859143720 859144080
859155900 859156560
859156620 859156800
859156980 859157040
859217460 859217520
859317660 859318320
859354200 859354380
859354440 859354500
859382220 859382280
859382580 859382700
859383300 859384380
859384440 859384980
859385040 859385220
859385400 859385580
859385640 859385820
859386000 859386060
859386120 859386300
859386360 859386420
859386600 859386660
859416780 859416840
859416900 859417020
859417260 859417320
859419480 859419600
859420560 859420620
859420920 859420980
859421040 859421100
859421400 859421460
859434240 859434300
859434660 859434720
859496100 859510320
859510380 859511100
859511160 859511220
859511280 859511940
859512000 859512240
859512300 859512480
859512660 859512720
859512780 859512840
859513020 859513080
859513500 859513560
859513620 859513680
859513800 859513860
859515180 859515240
859515360 859515420
859515720 859515840
859516260 859516320
859517100 859517160
859517220 859517280
859517760 859517820
859520520 859521120
859521180 859521240
859521360 859521420
859521540 859521600
859521780 859521840
859529940 859530300
859530360 859530900
859530960 859531260
859531380 859531440
859531800 859531860
859532100 859532160
859548900 859549320
859549380 859549440
859549500 859549560
859549620 859549800
859549860 859549980
859550100 859550160
859552080 859552320
859552380 859552500
859552620 859552920
859552980 859554720
859554780 859554840
859554900 859555920
859556700 859556760
859557060 859557120
859557300 859557360
859558980 859559040
859559160 859559220
859559940 859560000
859560240 859560360
859587720 859587780
859588140 859588200
859592400 859592460
859592760 859593000
859593120 859593420
859593480 859595160
859595220 859595820
859595880 859595940
859596000 859596180
859596300 859596420
859596540 859596600
859596720 859596780
859597200 859597320
859598580 859599120
859599180 859599420
859608000 859608300
859609020 859609080
859609560 859609620
859609980 859610040
859610220 859610280
859638720 859638780
859639500 859640160
859640220 859640280
859640340 859640460
859640520 859640640
859640760 859640820
859640880 859641120
859641600 859641660
859641780 859641840
859655940 859656120
859656180 859656360
859667820 859667880
859667940 859668120
859668720 859668780
859668840 859669020
859669080 859669320
859669500 859669560
859669620 859669800
859669860 859670400
859670460 859671540
859671600 859672020
859672140 859672260
859672320 859672440
859672500 859672620
859672860 859672920
859673520 859673580
859673880 859673940
859674120 859674360
859674780 859674840
859677480 859677660
859685100 859685520
859685580 859685640
859686120 859686180
859705200 859705440
859705560 859705740
859705800 859705920
859705980 859709280
859709340 859709700
859709820 859709880
859709940 859710300
859710360 859710540
859710900 859711020
859711200 859711260
859711320 859711380
859712220 859712340
859712700 859712760
859713000 859713060
859718220 859718280
859721160 859724700
859724760 859724880
859724940 859725240
859725300 859725600
859725660 859725900
859725960 859726620
859726680 859726920
859726980 859727040
859727220 859727280
859727340 859727580
859728240 859728300
859728360 859728420
859728480 859728540
859728840 859728960
859759380 859759440
859760280 859760460
859761480 859761720
859781880 859782000
859782060 859782240
859782300 859784640
859784700 859785240
859785300 859785420
859785480 859785720
859845660 859845720
859847700 859847760
859875780 859875840
859876080 859876140
859877160 859877220
859920300 859920360
859923300 859923420
859923600 859923780
859923840 859923900
859923960 859924020
859924080 859924140
859956780 859956840
859960980 859961040
859966200 859966320
859966800 859966860
859966920 859968660
859968720 859968960
859969020 859969200
859969320 859969380
859976580 859976820
859977600 859977660
859977780 859977840
859978740 859979940
859980000 859980180
859980240 859980420
859980600 859980660
859981800 859981860
860106300 860106420
860125200 860125260
860125860 860125920
860125980 860126040
860146800 860146920
860150160 860150220
860150280 860150340
860150400 860150460
860150520 860150580
860150640 860150760
860150820 860151240
860151300 860151420
860151480 860151660
860151780 860151840
860159520 860159640
860159820 860159940
860162460 860162640
860162700 860162820
860162880 860163000
860163060 860163180
860163240 860163300
860163420 860163480
860163780 860163840
860164500 860164920
860165100 860165160
860165280 860165340
860165580 860165640
860165760 860165820
860165880 860166000
860166540 860166720
860166960 860167080
860167140 860167260
860167320 860167500
860167620 860167680
860167740 860167800
860167860 860167980
860168040 860168220
860168340 860168400
860168580 860168640
860169000 860169060
860170320 860170560
860170620 860170800
860170860 860170980
860171040 860171100
860171160 860171640
860171820 860172420
860172480 860172540
860172600 860172660
860172780 860173020
860173200 860173440
860173500 860173560
860173620 860173680
860173860 860173920
860173980 860174160
860174220 860174640
860174760 860174940
860175000 860175060
860175240 860175300
860175660 860175720
860175780 860175840
860175960 860176320
860176380 860176620
860176740 860176860
860176980 860177100
860177160 860177220
860177280 860177400
860177520 860178300
860178360 860178540
860178600 860179620
860179680 860180880
860180940 860182320
860182380 860182500
860182560 860185320
860185380 860185560
860185620 860187120
860187240 860188260
860188320 860188620
860188680 860191800
860191860 860192220
860192280 860192340
860192460 860195220
860195280 860199240
860199300 860199420
860199480 860200260
860200380 860200500
860200560 860200620
860200680 860200860
860200980 860201340
860201700 860201760
860201820 860202240
860202480 860202540
860202840 860202900
860203320 860203500
860203620 860203680
860259480 860259540
860274000 860274060
860275680 860275740
860278140 860278260
860281080 860281140
860287380 860287440
860302080 860302140
860302380 860302440
860303580 860303640
860307240 860307300
860310600 860310660
860310780 860310900
860312400 860312460
860317920 860317980
860318400 860318460
860321880 860322000
860326800 860326860
860328240 860328300
860328900 860328960
860330520 860330580
860330700 860330760
860331000 860331060
860333880 860333940
860339820 860339880
860438100 860438160
860441280 860441340
860441520 860441640
860441760 860441820
860441880 860442180
860442240 860442360
860442420 860442480
860442660 860442720
860442780 860443080
860466420 860466540
860478660 860478720
860478900 860480460
860480520 860480640
860480760 860480820
860481180 860481300
860481480 860481600
860481840 860481900
860481960 860482020
860490180 860490600
860511120 860511300
860511780 860511960
860525280 860525400
860526120 860526300
860526360 860526660
860526720 860526780
860526840 860527200
860527260 860527440
860527500 860527560
860530140 860530200
860534700 860534760
860537640 860537760
860537820 860538360
860591700 860591760
860594100 860594160
860767260 860767320
860768160 860768280
860768340 860768400
860768580 860769000
860769060 860769540
860769660 860770020
860770080 860770320
860770380 860770500
860770680 860770740
860770800 860770860
860770920 860770980
860771040 860771100
860771220 860771280
860771340 860771400
860771700 860771820
860772060 860772120
860772180 860772240
860772360 860772420
860888220 860888280
860921220 860921820
860945280 860945340
860945640 860945760
860945820 860945880
860946180 860946240
860946480 860946540
860947140 860947200
860970060 860970120
860980260 860980320
860980920 860980980
860981280 860981400
860981700 860981760
860981820 860982000
860982180 860982240
860982420 860982480
860982840 860983080
860985240 860985420
860985540 860985600
860985660 860985720
860985780 860985840
860986080 860986140
860986740 860986800
860987220 860987280
860987820 860987880
861013380 861013620
861013740 861013800
861065460 861065700
861065760 861065820
861066660 861068460
861068520 861069120
861069180 861069360
861069480 861069660
861069780 861070020
861070200 861070800
861070860 861071040
861071100 861073680
861073740 861075840
861075960 861076080
861076500 861076560
861120300 861120360
861214740 861214860
861214920 861215040
861215220 861215400
861215520 861215700
861215820 861215940
861216120 861217980
861218040 861218880
861218940 861219000
861219120 861219300
861219360 861219420
861219600 861219720
861219900 861220020
861220080 861220200
861220740 861220800
861222120 861222180
861280500 861280560
861394440 861394500
861468060 861468120
861468180 861468300
861481980 861482040
861501480 861501540
861504180 861504300
861544740 861544980
861545520 861545760
861545820 861546240
861546300 861546600
861546780 861546840
861546960 861547140
861547200 861547260
861547320 861547380
861547500 861547680
861547740 861547860
861555480 861555540
861576540 861576600
861584160 861584220
861585180 861585240
861585300 861585420
861586140 861586200
861587100 861587220
861588480 861588540
861589680 861589740
861700380 861700440
861700560 861700740
861700860 861700920
861719700 861719880
861720120 861720240
861739200 861739260
861743580 861743640
861773760 861773940
861805140 861805200
861808380 861808440
861808620 861808740
861808800 861808860
861843180 861843360
861886200 861886260
861886320 861886440
861886560 861887940
861888060 861888120
861888180 861888240
861888300 861888420
861888540 861888600
861910320 861910380
861913320 861913860
861913920 861914160
861914220 861914340
861914640 861914700
861914940 861915000
861915360 861915480
861920580 861920640
861922140 861922200
861923460 861923580
861924060 861924240
861924480 861924600
861925440 861925560
861925860 861925920
861926940 861927000
861927720 861927780
861928020 861928200
861928500 861928680
861929280 861929340
861929400 861929520
861929640 861929700
861929940 861930000
861930540 861930660
861930780 861930900
861931500 861931560
861931620 861931680
861932100 861932160
861932220 861932280
861932460 861932520
861932580 861932640
861932820 861933120
861933300 861933480
861933540 861933600
861934380 861934440
861934920 861934980
861935040 861935100
861936240 861936360
861936540 861936660
861936840 861936960
861937440 861937500
862016280 862016340
862016400 862016820
862016940 862017000
862017120 862017360
862021860 862021980
862022100 862022220
862022280 862023300
862166760 862166820
862167000 862167060
862167600 862167720
862167960 862168020
862168080 862168140
862168260 862168320
862168800 862168860
862169160 862169220
862169340 862169460
862169520 862169580
862169700 862169820
862170060 862170180
862170900 862170960
862175340 862175400
862179540 862179600
862186860 862186980
862187100 862187400
862189320 862189380
862189680 862189740
862189800 862189920
862191180 862191240
862191480 862191600
862191780 862191840
862192140 862192260
862192380 862192500
862192620 862192740
862193040 862193340
862193460 862193640
862193940 862194060
862194240 862194300
862194600 862194660
862197120 862197180
862197540 862197600
862198440 862198500
862198620 862198740
862199100 862199220
862201140 862201200
862202760 862202820
862202880 862202940
862203540 862203600
862204080 862204140
862204320 862204380
862204560 862204620
862239240 862239360
862239420 862239480
862239900 862239960
862272000 862272060
862273500 862273560
862273680 862273860
862318440 862319640
862319760 862319880
862320120 862320180
862320540 862320660
862348620 862348740
862350420 862350600
862350660 862350840
862351380 862351440
862354500 862354560
862354680 862354920
862354980 862355040
862361820 862361880
862367160 862367220
862367760 862367820
862369860 862369920
862379220 862379280
862381320 862381440
862393560 862394880
862395000 862395120
862395360 862395420
862465620 862465680
862468800 862468860
862522440 862522500
862529160 862529220
862538580 862538640
862539120 862539180
862674660 862674780
862701060 862701120
862701240 862701300
862701780 862701840
862702080 862702140
862702260 862702320
862702740 862702860
862702920 862702980
862703460 862703520
862704180 862704240
862704300 862704360
862704420 862704480
862704540 862704720
862704900 862705020
862705080 862705140
862705200 862705320
862705380 862705440
862705800 862705860
862706280 862706400
862706580 862706700
862707060 862707120
862707180 862707300
862707540 862707660
862707840 862707900
862708680 862708740
862708860 862708920
862709700 862709760
862709880 862709940
862710060 862710120
862710240 862710300
862710420 862710540
862710600 862710840
862711020 862711200
862711320 862711800
862711860 862711980
862712040 862712340
862712460 862712520
862712640 862713000
862713180 862713240
862713420 862713660
862714080 862714140
862714500 862714560
862714620 862714860
862714980 862715040
862732500 862733040
862733220 862733280
862733340 862733400
862733580 862733760
862734240 862734360
862734420 862734480
862734960 862735020
862735260 862735320
862735500 862735560
862735740 862735860
862735980 862736160
862736520 862736580
863051580 863052300
863052360 863052420
863052480 863052540
863052720 863053020
863053140 863053740
863053800 863054280
863054340 863054460
863054820 863054880
863055060 863055120
863055300 863055360
863058000 863058120
863109960 863110020
863116680 863116740
863117400 863117520
863117580 863117640
863131260 863131320
863133060 863133120
863284740 863284860
863285400 863285520
863285880 863285940
863286600 863286720
863286840 863286900
863342700 863342820
863343060 863343120
863343300 863343720
863343780 863343840
863343900 863346660
863346720 863346960
863347140 863347200
863347260 863347380
863347680 863347740
863347920 863347980
863349180 863349240
863381040 863381100
863393040 863393220
863393580 863393640
863394120 863394180
863394300 863394420
863394540 863394660
863395020 863395200
863395260 863395440
863395500 863395620
863395680 863395740
863395800 863395920
863396040 863396160
863396220 863396460
863396580 863396760
863396820 863397000
863397060 863397540
863397600 863397720
863397780 863398680
863398740 863399100
863399220 863399280
863399400 863399460
863399520 863399580
863399760 863399820
863399940 863400000
863400540 863400720
863402520 863402640
863411940 863412060
863412840 863412900
863416860 863416920
863466900 863466960
863479440 863479500
863490780 863490900
863491080 863491140
863491680 863491740
863491800 863491860
863492040 863492160
863492460 863492640
863492940 863493060
863493120 863493180
863493360 863493420
863493480 863493540
863493840 863493960
863494020 863494140
863494200 863494320
863494380 863494560
863494920 863494980
863569680 863569860
863573400 863573640
863575500 863575620
863575920 863575980
863576340 863576400
863578500 863578560
863579040 863579100
863579160 863579340
863581080 863581260
863581440 863581500
863581800 863581860
863581980 863582400
863582460 863582520
863583000 863583060
863584440 863584500
863585580 863585640
863585880 863585940
863586180 863586480
863586660 863586720
863586840 863586900
863587440 863587620
863587680 863587740
863588400 863588460
863589240 863589300
863628300 863628420
863629560 863629620
863629680 863629740
863630280 863630340
863630520 863630580
863631420 863631480
863631540 863631600
863634480 863634540
863635560 863635620
863635680 863635800
863636040 863636100
863636220 863636280
863636760 863636820
863636940 863637000
863637480 863637540
863638800 863638860
863639160 863639340
863639460 863639580
863642520 863642640
863642700 863642820
863643000 863643120
863643180 863643240
863643300 863643420
863643600 863643660
863643780 863643840
863644440 863644500
863644800 863644920
863645160 863645280
863645640 863645700
863646000 863646240
863646300 863646360
863647740 863647800
863647860 863648040
863649900 863649960
863759460 863759580
863760180 863760420
863760480 863760540
863760600 863760660
863760720 863760840
863761020 863761440
863761560 863761620
863761740 863761860
863762160 863762220
863762340 863762400
863791200 863791260
863791920 863791980
863792220 863792340
863802720 863802780
863803860 863803920
863806980 863807100
863825100 863825160
863825820 863825880
863826000 863826060
863826180 863826540
863826600 863826960
863827020 863827140
863827380 863827800
863827860 863827920
863827980 863828040
863828100 863828160
863828220 863828340
863828460 863828520
863828580 863828820
863828940 863829000
863829120 863829240
863829300 863829420
863829600 863829660
863829720 863829780
863829840 863830020
863830200 863830380
863830440 863830560
863830680 863831700
863831760 863835120
863835180 863836320
863836380 863836560
863836620 863837040
863837100 863837640
863837760 863838300
863838360 863838600
863838960 863839080
863839380 863839560
863839620 863839680
863839920 863839980
863840040 863840100
863840940 863841060
863841660 863841720
863841780 863841840
863841900 863842020
863842080 863842140
863842200 863842260
863842380 863842440
863842500 863842740
863842800 863842860
863842980 863843100
863843220 863843520
863843640 863844060
863844120 863844180
863844360 863844420
863844660 863844780
863845080 863845200
863845260 863845320
863845620 863845800
863845920 863846040
863846340 863846460
863847000 863847120
863847180 863847240
863884140 863884200
863891400 863891580
863932080 863933340
863933400 863933520
863981400 863981460
863983740 863983800
863983860 863984040
863984100 863984220
863984280 863984340
863984460 863984580
863984640 863984700
863984880 863984940
864047100 864047640
864153060 864153120
864184320 864184680
864258180 864258300
864283140 864283200
864312180 864312300
864316320 864316440
864316920 864317040
864317160 864317280
864317340 864317940
864318060 864318240
864319920 864319980
864320220 864320280
864320400 864320520
864320700 864320760
864320880 864321060
864327300 864327360
864327480 864327540
864329460 864329520
864331740 864331860
864333540 864333600
864333720 864333780
864334740 864334860
864335340 864335400
864335760 864335820
864336060 864336120
864337080 864337140
864337860 864337920
864338820 864339060
864339120 864339240
864339300 864339480
864339540 864339720
864339780 864340140
864340200 864345420
864345480 864349560
864349620 864350940
864351060 864351600
864351660 864351900
864351960 864352140
864352200 864352860
864352980 864353880
864354000 864354420
864354480 864354540
864354600 864354720
864354960 864355080
864355200 864355260
864355440 864355560
864355620 864355680
864355800 864355860
864355920 864356160
864356460 864357060
864357120 864357180
864357300 864357360
864357540 864357600
864357840 864357960
864358080 864358200
864358260 864358380
864358500 864358560
864358920 864358980
864361200 864361260
864361320 864361380
864361440 864361500
864361920 864361980
864370980 864371040
864413580 864413640
864425040 864425220
864425340 864425400
864426600 864426720
864427740 864427800
864428100 864428160
864430260 864430320
864432240 864432300
864433980 864434040
864437280 864437340
864469800 864469860
864469980 864470160
864471060 864471120
864491100 864491160
864592320 864594240
864594360 864595080
864595620 864595680
864642600 864642900
864856860 864856920
864857100 864857160
864857580 864858000
864858480 864860400
864860460 864860820
864860940 864861000
864861600 864861720
864963720 864963780
864963960 864964260
864964500 864964800
864964980 864965280
864965400 864965700
864965760 864966540
864966600 864966960
864967020 864967440
864967680 864967740
864967980 864968880
864968940 864969000
864969180 864969240
864969600 864969660
864969720 864969780
865074300 865074420
865094340 865094520
865104000 865104120
865123920 865123980
865125600 865125660
865125780 865125840
865125900 865125960
865126020 865126080
865126260 865126440
865126620 865126800
865126860 865126920
865127340 865127460
865127520 865127580
865127640 865127760
865128000 865128120
865128420 865128780
865128840 865128960
865129020 865129260
865129320 865129500
865129620 865129980
865130040 865130220
865130460 865130580
865130700 865130760
865130820 865130880
865130940 865131000
865131060 865131120
865131180 865131480
865131600 865131720
865131960 865132440
865132800 865132920
865133280 865133340
865133820 865133880
865133940 865134000
865134060 865134120
865134240 865134300
865134360 865134480
865135980 865136040
865136280 865136340
865136580 865136880
865136940 865137000
865138740 865138920
865140420 865140540
865141380 865141440
865175640 865175700
865175820 865175880
865176240 865176300
865176720 865177020
865178340 865178400
865178640 865178820
865179060 865179420
865179600 865179780
865179900 865179960
865180140 865180260
865180320 865180380
865180680 865180800
865180860 865181280
865181400 865181940
865182180 865182300
865182360 865182660
865182720 865183380
865183440 865183500
865183560 865184040
865184160 865184640
865184700 865184940
865185060 865185480
865185540 865186680
865186740 865188540
865188600 865189080
865189140 865189320
865189380 865189440
865189500 865189560
865189680 865190160
865190220 865191780
865191840 865192080
865192140 865193460
865193580 865194120
865194180 865194480
865194600 865195200
865195260 865195740
865195860 865196160
865196220 865196460
865196640 865196760
865196880 865197060
865197180 865197360
865197420 865197720
865197840 865198500
865198560 865198800
865198860 865200660
865200780 865202160
865202220 865203780
865203840 865204140
865204200 865204680
865204740 865205820
865205880 865206000
865206180 865206960
865207020 865207320
865207380 865207860
865207920 865210560
865210680 865210920
865210980 865212060
865212120 865212360
865212420 865213260
865213320 865213380
865213440 865216080
865216140 865216800
865216860 865216980
865217040 865217340
865217580 865217880
865218000 865218120
865218180 865218240
865218300 865218360
865218420 865218660
865218780 865218840
865218900 865218960
865219020 865219080
865219140 865219320
865219620 865219680
865219740 865219800
865219920 865219980
865220100 865220220
865220340 865220520
865220580 865220640
865220700 865221060
865221120 865221180
865221480 865221600
865221780 865221840
865221960 865222020
865222320 865222380
865222620 865222680
865223580 865223640
865224120 865224180
865224600 865224660
865224840 865224900
865225800 865225860
865227360 865227420
865263780 865263960
865270320 865270620
865271040 865271100
865271400 865271460
865287480 865287540
865288680 865288800
865296000 865296060
865346220 865346760
865346820 865346940
865347060 865347120
865347180 865347240
865352280 865352340
865354440 865354920
865355100 865355340
865355520 865355640
865361520 865361820
865361880 865362000
865366800 865367100
865367460 865368000
865368780 865368960
865369080 865369380
865369500 865369620
865369740 865370400
865370700 865371300
865371840 865372140
865372500 865372740
865372980 865373220
865373280 865373400
865373520 865373880
865374120 865374300
865374900 865375020
865375920 865376160
865376220 865376460
865376880 865377000
865377300 865377660
865561140 865561200
865561560 865561620
865561680 865561800
865561860 865561920
865561980 865562040
865562760 865562820
865563060 865563120
865563960 865564260
865565100 865565220
865566300 865566360
865566540 865566600
865566660 865566720
865566780 865566840
865567200 865567260
865567320 865567380
865567500 865567620
865567980 865568040
865568340 865568400
865568640 865568760
865569120 865569180
865617480 865617600
865647780 865647840
865648080 865648200
865648500 865648560
865648860 865648920
865649160 865649220
865649460 865649640
865649940 865650000
865650720 865650780
865651440 865651500
865651620 865651740
865651800 865652100
865652160 865652280
865652340 865652400
865652580 865652700
865652880 865653060
865653180 865653240
865653300 865653480
865653600 865653840
865654020 865654080
865654380 865654440
865654800 865654920
865655100 865655160
865655340 865655400
865655580 865655640
865655760 865655820
865656000 865656060
865656180 865656300
865656600 865656660
865656720 865656780
865657560 865657620
865659060 865659120
865668660 865668840
865700700 865701180
865701360 865701840
865702380 865702500
865702800 865703220
865703400 865703580
865703760 865703820
865798740 865804200
865804260 865804320
865804440 865804620
865804680 865804920
865804980 865805220
865805280 865805400
865805520 865805700
865805940 865806000
865806600 865806660
865806780 865806840
865807380 865807440
865818180 865818240
865819440 865819500
865819560 865819620
865819680 865820100
865820280 865820520
865821000 865821120
865821180 865821480
865821540 865821660
865821780 865821840
865822020 865822560
865822620 865822680
865822860 865823040
865823220 865823640
865823760 865823940
865824060 865824420
865824480 865824600
865824660 865825200
865825260 865825740
865825860 865826040
865826100 865826160
865826220 865826400
865826520 865826640
865826760 865826940
865827060 865827180
865827300 865827360
865827420 865827720
865827780 865828140
865828200 865828440
865828500 865828920
865828980 865829400
865829460 865829520
865829640 865829760
865829820 865830060
865830180 865830240
865830840 865830900
865831080 865831140
865832820 865832880
865833900 865833960
865881000 865881060
865972800 865972860
865973160 865973220
865973340 865973400
865973460 865973520
865974000 865974060
865994940 865995000
865995120 865995300
866005920 866005980
866006220 866006340
866054640 866054700
866067360 866067420
866068560 866068620
866068680 866068800
866068920 866068980
866072400 866072520
866073060 866073120
866074560 866074620
866075220 866075280
866076060 866076240
866076480 866076540
866076600 866076660
866076960 866077080
866077380 866077440
866077560 866077620
866077800 866078040
866078100 866078160
866078220 866079060
866079120 866079540
866079600 866079720
866079780 866080380
866080440 866081040
866081100 866081160
866081220 866081340
866081400 866081700
866081760 866081940
866082000 866082060
866082120 866082300
866082360 866082540
866082660 866082720
866083020 866083200
866083260 866083380
866083440 866083740
866083800 866083860
866083920 866083980
866084100 866084220
866084340 866084400
866084520 866084580
866085120 866085180
866085720 866085780
866085840 866085960
866138280 866138400
866140200 866140320
866152860 866152920
866154060 866154120
866154300 866154360
866154420 866154540
866154840 866154900
866155140 866155380
866155500 866155560
866156160 866156220
866156340 866156460
866156520 866156640
866156700 866156760
866156820 866157720
866157840 866157900
866158080 866158380
866158440 866158500
866158560 866158740
866158800 866159700
866159760 866159940
866160000 866160180
866160240 866160720
866160960 866161740
866161800 866161980
866162040 866162460
866162520 866162820
866162880 866162940
866163060 866163120
866163180 866164500
866164560 866165340
866165400 866165580
866165880 866166000
866166060 866167320
866167500 866167560
866167620 866168040
866168100 866168700
866168880 866168940
866169000 866169180
866169240 866169300
866169360 866169480
866169600 866169900
866170080 866170620
866170740 866170860
866170980 866171100
866171160 866171400
866171520 866171580
866171640 866171700
866171760 866171880
866171940 866172060
866172120 866172180
866172480 866172600
866172780 866173080
866173260 866173320
866174160 866174220
866174760 866174820
866177400 866177520
866177940 866178360
866178780 866178840
866180280 866180340
866184240 866184480
866184600 866184720
866184840 866184900
866185020 866186760
866186820 866187600
866187720 866188080
866188140 866188200
866188260 866188320
866188500 866188560
866188980 866189040
866232900 866232960
866248860 866248980
866484360 866484420
866488020 866488080
866587020 866587080
866594100 866594220
866594280 866594340
866595780 866595840
866597400 866597460
866598300 866598360
866598480 866598540
866599380 866599440
866599620 866599860
866599980 866600040
866600100 866600220
866600280 866600340
866600400 866600520
866600700 866601120
866601180 866601480
866601660 866601780
866601840 866601900
866601960 866602020
866602080 866602140
866602200 866602320
866602500 866602740
866602860 866602920
866603220 866603580
866603700 866603940
866604000 866604060
866604120 866604960
866605020 866605200
866605260 866605380
866605440 866605560
866605800 866605860
866607420 866607600
866607720 866607780
866607900 866608260
866608380 866608560
866608620 866608740
866608860 866608920
866609040 866609160
866609280 866609340
866609400 866609580
866609640 866609820
866609940 866610000
866610060 866610240
866610540 866610780
866611080 866611200
866611800 866611980
866613600 866613660
866625660 866625780
866682480 866682540
866684580 866685240
866685300 866685360
866685600 866685720
866686080 866686260
866686320 866686500
866686560 866686620
866686980 866687040
866687640 866687760
866761680 866762400
866762520 866762580
866762640 866762820
866763060 866763180
866763420 866763480
866765880 866766000
866766120 866766180
866766900 866766960
866767500 866767560
866767620 866767800
866767980 866768040
866768100 866768160
866768220 866768280
866768400 866768460
866768520 866768640
866768820 866768940
866769000 866769120
866769180 866769240
866769300 866769360
866769480 866769600
866769660 866769780
866769840 866769900
866770140 866770200
866770380 866770500
866770620 866770680
866770740 866770860
866771160 866771340
866771400 866771820
866772240 866772300
866772360 866772420
866772540 866772600
866773200 866773260
866773380 866773440
866773500 866773560
866773680 866773800
866773860 866774040
866774100 866774160
866774220 866774460
866774520 866774580
866774640 866774940
866775060 866775360
866775420 866775600
866775720 866775840
866775900 866776260
866776320 866776380
866776620 866776740
866776980 866777220
866777280 866777520
866777760 866778180
866778300 866778360
866778480 866778720
866778840 866778960
866779740 866779800
866780100 866780220
866780580 866780640
866781180 866781300
866865060 866865120
866865480 866865600
866866740 866866800
866867100 866867160
866867460 866867580
867028260 867028320
867037440 867041340
867041400 867041880
867041940 867042240
867042300 867042660
867042720 867043320
867043440 867043560
867043800 867043980
867044100 867044160
867058080 867058320
867058740 867058800
867111060 867111120
867118860 867118920
867119340 867119400
867119520 867119580
867119640 867119700
867120000 867120300
867120360 867120600
867120780 867120900
867121200 867121440
867121560 867121620
867121680 867121740
867122220 867122280
867122400 867122460
867122580 867122640
867122760 867122880
867123000 867123180
867133260 867133320
867179040 867179100
867202620 867202740
867203100 867203160
867203220 867203340
867203880 867204060
867204720 867204900
867205080 867205140
867205260 867205320
867205500 867205620
867206580 867206640
867209340 867209400
867211260 867211320
867299520 867299580
867437100 867437160
867449580 867449700
867487860 867487980
867488100 867488160
867488220 867488340
867488640 867488820
867488880 867489960
867490080 867490260
867491040 867491100
867512160 867513000
867513060 867513300
867513900 867514380
867514860 867515040
867515520 867515760
867515820 867515940
867516360 867516660
867516720 867516780
867517380 867517560
867517860 867518040
867719940 867720000
867720360 867720540
867720600 867721200
867721260 867721560
867721620 867721680
867731520 867731580
867732720 867732840
867733320 867733440
867733860 867733920
867736740 867736800
867741540 867741600
867741720 867741780
867809580 867809640
867809760 867809820
867810120 867810180
867810660 867810720
867810780 867810900
867811380 867811500
867812040 867812100
867812580 867812820
867812880 867812940
867813120 867813180
867813360 867813840
867813960 867814440
867814500 867814860
867814920 867814980
867815040 867815160
867815220 867815700
867815760 867816600
867816660 867816780
867816840 867817080
867817140 867817320
867817380 867817440
867817500 867817560
867817620 867817800
867817860 867818160
867818280 867818340
867818400 867818820
867818880 867818940
867819000 867819060
867819120 867819240
867819300 867819360
867819720 867819840
867819900 867820140
867820260 867820680
867820740 867820800
867820980 867821040
867821460 867821580
867821760 867821820
867822900 867822960
867823140 867823200
867823260 867823380
867824160 867824220
867824520 867824640
867824880 867824940
867825240 867825300
867825480 867825540
867826380 867826440
867826860 867826920
867828480 867828540
867878400 867878460
867895620 867895680
867896040 867896280
867896640 867896760
867897000 867897060
867897120 867897180
867897420 867897480
867898500 867898560
867898680 867898740
867899160 867899280
867899460 867899580
867899640 867899700
867899940 867900000
867900960 867901020
867901080 867901140
867901200 867901260
867901560 867901620
867901920 867901980
867902040 867902100
867902160 867902220
867902400 867902460
867902520 867902640
867902940 867903000
867903900 867903960
867906300 867906360
867906420 867906480
867907200 867907260
867909660 867909720
867982620 867982680
867982980 867983040
867983160 867983220
867983460 867983580
867984120 867984300
867984420 867984540
867984900 867984960
867985020 867985080
867985680 867985800
867985920 867985980
867986460 867986640
867986700 867986820
867986880 867986940
867990240 867990300
867995940 867996000
868000620 868000680
868000800 868000860
868000920 868000980
868001040 868001100
868002420 868002480
868114200 868114260
868119480 868119540
868127340 868127400
868386420 868386480
868392360 868392420
868398360 868398420
868399740 868399860
868399920 868401360
868401600 868401660
868401720 868401840
868401900 868402020
868402140 868402260
868402320 868402380
868402440 868402500
868403100 868403160
868528440 868528560
868528740 868528920
868529220 868529340
868529520 868529580
868529760 868529880
868540620 868540740
868540800 868546320
868546380 868547160
868547220 868547460
868547640 868547700
868547760 868547940
868548300 868548360
868556940 868557000
868581720 868581780
868582320 868582380
868582560 868582620
868584360 868584600
868584780 868584900
868584960 868590900
868590960 868591080
868591140 868591260
868591320 868591560
868591620 868591680
868591800 868591920
868592100 868592160
868592700 868592880
868593240 868593300
868593360 868593480
868593600 868593660
868593720 868593780
868594140 868594200
868596900 868596960
868598160 868598220
868631460 868631640
868631700 868631880
868631940 868634220
868634280 868635240
868635360 868635600
868635780 868635840
868635900 868636080
868636260 868636320
868636500 868636560
868669500 868669620
868669740 868669800
868675980 868676040
868681620 868682340
868701900 868702020
868702140 868702320
868702740 868702920
868702980 868703460
868703520 868703880
868704000 868704120
868704240 868704420
868704480 868704660
868704780 868704840
868704960 868705080
868705260 868705320
868705680 868705860
868706040 868706100
868719960 868720020
868721520 868721580
868721820 868721940
868729680 868729860
868741860 868741920
868755120 868755900
868756140 868756260
868756380 868756440
868756500 868756560
868756620 868756740
868757340 868757400
868757460 868757520
868757760 868757820
868758060 868758120
868780800 868780860
868802820 868802880
868803180 868803240
868827060 868827120
868840800 868840980
868841100 868841160
868859640 868859700
868904040 868904100
868905420 868905480
868905600 868905660
868910220 868910280
868916220 868916400
868918860 868918920
868926720 868926780
868964880 868965000
868967340 868967460
869006760 869006820
869007720 869007780
869010120 869010180
869010300 869010360
869010900 869010960
869011800 869011860
869012460 869012520
869014380 869014440
869016420 869016480
869017440 869017500
869018640 869018760
869019480 869019540
869019960 869020020
869020140 869020200
869020620 869020740
869021280 869021400
869021580 869021640
869022840 869022900
869023260 869023320
869023920 869023980
869024640 869024700
869029260 869029320
869029740 869029800
869032200 869032260
869035140 869035200
869036760 869036820
869060820 869060880
869068680 869069100
869069160 869069340
869069520 869069640
869069700 869069820
869069880 869070120
869070180 869070480
869070660 869070720
869190780 869190840
869207340 869207760
869207820 869207940
869246880 869246940
869266980 869267040
869280300 869280360
869280840 869280900
869281260 869281320
869281860 869281920
869282040 869282100
869282220 869282400
869282520 869282580
869282700 869283240
869283300 869283360
869283420 869284140
869284260 869284380
869284500 869284920
869284980 869285100
869285160 869285280
869285460 869285640
869285700 869285760
869285940 869286000
869286240 869286420
869286480 869286600
869287020 869287080
869287140 869287200
869287500 869287560
869287980 869288040
869288100 869288280
869288400 869288460
869288940 869289000
869291940 869292000
869292960 869293020
869300280 869300340
869304960 869305020
869322480 869322540
869324040 869324100
869325300 869325360
869325720 869325780
869325840 869325900
869325960 869326020
869326680 869326740
869327160 869327220
869327760 869327880
869330640 869330700
869406180 869406240
869413740 869413800
869443560 869443680
869443980 869444040
869444160 869444220
869444460 869444580
869444820 869444940
869445000 869445060
869445300 869445360
869445420 869445480
869445660 869445780
869445960 869446080
869446140 869447640
869447760 869447940
869448000 869448060
869448360 869448420
869448780 869448840
869464560 869464620
869464800 869470620
869470680 869470920
869470980 869471100
869471160 869471280
869471340 869471880
869471940 869472060
869472120 869472360
869472420 869472540
869472720 869472780
869472840 869472900
869473560 869473620
869473800 869473860
869535780 869536620
869536680 869536740
869584320 869584380
869584680 869584800
869585220 869585340
869585460 869586540
869586600 869586720
869586900 869586960
869587080 869587140
869587260 869587380
869587620 869587740
869587920 869587980
869614080 869614560
869616480 869616660
869617560 869617800
869618100 869618700
869630040 869630100
869630820 869630880
869686260 869686320
869721240 869721360
869721480 869721660
869721780 869721960
869722020 869722320
869722380 869722560
869722620 869722920
869722980 869723040
869723340 869723400
869723640 869723700
869787600 869787660
869795100 869795160
869795640 869795700
869796180 869796240
869796420 869796480
869796600 869796660
869796720 869796780
869796840 869796900
869797200 869797800
869797920 869798040
869798100 869798160
869798280 869798460
869798640 869798700
869798760 869798820
869798880 869799060
869799120 869799300
869799360 869799480
869799540 869799660
869799720 869799840
869799900 869800020
869800080 869800320
869800380 869800500
869800620 869800680
869800740 869800800
869800860 869800980
869801220 869801520
869801640 869801700
869802120 869802420
869802480 869802540
869802600 869802840
869802900 869803020
869803200 869803320
869803380 869803500
869803620 869803680
869804220 869804280
869804460 869804580
869804700 869804760
869804820 869804880
869805060 869805120
869805480 869805660
869806140 869806200
869806320 869806380
869806680 869806740
869807040 869807100
869807520 869807580
869807640 869807700
869807880 869807940
869808120 869808180
869808360 869808420
869808480 869808540
869809200 869809260
869809440 869809500
869874240 869874360
869874420 869874480
869874540 869874600
869874780 869874840
869932620 869932680
869932800 869933520
869933640 869933880
869933940 869934060
869934240 869934300
869934420 869934480
869935260 869935320
869960340 869960400
869960520 869960940
869961000 869961240
869961540 869961600
869961660 869961840
869961900 869962020
869962260 869962320
870024180 870031440
870031500 870032100
870032160 870032760
870032820 870033300
870033360 870033540
870033600 870033660
870033720 870033840
870034200 870034260
870058680 870066900
870066960 870067380
870067500 870067740
870067800 870067920
870068040 870068160
870068340 870068460
870068760 870068820
870068880 870069060
870069120 870069180
870069360 870069480
870069540 870070140
870070200 870070380
870072300 870072360
870072540 870072660
870072780 870072840
870073140 870073200
870141420 870141600
870141720 870141900
870142140 870142200
870147780 870147840
870148140 870148200
870148440 870148500
870148740 870148800
870148920 870149280
870149340 870149520
870149580 870149940
870150000 870150300
870150780 870150840
870154080 870154260
870155220 870155280
870157500 870157620
870157800 870157860
870157980 870158100
870158160 870158220
870158280 870158340
870158580 870158640
870158880 870158940
870159300 870159360
870159480 870159540
870161580 870161640
870162600 870162720
870162840 870162900
870163080 870163140
870163500 870163560
870163680 870163800
870165600 870165660
870165900 870165960
870220560 870220620
870221760 870221820
870222960 870223020
870224160 870224220
870225360 870225420
870225960 870226020
870226080 870226140
870226800 870226860
870226980 870227040
870227340 870227580
870227760 870227880
870227940 870228000
870228420 870228480
870228600 870228780
870228840 870228900
870229080 870229200
870229260 870229380
870229440 870229680
870229740 870229980
870230040 870230160
870230580 870230760
870231180 870231360
870231480 870231600
870231720 870231840
870231900 870231960
870232320 870232500
870232620 870232680
870232740 870232800
870233160 870233220
870233280 870233400
870233460 870233520
870233820 870233880
870233940 870234000
870234300 870234360
870234900 870234960
870235440 870235500
870235800 870235860
870235980 870236040
870236220 870236280
870236400 870236520
870236580 870236640
870236760 870237060
870237300 870237420
870237720 870238020
870238260 870238380
870238680 870238740
870239220 870239280
870250260 870250320
870273780 870273900
870274140 870275220
870275280 870275460
870275580 870276420
870276600 870276780
870276960 870277080
870277140 870277320
870277380 870277440
870295980 870296040
870296640 870296700
870344040 870344160
870367140 870367200
870367740 870367800
870368580 870368640
870368700 870368760
870369240 870369300
870369660 870369720
870375840 870375900
870376200 870376260
870378540 870378720
870378840 870378900
870379140 870379320
870379800 870379920
870380160 870380220
870481680 870481740
870483120 870483240
870483300 870484320
870484380 870484620
870484740 870484800
870484920 870485040
870491220 870491280
870491700 870491760
870492600 870492660
870517800 870517860
870517980 870518040
870518160 870518220
870538320 870538620
870540840 870541080
870541200 870541380
870541440 870541620
870542580 870542640
870546060 870546120
870548160 870548280
870556140 870556200
870565140 870565440
870565680 870565860
870565980 870566220
870566280 870566340
870566400 870566520
870566580 870566700
870566760 870567000
870567120 870567600
870567660 870568380
870568440 870568500
870568620 870568680
870568740 870568800
870568860 870568920
870568980 870569040
870569100 870569220
870569280 870569400
870569640 870569880
870569940 870570120
870570240 870570900
870570960 870571200
870571260 870572700
870572760 870572880
870573000 870573180
870573360 870573540
870573600 870573900
870574020 870574080
870574320 870574560
870575160 870575280
870575520 870575700
870575760 870575820
870575940 870576060
870576240 870576300
870576420 870576480
870576780 870576960
870577140 870577320
870577380 870577500
870577560 870577680
870577920 870577980
870578040 870578100
870578160 870578340
870578760 870578820
870581040 870581100
870629160 870637380
870637440 870637980
870638040 870638160
870638340 870638460
870638760 870638820
870638940 870639000
870664320 870664440
870669960 870670020
870670140 870670200
870670440 870670500
870670980 870671040
870672060 870672120
870672180 870672240
870673080 870673140
870673500 870673560
870674580 870674640
870675000 870675060
870675240 870675300
870682080 870682140
870717360 870717720
870718140 870718200
870736680 870736740
870750780 870750900
870751800 870751860
870753300 870753360
870755520 870755580
870755700 870755820
870756360 870756480
870756780 870756840
870763260 870763320
870763380 870763560
870763740 870763920
870764460 870764640
870764760 870764820
870764940 870765000
870765060 870765360
870765900 870765960
870766620 870766680
870766860 870766980
870767040 870767160
870767220 870768300
870768360 870768600
870768840 870769200
870770100 870770160
870771600 870771660
870772080 870772140
870958140 870958260
870958320 870958380
870958440 870958500
870958800 870958860
871003200 871003260
871003860 871003920
871003980 871004040
871004940 871005000
871005240 871005300
871005360 871005480
871005540 871005600
871006080 871006200
871007460 871007580
871009020 871009080
871105980 871106040
871106160 871106700
871107240 871107300
871245000 871252200
871252260 871252320
871252380 871252440
871252500 871252980
871253100 871253160
871253640 871253700
871257180 871272000
871272060 871272480
871272540 871272780
871272840 871272960
871273020 871273500
871273560 871274640
871274700 871275480
871275540 871275720
871275780 871275840
871275900 871276020
871276260 871276320
871276500 871276560
871276680 871276740
871277640 871277700
871277880 871278120
871278240 871278420
871278480 871278660
871278720 871280640
871280820 871280880
871280940 871281060
871281120 871281240
871281300 871281420
871281540 871281600
871281660 871281780
871282800 871282860
871290180 871295700
871295760 871296240
871296300 871296420
871296480 871296660
871296720 871296780
871296840 871296900
871297020 871297140
871297200 871297320
871297380 871297920
871297980 871298040
871298100 871298280
871298340 871298580
871298880 871298940
871299240 871299300
871299780 871299840
871301880 871302720
871302780 871302840
871302960 871303020
871331340 871331400
871342320 871342380
871342740 871342800
871343040 871343100
871343580 871343640
871344660 871344720
871347840 871347960
871348080 871348320
871348440 871348740
871356600 871356960
871357020 871357200
871357260 871357500
871357680 871357740
871357800 871357860
871357980 871358160
871358220 871358820
871358880 871358940
871359000 871359180
871359240 871359540
871359600 871359780
871359960 871360140
871360200 871360320
871360560 871360620
871360800 871360860
871360920 871360980
871369260 871369380
871394340 871395000
871395060 871395120
871442100 871442160
871443120 871443180
871443240 871443840
871443960 871444020
871444200 871444260
871444320 871444380
871444740 871444800
871523100 871523160
871524120 871524180
871524240 871524780
871524840 871524960
871592100 871592400
871649640 871649700
871651680 871651740
871654320 871655280
871655340 871656540
871656600 871656900
871656960 871657380
871657440 871657620
871657680 871657860
871658220 871658520
871658580 871658700
871658760 871658820
871659120 871659240
871688700 871689600
871689660 871690080
871690200 871690380
871690440 871690740
871690800 871691040
871691220 871691280
871691400 871691460
871691760 871691880
871746600 871746720
871748940 871749060
872115240 872115360
872116740 872116800
872120580 872120640
872120700 872120880
872121180 872121240
872122200 872122260
872123340 872123400
872123700 872123760
872123880 872124300
872124360 872124420
872124480 872124540
872124720 872124840
872124900 872124960
872125140 872125440
872125500 872125740
872125800 872125860
872125980 872127600
872127660 872127900
872128020 872128620
872128860 872128920
872128980 872129880
872130000 872130780
872130900 872131020
872131080 872131200
872131260 872131440
872131620 872132280
872132340 872132580
872132700 872132940
872133000 872133060
872133120 872133180
872133540 872133600
872133720 872133780
872168400 872168580
872168700 872168820
872169120 872169240
872185320 872185440
872202480 872202540
872205240 872205360
872205600 872205660
872206260 872206560
872206620 872206680
872206740 872206800
872206860 872207040
872207640 872207700
872207820 872207940
872208000 872208120
872208240 872208300
872208420 872208480
872208900 872209020
872209620 872209680
872209920 872209980
872210040 872210340
872210400 872210820
872210880 872211060
872211120 872211420
872211480 872211660
872211720 872212140
872212500 872212620
872212740 872212980
872213040 872213220
872213340 872213400
872213460 872213520
872213640 872213940
872214000 872214180
872214360 872214660
872214780 872215260
872215380 872215500
872217600 872217660
872218500 872218680
872218740 872218980
872219040 872219160
872219280 872219340
872219400 872219460
872219640 872219820
872219880 872219940
872220120 872220180
872220600 872220660
872220960 872221020
872221560 872221680
872221860 872221980
872222160 872222280
872222460 872222520
872222580 872222640
872223540 872223600
872226360 872226420
872227080 872227140
872227920 872227980
872228640 872228700
872272020 872272080
872272260 872272380
872272500 872272800
872462460 872462640
872562060 872562180
872570100 872570160
872634000 872634120
872634300 872634360
872635080 872635140
872635680 872635740
872635860 872635920
872636460 872636580
872636940 872637000
872637780 872637840
872638380 872638440
872639700 872639820
872639880 872640000
872640240 872640360
872640780 872640840
872641260 872641320
872641680 872641740
872641920 872641980
872642880 872643180
872643240 872643360
872643480 872643780
872643840 872646420
872646480 872646840
872647080 872647320
872647440 872647500
872647560 872647800
872647860 872648100
872648160 872648220
872648280 872648340
872648700 872648880
872648940 872649240
872649300 872649420
872649480 872649600
872649720 872649840
872650320 872650380
872650560 872650620
872650800 872650920
872651040 872651220
872651280 872651340
872651400 872651640
872651760 872651940
872652000 872652300
872652360 872652480
872652660 872652900
872653020 872653260
872653320 872653500
872653800 872653860
872654460 872654520
872655000 872655120
872655420 872655480
872655720 872655780
872655840 872656080
872656140 872656200
872656260 872656320
872656440 872656500
872656980 872657040
872657880 872657940
872658060 872658120
872658300 872658360
872658420 872658540
872659140 872659260
872659320 872659440
872661300 872661360
872662200 872662260
872664180 872664240
872664360 872664420
872665080 872665140
872666160 872666220
872666940 872667060
872667240 872667300
872670900 872670960
872709600 872713380
872713440 872713740
872713800 872713860
872714040 872714160
872714220 872714700
872714760 872714880
872714940 872715000
872725860 872726040
872728740 872728800
872729160 872729220
872731140 872741820
872742000 872742420
872742780 872742840
872743200 872743260
872743320 872743380
872743440 872743500
872744160 872744220
872744400 872744460
872744640 872744820
872745000 872745240
872745300 872745360
872745720 872746200
872767140 872767620
872767680 872767800
872817600 872817660
872824860 872824920
872824980 872825100
872825220 872825280
872827740 872827800
872835480 872835540
872872440 872872500
872872560 872872620
872872680 872872740
872872860 872873040
872873100 872873280
872873400 872873520
872873580 872873700
872873760 872873820
872874780 872874840
872939340 872939400
872957220 872957280
872958060 872958240
872961960 872962020
872962080 872962140
872985960 872986020
872997480 872997540
872997660 872998380
872998500 872998560
872998620 872998680
872999700 873000060
873000300 873000420
873019380 873019440
873032880 873032940
873037740 873037800
873039840 873039900
873063960 873064020
873082620 873082740
873083100 873083160
873083220 873083580
873083640 873083700
873084180 873084240
873084360 873084420
873086280 873086340
873086460 873086700
873086760 873086820
873086940 873087060
873087120 873087180
873087360 873087480
873087540 873087660
873087720 873087780
873087960 873088080
873088200 873088320
873088380 873088500
873088560 873088620
873088680 873088800
873088980 873089100
873089160 873089460
873089580 873089640
873090240 873090300
873090600 873090720
873090780 873090840
873091320 873091380
873091440 873091500
873091620 873091680
873092700 873092820
873092880 873092940
873093000 873093060
873093120 873093180
873093360 873093420
873093480 873093540
873093600 873093660
873095940 873096120
873096180 873096300
873097740 873097800
873109920 873109980
873113280 873113340
873126720 873126780
873137700 873138000
873138840 873138900
873139080 873139140
873139260 873139380
873139500 873139560
873139620 873139980
873140040 873140220
873176580 873176700
873177000 873177120
873178740 873178800
873219060 873219120
873250320 873250380
873274920 873274980
873298080 873298140
873311100 873311160
873390060 873390120
873419760 873420240
873424800 873432540
873432600 873433260
873433320 873433860
873433980 873434400
873434460 873434520
873434580 873434760
873434820 873435180
873435240 873435300
873435660 873435720
873435840 873435900
873459780 873459840
873477960 873478020
873486000 873486060
873488340 873488400
873488880 873488940
873489780 873489840
873491160 873491220
873491880 873491940
873500580 873500640
873513540 873513600
873528660 873529020
873529320 873529380
873529440 873529500
873559440 873559500
873570420 873570540
873570780 873571020
873571140 873571200
873631680 873649320
873649440 873649860
873649920 873649980
873650160 873650220
873650460 873650520
873650580 873650640
873650820 873650880
873651180 873651240
873651480 873651540
873655200 873655320
873659880 873659940
873677160 873677280
873677340 873699420
873699480 873699960
873700020 873700080
873700140 873700200
873700440 873700560
873700860 873700920
873701640 873701700
873713700 873715140
873715200 873716340
873716400 873716460
873716520 873716760
873716820 873717000
873717060 873717240
873717420 873717480
873717600 873717720
873717840 873717960
873718080 873718140
873718200 873718260
873718320 873718380
873718740 873718800
873732000 873732060
873739680 873739740
873739920 873740100
873742500 873742560
873744300 873744360
873744900 873744960
873752400 873753000
873753060 873753120
873753180 873753240
873753300 873753420
873753480 873753660
873753960 873754020
873786180 873788220
873788400 873790920
873790980 873791040
873791100 873791340
873791400 873791460
873791580 873791640
873791700 873791940
873792120 873792240
873792300 873792360
873792420 873792660
873792720 873792900
873793140 873793260
873794100 873794160
873807300 873807360
873821580 873821640
874010040 874010100
874011780 874011900
874012440 874012500
874012800 874012860
874013280 874013340
874013700 874013760
874015980 874016580
874016640 874016820
874016880 874017000
874017420 874017660
874017780 874017900
874017960 874018020
874018200 874018380
874018560 874018620
874018680 874018920
874018980 874019160
874019280 874019340
874019520 874019940
874020000 874020240
874020420 874020660
874020720 874021020
874021260 874021320
874021440 874021500
874021560 874021740
874021980 874022160
874022220 874022340
874022400 874022580
874022640 874023240
874023300 874023480
874023600 874023720
874023840 874023900
874024020 874024140
874024260 874025100
874025280 874025340
874025700 874025760
874026120 874026180
874026240 874026480
874026540 874026600
874026660 874026720
874027020 874027080
874027380 874027440
874028400 874028460
874045620 874045680
874052400 874052640
874113840 874113900
874114380 874114440
874116180 874116240
874118040 874118100
874118220 874118280
874118640 874118760
874118880 874119000
874165620 874165680
874165860 874165920
874226520 874226580
874226700 874226760
874226820 874227000
874227060 874227300
874263660 874263720
874263840 874263960
874264140 874264200
874265280 874265340
874265640 874265760
874265940 874266000
874266720 874266780
874267920 874267980
874268280 874268340
874272180 874272300
874273680 874273740
874273860 874273920
874276080 874276140
874279740 874279800
874313580 874313820
874313940 874314120
874314180 874314480
874314540 874321140
874321200 874321620
874321680 874321800
874321920 874321980
874322040 874322100
874363800 874363860
874363920 874363980
874364100 874364160
874364700 874364760
874364820 874364880
874365300 874365360
874365540 874365600
874365660 874365720
874365840 874365900
874366020 874366440
874366560 874366620
874366680 874366920
874366980 874367100
874367220 874367400
874367460 874367760
874367820 874368180
874368240 874368360
874368420 874368960
874369020 874369260
874369380 874369500
874369560 874369620
874369800 874369860
874369920 874370040
874370160 874370220
874370340 874370640
874370700 874370760
874370880 874371000
874371240 874371300
874371600 874371660
874371720 874371780
874371900 874371960
874372260 874372380
874372680 874372740
874372800 874372860
874372920 874373100
874373160 874373220
874414980 874415040
874480020 874480080
874480320 874480380
874480560 874480620
874486680 874486740
874507080 874507140
874508820 874508880
874509000 874509060
874509720 874509840
874510020 874510140
874510500 874510560
874512300 874512360
874512420 874512540
874513620 874513680
874514280 874514340
874515120 874515240
874516680 874516800
874516980 874517040
874517160 874517400
874517460 874517520
874517760 874518000
874518300 874518420
874518840 874518900
874519140 874519200
874519260 874519440
874519620 874519680
874519800 874519860
874519980 874520280
874520340 874520400
874520700 874520760
874520880 874520940
874521060 874521240
874521300 874521360
874521600 874521720
874522200 874522500
874523220 874523400
874523460 874523700
874523760 874523880
874523940 874524120
874524180 874524240
874524300 874524420
874524540 874524600
874524660 874525860
874525920 874526700
874526760 874526820
874526940 874527000
874527060 874527420
874527480 874528140
874528200 874528440
874528500 874528740
874528800 874528860
874528920 874529100
874529220 874529400
874529460 874529640
874529700 874529760
874529940 874530120
874530480 874530660
874530840 874531440
874531500 874531560
874531620 874531860
874531920 874532160
874532220 874532280
874532400 874532520
874532580 874532640
874533360 874533420
874533540 874533600
874535760 874535820
874541400 874541520
874541940 874542060
874544580 874544640
874545060 874545120
874545540 874545600
874546140 874546200
874546320 874546380
874547400 874547460
874548840 874548900
874548960 874549140
874549920 874549980
874550520 874550580
874596480 874596540
874596780 874596900
874597800 874597920
874598340 874598460
874620780 874620900
874634760 874634820
874661940 874662000
874689660 874689780
874698180 874698240
874734000 874734060
874734420 874734480
874735020 874735140
874766880 874766940
874768320 874768380
874768440 874768920
874769280 874769340
874769460 874769520
874771080 874771140
874771260 874771560
874771680 874771860
874775040 874775100
874775340 874775400
874775700 874775760
874775820 874775880
874777200 874777320
874778880 874779060
874779300 874779480
874779600 874779780
874780320 874780380
874780440 874780560
874780620 874780680
874780740 874780800
874783080 874783140
874784700 874784760
874786680 874786740
874787280 874787340
874804500 874804560
874812840 874812960
874813380 874813740
874816440 874816500
874816560 874816620
874816800 874816860
874816980 874817040
874817160 874817220
874817520 874817580
874819200 874819260
874819380 874819500
874819920 874819980
874820220 874820340
874822080 874822140
874846860 874850400
874850460 874850760
874850820 874851180
874851240 874851300
874851360 874851480
874851600 874851780
874851960 874852020
874852320 874852440
874852500 874852560
874853640 874853940
874854000 874854120
874854180 874854540
874858320 874858380
874858560 874858620
874860540 874860600
874860660 874860720
874860840 874860900
874860960 874862040
874862280 874862340
874862400 874862460
874870680 874870740
874870800 874870860
874959780 874959960
874960080 874960620
874960680 874963080
874963200 874964100
874964220 874964280
874965060 874965120
874965480 874965600
874965720 874965780
874966320 874966380
874966680 874966740
874966800 874966860
874967760 874967820
874977960 874984740
874984800 874986060
874986180 874986240
874986480 874987620
874987680 874987860
874987920 874988040
874988160 874988220
874988340 874988400
874988520 874988700
875006400 875006460
875006520 875006580
875014920 875014980
875015760 875015820
875016060 875016120
875016180 875016240
875016300 875016360
875016420 875017620
875017680 875017860
875017920 875018220
875018280 875018700
875018820 875018880
875019120 875019240
875019360 875019540
875019780 875019960
875020200 875020260
875020320 875020500
875020560 875020680
875020920 875020980
875021040 875021100
875021280 875021340
875021640 875021700
875021940 875022000
875022240 875022360
875022660 875032080
875032140 875032200
875032260 875032380
875032440 875032560
875032680 875032800
875032920 875032980
875060160 875060220
875061180 875061240
875061900 875062020
875062080 875062140
875062200 875062260
875062800 875062980
875063760 875063820
875063940 875064000
875064480 875064540
875064900 875064960
875065020 875065080
875065140 875065200
875065500 875065560
875066460 875066520
875066580 875066820
875083740 875084340
875084460 875084700
875084880 875084940
875110200 875110260
875110380 875110620
875110920 875110980
875111520 875111580
875113500 875113560
875116680 875116740
875119080 875119380
875124060 875124120
875125560 875125620
875125800 875125860
875136120 875136180
875143260 875143320
875147640 875147700
875154180 875162580
875162700 875163180
875163240 875163660
875163720 875163780
875164020 875164320
875164680 875164740
875165100 875165160
875166240 875175120
875175180 875176380
875176440 875176500
875176620 875176680
875176860 875177160
875177220 875177340
875177640 875177700
875182200 875182260
875182740 875183760
875183820 875188920
875188980 875189700
875189760 875189820
875190000 875190060
875216040 875216100
