854400300 854400360
854658780 854658840
854658960 854662020
854662080 854662200
854662260 854662320
854707020 854707140
854707320 854707380
854707680 854707860
854707920 854707980
854708160 854708400
854708460 854708520
854824740 854824980
854825040 854825220
854825280 854825340
855243660 855243720
855284280 855284340
855314220 855314280
855314340 855314460
855314520 855314640
855314760 855314820
855322680 855322740
855422820 855422880
855454140 855454680
855522120 855522180
855522300 855522360
855522480 855522540
855526680 855527040
855602880 855603060
855604560 855604620
855604980 855605040
855605220 855605280
855607620 855607800
855608100 855608160
855608220 855608280
855608340 855610260
855610320 855610740
855610800 855611400
855611460 855611820
855611940 855612120
855612180 855612600
855612660 855612780
855612840 855613140
855613200 855613500
855613620 855613680
855613740 855613800
855614040 855614160
855615120 855615300
855615480 855616020
855616080 855616200
855616440 855616560
855616620 855616680
855616740 855616800
855619020 855619080
855624600 855624660
855624780 855624960
855625140 855625440
855625500 855625620
855625980 855626100
855628320 855628380
855628440 855628500
855633840 855633900
855707040 855707160
855707760 855707820
855708180 855708240
855708360 855708660
855708720 855708780
855708840 855708900
855709200 855709380
855736500 855736740
855816780 855816840
855816900 855816960
855817020 855817140
855817320 855817440
855817500 855817680
855817740 855817860
855817980 855818580
855818640 855819360
855819540 855819600
855819660 855819780
855820020 855820140
855827520 855827580
855855540 855855600
855856620 855856680
855856740 855856800
855857160 855857220
855857340 855857460
855857580 855857760
855857820 855857880
855857940 855858120
855858840 855859140
855859740 855859980
855860040 855860220
855860280 855860880
855860940 855861000
855861060 855861120
855861240 855861360
855861540 855861840
855861900 855862020
855862080 855862140
855862260 855862320
855862440 855862500
855863640 855863700
855863880 855863940
855864300 855864600
855864660 855864720
855865020 855865080
855865140 855865560
855865800 855865860
855865920 855866160
855866400 855866460
855866580 855866640
855866700 855867120
855867720 855867900
855867960 855868020
855868200 855868380
855868560 855868920
855868980 855869040
855869160 855869400
855869460 855869580
855869760 855870000
855870060 855870120
855870180 855870360
855870420 855870480
855870540 855870660
855871200 855871440
855871560 855871620
855871740 855871860
855871920 855872160
855872220 855872340
855872640 855872700
855872760 855872820
855872880 855873180
855873360 855873540
855873600 855873900
855874020 855874140
855874260 855874320
855874440 855874560
855874680 855874800
855874860 855874920
855875100 855875220
855875520 855875640
855876540 855876660
855877320 855877380
855878160 855878220
855879780 855879840
855880140 855880380
855880680 855880740
855880800 855880860
855880920 855881040
855881100 855881160
855881220 855881460
855881640 855881700
855882000 855882240
855882480 855882600
855882960 855883020
855885480 855885540
855886320 855886440
855930960 855931020
855933780 855933900
855934260 855934320
855934740 855934800
855935160 855935220
855935280 855935340
855935400 855935460
855935520 855935580
855935880 855935940
855936060 855936120
855936600 855936720
855937080 855937260
855937380 855937500
855939180 855939240
855940680 855940740
855941400 855941460
855941520 855941700
855942120 855942240
855945180 855945300
855945540 855945600
855945720 855945780
855947400 855947460
855947580 855947820
855947940 855948120
855948240 855948300
855948360 855948480
855948540 855948840
855948900 855949020
855949080 855949560
855949620 855949860
855949980 855950880
855950940 855951060
855951300 855951360
855951480 855951720
855951900 855952140
855952200 855952260
855952320 855953520
855953580 855954000
855954180 855954240
855954360 855954900
855955140 855958860
855958980 855959100
855959580 855959640
855959700 855959880
855959940 855960000
855960120 855960240
855960300 855960360
855960420 855960900
855960960 855961140
855961200 855961740
855961800 855961860
855961920 855962040
855962100 855962160
855962280 855962400
855962460 855962640
855962760 855963180
855963240 855963300
855963360 855967020
855967080 855972780
855972840 855973020
855973140 855973260
855973560 855973800
855973860 855973920
855973980 855974160
855974220 855974700
855974760 855976620
855976680 855976800
855976920 855978540
855978600 855978780
855979080 855980820
855980880 855981060
855981120 855981720
855981840 855981900
855982080 855982140
855982200 855982980
855983040 855983340
855984120 855984180
855987240 855987300
855987360 855987480
855987540 855987600
855987780 855987960
855988440 855988500
855988560 855988860
855988920 855989100
855989160 855989520
855989580 855989820
855989880 855991440
855991500 855994080
855994140 855994440
855994560 855995100
855995160 855995340
855995400 856002540
856002600 856002780
856002840 856002900
856003020 856003080
856003200 856003260
856003320 856003380
856003440 856003500
856003740 856003800
856004040 856004100
856005120 856005180
856011720 856011840
856011900 856011960
856012260 856012320
856012440 856012500
856012560 856012620
856012860 856013100
856013220 856013280
856013340 856013400
856013700 856013760
856013820 856013880
856014120 856014180
856014660 856014780
856014900 856015260
856015320 856016460
856016580 856016700
856016760 856017360
856017480 856017720
856017780 856018020
856018140 856018260
856018320 856018500
856018620 856018680
856018740 856018800
856018860 856018980
856019100 856019220
856019400 856019580
856019640 856019700
856019880 856019940
856020000 856020120
856020180 856020300
856020360 856020420
856020540 856020600
856020780 856021020
856023000 856023180
856023720 856023780
856024380 856024440
856024740 856024800
856025760 856025940
856026180 856026240
856026480 856026660
856026720 856026840
856026960 856027020
856027260 856027380
856027500 856027560
856027680 856027740
856028280 856028400
856028460 856028520
856028640 856028760
856029000 856029120
856029420 856029480
856031520 856031640
856031760 856031820
856032300 856032480
856032720 856033440
856033500 856033800
856033860 856034220
856034280 856034460
856034520 856034940
856035000 856035840
856035900 856036080
856036560 856036680
856036740 856037040
856037100 856037160
856037280 856037400
856037460 856037640
856037760 856037820
856037880 856039320
856039500 856039620
856039680 856039800
856040100 856040280
856040460 856040700
856040760 856041060
856041120 856041840
856041900 856041960
856042080 856042680
856042800 856044240
856044300 856044360
856044420 856044600
856044660 856044840
856044900 856045020
856045140 856047240
856047300 856048020
856048140 856048200
856048440 856048800
856048860 856048920
856048980 856049040
856049100 856049400
856049460 856050060
856050600 856050660
856050780 856050900
856052160 856052340
856052400 856052460
856053120 856053180
856053240 856053300
856053660 856053720
856053900 856053960
856054620 856054680
856056720 856056780
856066380 856066440
856066860 856066920
856067640 856067700
856068120 856068180
856068900 856068960
856069140 856069200
856069680 856069740
856070700 856070760
856070820 856071000
856071060 856071120
856071180 856071360
856071480 856071720
856071780 856071900
856072080 856072800
856072860 856073280
856073340 856073460
856073520 856073880
856073940 856074000
856074060 856074300
856074480 856074540
856074780 856074900
856075080 856075140
856075620 856075680
856083720 856083780
856083900 856083960
856131900 856132320
856199820 856199880
856250760 856251060
856251780 856252260
856302180 856302240
856302900 856302960
856308000 856308060
856308540 856308600
856321020 856321260
856321500 856321680
856321740 856322820
856322880 856323000
856323120 856323180
856323300 856323360
856323420 856323540
856323600 856323660
856323840 856323900
856339560 856339620
856402320 856402560
856451520 856453200
856453260 856453980
856454040 856454280
856454400 856454460
856454520 856454580
856454640 856454700
856454940 856455000
856471680 856471800
856477620 856477800
856517340 856517400
856517460 856517640
856518420 856518480
856518660 856518720
856518900 856519020
856522620 856522740
856522860 856523160
856523520 856523640
856523700 856523760
856523940 856524060
856524120 856524180
856524240 856524300
856525020 856525200
856525500 856525560
856525620 856525740
856525860 856525920
856527900 856528380
856528440 856528620
856528800 856528860
856530780 856530840
856530900 856531020
856532040 856532160
856532460 856532520
856550820 856550880
856632840 856632900
856632960 856633200
856633260 856633320
856633620 856633680
856633800 856633980
856634100 856634220
856634340 856634580
856635840 856635900
856636620 856636680
856636920 856637280
856638000 856638060
856640100 856640160
856640340 856640400
856737840 856738200
856738500 856738620
856738680 856738860
856738920 856739220
856739520 856739640
856739700 856739820
856739880 856740360
856740540 856741800
856741860 856742340
856742400 856743720
856743780 856745400
856745460 856745580
856745700 856745880
856746000 856746060
856746180 856746240
856746600 856746660
856746720 856746780
856747740 856747800
856749720 856749780
856751040 856751100
856751520 856751580
856754940 856755000
856755060 856755300
856755360 856755420
856755480 856755540
856755840 856756080
856762500 856762560
856769040 856769100
856769220 856769280
856769340 856769400
856772040 856772100
856773420 856773480
856773660 856773720
856773900 856774020
856774080 856774140
856774380 856774440
856777380 856777440
856827120 856827180
856827360 856827720
856827780 856828860
856828920 856829100
856829160 856829280
856829520 856829580
857191620 857191680
857191740 857191800
857191860 857191920
857192040 857193120
857193180 857193480
857193540 857193840
857193900 857194020
857194140 857194260
857194500 857194680
857194800 857194920
857195700 857195760
857199240 857200440
857200500 857201040
857359020 857359140
857366760 857366820
857368140 857368260
857375700 857375760
857376660 857376720
857377860 857377920
857378100 857378160
857378460 857378520
857378580 857378760
857379000 857379060
857379240 857379300
857379480 857379540
857381160 857381340
857381460 857381700
857391540 857391600
857391660 857391720
857392380 857392560
857399220 857399280
857400000 857400180
857403420 857404080
857404200 857404320
857404380 857404800
857404860 857406000
857406060 857406120
857406180 857408160
857408220 857408400
857408460 857408700
857408760 857408940
857409000 857409420
857409480 857409600
857409660 857410680
857410860 857411160
857411220 857411280
857411340 857411520
857411760 857411940
857412060 857412240
857412300 857412480
857412840 857412900
857412960 857413200
857413320 857414400
857414460 857415120
857415180 857415660
857415720 857415840
857415960 857416080
857416200 857416260
857416560 857416860
857417040 857417220
857417400 857417460
857417520 857417580
857418000 857418120
857418240 857418540
857418660 857418900
857419500 857419740
857419800 857419860
857419920 857419980
857420040 857420100
857420160 857420340
857420400 857420460
857420700 857420820
857420940 857421300
857421600 857421840
857421900 857422140
857422260 857422380
857422440 857422500
857422620 857422680
857422860 857422920
857422980 857423040
857423100 857423220
857423400 857423580
857424360 857424480
857424540 857424660
857424720 857424840
857424900 857425080
857425140 857425200
857425500 857425560
857425740 857425800
857445840 857445900
857447160 857447220
857534100 857534160
857534400 857534460
857534700 857534760
857583300 857583780
857583840 857583960
857589300 857589360
857597880 857597940
857598060 857598180
857598240 857598300
857683620 857683680
857684100 857684160
857685420 857685660
857685720 857686200
857686320 857687160
857687280 857689200
857689260 857689320
857689380 857689440
857689560 857689680
857689740 857690040
857690280 857690340
857690400 857690640
857690760 857690880
857691180 857691300
857691360 857691420
857691780 857691840
857691900 857692020
857692140 857692200
857692260 857692500
857692560 857692620
857692800 857693040
857693100 857693280
857693340 857693400
857693700 857693880
857694060 857694240
857694420 857694720
857694780 857694900
857694960 857695200
857695560 857695680
857695920 857695980
857696100 857696460
857696640 857696760
857697240 857697300
857697420 857697540
857699100 857699160
857729160 857729220
857729340 857729460
857729520 857729640
857729700 857738160
857738220 857740440
857740500 857740800
857740860 857741580
857741700 857741880
857741940 857742180
857742240 857742540
857742600 857743740
857743800 857743860
857743920 857743980
857744040 857744160
857744280 857744400
857744580 857745120
857745180 857745780
857745840 857746260
857746320 857746380
857747340 857747580
857747640 857747700
857747880 857748060
857748120 857748840
857748900 857749020
857749080 857749320
857749440 857749620
857749680 857749800
857750340 857750400
857756820 857756880
857765040 857765100
857765220 857765340
857765580 857765700
857765820 857765880
857765940 857766480
857766720 857766840
857766960 857767260
857767320 857767380
857767440 857767500
857767740 857767800
857767860 857767980
857768100 857768160
857768220 857768340
857768700 857769000
857769120 857769540
857769720 857770020
857770080 857770140
857770200 857770500
857770560 857771040
857771640 857771820
857771940 857772060
857772120 857772180
857772240 857772300
857772600 857772960
857773020 857773260
857773440 857773500
857773800 857774040
857774100 857774340
857774460 857774640
857774940 857775240
857775300 857775780
857775840 857776140
857776260 857776800
857776860 857776980
857777100 857777340
857777400 857777940
857778000 857778120
857778240 857778300
857778360 857778480
857778540 857778720
857778960 857779020
857779080 857779320
857779440 857779620
857779740 857779800
857779920 857780040
857780220 857780280
857780460 857780520
857780760 857780820
857783100 857783160
857790540 857793600
857793660 857793840
857793900 857794020
857794140 857794200
857946540 857946600
857946960 857947020
858000840 858000960
858191700 858191940
858192060 858192120
858192960 858193020
858199380 858199440
858208440 858208860
858208920 858208980
858209040 858209100
858220140 858220200
858220260 858220440
858220500 858220560
858220620 858221940
858222060 858222120
858222180 858222240
858222360 858222420
858226200 858226260
858226800 858226860
858362580 858362640
858366960 858367020
858367440 858367560
858367800 858367860
858368220 858368340
858368640 858368700
858368880 858369000
858369660 858369780
858370620 858370680
858371220 858371280
858371880 858372000
858372120 858372540
858372720 858372960
858374460 858374520
858374940 858375000
858375420 858375480
858375540 858375720
858375840 858375900
858376140 858376260
858376320 858376440
858376620 858376680
858376740 858376860
858376980 858377100
858377160 858377760
858378060 858378120
858378180 858378600
858379020 858379080
858379140 858379260
858379680 858379740
858379800 858379920
858380580 858380640
858380700 858380820
858381600 858381660
858382620 858382680
858384060 858384120
858401460 858401520
858401640 858401760
858413520 858413580
858418320 858418380
858433200 858433260
858434460 858434640
858434700 858434760
858434820 858434880
858434940 858435000
858435060 858435600
858435660 858436260
858436320 858436380
858436560 858436620
858436680 858436740
858436800 858436860
858436920 858436980
858437040 858437100
858437220 858437280
858437400 858437520
858437640 858437700
858438360 858438420
858438840 858438960
858439080 858439140
858439200 858439260
858439320 858439380
858440880 858440940
858441000 858441180
858441360 858441480
858441540 858441600
858441960 858442080
858442140 858442380
858442440 858442560
858442680 858442920
858443040 858443340
858443400 858444000
858444120 858444180
858444300 858444720
858444780 858444900
858444960 858445020
858445080 858445320
858446160 858446400
858446520 858446760
858447060 858447240
858447360 858447420
858447660 858448020
858448080 858448380
858448620 858448680
858449220 858449280
858449340 858449400
858449640 858449700
858449820 858449880
858450000 858450120
858450180 858450240
858459060 858459120
858460500 858460560
858460620 858460680
858460740 858461340
858461460 858461520
858461700 858462060
858462180 858462240
858462540 858462840
858463020 858463080
858463260 858463320
858463500 858463560
858463800 858463860
858464400 858464700
858464940 858465060
858465180 858465300
858465660 858465720
858466080 858466140
858466320 858466500
858466680 858466740
858466980 858467040
858467100 858467160
858467220 858467280
858467400 858467520
858467820 858467880
858468480 858468600
858468660 858468720
858468840 858468960
858469140 858469260
858469380 858469500
858469800 858469920
858470520 858470580
858470700 858470820
858471000 858471060
858471240 858471360
858471600 858471660
858472260 858472380
858472500 858472560
858472680 858472860
858473100 858473160
858541860 858541920
858574860 858574920
858583380 858583440
858654120 858654300
858745260 858745320
858747300 858747360
858749880 858750000
858752340 858752400
858752520 858752880
858754260 858754320
858756960 858757080
858757200 858757260
858757320 858757380
858757800 858757860
858758640 858758700
858761160 858761220
858765420 858765480
858765540 858765660
858768660 858768720
858768780 858768840
858769080 858769140
858776820 858777060
858781800 858781980
858782820 858782880
858783060 858785100
858785220 858785400
858785520 858785640
858785820 858785880
858789240 858789300
858789480 858789600
858789900 858790200
858790260 858790680
858790740 858791100
858791400 858791700
858791760 858791940
858792000 858792060
858792180 858793980
858794040 858794100
858794220 858794280
858794340 858794400
858794700 858794760
858795000 858795060
858798840 858798900
858799020 858799140
858803160 858803280
858803400 858803940
858804000 858804780
858805920 858805980
858806280 858806340
858811320 858811380
858811920 858811980
858812880 858812940
858813000 858813060
858816540 858816660
858817200 858817260
858817980 858818040
858819240 858827340
858827400 858830580
858830640 858830760
858830820 858831000
858831300 858831360
858869460 858869520
858869580 858869700
858869760 858869940
858870120 858870180
858870240 858870360
858894600 858894660
858898440 858898500
858900480 858900540
858905280 858905340
858971160 858971220
858971340 858971400
859032720 859032780
859066380 859066440
859066860 859066920
859067040 859067100
859068180 859068240
859068360 859068420
859068540 859068600
859068660 859068780
859069500 859069560
859070040 859070100
859070160 859070220
859070340 859070400
859070760 859070820
859071000 859071060
859071420 859071480
859072080 859072140
859072380 859072440
859072740 859072920
859073100 859073160
859073280 859073700
859073760 859074060
859074180 859074480
859074540 859074660
859074720 859074840
859074900 859075200
859075380 859075440
859075500 859075620
859075680 859075860
859075920 859076100
859076160 859076880
859076940 859077180
859077300 859077840
859077900 859078140
859078200 859078740
859078920 859079700
859079820 859079940
859080120 859080540
859080600 859081080
859081140 859081380
859081440 859081680
859081740 859082100
859082220 859082640
859083720 859083780
859083840 859083900
859084080 859084320
859084560 859084620
859084800 859084860
859084980 859085460
859087440 859087500
859087620 859087680
859087920 859088040
859088220 859088520
859088760 859089180
859089240 859089360
859089480 859089540
859089600 859089720
859090020 859090080
859090200 859090320
859090380 859090440
859090800 859090920
859091460 859091520
859093140 859093200
859094160 859094220
859094280 859094340
859095720 859095780
859095840 859096020
859096380 859096440
859096560 859096680
859096860 859096920
859098540 859098600
859103220 859103280
859124040 859124520
859128060 859128660
859143600 859143660
859143780 859143840
859156680 859156740
859156800 859156860
859317600 859318140
859383300 859383360
859383540 859384020
859384140 859384560
859384620 859384740
859384800 859384860
859384920 859385040
859386180 859386240
859419660 859419780
859420380 859420440
859421580 859421640
859496100 859508820
859508880 859509780
859509840 859510500
859510560 859510860
859510920 859510980
859511040 859511100
859511160 859511400
859511520 859511700
859511820 859511880
859512000 859512120
859512240 859512300
859512900 859512960
859513680 859513740
859514280 859514340
859515840 859515900
859516320 859516380
859520580 859520640
859530000 859530840
859531020 859531080
859531260 859531440
859531500 859531740
859548900 859549440
859549620 859549920
859550040 859550160
859552080 859552320
859552500 859552620
859552680 859552800
859552920 859552980
859553220 859554660
859554720 859555140
859555200 859555260
859555320 859555380
859555500 859555560
859556160 859556220
859559220 859559280
859559940 859560060
859560240 859560540
859560600 859560660
859592640 859592940
859593120 859593240
859593360 859593600
859593720 859593780
859593900 859594680
859594740 859595580
859595640 859595820
859595880 859595940
859596000 859596060
859596540 859596660
859598520 859599000
859599420 859599480
859639680 859639740
859639860 859640340
859641000 859641120
859641240 859641300
859654440 859654620
859654800 859654860
859667400 859667520
859667820 859668060
859668660 859668900
859669020 859669080
859669140 859669260
859669320 859669380
859669920 859671720
859671900 859672080
859672260 859672560
859672620 859672740
859685100 859685760
859686120 859686180
859686240 859686360
859704780 859704840
859705200 859705500
859705560 859705740
859705800 859706160
859706220 859706280
859706340 859708800
859708920 859708980
859709040 859709760
859712280 859712340
859721040 859725300
859725420 859725540
859725780 859725840
859726380 859726440
859761060 859761180
859781880 859782000
859782120 859782300
859782360 859782480
859782720 859784640
859784700 859784880
859785000 859785060
859785240 859785300
859785660 859785720
859922880 859923000
859923240 859923540
859923600 859923840
859923900 859923960
859966200 859966320
859966440 859966500
859966680 859966740
859967100 859968240
859968300 859968540
859978680 859979760
859980060 859980120
860085300 860085360
860096700 860096820
860099220 860099280
860101440 860101500
860102280 860102520
860103060 860103120
860104620 860104680
860105520 860105580
860106000 860106060
860106180 860106240
860106300 860106480
860108820 860108880
860109000 860109060
860109540 860109600
860110500 860110560
860116080 860116140
860118120 860118180
860119020 860119080
860125680 860125740
860125860 860125920
860125980 860126040
860126520 860126580
860133480 860133540
860149800 860149980
860150040 860150100
860150220 860150400
860150700 860151780
860151960 860152140
860152320 860152380
860158680 860158800
860158920 860159400
860159520 860159580
860160420 860160480
860160540 860160660
860160720 860163360
860163420 860163660
860163720 860164020
860164080 860164860
860164920 860166900
860167080 860167140
860167260 860167380
860167500 860170800
860170860 860173860
860173920 860174280
860174400 860174640
860174700 860177100
860177160 860177880
860177940 860178780
860178840 860179980
860180040 860180100
860180160 860180280
860180340 860180940
860181120 860181180
860181360 860182980
860183040 860183880
860183940 860185140
860185200 860185980
860186040 860186280
860186340 860186580
860186640 860189460
860189580 860192040
860192100 860192760
860192820 860193900
860193960 860195700
860195760 860195880
860195940 860196240
860196300 860196720
860196780 860200140
860200200 860200800
860200860 860201400
860201520 860201880
860202000 860202240
860203260 860203380
860204040 860204100
860204340 860204400
860208900 860208960
860255100 860255160
860255280 860255340
860258820 860259000
860260140 860260200
860263860 860263920
860263980 860264040
860264280 860264340
860434680 860434740
860436420 860436480
860440560 860440620
860441520 860441640
860441700 860441880
860442060 860442120
860442180 860442360
860442420 860442480
860443440 860443560
860445840 860445900
860447340 860447400
860479080 860480400
860480580 860480640
860490180 860490360
860511660 860511720
860522220 860522280
860525280 860525340
860525580 860525640
860526120 860526240
860526360 860526480
860526600 860526780
860526840 860526960
860527020 860527080
860537520 860537580
860537640 860537700
860537760 860537820
860537880 860537940
860538300 860538360
860629080 860629140
860629380 860629440
860629620 860629680
860768580 860769120
860769180 860769360
860769420 860769480
860769660 860769780
860769840 860770020
860770260 860770380
860772360 860772420
860772480 860772540
860776920 860776980
860804580 860804640
860804880 860804940
860811120 860811180
860811900 860812020
860868360 860868540
860883300 860883420
860886060 860886120
860886180 860886360
860886420 860886480
860886840 860887080
860887320 860887440
860887560 860887680
860887800 860887860
860887920 860888280
860888460 860888640
860889060 860889180
860892120 860892180
860921280 860921820
860949240 860949360
860949660 860949720
860967420 860967480
860969760 860969820
860982660 860982720
861013260 861013560
861044340 861044400
861065460 861065520
861066840 861066960
861067020 861068220
861068280 861068400
861068460 861068520
861068580 861068640
861068820 861068880
861070200 861070380
861070440 861070500
861070680 861070740
861071220 861071400
861071580 861073260
861073440 861073680
861073920 861074220
861074340 861074880
861075000 861075060
861075120 861075240
861075420 861075540
861120840 861120900
861215160 861215220
861215520 861215580
861215880 861215940
861216180 861216240
861216300 861216960
861217020 861217680
861217740 861218040
861218100 861218160
861218220 861218400
861218460 861218520
861218640 861218700
861219120 861219180
861219240 861219300
861219420 861219480
861219660 861219720
861478860 861478920
861479040 861479160
861479280 861479460
861479520 861479640
861479700 861479940
861480000 861480120
861480240 861480420
861480480 861480780
861481020 861481080
861481140 861481200
861481560 861481620
861482340 861482400
861490500 861490560
861490620 861490680
861490740 861490800
861491520 861491700
861492060 861492120
861498660 861498840
861498960 861499260
861499620 861499680
861499740 861499800
861500040 861500100
861500160 861500220
861500700 861500760
861500880 861500940
861501180 861501240
861501360 861501420
861502200 861502260
861544680 861544920
861545580 861545640
861545820 861546660
861546720 861546840
861546900 861547140
861547440 861547500
861588360 861588420
861719700 861720240
861773760 861773880
861804960 861805080
861886560 861887640
861887760 861887820
861909780 861909900
861929100 861929160
861932100 861932220
861932280 861932340
861932460 861932640
861932760 861932820
861932880 861932940
861933840 861933900
861934920 861934980
862016460 862016820
862017240 862017420
862017720 862017780
862021920 862022040
862022340 862023360
862068180 862068240
