816807238 816807240
816814201 816814203
816818430 816818432
816823637 816823639
816865203 816865204
816897945 816897946
816908940 816908943
816914024 816914026
816922517 816922519
816946987 816946988
816952168 816952169
816962660 816962662
816969492 816969493
816971166 816971167
817031521 817031522
817068264 817068265
817077861 817077863
817080531 817080533
817082157 817082159
817103848 817103849
817178317 817178319
817232026 817232027
817238892 817238894
817243368 817243369
817252457 817252459
817275446 817275447
817312621 817312622
817314549 817314551
817334289 817334291
817340747 817340749
817347032 817347034
817351055 817351057
817362476 817362477
817404999 817405001
817423382 817423383
817425752 817425753
817442434 817442436
817454090 817454091
817485287 817485288
817492567 817492568
817496167 817496169
817503241 817503243
817510280 817510281
817549488 817549490
817552748 817552749
817564371 817564372
817569552 817569553
817570711 817570712
817592583 817592585
817596506 817596507
817600286 817600287
817662198 817662200
817682955 817682956
817687097 817687099
817707372 817707374
817753253 817753254
817764726 817764727
817770797 817770798
817781842 817781844
817821602 817821604
817824457 817824459
817839361 817839362
817852414 817852416
817859422 817859424
817870639 817870641
817915217 817915219
817940320 817940322
817943232 817943234
818006477 818006478
818034386 818034387
818037020 818037022
818059295 818059296
818068489 818068490
818077212 818077213
818093543 818093544
818096087 818096088
818098619 818098620
818112842 818112843
818145095 818145097
818161430 818161431
818172855 818172857
818180106 818180107
818182082 818182083
818238926 818238927
818261522 818261524
818267553 818267554
818286926 818286928
818291459 818291461
818322391 818322393
818326545 818326546
818338838 818338839
818343193 818343195
818345496 818345498
818346866 818346868
818356322 818356323
818365826 818365827
818370728 818370729
818407409 818407411
818426544 818426546
818439003 818439005
818449340 818449341
818454116 818454117
818457169 818457171
818460091 818460092
818479731 818479732
818522050 818522052
818524805 818524807
818548889 818548891
818551038 818551039
818575729 818575730
818604216 818604218
818616825 818616826
818619191 818619192
818635045 818635047
818636580 818636582
818645237 818645240
818649507 818649508
818654700 818654702
818677634 818677636
818687206 818687207
818695234 818695235
818712060 818712061
818715348 818715349
818718060 818718061
818719633 818719634
818723648 818723650
818728439 818728440
818734881 818734882
818768759 818768760
818790363 818790364
818793817 818793819
818800616 818800617
818805537 818805538
818812419 818812420
818814998 818814999
818817035 818817037
818831851 818831853
818860256 818860257
818878585 818878588
818883231 818883233
818885400 818885401
818888298 818888299
818893996 818893997
818901414 818901415
818911869 818911871
818917846 818917847
818945604 818945606
818952386 818952387
818954320 818954321
818969167 818969170
819028049 819028051
819030087 819030089
819042920 819042922
819050043 819050045
819055265 819055267
819057931 819057933
819060222 819060223
819061928 819061929
819062827 819062830
819066640 819066642
819077014 819077015
819091601 819091602
819093886 819093888
819094504 819094506
819104314 819104316
819113466 819113468
819128036 819128038
819144605 819144607
819147016 819147018
819185292 819185293
819201811 819201812
819204105 819204106
819210048 819210050
819211316 819211318
819216116 819216117
819218623 819218624
819226617 819226618
819228491 819228492
819230128 819230130
819234399 819234400
819238106 819238107
819269460 819269461
819295077 819295079
819299760 819299761
819308035 819308036
819313080 819313081
819313639 819313645
819316040 819316042
819317115 819317117
819324677 819324679
819325388 819325390
819358313 819358315
819362043 819362044
819362643 819362644
819370164 819370166
819377832 819377834
819380145 819380147
819392376 819392377
819400758 819400759
819404714 819404715
819409238 819409240
819410253 819410254
819418800 819418802
819424102 819424104
819468371 819468373
819480761 819480762
819555934 819555936
819560095 819560097
819573194 819573195
819579926 819579928
819600238 819600239
819604128 819604129
819640861 819640862
819661346 819661347
819697644 819697646
819729093 819729094
819734746 819734748
819756312 819756314
819760371 819760373
819763784 819763785
819790032 819790034
819801999 819802001
819825402 819825404
819828245 819828247
819829986 819829987
819837762 819837763
819841253 819841254
819842655 819842656
819847154 819847155
819849475 819849477
819850783 819850785
819881027 819881028
819887416 819887417
819894217 819894218
819901752 819901754
819909125 819909127
819913633 819913635
819914477 819914479
819916252 819916254
819922510 819922512
819927321 819927322
819930871 819930873
819941674 819941676
819966010 819966011
819968536 819968537
819977551 819977553
819979297 819979298
819983921 819983924
820001764 820001766
820002955 820002957
820049767 820049768
820051548 820051550
820052975 820052976
820054718 820054719
820060529 820060530
820063003 820063004
820087102 820087104
820097607 820097609
820100979 820100980
820103367 820103368
820106732 820106733
820107894 820107895
820111800 820111802
820114075 820114077
820114171 820114172
820114258 820114259
820139451 820139452
820141600 820141601
820143653 820143654
820144404 820144405
820147287 820147289
820148564 820148565
820148766 820148767
820151000 820151001
820157114 820157116
820172006 820172008
820173981 820173982
820175694 820175695
820194265 820194266
820199657 820199659
820210682 820210683
820218668 820218669
820231366 820231367
820250490 820250492
820273452 820273453
820275930 820275931
820284795 820284796
820304495 820304497
820316391 820316392
820321195 820321196
820322269 820322270
820327239 820327241
820340206 820340207
820364672 820364673
820380199 820380200
820382002 820382003
820399031 820399032
820420568 820420570
820423010 820423012
820424394 820424395
820429982 820429983
820433759 820433761
820438510 820438511
820443260 820443262
820450962 820450964
820473245 820473246
820479592 820479594
820481447 820481449
820507981 820507983
820510675 820510677
820522062 820522063
820522531 820522532
820522780 820522782
820528762 820528763
820539408 820539409
820544857 820544859
820554556 820554558
820557420 820557421
820562897 820562899
820608084 820608085
820608185 820608186
820608622 820608623
820614879 820614880
820626138 820626140
820635250 820635252
820695681 820695682
820713076 820713078
820716196 820716198
820732038 820732039
820737172 820737174
820741541 820741543
820748994 820748996
820751002 820751004
820752486 820752488
820756090 820756091
820782781 820782782
820805050 820805052
820828131 820828132
820847425 820847426
820854525 820854526
820856849 820856850
820858196 820858197
820860774 820860776
820861677 820861678
820863841 820863843
820866339 820866340
820866805 820866807
820867151 820867152
820868640 820868642
820873216 820873218
820876304 820876305
820876859 820876860
820877269 820877270
820879061 820879062
820891310 820891312
820893540 820893542
820893795 820893797
820894155 820894157
820898697 820898699
820909873 820909874
820913515 820913516
820921293 820921295
820934053 820934054
820940150 820940151
820940709 820940710
820942919 820942921
820967252 820967254
820973676 820973678
820981500 820981502
820997816 820997818
821027278 821027279
821027431 821027433
821031109 821031111
821034558 821034559
821037384 821037386
821037574 821037576
821037925 821037927
821052932 821052934
821053103 821053104
821055763 821055764
821055871 821055872
821056353 821056355
821062808 821062810
821063317 821063318
821074828 821074830
821076039 821076041
821077059 821077061
821077637 821077639
821084037 821084038
821088618 821088619
821098681 821098682
821100394 821100396
821125043 821125044
821128351 821128353
821133561 821133563
821136867 821136869
821138157 821138159
821182399 821182400
821216589 821216590
821217004 821217005
821221360 821221362
821222110 821222112
821227281 821227283
821232463 821232464
821239362 821239364
821287449 821287451
821307730 821307732
821326325 821326326
821344190 821344192
821363157 821363159
821388576 821388577
821394306 821394307
821456839 821456840
821467688 821467689
821477461 821477462
821480155 821480157
821483398 821483400
821484687 821484689
821486597 821486599
821489383 821489384
821514264 821514265
821517556 821517557
821520415 821520417
821522844 821522846
821528695 821528696
821536061 821536062
821538625 821538626
821543861 821543862
821548709 821548711
821564855 821564856
821582827 821582829
821592297 821592298
821597451 821597452
821600274 821600275
821612961 821612963
821625189 821625190
821628474 821628476
821629366 821629368
821635243 821635245
821641542 821641544
821648125 821648126
821649978 821649979
821653474 821653476
821659691 821659692
821663998 821663999
821681691 821681693
821684653 821684654
821718678 821718679
821720816 821720817
821725822 821725824
821738177 821738178
821742812 821742814
821746986 821746988
821781399 821781401
821783065 821783067
821785185 821785187
821786653 821786655
821787283 821787285
821796475 821796476
821798777 821798778
821801993 821801994
821805142 821805143
821820770 821820772
821822425 821822426
821824758 821824759
821826639 821826640
821831462 821831463
821833100 821833101
821872839 821872840
821883302 821883304
821906409 821906411
821909505 821909506
821911970 821911972
821915135 821915136
821969308 821969310
821990694 821990695
821992728 821992730
822003395 822003396
822012118 822012119
822064943 822064944
822066194 822066195
822077764 822077765
822081059 822081060
822084265 822084267
822085231 822085233
822088210 822088212
822089769 822089770
822092530 822092532
822094561 822094562
822152222 822152223
822153290 822153291
822182958 822182959
822185014 822185015
822194569 822194571
822243719 822243720
822244252 822244253
822263182 822263184
822267051 822267052
822282875 822282876
822290439 822290441
822294827 822294828
822315390 822315391
822316224 822316225
822318360 822318362
822320236 822320238
822322207 822322208
822322982 822322984
822323669 822323671
822323819 822323821
822325983 822325985
822327014 822327016
822327321 822327322
822327682 822327684
822329708 822329709
822329879 822329880
822339642 822339643
822339899 822339900
822340102 822340103
822347814 822347817
822350928 822350930
822351726 822351728
822351966 822351967
822353005 822353008
822357658 822357660
822366348 822366349
822368621 822368622
822371361 822371362
822379677 822379678
822380113 822380115
822380211 822380213
822382760 822382762
822393025 822393026
822393856 822393857
822401984 822401986
822411715 822411717
822412181 822412183
822412342 822412344
822413404 822413406
822416167 822416168
822417182 822417184
822425003 822425004
822425102 822425103
822433590 822433592
822434602 822434603
822435585 822435587
822438538 822438540
822443205 822443207
822446861 822446862
822447255 822447258
822460884 822460885
822463723 822463724
822472109 822472110
822475205 822475207
822476180 822476182
822477431 822477432
822478000 822478001
822478319 822478320
822478768 822478770
822482390 822482420
822483303 822483305
822486766 822486768
822487182 822487183
822487617 822487618
822488963 822488964
822489729 822489731
822491970 822491971
822494011 822494013
822494330 822494331
822495523 822495525
822495821 822495822
822496124 822496125
822496453 822496454
822496651 822496713
822511112 822511113
822535316 822535318
822537693 822537694
822539296 822539297
822539979 822539980
822540486 822540487
822540795 822540796
822541916 822541918
822542038 822542040
822542916 822542917
822544525 822544526
822546509 822546510
822548654 822548656
822548736 822548737
822549474 822549475
822551255 822551257
822555368 822555370
822558045 822558046
822558579 822558581
822558999 822559001
822562683 822562685
822563108 822563110
822564236 822564238
822564741 822564742
822565547 822565548
822565632 822565634
822567044 822567045
822567104 822567105
822568714 822568715
822571939 822571940
822576575 822576576
822597423 822597424
822606517 822606519
822612067 822612068
822614610 822614612
822617563 822617565
822619312 822619313
822621379 822621381
822622294 822622296
822625014 822625016
822625403 822625404
822625764 822625765
822626019 822626021
822626298 822626299
822626537 822626538
822638013 822638014
822638151 822638152
822639864 822639865
822640585 822640586
822640635 822640652
822641690 822641692
822651468 822651470
822654207 822654208
822665888 822665889
822666011 822666012
822666106 822666108
822666180 822666182
822666307 822666309
822666472 822666473
822666642 822666643
822666918 822666919
822667499 822667500
822667598 822667600
822667773 822667775
822722817 822722818
822723117 822723118
822723523 822723524
822731233 822731234
822731290 822731292
822737941 822737943
822743149 822743150
822745358 822745360
822755770 822755771
822756237 822756238
822757845 822757846
822776291 822776293
822777313 822777314
822777748 822777749
822781462 822781463
822793436 822793438
822800054 822800056
822800719 822800721
822800841 822800842
822801925 822801928
822804445 822804447
822805776 822805777
822806114 822806115
822806187 822806188
822806432 822806433
822807090 822807091
822816071 822816072
822822342 822822343
822822634 822822635
822822700 822822701
822822742 822822755
822822867 822822869
822823001 822823003
822823345 822823347
822824127 822824128
822825555 822825556
822825657 822825658
822826224 822826226
822826398 822826400
822826737 822826739
822826932 822826934
822827193 822827194
822827341 822827343
822848953 822848954
822849476 822849477
822850197 822850198
822850391 822850393
822852002 822852003
822860647 822860649
822862193 822862194
822862595 822862598
822862730 822862732
822866576 822866578
822869918 822869919
822872217 822872218
822873325 822873326
822883628 822883630
822887565 822887567
822889886 822889888
822898131 822898133
822913090 822913091
822914617 822914619
822915002 822915003
822920423 822920425
822928152 822928153
822931343 822931344
822932419 822932420
822936355 822936356
822942880 822942882
822949850 822949851
822949945 822949947
822950964 822950966
822951024 822951026
822951087 822951088
822951220 822951222
822954027 822954028
822956879 822956880
822957317 822957318
822966527 822966528
822970948 822970949
822974928 822974930
822977383 822977384
823012356 823012357
823017614 823017615
823018349 823018350
823021814 823021816
823022083 823022084
823022921 823022922
823023270 823023272
823029641 823029643
823032435 823032437
823040292 823040294
823042031 823042032
823048717 823048719
823048751 823048761
823079723 823079725
823080390 823080391
823162951 823162952
823191317 823191318
823193345 823193346
823205249 823205250
823223136 823223137
823240827 823240828
823273960 823273961
823277662 823277664
823280243 823280244
823336861 823336863
823423486 823423488
823449969 823449971
823613886 823613887
823615188 823615189
823617734 823617736
823803004 823803005
823876281 823876282
824046126 824046128
824217448 824217449
824314384 824314386
824397924 824397925
824411918 824411919
824413863 824413864
824454269 824454271
824494679 824494681
824499952 824499953
824501310 824501311
824502081 824502083
824596598 824596600
824674559 824674561
824678718 824678720
824683021 824683023
824730029 824730031
824742761 824742762
824750483 824750485
824756530 824756532
824825565 824825566
824825967 824825968
824837904 824837905
824842252 824842254
824855362 824855363
824858247 824858248
824872780 824872782
824959241 824959242
824996782 824996783
825101866 825101868
825106399 825106400
825109129 825109131
825110979 825110980
825170503 825170504
825441984 825441986
825448437 825448438
825450792 825450794
825456237 825456238
825482236 825482237
825526362 825526364
825528756 825528758
825582018 825582020
825590820 825590822
825615259 825615260
825654191 825654194
825696108 825696109
825720226 825720227
825739631 825739633
825822821 825822822
825873781 825873782
825889620 825889622
825913839 825913841
825915070 825915071
825915193 825915194
825956707 825956708
825966708 825966710
826047482 826047483
826062513 826062515
826176801 826176803
826229400 826229402
826316367 826316369
826326943 826326945
826356796 826356797
826380840 826380841
826387556 826387557
826478655 826478657
826489479 826489480
826564684 826564685
826568831 826568833
826571508 826571510
826739235 826739236
826810542 826810544
826920660 826920662
826966028 826966029
827031854 827031856
827041465 827041467
827071530 827071532
827075292 827075294
827082897 827082898
827093011 827093012
827161514 827161516
827237188 827237189
827251169 827251170
827260242 827260243
827352977 827352978
827513080 827513081
827555663 827555665
827617128 827617129
827687676 827687678
827773062 827773064
827777993 827777994
827849247 827849248
827858761 827858762
827876403 827876404
827987324 827987325
828041331 828041332
828112400 828112401
828192022 828192023
828192335 828192336
828192657 828192658
828192714 828192716
828193589 828193590
828284956 828284957
828342814 828342815
828357928 828357930
828360960 828360962
828365344 828365345
828365427 828365428
828462110 828462111
828537202 828537204
828615880 828615881
828619901 828619903
828710165 828710166
828712768 828712770
828713237 828713239
828716465 828716466
828796664 828796666
828802651 828802652
828890071 828890073
828905970 828905972
828910928 828910930
828995024 828995026
829335974 829335975
829351247 829351248
829395385 829395386
829562248 829562249
829634661 829634663
829653759 829653760
829744766 829744767
829890260 829890261
829948717 829948718
829952937 829952938
829955135 829955136
829981979 829981981
830036671 830036672
830044430 830044431
830096744 830096745
830127783 830127784
830140741 830140742
830155758 830155759
830189951 830189952
830194208 830194210
830196106 830196107
830200515 830200517
830203419 830203420
830204943 830204946
830277677 830277679
830342821 830342823
830387273 830387274
830396671 830396672
830396748 830396749
830428705 830428707
830449924 830449926
830452116 830452117
830490891 830490892
830537664 830537665
830540568 830540569
830551864 830551866
830617322 830617323
830705954 830705955
830722779 830722780
830727088 830727089
830800855 830800856
830811448 830811449
830815454 830815455
830833523 830833525
830845779 830845780
830857523 830857525
830869464 830869465
830882796 830882797
830889198 830889199
830892713 830892715
830895313 830895315
830904875 830904876
831056866 831056868
831065007 831065009
831096938 831096940
831134434 831134436
831144506 831144508
831145026 831145028
831145924 831145925
831147033 831147035
831153028 831153029
831155580 831155581
831155699 831155701
831155975 831155977
831156706 831156707
831156869 831156871
831157391 831157393
831165620 831165622
831167614 831167615
831168195 831168196
831171602 831171604
831175498 831175499
831208334 831208335
831242155 831242157
831247023 831247025
831249664 831249665
831264587 831264588
831312282 831312284
831315094 831315096
831323524 831323525
831331599 831331601
831344057 831344059
831412661 831412662
831419091 831419093
831421002 831421003
831454734 831454736
831465603 831465604
831475535 831475536
831484042 831484043
831495687 831495688
831498840 831498842
831510555 831510557
831567626 831567627
831569557 831569558
831582612 831582613
831591487 831591488
831616696 831616697
831621241 831621242
831655177 831655179
831669198 831669200
831673916 831673918
831688973 831688974
831695916 831695917
831742859 831742860
831765210 831765211
831811972 831811974
831851689 831851690
831924064 831924065
831925811 831925812
831934043 831934045
831956335 831956336
831982733 831982734
832008902 832008903
832012687 832012688
832017726 832017728
832029229 832029231
832109384 832109386
832111575 832111577
832116679 832116680
832117095 832117097
832197084 832197085
832284928 832284929
832296458 832296460
832300429 832300430
832331764 832331765
832339016 832339017
832404340 832404341
832423167 832423168
832427265 832427266
832509815 832509816
832542567 832542568
832553355 832553356
832613859 832613860
832619113 832619115
832621018 832621021
832625487 832625490
832627558 832627560
832643918 832643920
832650622 832650623
832716698 832716700
832725273 832725275
832801970 832801972
832812554 832812555
832821976 832821978
832882841 832882843
833035635 833035637
833051365 833051367
833057391 833057392
833069191 833069193
833089662 833089664
833091182 833091183
833122124 833122126
833137609 833137611
833140820 833140821
833144703 833144704
833147271 833147273
833148261 833148262
833227331 833227332
833235216 833235217
833269414 833269416
833304668 833304670
833307771 833307773
833320153 833320154
833324061 833324062
833393816 833393818
833398091 833398093
833414804 833414806
833418062 833418063
833425455 833425457
833433252 833433253
833446740 833446741
833451134 833451135
833480337 833480338
833576875 833576877
833578466 833578468
833580715 833580717
833658805 833658806
833663501 833663503
833673703 833673705
833681863 833681864
833731310 833731312
833742354 833742356
833753692 833753693
833771873 833771874
833794795 833794796
833811844 833811846
833847392 833847394
833885547 833885548
833936852 833936853
833947563 833947565
834037338 834037340
834040680 834040681
834047988 834047990
834069566 834069567
834092010 834092011
834097729 834097730
834105156 834105157
834117430 834117432
834126740 834126742
834178786 834178787
834189236 834189238
834193601 834193603
834270536 834270538
834282054 834282056
834294411 834294412
834312215 834312216
834323002 834323004
834340041 834340043
834345833 834345835
834350586 834350587
834358435 834358436
834368529 834368531
834374714 834374716
834390188 834390190
834424302 834424303
834435532 834435534
834437803 834437805
834509329 834509330
834510815 834510817
834515773 834515774
834518387 834518389
834520146 834520147
834524291 834524293
834568203 834568204
834571218 834571219
834593588 834593590
834596646 834596647
834622865 834622866
834631955 834631957
834642563 834642565
834646520 834646522
834649782 834649784
834656939 834656941
834660835 834660837
834665167 834665168
834667196 834667198
834676246 834676248
834687750 834687752
834691117 834691119
834707502 834707503
834715926 834715927
834723909 834723911
834727119 834727121
834731727 834731729
834733107 834733109
834744449 834744450
834765467 834765468
834776515 834776516
834777030 834777031
834781896 834781897
834787794 834787796
834795925 834795927
834800996 834800997
834811191 834811193
834833077 834833078
834841041 834841042
834844492 834844494
834846572 834846574
834873850 834873852
834878096 834878097
834896185 834896187
834906107 834906109
834930415 834930417
834932830 834932832
834948577 834948578
834950183 834950184
834950373 834950374
834954844 834954846
834960434 834960435
834963580 834963582
835005698 835005700
835009415 835009416
835039738 835039740
835047607 835047609
835099672 835099673
835102106 835102107
835103046 835103047
835148486 835148488
835149563 835149564
835193723 835193724
835206532 835206534
835212360 835212361
835260844 835260845
835275761 835275762
835306588 835306590
835315225 835315226
835334601 835334603
835346686 835346687
835367996 835367997
835372515 835372516
835392127 835392129
835397913 835397914
835404411 835404412
835411659 835411660
835450040 835450042
835480057 835480060
835482894 835482895
835486621 835486622
835498893 835498895
835505952 835505953
835508646 835508648
835565674 835565675
835567491 835567492
835643706 835643707
835648036 835648037
835652300 835652301
835696824 835696826
835721855 835721856
835726354 835726355
835731782 835731783
835770760 835770761
835804342 835804344
835818153 835818154
835848164 835848166
835888416 835888417
835895156 835895158
835954346 835954348
835958903 835958905
835961460 835961461
835984133 835984135
835988690 835988691
835989662 835989664
836038691 836038692
836039649 836039650
836063490 836063492
836078870 836078872
836080693 836080696
836097907 836097909
836119291 836119292
836163655 836163657
836165700 836165701
836172399 836172400
836183874 836183876
836188667 836188668
836197411 836197412
836202439 836202440
836234610 836234611
836243540 836243541
836247777 836247779
836259729 836259731
836293132 836293134
836306138 836306140
836331630 836331631
836333582 836333584
836335213 836335214
836352744 836352746
836361854 836361856
836375226 836375228
836379092 836379093
836391284 836391286
836395969 836395971
836412539 836412540
836426862 836426863
836453926 836453927
836459685 836459687
836461577 836461578
836465129 836465131
836468342 836468344
836472330 836472332
836478312 836478313
836485087 836485089
836514025 836514026
836578720 836578722
836583457 836583459
836588789 836588791
836594003 836594005
836602437 836602438
836603753 836603755
836604983 836604985
836607257 836607258
836609995 836609997
836616865 836616867
836632778 836632780
836649102 836649104
836664962 836664963
836695105 836695107
836709944 836709946
836762305 836762306
836766378 836766380
836769089 836769090
836771133 836771134
836776359 836776360
836782093 836782095
836800498 836800499
836848173 836848174
836858163 836858164
836860384 836860385
836861784 836861785
836928237 836928238
836929023 836929024
836932109 836932110
836934879 836934880
836948871 836948872
836959789 836959790
836965113 836965114
837025905 837025907
837033742 837033744
837038085 837038086
837070869 837070870
837078633 837078635
837085904 837085905
837109069 837109071
837124927 837124929
837162881 837162882
837176707 837176709
837179780 837179782
837188555 837188556
837193214 837193215
837193524 837193525
837202197 837202199
837219437 837219438
837219487 837219542
837222295 837222296
837223450 837223452
837322042 837322044
837330218 837330220
837344628 837344629
837361243 837361244
837372256 837372257
837444017 837444019
837446624 837446625
837454386 837454388
837474694 837474696
837479688 837479690
837483265 837483266
837509583 837509585
837510876 837510878
837511839 837511840
837515543 837515544
837524016 837524017
837524967 837524969
837600205 837600207
837636337 837636338
837641689 837641691
837644053 837644054
837667953 837667954
837766539 837766540
837778283 837778285
837785617 837785618
837788869 837788870
837797031 837797033
837806483 837806485
837815488 837815489
837832404 837832405
837843260 837843262
837865958 837865960
837869905 837869907
837869994 837870065
837924307 837924309
837986961 837986962
838041254 838041255
838041822 838041824
838051647 838051648
838054206 838054207
838062011 838062012
838064571 838064572
838071521 838071523
838078042 838078044
838078974 838078975
838087189 838087190
838108417 838108420
838131151 838131153
838131305 838131389
838138922 838138924
838145821 838145822
838153989 838153990
838157859 838157860
838160250 838160252
838174535 838174536
838225068 838225069
838238576 838238577
838257964 838257966
838292740 838292741
838295759 838295760
838325710 838325711
838373694 838373696
838399520 838399522
838406370 838406372
838410408 838410410
838415443 838415444
838419190 838419191
838469782 838469783
838569440 838569442
838577985 838577987
838609843 838609844
838629616 838629617
838635777 838635778
838654727 838654729
838662211 838662213
838664385 838664387
838668099 838668101
838670214 838670216
838683801 838683802
838688379 838688381
838713261 838713262
838822634 838822636
838831638 838831639
838844168 838844169
838910827 838910829
838911833 838911834
838924130 838924132
838997144 838997146
839004299 839004300
839025082 839025083
839033946 839033947
839101523 839101524
839102820 839102821
839103204 839103205
839108761 839108763
839127745 839127746
839184669 839184671
839193206 839193207
839201777 839201779
839229089 839229091
839254595 839254597
839255874 839255875
839267114 839267116
839284960 839284962
839296823 839296824
839299570 839299572
839300122 839300123
839304323 839304324
839305668 839305670
839337938 839337940
839340593 839340594
839342266 839342268
839347372 839347374
839368415 839368417
839371054 839371056
839564716 839564717
839626509 839626510
839629602 839629603
839630704 839630705
839680448 839680450
839690790 839690791
839713528 839713529
839718681 839718682
839721979 839721980
839777329 839777330
839783101 839783102
839783170 839783171
839784566 839784567
839788026 839788028
839788379 839788381
839788831 839788833
839792334 839792336
839801330 839801331
839808224 839808225
839828582 839828583
839848824 839848826
839863880 839863881
839871351 839871352
839873859 839873860
839875908 839875910
839881400 839881402
839882908 839882909
839883050 839883052
839883348 839883350
839883741 839883742
839885323 839885325
839977658 839977659
839983684 839983686
840039698 840039699
840049278 840049279
840081738 840081740
840083839 840083840
840176734 840176736
840203633 840203635
840206461 840206463
840217151 840217152
840227118 840227119
840238345 840238348
840244001 840244003
840292234 840292236
840317229 840317230
840339443 840339445
840354121 840354123
840374703 840374704
840403946 840403948
840416573 840416574
840473693 840473694
840481308 840481309
840485622 840485624
840488445 840488447
840492010 840492012
840502639 840502642
840568443 840568444
840576663 840576664
840580800 840580802
840648634 840648636
840671298 840671300
840736829 840736831
840737683 840737684
840740762 840740763
840752613 840752614
840826334 840826336
840832680 840832681
840857944 840857945
840859802 840859803
840889753 840889754
840890022 840890023
840895009 840895010
840931193 840931194
840932665 840932667
841006662 841006663
841019206 841019208
841026371 841026373
841029308 841029309
841043555 841043557
841046798 841046800
841066898 841066900
841077856 841077858
841079894 841079895
841091181 841091183
841100910 841100912
841105030 841105033
841141963 841141964
841143797 841143798
841147845 841147846
841160087 841160089
841168705 841168706
841236741 841236742
841262337 841262339
841305701 841305703
841342897 841342898
841424365 841424367
841448147 841448148
841533350 841533351
841586018 841586019
841670589 841670590
841681714 841681715
841688685 841688687
841689236 841689238
841713094 841713096
841764561 841764563
841768816 841768818
841792457 841792458
841922222 841922223
842033386 842033388
842037044 842037045
842047009 842047011
842048468 842048470
842055497 842055498
842055749 842055750
842056640 842056641
842056758 842056759
842057358 842057359
842058243 842058244
842103831 842103833
842199109 842199111
842219609 842219610
842275714 842275716
842303985 842303987
842309465 842309467
842340493 842340495
842365149 842365151
842366913 842366914
842373182 842373184
842383986 842383987
842385189 842385191
842387969 842387970
842409263 842409264
842450294 842450295
842468481 842468482
842492086 842492088
842521656 842521657
842561796 842561798
842586798 842586799
842653372 842653373
842658003 842658004
842803551 842803552
842808099 842808100
842814236 842814238
842815599 842815601
842816141 842816143
842821926 842821928
842823616 842823617
842825887 842825889
842831229 842831230
842832938 842832939
842837771 842837773
842884458 842884459
842887419 842887420
842894992 842894993
842903376 842903378
842903618 842903620
842907864 842907865
842910532 842910534
842913592 842913594
842916276 842916277
842916780 842916781
842928276 842928277
842964023 842964025
842969777 842969778
842972915 842972916
842978180 842978182
842981164 842981165
842987111 842987113
842989006 842989008
842994542 842994545
842996084 842996086
842997998 842998000
843025627 843025629
843167743 843167745
843175000 843175002
843240079 843240080
843257767 843257768
843359821 843359822
843406016 843406018
843410600 843410602
843414264 843414266
843427566 843427567
843431678 843431680
843433143 843433144
843435869 843435871
843460466 843460467
843493899 843493901
843495153 843495155
843501088 843501090
843571123 843571124
843582140 843582142
843589806 843589807
843604922 843604923
843611984 843611986
843657818 843657819
843673029 843673030
843674443 843674444
843721533 843721534
843729386 843729387
843742106 843742107
843744543 843744544
843753472 843753474
843754577 843754578
843848842 843848843
843887082 843887084
843948869 843948870
843990246 843990248
844020969 844020971
844097077 844097078
844120724 844120725
844183013 844183014
844245212 844245214
844310949 844310950
844348106 844348108
844361059 844361061
844361416 844361417
844362634 844362635
844379455 844379456
844424175 844424177
844464586 844464588
844508487 844508489
844623132 844623133
844705142 844705143
844707896 844707898
844870266 844870268
844967739 844967740
845038546 845038547
845065048 845065049
845138821 845138823
845155536 845155537
845158699 845158701
845162619 845162621
845222964 845222965
845238289 845238290
845325531 845325532
845329975 845329976
845377242 845377243
845398965 845398966
845421384 845421385
845483875 845483877
845486783 845486785
845503701 845503702
845504073 845504075
845579234 845579235
845587972 845587974
845590661 845590662
845643503 845643504
845659356 845659358
845668172 845668173
845674179 845674181
845999772 845999774
846006335 846006336
846010511 846010513
846012576 846012578
846013231 846013232
846013443 846013444
846016728 846016730
846092302 846092304
846094370 846094372
846095573 846095574
846101668 846101670
846106906 846106907
846173276 846173278
846176126 846176128
846194779 846194781
846195182 846195183
846198057 846198058
846255401 846255402
846264427 846264428
846267841 846267842
846268865 846268867
846269463 846269465
846271433 846271435
846272476 846272478
846276037 846276039
846282812 846282813
846324335 846324336
846341023 846341025
846345395 846345396
846382526 846382527
846435821 846435822
846440192 846440193
846457827 846457828
846539989 846539991
846623796 846623797
846641655 846641657
846826570 846826572
846834646 846834648
846844733 846844734
846855282 846855283
846855963 846856056
847120555 847120556
847120687 847120688
847121136 847121137
847122878 847122879
847130068 847130070
847225973 847225974
847230658 847230659
847384685 847384686
847417126 847417127
847433265 847433266
847474385 847474386
847483377 847483470
847492902 847492946
847604965 847604971
847625066 847625079
847661553 847661562
847717970 847718009
847718010 847718045
847732803 847732821
847736945 847736960
847737304 847737339
847737477 847737487
847738185 847738192
847738631 847738644
847753434 847753440
847797139 847797169
847820781 847820808
847834729 847834735
847836327 847836363
847839567 847839652
847840858 847840880
847861576 847861625
847883729 847883768
847907690 847907710
847907832 847907841
847911270 847911295
847915376 847915386
847922258 847922268
847945289 847945295
847955159 847955164
847998459 847998486
848069439 848069494
848084416 848084466
848084611 848084615
848086108 848086109
848086250 848086253
848095229 848095232
848133959 848133960
848156007 848156009
848159616 848159617
848229946 848229947
848320291 848320293
848326120 848326122
848330601 848330604
848340312 848340314
848347311 848347313
848348402 848348403
848418300 848418302
848439991 848439993
848466318 848466320
848630012 848630013
848638931 848638933
848642291 848642293
848673458 848673459
848683986 848683988
848684101 848684103
848702449 848702450
848736751 848736753
848795928 848795930
848812611 848812612
848855650 848855652
848865372 848865374
848878307 848878309
848896841 848896842
848918520 848918522
848922367 848922368
848944323 848944325
849018050 849018052
849031846 849031847
849035127 849035128
849050348 849050350
849053477 849053478
849089078 849089080
849112179 849112180
849208740 849208741
849208910 849208912
849209052 849209054
849213047 849213049
849214802 849214804
849248245 849248247
849300030 849300032
849427508 849427510
849443431 849443432
849460119 849460120
849463511 849463513
849464149 849464150
849465599 849465600
849470626 849470628
849479897 849479899
849480669 849480671
849481588 849481590
849554427 849554428
849564293 849564294
849637852 849637853
849711516 849711518
849729320 849729321
849751014 849751016
849787312 849787313
849870151 849870154
849901333 849901334
849903539 849903540
849908418 849908420
849911707 849911708
849927287 849927288
849958809 849958810
849996239 849996240
849996834 849996835
850030929 850030930
850066273 850066275
850066775 850066776
850111308 850111309
850137784 850137786
850161577 850161579
850164463 850164465
850182189 850182190
850187444 850187446
850241470 850241471
850278296 850278298
850282743 850282745
850317460 850317462
850330150 850330151
850330571 850330573
850333879 850333880
850334157 850334159
850336590 850336592
850340633 850340635
850346073 850346074
850395857 850395859
850514502 850514503
850518006 850518007
850532649 850532650
850643036 850643038
850677421 850677422
850679386 850679387
850692250 850692252
850694604 850694605
850697190 850697192
850715831 850715832
850723191 850723192
850853424 850853426
850856889 850856890
850940458 850940460
851038878 851038880
851083099 851083100
851111336 851111338
851408109 851408111
851464269 851464270
851522178 851522180
851698055 851698057
851785380 851785382
851787976 851787978
851864222 851864224
851934664 851934665
852019255 852019257
852047806 852047807
852051487 852051489
852070054 852070056
852102159 852102160
852139993 852139994
852144755 852144757
852146847 852146849
852149522 852149523
852212490 852212492
852313037 852313038
852320588 852320590
852323455 852323457
852325466 852325467
852393164 852393165
852414691 852414693
852415358 852415359
852416682 852416683
852427008 852427010
852427799 852427801
852440093 852440094
852493285 852493286
852566261 852566263
852574796 852574798
852581094 852581096
852585652 852585653
852585858 852585859
852587096 852587097
852590552 852590554
852590632 852590634
852641071 852641072
852644894 852644895
852660417 852660419
852663965 852663966
852679340 852679341
852698003 852698005
852715738 852715739
852794547 852794548
852833715 852833717
852838648 852838649
852920971 852920972
852926259 852926261
852998078 852998079
853024168 853024170
853098913 853098914
853196733 853196735
853206713 853206714
853264018 853264019
853272983 853272984
853276489 853276491
853277213 853277215
853316012 853316014
853344480 853344482
853351204 853351206
853353903 853353904
853358876 853358877
853414966 853414967
853444760 853444761
853453262 853453264
853479065 853479066
853483089 853483090
853518607 853518609
853595448 853595449
853601820 853601821
853601999 853602000
853747197 853747199
853838700 853838701
853955050 853955051
854050935 854050937
854123084 854123085
854128889 854128891
854171884 854171885
854198246 854198247
854249371 854249372
854288384 854288385
854292424 854292426
854311878 854311879
854408776 854408778
854427614 854427616
854478788 854478789
854482251 854482252
854504707 854504709
854584203 854584205
854618036 854618038
854658324 854658325
854673134 854673135
854705343 854705344
854706571 854706573
854744114 854744116
854751277 854751278
854751819 854751820
854758496 854758498
854910443 854910445
854916996 854916998
854919419 854919420
854921051 854921052
854923997 854923998
854926299 854926300
854993983 854993984
855004901 855004902
855005668 855005670
855011523 855011524
855086959 855086960
855243398 855243400
855268100 855268102
855312462 855312463
855414411 855414412
855526487 855526489
855533269 855533271
855546457 855546458
855606356 855606357
855608946 855608947
855609915 855609916
855689338 855689339
855706445 855706447
855712869 855712871
855778740 855778742
855783263 855783264
855862444 855862446
855864886 855864887
855867698 855867699
855870423 855870424
855873484 855873485
855874343 855874344
855875875 855875877
855877585 855877586
855901525 855901527
855949022 855949023
855950343 855950345
855955336 855955338
856058221 856058222
856128159 856128161
856133546 856133548
856135778 856135780
856201784 856201785
856258898 856258899
856286478 856286480
856294331 856294333
856320446 856320447
856322034 856322035
856369826 856369828
856383013 856383014
856396279 856396281
856411010 856411011
856436370 856436371
856451151 856451152
856471181 856471182
856527718 856527719
856544305 856544307
856571539 856571540
856698670 856698671
856720925 856720927
856724626 856724628
856725857 856725859
856727506 856727507
856728141 856728143
856728401 856728403
856728792 856728794
856729680 856729682
856731285 856731288
856740379 856740380
856778896 856778898
856804558 856804560
856806469 856806470
856817630 856817632
856822380 856822382
856876856 856876858
856900938 856900940
856987278 856987280
857022111 857022113
857094675 857094676
857169285 857169287
857258015 857258017
857262635 857262637
857264648 857264650
857268819 857268822
857321204 857321206
857335790 857335792
857362650 857362651
857366124 857366125
857402386 857402388
857406433 857406434
857411415 857411417
857412761 857412763
857435218 857435219
857445597 857445599
857502338 857502340
857502722 857502723
857505419 857505421
857509768 857509769
857516526 857516527
857518092 857518093
857591710 857591711
857592086 857592087
857596931 857596932
857632804 857632805
857639339 857639340
857645452 857645453
857673247 857673248
857733042 857733043
857733442 857733443
857733792 857733794
857734232 857734234
857734824 857734826
857735165 857735167
857735430 857735432
857735659 857735661
857738996 857738998
857739207 857739209
857756024 857756026
857764583 857764585
857766127 857766128
857766586 857766588
857767051 857767053
857772390 857772392
857790250 857790252
857924676 857924677
857932954 857932955
857942341 857942342
857945260 857945262
857949705 857949707
857995244 857995245
858034155 858034157
858107585 858107586
858111124 858111126
858112426 858112427
858182897 858182898
858185008 858185009
858191286 858191288
858204081 858204083
858207180 858207181
858219651 858219653
858271909 858271911
858274337 858274339
858291807 858291808
858376151 858376153
858377935 858377936
858390356 858390358
858429004 858429006
858436385 858436386
858464684 858464685
858467833 858467835
858469681 858469682
858489776 858489778
858528282 858528283
858535289 858535290
858556073 858556074
858594476 858594477
858617714 858617716
858620392 858620393
858626657 858626659
858643079 858643080
858715047 858715049
858717416 858717418
858724968 858724970
858741283 858741285
858777107 858777108
858783472 858783473
858784087 858784088
858785978 858785979
858792797 858792799
858797986 858797988
858799573 858799574
858805281 858805283
858806864 858806865
858819212 858819213
858885532 858885534
858892085 858892087
858961270 858961272
858964081 858964082
858966263 858966264
858970475 858970476
858973812 858973814
858985565 858985567
859068995 859068998
859074385 859074386
859074585 859074587
859074823 859074824
859075141 859075142
859075883 859075885
859077083 859077085
859078191 859078194
859078634 859078635
859079527 859079529
859080535 859080536
859084717 859084718
859085585 859085586
859085917 859085919
859093697 859093699
859123621 859123623
859127653 859127654
859155441 859155443
859182081 859182082
859242798 859242800
859281379 859281381
859312561 859312563
859317282 859317284
859320143 859320144
859399949 859399950
859423074 859423076
859477548 859477549
859480947 859480948
859496016 859496017
859551379 859551381
859576022 859576024
859607394 859607396
859715267 859715268
859720498 859720499
859722652 859722654
859758240 859758242
859781288 859781290
859782848 859782849
859831608 859831609
859849053 859849055
859852118 859852121
859922118 859922119
859926208 859926210
859929207 859929208
859931630 859931631
859934497 859934499
859937572 859937573
859965648 859965650
860011000 860011002
860060492 860060494
860071416 860071417
860105684 860105686
860106352 860106354
860149699 860149700
860151465 860151467
860163262 860163263
860168964 860168965
860169865 860169866
860170469 860170470
860170975 860170976
860280094 860280095
860341498 860341499
860342998 860343000
860347038 860347040
860357894 860357896
860364237 860364238
860366162 860366163
860367297 860367298
860371204 860371205
860439778 860439779
860440203 860440205
860444407 860444409
860447865 860447866
860448421 860448422
860453898 860453899
860489511 860489513
860511034 860511035
860517967 860517968
860526178 860526180
860527309 860527311
860534632 860534634
860543425 860543426
860550862 860550863
860591649 860591650
860594065 860594067
860615604 860615606
860624081 860624083
860675504 860675506
860710824 860710826
860735194 860735196
860759718 860759720
860774257 860774258
860789308 860789309
860796802 860796803
860877457 860877458
860879030 860879031
860894442 860894444
860921076 860921077
860944704 860944705
860954134 860954135
860960967 860960968
860968212 860968213
861031868 861031869
861033986 861033988
861035347 861035348
861036980 861036981
861038255 861038257
861042679 861042681
861043358 861043360
861043461 861043463
861055440 861055442
861064818 861064819
861109653 861109655
861118445 861118446
861121011 861121012
861124310 861124311
861150582 861150583
861151149 861151151
861155836 861155838
861157184 861157186
861158551 861158553
861159902 861159903
861160751 861160753
861162747 861162749
861164487 861164489
861164883 861164885
861167184 861167187
861168330 861168332
861169682 861169683
861173546 861173547
861175560 861175562
861176780 861176781
861178247 861178249
861178295 861178547
861179780 861179782
861278798 861278800
861315719 861315720
861320417 861320418
861377696 861377697
861379643 861379644
861386371 861386373
861386547 861386549
861388502 861388503
861390969 861390970
861415769 861415770
861424468 861424469
861428469 861428471
861489567 861489568
861573725 861573727
861625603 861625604
861641361 861641363
861650108 861650109
861652900 861652901
861718887 861718889
861739777 861739778
861764618 861764619
861780144 861780145
861824209 861824210
861843053 861843054
861886167 861886168
861946275 861946276
861996889 861996891
861998431 861998432
862130481 862130482
862139824 862139825
862158453 862158454
862177047 862177049
862179451 862179453
862258344 862258346
862262555 862262556
862350558 862350559
862356143 862356144
862381092 862381093
862384746 862384747
862444498 862444499
862462646 862462648
862521815 862521816
862524774 862524776
862533398 862533400
862599906 862599907
862668096 862668098
862695176 862695178
862697392 862697394
862698698 862698699
862701308 862701310
862701612 862701613
862704874 862704875
862713435 862713436
862768808 862768809
862770032 862770033
862773102 862773104
862870019 862870021
862870602 862870604
862880089 862880090
862897022 862897024
862934378 862934380
862944122 862944124
862947250 862947252
862948744 862948745
862954148 862954149
862957993 862957995
863027540 863027541
863051979 863051981
863053000 863053002
863053275 863053278
863185138 863185139
863197909 863197911
863202529 863202531
863216963 863216965
863301807 863301809
863311366 863311368
863316563 863316564
863344411 863344413
863367904 863367906
863377907 863377908
863398038 863398040
863457776 863457777
863476568 863476569
863528912 863528914
863532182 863532184
863534881 863534882
863539889 863539890
863547547 863547549
863636508 863636510
863637351 863637352
863669775 863669777
863683959 863683960
863743559 863743560
863760367 863760368
863770803 863770804
863831481 863831482
863931136 863931137
863982954 863982955
863984377 863984378
864058997 864058999
864062667 864062669
864149886 864149888
864151204 864151206
864158806 864158807
864253445 864253446
864314470 864314471
864325517 864325518
864328185 864328186
864339266 864339267
864340127 864340128
864340466 864340467
864341375 864341376
864341874 864341875
864353231 864353233
864418222 864418224
864434097 864434099
864464152 864464153
864507622 864507624
864577330 864577331
864592284 864592285
864594250 864594252
864606934 864606935
864608706 864608708
864612162 864612163
864671221 864671222
864673456 864673458
864746563 864746565
864751180 864751181
864777348 864777349
864778547 864778549
864859061 864859063
864921844 864921846
864963831 864963832
865015551 865015552
865019924 865019925
865029068 865029069
865030610 865030612
865034994 865034995
865057163 865057165
865079311 865079312
865130286 865130288
865172572 865172574
865184984 865184986
865185448 865185450
865190332 865190333
865198642 865198644
865201425 865201426
865202108 865202110
865345196 865345199
865361885 865361886
865465071 865465072
865474650 865474652
865490998 865491001
865542478 865542480
865557035 865557036
865645724 865645725
865668380 865668382
865684221 865684222
865695504 865695505
865743331 865743333
865785155 865785156
865793143 865793144
865793208 865793212
865795326 865795327
865798655 865798657
865807161 865807163
865808674 865808676
865824199 865824200
865827610 865827611
865829036 865829037
865864247 865864248
865876536 865876538
865885248 865885250
865887816 865887817
865893522 865893523
865949835 865949837
865957875 865957877
866032224 866032225
866134919 866134921
866160823 866160825
866164917 866164919
866166135 866166137
866166509 866166510
866168707 866168709
866169994 866169996
866172795 866172797
866190186 866190188
866193131 866193133
866223872 866223874
866231955 866231957
866240128 866240129
866257174 866257176
866325523 866325524
866333497 866333498
866382203 866382204
866386592 866386593
866389699 866389700
866413923 866413926
866447399 866447401
866468992 866468993
866475453 866475454
866497431 866497433
866583669 866583671
866605037 866605038
866605187 866605811
866726651 866726653
866736423 866736425
866774070 866774071
866958188 866958190
867035156 867035157
867036681 867036683
867056207 867056208
867120614 867120615
867121309 867121311
867170846 867170847
867191170 867191172
867298982 867298983
867353147 867353148
867364311 867364313
867440836 867440837
867450224 867450226
867511055 867511057
867627047 867627048
867689605 867689607
867766563 867766565
867771707 867771709
867775239 867775241
867782792 867782795
867795637 867795638
867836866 867836867
868028135 868028136
868054800 868054802
868059611 868059612
868114697 868114698
868162679 868162680
868216396 868216398
868223100 868223102
868223700 868223702
868232624 868232626
868247690 868247692
868253687 868253688
868262645 868262647
868388534 868388535
868389191 868389192
868399209 868399210
868472302 868472304
868527655 868527656
868540494 868540496
868584301 868584302
868603781 868603783
868631330 868631331
868651857 868651858
868654759 868654761
868662760 868662762
868701178 868701180
868745036 868745037
868748345 868748347
868753271 868753273
868864980 868864981
868903670 868903671
868916426 868916428
868919375 868919376
869005207 869005208
869051382 869051383
869060244 869060246
869068029 869068030
869234026 869234028
869413836 869413838
869442650 869442651
869466234 869466236
869473214 869473216
869505249 869505251
869513668 869513670
869524306 869524308
869535609 869535611
869544038 869544040
869604906 869604908
869616312 869616314
869617377 869617378
869720585 869720586
869773260 869773261
869831494 869831496
870007512 870007514
870011549 870011550
870024127 870024128
870030785 870030786
870031314 870031315
870031409 870031410
870031574 870031576
870038700 870038702
870046092 870046093
870052047 870052049
870059882 870059883
870103428 870103429
870110613 870110614
870132728 870132729
870177900 870177901
870214718 870214719
870273275 870273276
870274343 870274345
870290019 870290020
870342132 870342134
870403873 870403874
870467420 870467422
870521525 870521527
870560014 870560016
870568242 870568243
870578163 870578164
870629025 870629026
870657402 870657404
870743032 870743033
870758591 870758592
870815200 870815201
870873064 870873065
870900509 870900511
870905951 870905952
870939917 870939919
870960081 870960082
870991923 870991924
871016645 871016646
871032523 871032524
871057169 871057170
871061228 871061230
871070463 871070464
871075843 871075845
871105598 871105599
871165895 871165897
871228551 871228552
871243438 871243440
871272694 871272696
871277332 871277334
871289597 871289599
871291520 871291521
871300049 871300051
871300442 871300443
871307935 871307936
871329515 871329516
871351444 871351446
871392601 871392603
871393987 871393989
871409405 871409406
871414326 871414328
871441455 871441457
871597099 871597101
871619303 871619304
871672023 871672024
871679619 871679620
871681972 871681974
871685683 871685685
871765350 871765352
871818821 871818823
871851523 871851524
871920988 871920990
872014954 872014955
872019968 872019970
872049096 872049098
872104001 872104003
872129881 872129882
872167790 872167792
872171048 872171050
872201842 872201844
872242604 872242605
872263028 872263030
872348461 872348463
872367581 872367582
872373274 872373275
872515649 872515650
872530462 872530464
872545307 872545309
872564699 872564700
872635370 872635371
872643802 872643804
872645368 872645370
872645694 872645696
872706971 872706973
872709124 872709126
872731159 872731160
872731826 872731828
872871903 872871905
872885772 872885774
872953141 872953142
872979807 872979808
873039706 873039708
873055937 873055938
873060203 873060205
873081668 873081670
873103495 873103496
873119803 873119805
873137079 873137080
873141122 873141124
873145508 873145509
873147576 873147578
873154650 873154651
873179450 873179451
873222863 873222864
873227462 873227464
873235506 873235508
873236136 873236138
873236317 873236319
873424756 873424758
873482083 873482086
873583458 873583459
873586081 873586082
873591203 873591204
873631800 873631802
873645313 873645314
873648749 873648750
873665978 873665980
873670119 873670120
873677305 873677306
873690899 873690901
873745623 873745625
873749335 873749337
873759400 873759401
873959137 873959139
873994944 873994945
874098316 874098318
874132567 874132569
874162756 874162758
874181606 874181608
874227036 874227038
874272889 874272890
874275438 874275440
874313464 874313466
874316938 874316940
874342400 874342402
874347701 874347703
874349484 874349486
874352760 874352761
874354144 874354145
874360687 874360688
874436901 874436903
874514095 874514097
874622925 874622927
874650124 874650126
874695985 874695986
874706781 874706783
874787743 874787744
874802187 874802189
874817619 874817621
874846235 874846236
874848009 874848011
874878344 874878345
874885171 874885173
874935190 874935192
874979375 874979376
874984892 874984893
875022653 875022655
875041724 875041726
875056064 875056066
875103206 875103207
875104060 875104062
875154095 875154096
875167232 875167234
875182180 875182182
875184833 875184836
