815510272 815510528
816808768 816809248
817315424 817316320
817316800 817318400
817322240 817322720
817618144 817618656
817919872 817920352
817925760 817926144
817931136 817931648
818533184 818533248
820108768 820109280
820350912 820351584
821756512 821756768
822332640 822334720
823113824 823114304
823115200 823116064
828628384 828655264
830618528 830633600
831227040 831227584
840920704 840921696
840921728 840922528
841515104 841515584
841516160 841517024
846890496 846891168
848169088 848169632
851144096 851159552
851160832 851161312
851162272 851162784
853605888 853607200
854319712 854321312
865621408 865621952
867029696 867030272
