1126626506.750000 1126626511.500000
1126643936.750000 1126643939.625000
1126646970.500000 1126646975.500000
1126647331.000000 1126647350.500000
1126647363.000000 1126647384.500000
1126647552.000000 1126647554.500000
1126698845.562500 1126698846.000000
1126700885.000000 1126700892.000000
1126737102.250000 1126737104.500000
1126738392.562500 1126738392.812500
1126753872.250000 1126753872.750000
1126795849.000000 1126795851.500000
1126796460.000000 1126796463.750000
1126805262.250000 1126805268.250000
1126807892.000000 1126807968.125000
1126810277.062500 1126810309.000000
1126810316.000000 1126810384.250000
1126815959.000000 1126816028.500000
1126818876.000000 1126818938.250000
1126819954.250000 1126820031.000000
1126822733.750000 1126822767.500000
1126829632.937500 1126829634.000000
1126885294.562500 1126885295.812500
1126923543.312500 1126923543.750000
1126963330.937500 1126963333.000000
1126963340.125000 1126963349.125000
1126963619.000000 1126963622.328125
1126963651.437500 1126963654.812500
1126963695.000000 1126963698.375000
1126963720.687500 1126963723.250000
1126963728.625000 1126963746.500000
1126963746.750000 1126963757.687500
1126963758.312500 1126963777.875000
1126963781.875000 1126963786.000000
1126963786.375000 1126963791.562500
1126963796.750000 1126963806.500000
1126963810.000000 1126963830.000000
1126988018.750000 1126988020.500000
1126989739.000000 1126989741.000000
1126997476.500000 1126997480.000000
1126997519.750000 1126997524.750000
1126997747.968750 1126997754.000000
1126997770.500000 1126997782.250000
1127053164.187500 1127053164.500000
1127053803.750000 1127053805.750000
1127056317.625000 1127056318.250000
1127064789.625000 1127064866.750000
1127066417.000000 1127066421.750000
1127068391.750000 1127068395.000000
1127069315.500000 1127069317.250000
1127070196.250000 1127070198.250000
1127103840.500000 1127103841.500000
1127163579.500000 1127163594.500000
1127204402.375000 1127204403.687500
1127215391.375000 1127215392.531250
1127216563.500000 1127216566.812500
1127216581.500000 1127216585.000000
1127216606.000000 1127216618.500000
1127221529.750000 1127221531.500000
1127245832.125000 1127245832.625000
1127248017.750000 1127248021.687500
1127253827.250000 1127253833.000000
1127256084.500000 1127256086.250000
1127266596.875000 1127266606.500000
1127266606.750000 1127266610.125000
1127356743.250000 1127356743.687500
1127397143.750000 1127397144.062500
1127400844.875000 1127400847.250000
1127405825.250000 1127405826.125000
1127516033.437500 1127516033.687500
1127518549.625000 1127518550.062500
1127521824.687500 1127521825.000000
1127534764.500000 1127534764.687500
1127542171.812500 1127542172.062500
1127545638.937500 1127545639.875000
1127558258.312500 1127558258.562500
1127591108.875000 1127591116.500000
1127591117.750000 1127591130.375000
1127591134.000000 1127591139.500000
1127591569.375000 1127591570.250000
1127603528.000000 1127603528.250000
1127609676.500000 1127609690.000000
1127636510.687500 1127636511.000000
1127656975.187500 1127656975.562500
1127665270.875000 1127665271.250000
1127667384.875000 1127667385.375000
1127740263.187500 1127740264.500000
1127788120.000000 1127788121.500000
1127816573.062500 1127816573.687500
1128438322.000000 1128438323.750000
1128439570.625000 1128439571.000000
1128440223.625000 1128440223.875000
1128441614.312500 1128441614.625000
1128448832.125000 1128448833.125000
1128453544.375000 1128453545.500000
1128453679.750000 1128453680.500000
1128455650.437500 1128455650.875000
1128456632.750000 1128456633.250000
1128459162.875000 1128459163.250000
1128479649.812500 1128479650.000000
1128493988.062500 1128493988.625000
1128502081.375000 1128502081.625000
1128586597.750000 1128586598.000000
1128586759.250000 1128586761.000000
1128625511.062500 1128625511.250000
1128634934.187500 1128634934.937500
1128647817.250000 1128647817.500000
1128692034.250000 1128692034.625000
1128697594.750000 1128697595.250000
1128703530.625000 1128703530.875000
1128704391.000000 1128704391.750000
1128834542.812500 1128834543.687500
1128871134.500000 1128871136.750000
1128874739.875000 1128874745.250000
1128879422.812500 1128879423.187500
1128892313.125000 1128892313.500000
1128895146.375000 1128895146.875000
1128895342.750000 1128895343.250000
1128899467.437500 1128899470.000000
1128899835.375000 1128899836.000000
1128899872.625000 1128899874.000000
1128921370.875000 1128921371.500000
1128932399.625000 1128932400.125000
1128932401.000000 1128932403.437500
1128932403.687500 1128932404.187500
1128953070.437500 1128953070.750000
1128955001.375000 1128955003.500000
1128955571.750000 1128955572.375000
1128955574.000000 1128955576.625000
1128991235.484375 1128991235.625000
1128998910.875000 1128998911.250000
1129012712.562500 1129012712.812500
1129018940.437500 1129018940.750000
1129029241.500000 1129029244.125000
1129029319.500000 1129029320.500000
1129029321.750000 1129029323.250000
1129029383.375000 1129029383.750000
1129029427.250000 1129029429.250000
1129033171.312500 1129033171.750000
1129033172.812500 1129033175.000000
1129035228.625000 1129035229.125000
1129038947.500000 1129038948.500000
1129041381.750000 1129041384.250000
1129042307.812500 1129042308.125000
1129043117.625000 1129043120.000000
1129047131.750000 1129047135.500000
1129049274.375000 1129049274.875000
1129050688.875000 1129050689.312500
1129051985.250000 1129051985.750000
1129052408.125000 1129052409.000000
1129052503.750000 1129052504.125000
1129067979.250000 1129067982.750000
1129070192.250000 1129070195.875000
1129070197.000000 1129070199.125000
1129074595.187500 1129074595.437500
1129080934.687500 1129080935.000000
1129083859.500000 1129083859.750000
1129099836.000000 1129099836.500000
1129100155.875000 1129100157.000000
1129100159.500000 1129100161.375000
1129110429.437500 1129110429.625000
1129217951.000000 1129217953.750000
1129248492.500000 1129248495.000000
1129288159.625000 1129288159.875000
1129292826.218750 1129292827.125000
1129300630.187500 1129300631.500000
1129300638.000000 1129300646.000000
1129300942.875000 1129300949.250000
1129310207.500000 1129310210.125000
1129340323.625000 1129340325.000000
1129381271.125000 1129381273.000000
1129441017.062500 1129441017.250000
1129451525.625000 1129451525.937500
1129455827.812500 1129455828.062500
1129463587.750000 1129463590.000000
1129468915.562500 1129468915.875000
1129470582.906250 1129470583.750000
1129473615.375000 1129473616.125000
1129473616.500000 1129473617.125000
1129473648.750000 1129473649.500000
1129474121.312500 1129474121.687500
1129486569.250000 1129486569.562500
1129513230.750000 1129513231.000000
1129515713.875000 1129515714.187500
1129518627.062500 1129518627.750000
1129518629.687500 1129518631.687500
1129518631.812500 1129518635.875000
1129527040.562500 1129527040.937500
1129535616.062500 1129535617.000000
1129550949.375000 1129550950.000000
1129550952.750000 1129550953.750000
1129553720.984375 1129553723.156250
1129554918.562500 1129554918.937500
1129554923.093750 1129554924.812500
1129555924.000000 1129555925.500000
1129556110.375000 1129556110.875000
1129556111.125000 1129556112.375000
1129556490.718750 1129556492.625000
1129718478.000000 1129718478.500000
1129735566.687500 1129735567.187500
1129751125.000000 1129751125.312500
1129805362.250000 1129805363.562500
1129812937.437500 1129812937.875000
1129816859.250000 1129816859.937500
1130007303.750000 1130007304.250000
1130007310.500000 1130007311.000000
1130007316.625000 1130007317.500000
1130007319.750000 1130007320.437500
1130007322.500000 1130007323.187500
1130007324.250000 1130007325.375000
1130007325.500000 1130007326.687500
1130007332.125000 1130007336.062500
1130007459.375000 1130007461.125000
1130007472.250000 1130007473.375000
1130007473.500000 1130007475.000000
1130007475.734375 1130007478.500000
1130007488.125000 1130007491.250000
1130008171.250000 1130008174.500000
1130008174.812500 1130008177.000000
1130008198.375000 1130008199.062500
1130008227.250000 1130008235.000000
1130010129.250000 1130010130.250000
1130010132.375000 1130010135.625000
1130010137.625000 1130010142.500000
1130010185.812500 1130010186.500000
1130010274.875000 1130010296.500000
1130010370.500000 1130010371.875000
1130037369.000000 1130037369.750000
1130059457.937500 1130059458.625000
1130066141.062500 1130066141.750000
1130075714.437500 1130075714.875000
1130077208.375000 1130077209.250000
1130079507.125000 1130079507.875000
1130079512.000000 1130079514.375000
1130082088.812500 1130082089.250000
1130082513.687500 1130082514.375000
1130082782.000000 1130082783.500000
1130094862.375000 1130094864.125000
1130094871.500000 1130094872.625000
1130094894.000000 1130094896.500000
1130094956.500000 1130094960.500000
1130158806.375000 1130158808.125000
1130158811.218750 1130158816.875000
1130158820.125000 1130158826.125000
1130158853.125000 1130158853.750000
1130158859.500000 1130158865.750000
1130158865.875000 1130158868.125000
1130165749.750000 1130165750.250000
1130170382.750000 1130170387.890625
1130175913.687500 1130175914.875000
1130175951.750000 1130175953.875000
1130176789.625000 1130176790.750000
1130176805.250000 1130176805.875000
1130176914.750000 1130176916.000000
1130177267.750000 1130177270.750000
1130183600.875000 1130183601.625000
1130184856.000000 1130184867.375000
1130203146.062500 1130203146.875000
1130254404.625000 1130254406.062500
1130254406.500000 1130254408.375000
1130254510.250000 1130254511.000000
1130254611.625000 1130254612.250000
1130254649.500000 1130254651.625000
1130254651.875000 1130254653.750000
1130254718.750000 1130254719.750000
1130254729.125000 1130254745.125000
1130264244.625000 1130264245.250000
1130264246.187500 1130264247.875000
1130264254.625000 1130264256.625000
1130264261.750000 1130264264.000000
1130264265.187500 1130264266.875000
1130265107.187500 1130265108.437500
1130265332.500000 1130265335.375000
1130265496.125000 1130265497.125000
1130265822.125000 1130265822.750000
1130266077.750000 1130266078.500000
1130266244.250000 1130266262.375000
1130267915.000000 1130267917.500000
1130267923.562500 1130267926.750000
1130267928.125000 1130267930.875000
1130267931.250000 1130267933.125000
1130267976.750000 1130267977.500000
1130268112.875000 1130268122.125000
1130268122.250000 1130268132.250000
1130268134.500000 1130268140.250000
1130268145.000000 1130268146.000000
1130402548.125000 1130402548.812500
1130504706.687500 1130504712.125000
1130504732.250000 1130504735.750000
1130504736.000000 1130504737.250000
1130504763.687500 1130504764.250000
1130506699.875000 1130506701.250000
1130512580.562500 1130512582.750000
1130517140.750000 1130517142.000000
1130517173.000000 1130517176.000000
1130517176.187500 1130517177.750000
1130517558.375000 1130517560.500000
1130517562.812500 1130517564.250000
1130517577.250000 1130517579.687500
1130533181.500000 1130533182.750000
1130576166.375000 1130576166.875000
1130639914.375000 1130639916.000000
1130679082.937500 1130679084.500000
1130681255.125000 1130681256.125000
1130694055.625000 1130694056.812500
1130696784.250000 1130696785.000000
1130701404.500000 1130701405.750000
1130701406.062500 1130701407.250000
1130702209.375000 1130702211.500000
1130703533.250000 1130703539.250000
1130703540.125000 1130703550.125000
1130736886.500000 1130736887.625000
1130738837.500000 1130738840.000000
1130759298.312500 1130759298.625000
1130770060.500000 1130770061.875000
1130770093.000000 1130770094.375000
1130801159.250000 1130801178.500000
1130828874.250000 1130828874.750000
1130859343.500000 1130859344.000000
1130868584.500000 1130868585.687500
1130870760.000000 1130870763.250000
1130872443.500000 1130872445.500000
1130874596.750000 1130874600.750000
1130875689.500000 1130875694.000000
1130876579.000000 1130876581.250000
1130876585.250000 1130876587.500000
1130876778.000000 1130876795.500000
1130877125.500000 1130877203.500000
1130881925.250000 1130881928.000000
1130881971.750000 1130881973.250000
1130887752.250000 1130887753.750000
1130889538.000000 1130889540.750000
1130902025.500000 1130902027.000000
1131108785.500000 1131108788.750000
1131112995.250000 1131112997.000000
1131118148.000000 1131118150.250000
1131118494.500000 1131118498.000000
1131118546.250000 1131118548.500000
1131118657.500000 1131118659.000000
1131118740.000000 1131118742.000000
1131119265.750000 1131119267.500000
1131119490.750000 1131119493.500000
1131148591.500000 1131148610.000000
1131162451.000000 1131162452.250000
1131162482.250000 1131162484.500000
1131228896.500000 1131228899.500000
1131239244.750000 1131239246.187500
1131289731.250000 1131289733.500000
1131291686.250000 1131291688.500000
1131291705.250000 1131291709.000000
1131295054.812500 1131295062.250000
1131295106.000000 1131295108.750000
1131295111.750000 1131295114.500000
1131295623.500000 1131295628.250000
1131295656.250000 1131295657.500000
1131295692.500000 1131295694.000000
1131295697.125000 1131295701.500000
1131295735.250000 1131295737.500000
1131295767.750000 1131295773.000000
1131295782.750000 1131295786.750000
1131295829.000000 1131295830.500000
1131295833.750000 1131295839.750000
1131295883.937500 1131295888.500000
1131295895.750000 1131295897.000000
1131295904.250000 1131295906.000000
1131296243.000000 1131296250.250000
1131296258.000000 1131296260.500000
1131308904.750000 1131308905.375000
1131309223.500000 1131309224.500000
1131309225.781250 1131309226.750000
1131310453.750000 1131310455.750000
1131310476.250000 1131310479.000000
1131310603.250000 1131310604.250000
1131310892.437500 1131310900.125000
1131312634.000000 1131312640.500000
1131312884.000000 1131312887.500000
1131312895.125000 1131312908.000000
1131316107.250000 1131316108.000000
1131321155.000000 1131321156.750000
1131321157.250000 1131321163.250000
1131321163.500000 1131321181.000000
1131324779.750000 1131324780.750000
1131324806.250000 1131324807.500000
1131356933.125000 1131356943.000000
1131356944.125000 1131356947.500000
1131356948.625000 1131356952.500000
1131356959.250000 1131356961.500000
1131356962.125000 1131356963.125000
1131356963.375000 1131356965.750000
1131356979.125000 1131356982.625000
1131356993.625000 1131356997.500000
1131384687.750000 1131384689.250000
1131387001.500000 1131387003.250000
1131387030.500000 1131387032.250000
1131388034.000000 1131388035.500000
1131388080.250000 1131388082.000000
1131388084.250000 1131388088.500000
1131389248.250000 1131389252.000000
1131400743.500000 1131400758.000000
1131464981.125000 1131464983.250000
1131465608.000000 1131465608.625000
1131465611.375000 1131465612.250000
1131469861.500000 1131469866.500000
1131470771.250000 1131470773.000000
1131472462.000000 1131472464.750000
1131472477.000000 1131472478.500000
1131472818.687500 1131472819.125000
1131556652.000000 1131556654.000000
1131635119.000000 1131635122.750000
1131637267.375000 1131637270.250000
1131640811.687500 1131640812.625000
1131644674.750000 1131644679.000000
1131659274.000000 1131659275.000000
1131665026.250000 1131665051.625000
1131665056.500000 1131665076.000000
1131666937.375000 1131666940.875000
1131666941.125000 1131666946.125000
1131666946.625000 1131666957.375000
1131680946.250000 1131680948.000000
1131721048.750000 1131721050.000000
1131735846.000000 1131735851.750000
1131735966.000000 1131735977.500000
1131737097.500000 1131737104.000000
1131737196.000000 1131737199.250000
1131741017.500000 1131741022.250000
1131741032.125000 1131741038.000000
1131741075.500000 1131741078.250000
1131741082.250000 1131741094.500000
1131741323.500000 1131741326.000000
1131741326.875000 1131741331.750000
1131741372.625000 1131741373.187500
1131741374.187500 1131741378.000000
1131741510.250000 1131741510.875000
1131741511.250000 1131741512.375000
1131741540.625000 1131741542.875000
1131741548.000000 1131741550.000000
1131741585.375000 1131741589.875000
1131741736.500000 1131741738.750000
1131741801.437500 1131741802.750000
1131741843.500000 1131741852.250000
1131755815.000000 1131755819.500000
1131766904.187500 1131766912.750000
1131895134.375000 1131895137.937500
1131895152.250000 1131895158.000000
1131895163.125000 1131895163.750000
1131895195.000000 1131895196.125000
1131895209.093750 1131895209.875000
1131895226.187500 1131895227.750000
1131895231.000000 1131895232.000000
1131895233.062500 1131895233.562500
1131895337.000000 1131895338.750000
1131895358.000000 1131895358.750000
1131895769.125000 1131895788.062500
1131895788.375000 1131895790.500000
1131895967.750000 1131895971.250000
1131895973.750000 1131895978.500000
1131897472.625000 1131897474.625000
1131899986.375000 1131899987.500000
1131905042.000000 1131905043.500000
1131905096.000000 1131905097.750000
1131907261.125000 1131907262.625000
1131907262.937500 1131907264.250000
1131907266.218750 1131907268.250000
1131907269.406250 1131907275.125000
1131947562.000000 1131947571.500000
1131988743.000000 1131988744.250000
1131993144.750000 1131993148.000000
1131993385.750000 1131993388.000000
1131993412.500000 1131993416.500000
1131998362.375000 1131998362.812500
1132004590.250000 1132004599.250000
1132004694.750000 1132004711.000000
1132009265.000000 1132009279.500000
1132009312.875000 1132009315.000000
1132009343.000000 1132009345.000000
1132044617.750000 1132044618.437500
1132062897.500000 1132062900.500000
1134489046.500000 1134489047.750000
1134495727.500000 1134495728.750000
1134496493.000000 1134496494.750000
1134501540.750000 1134501543.000000
1134504031.875000 1134504033.250000
1134504043.750000 1134504046.250000
1134505787.500000 1134505793.500000
1134505975.250000 1134505976.875000
1134517293.750000 1134517295.625000
1134517320.500000 1134517323.000000
1134521614.000000 1134521617.000000
1134524176.500000 1134524177.250000
1134549148.000000 1134549174.000000
1134576951.250000 1134576953.250000
1134585251.250000 1134585253.000000
1134585368.250000 1134585370.000000
1134585726.500000 1134585727.500000
1134585793.000000 1134585794.750000
1134587615.750000 1134587617.000000
1134587638.000000 1134587639.000000
1134619436.500000 1134619504.000000
1134619829.000000 1134619835.000000
1134632859.500000 1134632877.000000
1134773914.750000 1134773916.000000
1134774294.000000 1134774297.500000
1134776960.000000 1134776964.000000
1134778180.000000 1134778184.000000
1134797017.000000 1134797051.000000
1134799569.000000 1134799581.000000
1134824470.750000 1134824473.750000
1134824481.250000 1134824484.000000
1134825039.000000 1134825046.000000
1134829349.250000 1134829350.500000
1134829360.750000 1134829363.250000
1134868818.750000 1134868820.750000
1134878010.750000 1134878011.750000
1134904370.625000 1134904386.000000
1134904621.937500 1134904631.000000
1134904711.500000 1134904719.500000
1134904776.500000 1134904785.000000
1134904790.000000 1134904793.750000
1134904842.500000 1134904857.000000
1134904911.125000 1134904919.000000
1134904925.000000 1134904932.500000
1134904989.750000 1134904996.000000
1134904998.000000 1134905001.500000
1134905046.375000 1134905051.000000
1134905101.500000 1134905107.750000
1134905117.000000 1134905120.500000
1134905122.500000 1134905138.000000
1134905281.000000 1134905288.000000
1134905298.500000 1134905302.000000
1134905432.000000 1134905434.000000
1134905716.000000 1134905724.500000
1134905736.000000 1134905738.500000
1134905979.000000 1134905988.515625
1134905989.500000 1134906002.000000
1134906063.000000 1134906069.500000
1134906070.000000 1134906077.000000
1134906115.000000 1134906121.500000
1134906131.500000 1134906137.000000
1134906196.000000 1134906201.000000
1134906210.000000 1134906212.500000
1134906333.500000 1134906341.000000
1134906535.500000 1134906553.000000
1134907277.125000 1134907279.000000
1134907280.000000 1134907287.000000
1134917720.000000 1134917721.500000
1134918383.750000 1134918384.250000
1134996824.250000 1134996827.750000
1135001603.000000 1135001603.750000
1135039809.000000 1135039812.000000
1135045064.750000 1135045066.000000
1136360275.750000 1136360279.000000
1136364793.500000 1136364804.000000
1136366148.625000 1136366178.000000
1136366601.250000 1136366605.500000
1136366653.000000 1136366662.500000
1136367208.500000 1136367220.000000
1136367481.000000 1136367496.000000
1136368310.000000 1136368318.000000
1136382992.500000 1136382993.750000
1136384498.750000 1136384502.000000
1136389204.250000 1136389206.000000
1136392238.250000 1136392239.500000
1136392288.500000 1136392300.000000
1136394405.500000 1136394407.000000
1136396254.750000 1136396256.750000
1136399299.500000 1136399310.500000
1136488170.750000 1136488172.750000
1136488173.750000 1136488177.500000
1136488215.000000 1136488216.250000
1136488224.500000 1136488230.750000
1136519564.250000 1136519565.500000
1136538253.000000 1136538253.750000
1136551294.375000 1136551295.250000
1136582821.000000 1136582823.000000
1136583543.000000 1136583545.500000
1136585744.375000 1136585746.000000
1136585769.000000 1136585773.000000
1136589559.250000 1136589560.250000
1136605613.750000 1136605617.000000
1136624391.750000 1136624393.000000
1136638719.750000 1136638721.500000
1136642899.500000 1136642900.750000
1136642932.000000 1136642933.500000
1136648267.000000 1136648306.312500
1136648453.500000 1136648454.500000
1136648487.000000 1136648488.250000
1136648686.437500 1136648687.750000
