1  931076896  931078422  1526
2  931078516  931079404  888
3  931080617  931083956  3339
4  931084877  931085895  1018
5  931087097  931089945  2848
6  931089970  931090385  415
7  931091956  931094704  2748
8  931125824  931126303  479
9  931127116  931130690  3574
10  931130747  931131452  705
11  931131904  931132955  1051
13  931134555  931139698  5143
14  931150944  931153434  2490
17  931157974  931158567  593
18  931160296  931160989  693
19  931161114  931168101  6987
20  931172416  931173641  1225
21  931174456  931176995  2539
22  931178537  931184119  5582
23  931184220  931191081  6861
24  931212561  931212919  358
25  931213020  931215036  2016
26  931218886  931220215  1329
27  931242123  931245464  3341
28  931250547  931251169  622
29  931251276  931252538  1262
30  931257335  931260598  3263
31  931261877  931266014  4137
32  931270026  931270519  493
33  931270620  931271665  1045
34  931275027  931275335  308
35  931275464  931275741  277
36  931283293  931285104  1811
37  931290692  931291115  423
38  931292789  931292897  108
39  931317186  931319458  2272
40  931321135  931328104  6969
41  931328232  931330524  2292
42  931331181  931338575  7394
43  931340994  931351287  10293
44  931351306  931354202  2896
45  931357989  931358513  524
46  931365256  931377033  11777
47  931386256  931394570  8314
48  931394620  931404464  9844
49  931413997  931414519  522
50  931414620  931415060  440
51  931418878  931424531  5653
52  931426097  931431088  4991
53  931431138  931431487  349
54  931431492  931432926  1434
55  931434808  931435521  713
57  931439658  931439952  294
58  931443031  931443319  288
60  931446557  931457694  11137
61  931457719  931457915  196
62  931461152  931464376  3224
63  931464402  931467234  2832
64  931468817  931470156  1339
65  931471301  931472119  818
66  931472220  931472769  549
67  931479596  931480256  660
68  931483130  931483395  265
69  931484557  931488853  4296
70  931491250  931493975  2725
71  931499526  931500148  622
72  931532577  931536159  3582
73  931536184  931540477  4293
74  931572684  931575473  2789
75  931576945  931577558  613
76  931582611  931584328  1717
77  931603236  931615564  12328
78  931617383  931617868  485
80  931618704  931619011  307
81  931657083  931657183  100
82  931658625  931659071  446
83  931660306  931660540  234
84  931660580  931663295  2715
85  931664128  931666331  2203
86  931667306  931667825  519
87  931667850  931673022  5172
89  931673833  931674741  908
90  931685699  931686150  451
92  931704410  931706612  2202
93  931712153  931712985  832
94  931722628  931725579  2951
95  931729355  931731301  1946
96  931731429  931732178  749
97  931735500  931748232  12732
98  931755809  931757397  1588
99  931757428  931760100  2672
100  931760229  931761589  1360
101  931765138  931775068  9930
102  931775338  931776362  1024
103  931776790  931777311  521
104  931783387  931785714  2327
105  931788493  931788900  407
106  931793105  931795269  2164
107  931806644  931807077  433
108  931811212  931811695  483
109  931814270  931816095  1825
110  931817031  931817719  688
111  931817820  931819923  2103
112  931819959  931822815  2856
113  931826475  931826630  155
114  931826670  931832026  5356
115  931836793  931842637  5844
116  931842932  931843473  541
117  931845510  931846519  1009
118  931851319  931856052  4733
119  931857948  931859834  1886
120  931862953  931865307  2354
121  931865340  931867216  1876
122  931871250  931873902  2652
123  931876107  931878032  1925
124  931882589  931882704  115
125  931883485  931885126  1641
126  931886238  931888036  1798
127  931906891  931913697  6806
128  931914606  931922332  7726
129  931922357  931923510  1153
130  931926020  931926630  610
131  931928430  931928960  530
132  931931090  931932850  1760
133  931934828  931935130  302
134  931939230  931941442  2212
135  931949457  931952997  3540
136  931954992  931956086  1094
137  931972859  931978290  5431
138  931978310  931979323  1013
139  931983901  931985752  1851
140  931988658  931990519  1861
141  931990620  931991822  1202
142  931998060  931998938  878
143  932001611  932003757  2146
144  932010680  932011099  419
145  932014809  932015459  650
146  932017822  932019319  1497
147  932019420  932021242  1822
148  932021287  932025262  3975
149  932033001  932034958  1957
150  932035003  932038665  3662
151  932041437  932047254  5817
152  932049047  932050323  1276
153  932050348  932055046  4698
155  932058623  932060575  1952
156  932062705  932074125  11420
157  932081683  932090733  9050
158  932094330  932105704  11374
159  932105833  932106401  568
160  932107168  932108653  1485
161  932108680  932109218  538
162  932109959  932112644  2685
163  932115268  932122392  7124
164  932123648  932130134  6486
165  932132100  932133109  1009
166  932144795  932146269  1474
167  932148013  932149642  1629
168  932160666  932161243  577
170  932163420  932164038  618
171  932172102  932178146  6044
172  932210090  932214921  4831
173  932269258  932269467  209
174  932270492  932278519  8027
175  932278620  932284674  6054
176  932288665  932289844  1179
177  932293443  932307319  13876
178  932307420  932308115  695
179  932311471  932312136  665
180  932316434  932316806  372
181  932316886  932317056  170
183  932323723  932324407  684
184  932345677  932345958  281
185  932348140  932349765  1625
186  932349814  932356986  7172
187  932359128  932361822  2694
188  932362651  932364919  2268
189  932365020  932365825  805
190  932408671  932411323  2652
191  932417009  932417980  971
192  932418081  932418511  430
193  932419372  932419968  596
194  932420853  932421518  665
195  932422329  932422502  173
197  932425475  932428214  2739
198  932428262  932428689  427
199  932434417  932435310  893
200  932435651  932435804  153
201  932441350  932451301  9951
202  932451430  932458333  6903
203  932458406  932458950  544
204  932459044  932462021  2977
205  932462078  932463684  1606
206  932465416  932466662  1246
207  932466710  932466948  238
208  932470756  932472134  1378
209  932476420  932479141  2721
210  932479221  932480101  880
211  932480229  932486969  6740
212  932492038  932494808  2770
213  932495918  932496499  581
214  932498631  932504662  6031
215  932505817  932508900  3083
216  932509029  932509484  455
217  932509541  932521140  11599
218  932521942  932522260  318
219  932524282  932525215  933
220  932526160  932528629  2469
221  932528677  932529575  898
222  932530779  932537327  6548
223  932540797  932547500  6703
224  932550889  932553244  2355
225  932553325  932554630  1305
226  932556160  932558220  2060
227  932564070  932564200  130
228  932587098  932592890  5792
229  932594634  932595301  667
230  932595429  932601608  6179
231  932603799  932611875  8076
232  932616154  932619001  2847
233  932619581  932623834  4253
235  932628292  932635493  7201
236  932637850  932641045  3195
237  932641093  932641748  655
238  932648123  932652900  4777
239  932653029  932658488  5459
240  932662932  932664842  1910
241  932666899  932667532  633
242  932667589  932673359  5770
243  932675678  932680034  4356
244  932682523  932709364  26841
245  932711212  932713702  2490
246  932717212  932723943  6731
247  932724757  932726110  1353
248  932726199  932726391  192
249  932729381  932730295  914
250  932736772  932738394  1622
251  932758842  932759054  212
252  932760935  932761457  522
253  932763575  932765863  2288
254  932771327  932771732  405
255  932791915  932792535  620
256  932817630  932825719  8089
257  932825820  932828428  2608
258  932935560  932936370  810
259  932939605  932940900  1295
260  932941029  932948405  7376
261  932958826  932959421  595
263  932960653  932964622  3969
264  932965829  932968005  2176
265  932968053  932968270  217
266  932968310  932968819  509
267  932969820  932976045  6225
268  932976597  932978305  1708
269  932979353  932989935  10582
270  932991285  932996073  4788
271  932997233  932997803  570
272  933010476  933012257  1781
273  933012293  933012400  107
274  933014598  933014918  320
275  933015825  933018580  2755
276  933048184  933048477  293
277  933048533  933050723  2190
278  933061327  933061888  561
279  933076358  933077727  1369
280  933078827  933082785  3958
281  933082810  933084919  2109
282  933085020  933085732  712
283  933089709  933090515  806
284  933091353  933093206  1853
285  933095086  933096075  989
287  933104983  933105360  377
288  933105380  933105996  616
289  933106098  933109819  3721
290  933142374  933142502  128
291  933142630  933146774  4144
292  933146830  933147038  208
293  933149548  933150119  571
294  933166840  933167939  1099
295  933180305  933181190  885
296  933181270  933189550  8280
297  933189599  933200102  10503
298  933200230  933204582  4352
299  933204662  933228561  23899
300  933234841  933236134  1293
301  933237803  933248206  10403
302  933248286  933250710  2424
303  933252472  933253590  1118
304  933253646  933257702  4056
305  933257830  933264830  7000
307  933269425  933276373  6948
308  933278719  933286502  7783
309  933286630  933289789  3159
310  933292866  933306550  13684
311  933306606  933308445  1839
312  933316739  933322670  5931
313  933322718  933325093  2375
314  933325142  933344101  18959
315  933344230  933346893  2663
316  933352584  933352969  385
317  933354387  933357393  3006
318  933371010  933372901  1891
319  933373946  933374190  244
320  933374246  933376261  2015
321  933379458  933379685  227
322  933379766  933380182  416
323  933390050  933392159  2109
324  933425997  933428534  2537
325  933431570  933433253  1683
327  933481667  933483047  1380
328  933498781  933499045  264
329  933504175  933507523  3348
331  933513154  933514374  1220
332  933514423  933516902  2479
333  933517031  933530696  13665
334  933533260  933533731  471
335  933535061  933538290  3229
336  933539631  933540368  737
337  933540661  933543259  2598
339  933545830  933546390  560
340  933554019  933556622  2603
341  933556670  933558999  2329
342  933560786  933567445  6659
343  933567502  933574501  6999
344  933574630  933578262  3632
345  933578318  933578535  217
346  933582359  933587175  4816
347  933587200  933603319  16119
348  933603420  933614147  10727
349  933626104  933631466  5362
350  933658954  933660899  1945
351  933661027  933661159  132
352  933679663  933681910  2247
353  933685797  933689698  3901
354  933689827  933694516  4689
355  933694560  933695252  692
356  933697149  933697983  834
357  933701582  933704909  3327
358  933705402  933707055  1653
359  933710382  933713236  2854
360  933720060  933724174  4114
361  933726635  933732975  6340
362  933738363  933747298  8935
363  933747427  933753281  5854
364  933755040  933758333  3293
365  933763551  933776100  12549
366  933776229  933776703  474
367  933777613  933790325  12712
368  933790382  933796646  6264
369  933798794  933804902  6108
370  933805030  933810495  5465
371  933816782  933820191  3409
372  933822603  933827231  4628
373  933829024  933833701  4677
374  933833830  933844069  10239
375  933844620  933845005  385
376  933845062  933851228  6166
377  933860664  933862502  1838
378  933862630  933868181  5551
379  933871738  933876856  5118
380  933880194  933882499  2305
381  933883904  933891301  7397
382  933891430  933893045  1615
383  933893102  933895690  2588
384  933897396  933904925  7529
385  933904982  933907018  2036
386  933909120  933911413  2293
387  933911494  933913203  1709
388  933919242  933920101  859
389  933920230  933927220  6990
390  933928531  933930421  1890
391  933930470  933934316  3846
392  933942989  933948468  5479
393  933951212  933960011  8799
394  933965109  933970060  4951
395  933984631  933986790  2159
396  933986846  933988606  1760
397  933990657  933996682  6025
398  933999363  934001553  2190
399  934025912  934030014  4102
400  934033006  934034439  1433
401  934035818  934039962  4144
402  934065792  934066467  675
403  934079170  934081008  1838
404  934083340  934083652  312
405  934083701  934090918  7217
406  934093285  934098107  4822
407  934111225  934119040  7815
408  934133634  934135630  1996
409  934135670  934140580  4910
410  934140629  934150501  9872
411  934150629  934151061  432
412  934151141  934153067  1926
413  934162221  934171750  9529
414  934171798  934176265  4467
415  934176290  934179301  3011
416  934179430  934179538  108
417  934180030  934181443  1413
418  934181482  934191983  10501
419  934194572  934199684  5112
420  934199726  934206453  6727
421  934206502  934207119  617
422  934212549  934213798  1249
423  934213846  934224243  10397
424  934230874  934231254  380
425  934231310  934236901  5591
426  934237030  934243990  6960
427  934248432  934250115  1683
428  934250140  934250538  398
430  934257654  934261881  4227
432  934265830  934267289  1459
433  934268094  934268324  230
434  934278581  934286580  7999
435  934288778  934291747  2969
436  934294840  934299165  4325
437  934302076  934307703  5627
438  934309513  934309966  453
439  934310046  934312049  2003
440  934315699  934319970  4271
441  934321640  934323301  1661
442  934323430  934331821  8391
443  934331870  934332597  727
444  934333611  934337077  3466
445  934341532  934348150  6618
446  934348206  934348551  345
447  934349542  934350084  542
448  934351875  934352102  227
449  934352230  934369403  17173
450  934369453  934374417  4964
451  934380729  934380902  173
452  934381030  934385900  4870
453  934385940  934392606  6666
454  934392662  934409195  16533
455  934413129  934418901  5772
456  934418958  934438502  19544
457  934438630  934441189  2559
458  934441238  934444651  3413
459  934457174  934467300  10126
460  934467429  934470004  2575
461  934470053  934480024  9971
462  934488006  934494661  6655
463  934494710  934496101  1391
464  934496230  934503537  7307
465  934505241  934505580  339
466  934509469  934516067  6598
467  934518086  934524901  6815
468  934525030  934531255  6225
469  934543178  934553285  10107
470  934553334  934553701  367
471  934553830  934555486  1656
472  934558569  934560692  2123
473  934560717  934561524  807
474  934566474  934566924  450
475  934570265  934575034  4769
476  934579364  934582502  3138
477  934582630  934588333  5703
478  934593938  934594307  369
479  934626312  934632284  5972
480  934632312  934638521  6209
481  934642338  934643441  1103
482  934678632  934681619  2987
483  934683337  934687180  3843
484  934688697  934697701  9004
485  934697830  934698468  638
486  934700165  934724587  24422
487  934729106  934729918  812
488  934734882  934740259  5377
489  934749183  934752189  3006
490  934752246  934755301  3055
491  934755430  934759641  4211
492  934761553  934764139  2586
493  934764199  934766853  2654
494  934769511  934775229  5718
495  934775278  934779870  4592
496  934779926  934781817  1891
497  934782782  934784102  1320
498  934784230  934785880  1650
499  934788200  934792051  3851
501  934799534  934805816  6282
502  934810005  934812901  2896
503  934813030  934814838  1808
504  934816742  934821997  5255
505  934825021  934828770  3749
506  934828810  934834742  5932
507  934834798  934835240  442
508  934837092  934838010  918
509  934838050  934839190  1140
510  934841000  934841701  701
511  934841830  934842430  600
528  934843710  934861073  17363
529  934861380  934861677  297
530  934861726  934869522  7796
531  934883764  934887906  4142
532  934895850  934896370  520
533  934896410  934899301  2891
534  934899430  934904740  5310
535  934945006  934945591  585
536  934948257  934955310  7053
537  934957381  934961989  4608
538  934962046  934977757  15711
539  935129407  935129700  293
540  935129829  935137740  7911
541  935137821  935139791  1970
542  935141699  935143341  1642
543  935143389  935151188  7799
544  935151245  935156436  5191
545  935158341  935158500  159
546  935158629  935167865  9236
547  935167907  935168396  489
548  935170647  935177354  6707
549  935179081  935187033  7952
550  935188296  935188879  583
551  935193460  935194608  1148
552  935195991  935205316  9325
553  935205373  935210231  4858
554  935235670  935238442  2772
555  935241927  935244461  2534
556  935246268  935248398  2130
557  935264940  935265079  139
558  935266781  935266940  159
559  935266997  935267428  431
560  935268670  935269718  1048
561  935272939  935273700  761
562  935273829  935289433  15604
563  935294958  935296428  1470
564  935297264  935300788  3524
565  935302229  935302501  272
566  935302629  935307516  4887
567  935307581  935308044  463
568  935324177  935325144  967
569  935327618  935329644  2026
570  935331196  935331301  105
571  935331430  935340541  9111
572  935340590  935342482  1892
573  935344652  935347096  2444
574  935349860  935355094  5234
575  935358716  935360101  1385
576  935360230  935363425  3195
577  935364721  935368813  4092
578  935368870  935379524  10654
579  935380867  935388902  8035
580  935389030  935391667  2637
581  935426469  935427426  957
582  935432174  935436429  4255
583  935436486  935440013  3527
584  935441697  935443997  2300
585  935453782  935456759  2977
586  935456819  935460320  3501
587  935464161  935475997  11836
588  935478488  935491262  12774
589  935494493  935494792  299
590  935495170  935496499  1329
591  935500240  935500940  700
592  935506605  935516690  10085
593  935516710  935517438  728
594  935557148  935558815  1667
595  935560001  935561702  1701
596  935564063  935570677  6614
597  935572280  935573327  1047
598  935574302  935575891  1589
599  935578012  935586466  8454
600  935589327  935590501  1174
601  935590630  935596791  6161
602  935598275  935600997  2722
603  935604250  935608696  4446
604  935609962  935617702  7740
605  935617750  935619301  1551
606  935619430  935621952  2522
607  935622144  935634486  12342
608  935634566  935637040  2474
609  935639180  935648101  8921
610  935648230  935652884  4654
611  935657326  935670501  13175
612  935670558  935676902  6344
613  935677030  935679818  2788
614  935689166  935690117  951
615  935690224  935692907  2683
616  935694609  935700101  5492
617  935702502  935705701  3199
618  935705830  935714506  8676
619  935718349  935722982  4633
620  935726672  935730926  4254
621  935731006  935732835  1829
622  935734795  935746172  11377
623  935751213  935758791  7578
624  937473630  937476174  2544
625  937477622  937497611  19989
626  937497617  937500384  2767
627  937542194  937553984  11790
628  937554040  937555195  1155
629  937555217  937556274  1057
630  937575484  937584012  8528
631  937584017  937586915  2898
632  937801896  937804123  2227
633  937804181  937812161  7980
635  937878164  937893008  14844
637  937896849  937900812  3963
638  937900817  937903694  2877
639  937929145  937929607  462
640  937929617  937930292  675
641  937931182  937938720  7538
642  937942520  937943331  811
643  938000353  938003143  2790
644  938004408  938008907  4499
645  938012306  938016012  3706
646  938016017  938016943  926
647  938021663  938024130  2467
648  938024258  938025450  1192
649  938027196  938029028  1832
650  938029312  938030755  1443
651  938035980  938042773  6793
652  938043653  938044810  1157
653  938044817  938046568  1751
654  938050369  938051859  1490
655  938061400  938064718  3318
656  938068286  938071870  3584
657  938075756  938082290  6534
658  938085020  938096161  11141
659  938115802  938124790  8988
660  938168989  938171847  2858
661  938171912  938185709  13797
662  938225855  938226138  283
663  938231454  938235618  4164
664  938255836  938259067  3231
665  938267235  938269085  1850
666  938320179  938325448  5269
669  938354840  938361605  6765
670  938361616  938363860  2244
671  938365976  938373285  7309
672  938416945  938419210  2265
673  938419217  938421758  2541
674  938425329  938426666  1337
675  938430855  938432685  1830
676  938432710  938438351  5641
677  938451380  938452223  843
678  938501272  938503864  2592
679  938533880  938534412  532
681  938537469  938541710  4241
682  938597964  938610736  12772
683  938620069  938620812  743
684  938620817  938623923  3106
685  938629763  938632362  2599
686  938634128  938634303  175
687  938636512  938643103  6591
688  938650871  938676600  25729
689  938676620  938678412  1792
690  938678417  938680208  1791
691  938681540  938681648  108
692  938684218  938684990  772
693  938686353  938687305  952
694  938698765  938699310  545
695  938703016  938703498  482
696  938752801  938761402  8601
697  939058635  939064441  5806
698  939064647  939066314  1667
699  939067906  939069717  1811
700  939072309  939081499  9190
701  939081628  939087015  5387
702  939244085  939245657  1572
703  939247480  939254299  6819
704  939254428  939262945  8517
705  939264557  939281617  17060
706  939283490  939287168  3678
707  939287360  939311900  24540
708  939312028  939312256  228
709  939323481  939326891  3410
710  939326909  939334707  7798
711  939343507  939353750  10243
712  939358229  939369498  11269
713  939369627  939372788  3161
714  939372927  939373810  883
715  939373830  939376239  2409
716  939378243  939382470  4227
717  939397000  939398298  1298
718  939398427  939399338  911
719  939406812  939407094  282
720  939412536  939415104  2568
721  939421539  939424883  3344
722  939426231  939427099  868
723  939427227  939430239  3012
724  939431382  939440415  9033
725  939445965  939447833  1868
726  939480575  939481146  571
727  939481216  939481452  236
728  939518254  939521179  2925
729  939533692  939538570  4878
730  939540942  939542301  1359
731  939542430  939546414  3984
732  939546550  939561027  14477
733  939618730  939622260  3530
734  939624700  939626575  1875
735  939626639  939628374  1735
736  939634851  939636923  2072
737  939640370  939642360  1990
738  939746748  939755392  8644
739  939765730  939766029  299
740  939766062  939772701  6639
741  939772830  939776253  3423
742  939776286  939777194  908
743  939786625  939792525  5900
744  939795135  939799533  4398
745  939799566  939801501  1935
746  939801630  939819877  18247
747  939819910  939828998  9088
748  939831746  939838078  6332
749  939838110  939852516  14406
750  939855971  939859211  3240
751  939859217  939868949  9732
752  939868982  939870505  1523
753  939885315  939887901  2586
754  939888030  939891869  3839
755  939891902  939892153  251
756  939895868  939899365  3497
757  939899398  939916702  17304
758  939916830  939917150  320
759  939924325  939925478  1153
760  939925510  939939154  13644
761  939946485  939949631  3146
762  939951632  939965141  13509
763  939965174  939974301  9127
764  939974430  939979021  4591
765  939979054  939982160  3106
766  939983962  939985365  1403
767  939985398  939986645  1247
768  939991663  939993938  2275
769  939995454  940003102  7648
770  940003230  940012134  8904
771  940015978  940025455  9477
772  940027889  940028509  620
773  940072937  940076257  3320
774  940076295  940082288  5993
775  940132069  940132878  809
776  940139471  940140102  631
777  940140182  940144717  4535
778  940144750  940147101  2351
779  940147230  940151310  4080
780  940151342  940157949  6607
781  940157982  940160841  2859
782  940170881  940175901  5020
783  940176030  940178894  2864
784  940178926  940185185  6259
785  940190961  940194315  3354
786  940211183  940212907  1724
787  940214745  940216660  1915
788  940218488  940233501  15013
789  940233630  940237160  3530
790  940237200  940237580  380
791  940237620  940238870  1250
792  940238920  940239600  680
793  940239620  940239813  193
794  940239846  940243810  3964
795  940243846  940249141  5295
796  940249174  940252283  3109
797  940263961  940273618  9657
798  940276644  940276860  216
799  940283008  940283708  700
800  940284792  940287539  2747
801  940294715  940297610  2895
802  940299490  940302470  2980
803  940304279  940307387  3108
804  940308986  940314782  5796
805  940314814  940319901  5087
806  940320030  940326148  6118
807  940327794  940329942  2148
808  940329974  940332495  2521
809  940342854  940343912  1058
810  940348074  940348701  627
811  940348830  940349055  225
812  940350937  940351460  523
813  940352388  940353112  724
814  940354851  940360527  5676
815  940362226  940362438  212
816  940362470  940362821  351
817  940365359  940368133  2774
819  940372320  940375958  3638
820  940529747  940530741  994
821  940534854  940548110  13256
822  940551879  940557107  5228
823  940559639  940568525  8886
824  940568558  940576411  7853
825  940589583  940594834  5251
826  940594882  940597981  3099
827  940603911  940606087  2176
829  940624353  940629487  5134
830  940641205  940642134  929
831  940642166  940644065  1899
832  940646524  940649510  2986
833  940651254  940653635  2381
834  940678314  940678857  543
835  940679082  940680811  1729
836  940710959  940711452  493
837  940711485  940717440  5955
838  940719353  940721044  1691
839  940721077  940723100  2023
840  940723229  940732930  9701
841  940735262  940736680  1418
842  940738352  940751894  13542
843  940752029  940760476  8447
844  940760509  940765684  5175
845  940765765  940772692  6927
846  940772725  940774393  1668
847  940782543  940788315  5772
848  940843743  940844908  1165
849  940844989  940861235  16246
850  940862153  940862475  322
851  940862702  940866800  4098
852  940874003  940874283  280
853  940877991  940895900  17909
854  940896029  940897876  1847
855  940900175  940902305  2130
856  940903190  940918610  15420
857  940924012  940924290  278
859  940938969  940939179  210
860  940944281  940947005  2724
861  940951100  940953501  2401
862  940953629  940959813  6184
863  940959893  940960728  835
864  940962338  940963227  889
865  940963310  940966212  2902
866  940966796  940968392  1596
867  940971201  940976674  5473
868  940984501  940985244  743
869  940985352  940989837  4485
870  940989869  940993014  3145
871  940994647  940995916  1269
872  941000539  941001016  477
873  941008186  941011100  2914
874  941011229  941011575  346
875  941012662  941013116  454
877  941014733  941015842  1109
878  941021244  941021591  347
879  941022458  941024196  1738
880  941024229  941030714  6485
881  941032839  941036160  3321
882  941038501  941039901  1400
883  941040029  941048065  8036
884  941064564  941067569  3005
885  941071831  941072197  366
886  941072230  941077205  4975
887  941077238  941081598  4360
888  941081875  941086317  4442
889  941086350  941097501  11151
890  941097630  941098773  1143
891  941098854  941103918  5064
892  941103950  941107685  3735
893  941107718  941113469  5751
894  941113502  941122580  9078
895  941127946  941130255  2309
896  941132104  941145379  13275
897  941150317  941154551  4234
898  941157969  941158293  324
899  941161815  941168909  7094
900  941168942  941175517  6575
901  941175550  941183901  8351
902  941184030  941189900  5870
903  941192690  941194810  2120
904  941197405  941208700  11295
905  941210307  941211490  1183
906  941211494  941212807  1313
907  941212817  941215574  2757
908  941215606  941219180  3574
909  941221470  941221810  340
910  941231725  941233390  1665
911  941238428  941239548  1120
912  941244407  941247341  2934
913  941247374  941251321  3947
914  941252360  941258213  5853
915  941258246  941261360  3114
916  941286820  941288768  1948
917  941290197  941292788  2591
918  941336632  941344085  7453
920  941346143  941348420  2277
921  941363906  941366517  2611
922  941366550  941370474  3924
923  941382006  941382960  954
924  941388105  941388646  541
925  941394001  941394390  389
926  941394422  941395945  1523
927  941403878  941411404  7526
928  941412764  941414302  1538
929  941414430  941422246  7816
930  941425135  941426333  1198
931  941426414  941439064  12650
932  941446323  941449557  3234
933  941449590  941453007  3417
934  941455988  941458438  2450
935  941458470  941461356  2886
936  941472234  941473266  1032
937  941474811  941476161  1350
938  941477258  941477451  193
939  941479159  941479971  812
940  941485265  941490004  4739
941  941492955  941493583  628
942  941494705  941497825  3120
943  941500300  941500702  402
944  941500830  941502877  2047
945  941505841  941507797  1956
946  941507830  941512102  4272
947  941515078  941517397  2319
948  941517470  941524134  6664
949  941684461  941684762  301
950  941686481  941686625  144
951  941690956  941697804  6848
952  941697837  941698678  841
953  941703004  941713956  10952
954  941713996  941719240  5244
955  941725604  941726930  1326
956  941730500  941730630  130
957  941738578  941741253  2675
958  941741285  941749296  8011
959  941754198  941757125  2927
960  941764675  941767077  2402
961  941767109  941774572  7463
962  941774605  941788089  13484
963  941790616  941799392  8776
964  941805858  941808208  2350
965  941808262  941808821  559
966  941808853  941815386  6533
967  941817296  941817501  205
968  941817629  941819433  1804
969  941837459  941839234  1775
970  941842909  941846300  3391
971  941846429  941849965  3536
972  941849997  941854067  4070
973  941861494  941863217  1723
974  941900600  941901212  612
975  941901849  941903901  2052
976  941904029  941904266  237
977  941938842  941949021  10179
978  941949093  941959765  10672
979  942139555  942140021  466
980  942140094  942141400  1306
981  942143141  942144910  1769
982  942144942  942152630  7688
983  942162482  942163101  619
984  942163230  942166790  3560
985  942166822  942168920  2098
986  942174770  942175028  258
987  942197140  942201204  4064
988  942204139  942208701  4562
989  942210317  942214872  4555
990  942217947  942218461  514
991  942218613  942220806  2193
992  942220817  942244091  23274
993  942244094  942249596  5502
994  942249616  942254373  4757
995  942265831  942268612  2781
996  942272234  942273496  1262
997  942274856  942274997  141
998  942275001  942276122  1121
1000  942278416  942284034  5618
1001  942285140  942289411  4271
1002  942289459  942299075  9616
1003  942303214  942307180  3966
1004  942307217  942315872  8655
1005  942315875  942316861  986
1006  942318324  942325260  6936
1007  942325263  942336010  10747
1008  942336016  942347853  11837
1009  942347857  942358365  10508
1010  942358368  942361792  3424
1011  942363882  942364772  890
1012  942364816  942366440  1624
1013  942366460  942372664  6204
1014  942372667  942377231  4564
1015  942385942  942389441  3499
1016  942389514  942390274  760
1017  942733339  942739101  5762
1018  942739229  942743538  4309
1019  942746012  942750940  4928
1020  942751013  942756636  5623
1021  942775198  942777106  1908
1023  942798616  942798820  204
1024  942801048  942803505  2457
1025  942810518  942812249  1731
1026  942812955  942825500  12545
1027  942825629  942826359  730
1028  942830360  942830637  277
1029  942830669  942847572  16903
1030  942847605  942853175  5570
1031  942857042  942859377  2335
1032  942861879  942862956  1077
1033  942865987  942867619  1632
1034  942868794  942869467  673
1035  942871287  942873011  1724
1036  942880224  942883100  2876
1037  942883229  942886253  3024
1038  942886285  942887428  1143
1039  942892315  942905084  12769
1040  942905117  942910724  5607
1041  942910757  942911900  1143
1042  942930215  942935604  5389
1043  942953027  942953210  183
1044  942957751  942960286  2535
1045  942963045  942968893  5848
1046  942968973  942969500  527
1047  942969629  942971157  1528
1048  942976578  942977563  985
1049  942979026  942979536  510
1050  942981728  942987389  5661
1051  942987421  942991932  4511
1052  942991965  942995767  3802
1053  942997671  942998400  729
1054  942998416  942998890  474
1055  943033219  943034576  1357
1056  943038131  943039028  897
1057  943040960  943044837  3877
1058  943044869  943047022  2153
1059  943049450  943053644  4194
1060  943053677  943055901  2224
1061  943056029  943058070  2041
1062  943061975  943063228  1253
1063  943063301  943069493  6192
1064  943069525  943072825  3300
1065  943098870  943099590  720
1066  943100800  943102790  1990
1068  943110000  943113608  3608
1069  943113617  943114647  1030
1070  943140265  943140719  454
1071  943140799  943142302  1503
1072  943142431  943149101  6670
1073  943151000  943151126  126
1074  943151159  943157341  6182
1075  943161134  943168277  7143
1076  943212926  943217534  4608
1077  943218539  943226378  7839
1078  943227807  943228702  895
1079  943228830  943232457  3627
1080  943234473  943236677  2204
1081  943236710  943242493  5783
1082  943242526  943248437  5911
1083  943248470  943257501  9031
1084  943257630  943258938  1308
1085  943264597  943268093  3496
1086  943268126  943271741  3615
1087  943271774  943279230  7456
1088  943279262  943281890  2628
1089  943290622  943298276  7654
1090  943299778  943300749  971
1091  943300782  943308104  7322
1092  943309832  943315102  5270
1093  943315230  943317542  2312
1094  943317622  943324229  6607
1095  943324262  943334005  9743
1096  943334038  943338736  4698
1097  943342276  943343902  1626
1098  943344030  943345537  1507
1099  943349649  943361730  12081
1100  943366730  943370049  3319
1101  943371463  943372701  1238
1102  943372830  943376202  3372
1103  943380223  943384718  4495
1104  943386591  943388226  1635
1105  943389667  943392577  2910
1106  943394089  943394838  749
1107  943394870  943395681  811
1108  943398513  943398788  275
1109  943400405  943401011  606
1110  943404911  943410178  5267
1111  943412919  943419190  6271
1112  943419270  943424478  5208
1113  943424510  943430302  5792
1114  943430430  943430639  209
1115  943435317  943436086  769
1116  943438345  943440782  2437
1117  943444537  943448197  3660
1118  943448230  943453772  5542
1119  943459626  943469214  9588
1120  943469294  943470327  1033
1121  943472870  943476815  3945
1122  943476977  943485604  8627
1123  943487118  943487901  783
1124  943488030  943490229  2199
1125  943490262  943496558  6296
1126  943496590  943500941  4351
1127  943503342  943510141  6799
1128  943510174  943516350  6176
1129  943516382  943516701  319
1130  943516830  943526333  9503
1131  943526366  943537372  11006
1132  943541981  943544317  2336
1133  943544398  943545502  1104
1134  943545630  943552712  7082
1135  943558445  943565712  7267
1136  943569756  943574300  4544
1137  943574429  943578133  3704
1138  943578165  943582328  4163
1139  943584620  943590782  6162
1140  943592837  943595816  2979
1141  943599439  943602325  2886
1142  943602357  943603100  743
1143  943603229  943607132  3903
1144  943618352  943629638  11286
1145  943630725  943631095  370
1146  943634559  943634725  166
1147  943636332  943638307  1975
1148  943642305  943645610  3305
1149  943650198  943651132  934
1150  943651165  943652170  1005
1151  943653760  943660701  6941
1152  943660829  943662693  1864
1153  943663389  943666461  3072
1154  943669727  943674297  4570
1155  943675881  943677670  1789
1156  943678820  943682415  3595
1157  943740795  943747100  6305
1158  943747229  943750183  2954
1159  943751516  943760880  9364
1160  943764852  943769796  4944
1161  943770907  943775901  4994
1162  943776029  943798215  22186
1163  943799292  943800876  1584
1164  943803740  943804279  539
1165  943808425  943824180  15755
1166  943828486  943833571  5085
1167  943833616  943836166  2550
1168  943843287  943851292  8005
1169  943852280  943858887  6607
1170  943865513  943886184  20671
1172  943893349  943906189  12840
1173  943907703  943914926  7223
1174  943916987  943919462  2475
1175  943920157  943922598  2441
1176  943922602  943934254  11652
1177  943935866  943948700  12834
1178  943948829  943951181  2352
1179  943952214  943954415  2201
1180  943954503  943955099  596
1181  943957016  943965059  8043
1182  943970714  943971159  445
1183  943973209  943977501  4292
1184  943977629  943977749  120
1185  943980402  943983185  2783
1186  943983878  943992690  8812
1187  944001625  944002130  505
1188  944008486  944008978  492
1189  944008982  944010700  1718
1191  944049502  944056631  7129
1192  944059041  944063900  4859
1193  944064029  944081162  17133
1194  944083917  944092701  8784
1195  944092829  944094881  2052
1196  944094885  944106011  11126
1197  944108679  944121500  12821
1198  944121629  944126198  4569
1200  944183787  944186101  2314
1201  944186134  944190302  4168
1202  944191727  944196037  4310
1203  944196070  944201990  5920
1204  944202022  944203039  1017
1205  944203261  944206101  2840
1206  944206134  944207901  1767
1207  944208030  944226014  17984
1208  944231784  944232061  277
1209  944235341  944235817  476
1211  944236817  944237881  1064
1212  944239307  944245270  5963
1213  944249352  944250756  1404
1214  944252326  944253526  1200
1215  944253558  944258058  4500
1216  944259448  944261878  2430
1217  944262095  944263630  1535
1218  944263662  944265501  1839
1219  944265630  944267621  1991
1221  944270750  944276237  5487
1222  944276270  944280083  3813
1223  944284485  944286118  1633
1224  944286150  944294302  8152
1225  944294430  944306645  12215
1226  944306678  944307506  828
1227  944308007  944312402  4395
1228  944315841  944319920  4079
1229  944320760  944320881  121
1230  944320884  944321442  558
1231  944423312  944423446  134
1232  944423479  944423649  170
1233  944429514  944430327  813
1234  944435229  944436989  1760
1236  944438431  944442533  4102
1237  944443677  944446726  3049
1238  944446759  944447959  1200
1239  944454060  944456103  2043
1240  944456837  944465163  8326
1241  944468039  944472070  4031
1242  944472103  944474788  2685
1243  944478280  944483871  5591
1244  944483903  944492030  8127
1245  944492063  944492556  493
1246  944492627  944493966  1339
1247  944496027  944496535  508
1248  944496567  944497397  830
1249  944500631  944502209  1578
1250  944505477  944507950  2473
1251  944507983  944508925  942
1252  944536113  944538750  2637
1253  944539836  944544862  5026
1254  944544895  944545070  175
1255  944551614  944553502  1888
1256  944553631  944554182  551
1257  944591884  944592520  636
1258  944592597  944593303  706
1259  944597320  944599174  1854
1260  944601277  944601838  561
1261  944601871  944602358  487
1262  944606252  944607214  962
1263  944607247  944609275  2028
1264  944611461  944615719  4258
1265  944615799  944616378  579
1266  944620780  944628128  7348
1267  944629322  944646883  17561
1268  944657576  944659546  1970
1269  944659549  944661015  1466
1270  944661018  944662816  1798
1271  944662848  944663797  949
1272  944663800  944665720  1920
1273  944665723  944667345  1622
1274  944667349  944667736  387
1275  944667864  944668812  948
1276  944668817  944669169  352
1277  944669172  944671198  2026
1278  944671201  944671791  590
1279  944671824  944672209  385
1280  944682207  944684608  2401
1281  944684612  944685088  476
1282  944688207  944688530  323
1283  944688533  944691943  3410
1284  944691946  944694580  2634
1285  944696281  944697500  1219
1286  944697629  944700076  2447
1287  944700109  944701508  1399
1288  944701541  944702852  1311
1289  944702885  944705340  2455
1290  944705373  944707021  1648
1291  944707053  944711252  4199
1292  944711285  944712861  1576
1293  944712893  944713713  820
1294  944722581  944724043  1462
1295  944724075  944725080  1005
1296  944731294  944733554  2260
1297  944733587  944737787  4200
1298  944737819  944739314  1495
1299  944739347  944741458  2111
1300  944741491  944742779  1288
1301  944742811  944745362  2551
1302  944745395  944747947  2552
1303  944747979  944750817  2838
1304  944750863  944751739  876
1305  944751771  944754195  2424
1306  944754227  944755098  871
1307  944755227  944756766  1539
1308  944762241  944762451  210
1309  944762483  944764082  1599
1310  944764115  944765822  1707
1311  944765825  944768134  2309
1312  944768138  944769742  1604
1313  944771613  944772096  483
1314  944772652  944773098  446
1315  944773131  944773484  353
1316  944775605  944777928  2323
1317  944779524  944781156  1632
1318  944781159  944783650  2491
1319  944783683  944783973  290
1320  944784016  944784962  946
1321  944784995  944787194  2199
1322  944787227  944788739  1512
1323  944788771  944790346  1575
1324  944790379  944792603  2224
1325  944792635  944794091  1456
1326  944794123  944797035  2912
1327  944797067  944799003  1936
1328  944799035  944800483  1448
1329  944800515  944802170  1655
1330  944802203  944803602  1399
1331  944803635  944803978  343
1332  944806455  944808108  1653
1333  944814359  944814898  539
1334  944814931  944817042  2111
1335  944817075  944818859  1784
1336  944818891  944820615  1724
1337  944823318  944823634  316
1338  944823667  944826147  2480
1339  944826179  944831378  5199
1340  944831411  944834159  2748
1341  944836833  944837754  921
1342  944844775  944844961  186
1343  944850230  944850674  444
1344  944850707  944852114  1407
1345  944852147  944852432  285
1346  944853854  944854647  793
1347  944854915  944855658  743
1348  944861199  944863648  2449
1351  944870519  944871530  1011
1352  944877920  944878930  1010
1353  944878963  944879080  117
1354  944881478  944882380  902
1355  944886078  944886520  442
1356  944888600  944888740  140
1357  944915186  944915700  514
1358  944919726  944920010  284
1359  944920043  944921691  1648
1360  944921723  944927055  5332
1361  944952966  944954493  1527
1362  944954526  944956134  1608
1363  944956166  944956572  406
1364  944958148  944959981  1833
1365  944960014  944962078  2064
1366  944962110  944963373  1263
1367  944963406  944966053  2647
1368  944966086  944967645  1559
1369  944967678  944968981  1303
1370  944969014  944971270  2256
1371  944971302  944972686  1384
1372  944972718  944974789  2071
1373  944974822  944976662  1840
1374  944976694  944978669  1975
1375  944978702  944981533  2831
1376  944981566  944984645  3079
1377  944984678  944985501  823
1378  944985630  944986181  551
1379  944986214  944987955  1741
1380  944987958  944990365  2407
1381  944990368  944992373  2005
1382  944992406  944993773  1367
1383  944993806  944996910  3104
1384  944996942  944998518  1576
1385  944998550  945000806  2256
1386  945000838  945003125  2287
1387  945003158  945006061  2903
1388  945006094  945007606  1512
1389  945007638  945010110  2472
1390  945010190  945010518  328
1391  945018305  945020382  2077
1392  945030252  945031717  1465
1393  945031750  945032476  726
1394  945034449  945035299  850
1395  945036592  945036830  238
1396  945038173  945039833  1660
1397  945040985  945041283  298
1398  945044497  945045614  1117
1399  945045646  945045802  156
1400  945045806  945047158  1352
1401  945047190  945047517  327
1402  945047521  945048421  900
1403  945048454  945049785  1331
1404  945054417  945054725  308
1405  945054806  945059670  4864
1406  945059702  945061630  1928
1407  945061662  945063325  1663
1408  945063358  945064725  1367
1409  945064758  945067189  2431
1410  945067222  945069918  2696
1411  945069950  945071637  1687
1412  945071670  945071999  329
1413  945072017  945073662  1645
1414  945073694  945074917  1223
1415  945074950  945077632  2682
1416  945077636  945083196  5560
1417  945083200  945087413  4213
1418  945087494  945095482  7988
1419  945102675  945104176  1501
1420  945105537  945107565  2028
1421  945107598  945109843  2245
1422  945121715  945122613  898
1423  945122646  945124175  1529
1424  945128293  945128451  158
1425  945129162  945129502  340
1426  945129630  945130701  1071
1427  945130734  945135260  4526
1428  945136125  945141581  5456
1429  945141614  945142706  1092
1430  945146316  945149470  3154
1431  945149502  945158301  8799
1432  945158430  945160573  2143
1433  945161836  945165210  3374
1434  945165475  945165958  483
1435  945171548  945172606  1058
1436  945172686  945176673  3987
1437  945182030  945182406  376
1438  945184506  945185784  1278
1439  945190352  945193618  3266
1440  945243366  945244701  1335
1441  945244830  945249348  4518
1442  945252716  945254111  1395
1443  945254159  945262970  8811
1444  945282851  945284997  2146
1445  945288049  945288609  560
1446  945292583  945294975  2392
1447  945295008  945302076  7068
1448  945308839  945315454  6615
1449  945315486  945327690  12204
1450  945333288  945354290  21002
1451  945357554  945359525  1971
1452  945359558  945359901  343
1453  945360030  945367725  7695
1454  945367758  945376053  8295
1455  945376086  945377235  1149
1456  945381006  945386947  5941
1457  945389390  945390603  1213
1458  945392247  945392597  350
1459  945392630  945397654  5024
1460  945397734  945413800  16066
1461  945426542  945429093  2551
1462  945438966  945444595  5629
1463  945447216  945448270  1054
1464  945452106  945458520  6414
1465  945468842  945470974  2132
1466  945471006  945475101  4095
1467  945475230  945480182  4952
1468  945480668  945483768  3100
1469  945489587  945491028  1441
1470  945585156  945585390  234
1471  945587558  945587989  431
1472  945588069  945588270  201
1474  945598321  945599500  1179
1475  945601565  945601700  135
1476  945626617  945627013  396
1477  945629715  945632657  2942
1478  945634901  945635608  707
1479  945637588  945638389  801
1480  945638422  945647901  9479
1481  945648030  945649432  1402
1482  945655251  945662774  7523
1483  945662806  945669851  7045
1484  945671933  945674365  2432
1485  945674398  945676701  2303
1486  945676830  945694069  17239
1487  945694150  945694837  687
1488  945698709  945699217  508
1489  945720630  945722487  1857
1490  945724456  945734301  9845
1491  945734430  945749630  15200
1492  945749650  945758333  8683
1493  945758366  945763101  4735
1494  945763230  945765526  2296
1495  945772693  945782280  9587
1496  945785207  945786680  1473
1497  945792220  945801222  9002
1498  945801254  945807840  6586
1500  945813582  945813990  408
1501  945817797  945818000  203
1502  945822379  945825510  3131
1503  945825542  945828130  2588
1504  945829802  945830330  528
1505  945832150  945843345  11195
1506  945845664  945847701  2037
1507  945847734  945849501  1767
1508  945849630  945873456  23826
1509  945875285  945878301  3016
1510  945878430  945882342  3912
1511  945882374  945886413  4039
1512  945886446  945893510  7064
1513  945893542  945901822  8280
1514  945901854  945904353  2499
1515  945909396  945919091  9695
1516  945920861  945936003  15142
1517  945936016  945939989  3973
1518  945940070  945964559  24489
1519  945966285  945976427  10142
1520  945978440  945989413  10973
1521  945989446  945993501  4055
1522  945993630  945995017  1387
1523  945997166  945997780  614
1524  945999544  946003806  4262
1525  946003838  946008597  4759
1526  946008630  946015569  6939
1527  946017774  946022302  4528
1528  946022430  946040951  18521
1529  946044885  946050221  5336
1530  946050254  946051101  847
1531  946051230  946055988  4758
1532  946059034  946059538  504
1533  946060313  946060869  556
1534  946061994  946062162  168
1535  946063370  946064616  1246
1536  946065709  946067019  1310
1537  946068349  946068793  444
1538  946069450  946072065  2615
1539  946073357  946075537  2180
1540  946076460  946079901  3441
1541  946080030  946082733  2703
1542  946082766  946086263  3497
1543  946087581  946088545  964
1544  946092799  946097707  4908
1545  946098290  946101627  3337
1546  946125775  946132538  6763
1547  946134779  946137501  2722
1548  946146741  946146928  187
1549  946149910  946150469  559
1550  946153130  946154390  1260
1551  946155437  946156422  985
1552  946157853  946158509  656
1553  946158542  946159560  1018
1554  946161140  946161380  240
1555  946163708  946163953  245
1556  946164714  946166301  1587
1558  946174260  946175120  860
1559  946177140  946180760  3620
1560  946182330  946187454  5124
1562  946197724  946197837  113
1563  946197870  946201607  3737
1564  946204618  946205374  756
1565  946205406  946214161  8755
1566  946218848  946220486  1638
1567  946221909  946223902  1993
1568  946224030  946227392  3362
1569  946229631  946230082  451
1571  946232581  946234181  1600
1572  946236534  946238030  1496
1573  946238062  946240138  2076
1574  946262239  946265382  3143
1575  946265414  946274058  8644
1576  946278277  946285989  7712
1577  946291963  946293125  1162
1578  946293158  946298005  4847
1579  946310697  946312221  1524
1580  946312254  946322150  9896
1581  946337505  946338080  575
1583  946364764  946367901  3137
1584  946368030  946369149  1119
1585  946372854  946374293  1439
1586  946374326  946381973  7647
1587  946382046  946382629  583
1589  946415770  946417310  1540
1590  946417342  946422985  5643
1591  946431633  946436296  4663
1592  946439489  946442905  3416
1593  946444794  946446992  2198
1594  946457753  946457932  179
1595  946462986  946469120  6134
1596  946495349  946511901  16552
1597  946512030  946515171  3141
1598  946518234  946523263  5029
1599  946528052  946530494  2442
1600  946530526  946539061  8535
1601  946539094  946540702  1608
1602  946540830  946548488  7658
1603  946551509  946554470  2961
1604  946554502  946557699  3197
1605  946559688  946569501  9813
1606  946569630  946578543  8913
1608  946580822  946586807  5985
1609  946589828  946591213  1385
1610  946591246  946594212  2966
1611  946606280  946609147  2867
1612  946610200  946615157  4957
1613  946615230  946621789  6559
1614  946621822  946621999  177
1615  946623931  946626917  2986
1616  946626950  946635392  8442
1617  946642518  946645396  2878
1618  946654066  946655287  1221
1619  946658932  946659240  308
1620  946661507  946662257  750
1621  946663746  946664562  816
1622  946669505  946671157  1652
1623  946674008  946675801  1793
1624  946678232  946679673  1441
1625  946680407  946683163  2756
1626  946684077  946684701  624
1627  946684830  946688505  3675
1628  946693053  946695100  2047
1629  946695181  946701486  6305
1630  946770079  946771101  1022
1632  946776739  946777005  266
1633  946777038  946799018  21980
1634  946802877  946818933  16056
1635  946823971  946824756  785
1637  946837191  946840304  3113
1638  946840385  946840710  325
1639  946845091  946846270  1179
1640  946847415  946847602  187
1641  946851386  946855046  3660
1642  946858213  946863516  5303
1643  946863549  946868814  5265
1644  946869580  946871917  2337
1645  946871949  946886077  14128
1646  946886149  946907905  21756
1647  946918503  946919124  621
1648  946920330  946920510  180
1649  946922189  946923139  950
1650  946925898  946928372  2474
1651  946929618  946930138  520
1652  946931167  946931268  101
1653  946933903  946934298  395
1654  946939911  946940073  162
1655  946941137  946941991  854
1656  946949672  946958980  9308
1657  946959061  946962951  3890
1658  946966021  946972700  6679
1659  946972829  946990984  18155
1660  947000296  947001500  1204
1661  947001628  947001760  132
1662  947004009  947007021  3012
1663  947007053  947008262  1209
1664  947011403  947012333  930
1665  947014516  947016593  2077
1666  965599233  965601213  1980
1667  965601982  965606550  4568
1668  965606679  965614743  8064
1669  965614775  965617890  3115
1670  965621230  965623032  1802
1671  965623063  965635302  12239
1672  965635430  965639393  3963
1673  965645826  965649847  4021
1674  965658742  965663983  5241
1675  965664110  965666564  2454
1676  965673037  965673300  263
1677  965676884  965679367  2483
1678  965679447  965679680  233
1679  965679686  965681003  1317
1680  965691494  965693270  1776
1681  965693399  965694772  1373
1682  965699646  965701807  2161
1683  965701839  965721702  19863
1684  965727456  965728150  694
1685  965728170  965736030  7860
1686  965743336  965745786  2450
1687  965745788  965746938  1150
1688  965746940  965747881  941
1689  965747883  965750574  2691
1691  965754519  965757560  3041
1693  965757623  965760215  2592
1694  965760246  965763817  3571
1695  965768076  965770354  2278
1696  965784660  965787950  3290
1697  965787952  965788367  415
1698  965788399  965796234  7835
1699  965796237  965797299  1062
1700  965797779  965803167  5388
1701  965803198  965807048  3850
1702  965811674  965816519  4845
1703  965816551  965825350  8799
1704  965825382  965829004  3622
1705  965832906  965835251  2345
1706  965836828  965836946  118
1707  965836952  965841323  4371
1708  965841325  965846749  5424
1709  965847303  965862323  15020
1710  965868599  965870287  1688
1711  965870290  965873999  3709
1712  965876809  965881806  4997
1713  965881838  965882313  475
1716  965882407  965894486  12079
1717  965894614  965921232  26618
1718  965923163  965923454  291
1719  965923582  965935285  11703
1720  965940035  965940862  827
1721  965940894  965944755  3861
1722  965959324  965965894  6570
1723  965967787  965969414  1627
1724  965971585  965974230  2645
1725  965974232  965981190  6958
1726  965981319  965984648  3329
1727  965984827  965989990  5163
1728  965990070  965991899  1829
1729  965992451  965995632  3181
1730  965997338  965999626  2288
1731  966000205  966000339  134
1732  966000354  966001240  886
1733  966001290  966009822  8532
1734  966009950  966012327  2377
1735  966012359  966017800  5441
1736  966017840  966023265  5425
1737  966047120  966048079  959
1738  966048119  966048722  603
1739  966082620  966083118  498
1740  966083150  966092446  9296
1741  966119231  966120522  1291
1742  966120524  966125046  4522
1743  966125175  966127606  2431
1744  966127638  966136208  8570
1745  966138174  966149290  11116
1746  966149330  966153910  4580
1747  966154039  966169519  15480
1748  966169550  966173595  4045
1749  966181862  966182862  1000
1750  966182990  966184901  1911
1751  966196090  966196243  153
1752  966198259  966211510  13251
1753  966211639  966214431  2792
1754  966214462  966216644  2182
1755  966217200  966225927  8727
1756  966225959  966240326  14367
1757  966240454  966263710  23256
1758  966263791  966265977  2186
1759  966266069  966269294  3225
1760  966269422  966282673  13251
1761  966282713  966286861  4148
1762  966305401  966306566  1165
1763  966306598  966308408  1810
1764  966311909  966320046  8137
1765  966320126  966321201  1075
1766  966321425  966326141  4716
1767  966326228  966326431  203
1768  966326559  966333119  6560
1769  966334101  966343868  9767
1770  966351849  966355614  3765
1771  966355750  966358278  2528
1772  966358359  966359908  1549
1773  966362778  966365089  2311
1774  966388140  966393718  5578
1775  966393750  966401085  7335
1776  966401118  966406750  5632
1777  966406782  966410165  3383
1778  966410167  966412873  2706
1779  966412875  966413118  243
1780  966413246  966414854  1608
1781  966416641  966420469  3828
1782  966420502  966426196  5694
1783  966427310  966429032  1722
1784  966429062  966430330  1268
1785  966430488  966435045  4557
1786  966435078  966437622  2544
1787  966437624  966437768  144
1788  966441389  966441638  249
1789  966441766  966443990  2224
1790  966444022  966448770  4748
1791  966448772  966449821  1049
1792  966449854  966457125  7271
1793  966460486  966464726  4240
1794  966464758  966467673  2915
1795  966471228  966473565  2337
1796  966473598  966480158  6560
1797  966480190  966486813  6623
1798  966486846  966490656  3810
1799  966493081  966494413  1332
1800  966494446  966499621  5175
1801  966499750  966500236  486
1802  966500238  966505515  5277
1803  966507409  966508175  766
1804  966508178  966508280  102
1805  966509757  966516342  6585
1806  966516374  966519795  3421
1807  966519797  966521710  1913
1808  966521742  966525850  4108
1809  966537511  966543533  6022
1810  966543606  966550265  6659
1811  966551748  966554674  2926
1812  966568416  966570075  1659
1813  966573040  966573390  350
1814  966573462  966580275  6813
1815  966598304  966599563  1259
1816  966602124  966602261  137
1817  966602294  966609126  6832
1818  966609158  966612507  3349
1823  966616328  966617597  1269
1824  966617630  966622604  4974
1825  966622607  966623095  488
1826  966624811  966628228  3417
1827  966629004  966629293  289
1828  966629326  966631351  2025
1829  966631353  966637418  6065
1830  966642146  966643485  1339
1831  966643614  966646407  2793
1832  966646410  966650829  4419
1833  966650862  966651528  666
1834  966657442  966658151  709
1835  966658153  966659838  1685
1836  966659870  966661220  1350
1837  966682594  966686870  4276
1838  966686902  966695566  8664
1839  966695598  966697660  2062
1840  966723378  966723567  189
1841  966724214  966727727  3513
1842  966729881  966737437  7556
1843  966737470  966737737  267
1844  966737739  966738498  759
1845  966738507  966739362  855
1847  966739383  966740511  1128
1850  966740587  966747181  6594
1851  966747214  966752501  5287
1852  966752534  966758401  5867
1853  966758426  966761533  3107
1854  966761566  966763424  1858
1855  966763757  966765117  1360
1856  966770019  966770500  481
1857  966779164  966779954  790
1858  966782217  966782893  676
1859  966782926  966783225  299
1860  966785151  966787213  2062
1861  966787342  966789645  2303
1862  966789678  966791810  2132
1863  966791812  966797638  5826
1864  966797670  966800696  3026
1865  966803258  966804318  1060
1866  966804350  966804533  183
1867  966804535  966804636  101
1868  966812926  966816078  3152
1869  966816206  966831509  15303
1870  966831542  966845237  13695
1871  966845366  966854158  8792
1872  966854238  966862389  8151
1873  966862391  966862525  134
1874  966866932  966867908  976
1875  966867948  966868094  146
1876  966868126  966871166  3040
1877  966872466  966873854  1388
1878  966873982  966876565  2583
1879  966876598  966876959  361
1880  966876961  966884028  7067
1881  966884031  966886037  2006
1882  966886039  966889521  3482
1884  966939334  966940582  1248
1885  966940614  966942549  1935
1887  966942654  966944181  1527
1888  966944183  966945301  1118
1893  966945463  966945716  253
1894  966947490  966948573  1083
1895  966948575  966949318  743
1896  966949446  966950751  1305
1897  966950753  966951554  801
1898  966951556  966953525  1969
1899  966953527  966954015  488
1901  966958295  966960382  2087
1902  966960510  966963693  3183
1903  966963822  966964490  668
1904  966964492  966965829  1337
1905  966965831  966967893  2062
1906  966967895  966968245  350
1907  966968247  966968725  478
1909  966968759  966969631  872
1910  966969633  966969911  278
1912  966969943  966970293  350
1913  966970295  966970941  646
1914  966971070  966974934  3864
1915  966974966  966975242  276
1916  966975255  966975429  174
1917  966975431  966978117  2686
1918  966978119  966978390  271
1919  966978518  966984260  5742
1920  966987661  966988805  1144
1921  966988934  966989350  416
1922  967000398  967007893  7495
1923  967008022  967014973  6951
1924  967015102  967017702  2600
1925  967017830  967019958  2128
1926  967019990  967021118  1128
1927  967021221  967022901  1680
1928  967023030  967025533  2503
1929  967025566  967028805  3239
1930  967028934  967035989  7055
1931  967036118  967043413  7295
1932  967043542  967046653  3111
1933  967046782  967050830  4048
1934  967050958  967054536  3578
1935  967056247  967057765  1518
1936  967057894  967060094  2200
1937  967061880  967064581  2701
1938  967064710  967069878  5168
1939  967069910  967070240  330
1940  967076879  967078021  1142
1941  967078054  967079290  1236
1942  967084893  967085050  157
1943  967123245  967128629  5384
1944  967128631  967130893  2262
1945  967131022  967133229  2207
1946  967133358  967133621  263
1947  967133623  967133764  141
1948  967133767  967136997  3230
1949  967137126  967140509  3383
1950  967140542  967144160  3618
1951  967147000  967150221  3221
1952  967150254  967151290  1036
1954  967153099  967153432  333
1955  967153434  967154037  603
1956  967154039  967154757  718
1957  967154759  967156103  1344
1958  967161902  967165918  4016
1959  967166046  967172574  6528
1960  967172702  967179565  6863
1961  967179694  967182495  2801
1963  967187758  967190621  2863
1964  967190750  967193287  2537
1965  967194543  967195541  998
1966  967195670  967200093  4423
1967  967201703  967201821  118
1968  967201950  967202133  183
1969  967202135  967205942  3807
1970  967205974  967208886  2912
1971  967209014  967215805  6791
1972  967215934  967216565  631
1973  967220525  967223655  3130
1974  967224855  967227270  2415
1975  967227302  967229295  1993
1976  967230015  967230206  191
1977  967230334  967235309  4975
1978  967235342  967237958  2616
1979  967238086  967245860  7774
1980  967247330  967252045  4715
1981  967252174  967259638  7464
1982  967259766  967261461  1695
1983  967371686  967374125  2439
1984  967374254  967378044  3790
1985  967378657  967378798  141
1986  967380942  967382093  1151
1987  967382222  967383779  1557
1989  967388167  967388901  734
1990  967389031  967390244  1213
1991  967391965  967392709  744
1992  967392968  967393780  812
1993  967416249  967417501  1252
1994  967417630  967421357  3727
1995  967421390  967425813  4423
1996  967425942  967432838  6896
1997  967432966  967439046  6080
1998  967439174  967442805  3631
1999  967442886  967446774  3888
2000  967446902  967450317  3415
2001  967456571  967460653  4082
2002  967460782  967468030  7248
2003  967468158  967468841  683
2004  967477250  967478836  1586
2005  967478839  967483069  4230
2006  967483198  967485356  2158
2007  967485359  967486812  1453
2008  967663096  967665568  2472
2009  967668392  967679980  11588
2010  967734318  967737940  3622
2011  967737956  967742059  4103
2012  967749348  967759426  10078
2013  967762112  967766510  4398
2014  967771817  967774793  2976
2015  967774873  967781828  6955
2016  967781830  967795320  13490
2017  967795449  967796680  1231
2018  967800280  967804210  3930
2019  967805587  967811499  5912
2033  967811897  967812226  329
2035  967812330  967815389  3059
2037  967820168  967824097  3929
2038  967824225  967825504  1279
2039  967825577  967827264  1687
2040  967829196  967832891  3695
2041  967834564  967835601  1037
2042  967837483  967845886  8403
2043  967848140  967850694  2554
2044  967853803  967854360  557
2045  967854393  967867546  13153
2046  967867551  967870822  3271
2047  967930478  967931453  975
2048  967946924  967951136  4212
2049  967953605  967960099  6494
2050  967960102  967961281  1179
2051  967961314  967967090  5776
2052  967969639  967969789  150
2053  967969888  967970151  263
2054  967970311  967971573  1262
2055  967971575  967981893  10318
2056  967983752  967984930  1178
2057  967985970  967987550  1580
2058  968583320  968587725  4405
2059  968587798  968590895  3097
2060  968591091  968597619  6528
2061  968605094  968607606  2512
2062  968609629  968609931  302
2063  968613339  968614094  755
2064  968616456  968623990  7534
2065  968626943  968630167  3224
2066  968632249  968633605  1356
2067  968633678  968640996  7318
2068  968642871  968644417  1546
2069  968646220  968654461  8241
2070  968654564  968654989  425
2071  968655022  968659550  4528
2072  968659561  968681192  21631
2073  968689035  968690936  1901
2074  968692881  968698244  5363
2075  968698247  968708050  9803
2076  968708070  968709690  1620
2077  968711134  968714390  3256
2078  968719346  968745613  26267
2079  968745741  968754132  8391
2080  968754213  968760020  5807
2081  968763735  968774652  10917
2082  968774781  968776477  1696
2083  968776509  968778110  1601
2084  968780608  968786166  5558
2085  968796318  968803141  6823
2086  968803269  968804836  1567
2087  968804917  968827068  22151
2088  968827101  968829104  2003
2089  968832459  968849053  16594
2090  968849085  968854213  5128
2091  968854246  968860726  6480
2092  968860854  968861770  916
2093  968861790  968862617  827
2094  968864033  968870160  6127
2095  968870190  968870858  668
2097  968876500  968878452  1952
2098  968878455  968889670  11215
2099  968889798  968897351  7553
2100  968897354  968906021  8667
2101  968906054  968918870  12816
2102  968918999  968927758  8759
2103  968927791  968933100  5309
2105  968933242  968947408  14166
2106  968947537  968947707  170
2107  968947711  968949274  1563
2108  968950937  968955431  4494
2109  968957054  968959241  2187
2110  968960842  968963859  3017
2111  968965334  968967288  1954
2112  968968164  968970601  2437
2113  968970649  968976120  5471
2114  968976249  968979072  2823
2115  968981134  968990844  9710
2116  968992828  968997875  5047
2117  969010650  969013416  2766
2118  969013447  969024207  10760
2119  969037736  969041639  3903
2120  969041642  969042917  1275
2121  969044519  969048763  4244
2122  969049395  969050466  1071
2123  969058001  969058559  558
2124  969060677  969062726  2049
2125  969062772  969063141  369
2126  969063144  969070118  6974
2127  969070190  969077449  7259
2128  969113987  969116717  2730
2129  969139130  969143206  4076
2130  969143241  969144098  857
2131  969144595  969148780  4185
2132  969148909  969154548  5639
2133  969171767  969173605  1838
2134  969173637  969176379  2742
2135  969176861  969177893  1032
2136  969178021  969178294  273
2137  969179808  969179964  156
2138  969180037  969185534  5497
2139  969186628  969199212  12584
2140  969200570  969206216  5646
2141  969216563  969217252  689
2143  969224615  969226900  2285
2144  969229037  969231149  2112
2145  969231181  969232378  1197
2146  969237881  969238492  611
2148  969244075  969250140  6065
2149  969250221  969255351  5130
2150  969258313  969258717  404
2151  969258749  969264188  5439
2152  969264317  969279638  15321
2153  969280209  969280356  147
2154  969280389  969285606  5217
2155  969290995  969293037  2042
2156  969293165  969295721  2556
2157  969299257  969302488  3231
2158  969308158  969308380  222
2159  969308383  969317652  9269
2160  969322761  969329856  7095
2161  969332622  969341349  8727
2162  969341351  969343652  2301
2163  969345158  969346028  870
2164  969346061  969350605  4544
2166  969350892  969351308  416
2167  969351341  969354082  2741
2168  969356974  969365014  8040
2169  969370332  969379645  9313
2170  969379773  969380026  253
2171  969382579  969383867  1288
2172  969383938  969387509  3571
2173  969389217  969390739  1522
2174  969393044  969403269  10225
2175  969403301  969408324  5023
2176  969408453  969423669  15216
2177  969423701  969424027  326
2178  969425872  969432485  6613
2179  969432557  969437033  4476
2180  969437045  969444934  7889
2181  969444936  969447480  2544
2182  969447483  969451891  4408
2183  969455030  969465628  10598
2184  969465757  969476129  10372
2185  969476131  969483185  7054
2186  969483187  969487750  4563
2187  969487763  969490210  2447
2188  969492057  969492990  933
2189  969492993  969494815  1822
2190  969494943  969496391  1448
2191  969496471  969503710  7239
2192  969503743  969506064  2321
2193  969508725  969510855  2130
2194  969510887  969517817  6930
2195  969526275  969527092  817
2197  969527126  969529085  1959
2198  969529098  969529492  394
2199  969529494  969531950  2456
2200  969531953  969532336  383
2201  969532344  969533500  1156
2203  969533569  969534059  490
2204  969534073  969534700  627
2209  969534866  969535184  318
2210  969535186  969535621  435
2211  969535623  969535765  142
2212  969535768  969536118  350
2213  969536138  969536640  502
2215  969536677  969538123  1446
2218  969538210  969538577  367
2221  969538672  969538805  133
2224  969538917  969539048  131
2228  969539222  969539643  421
2229  969539668  969539910  242
2230  969539930  969540329  399
2232  969540354  969540973  619
2233  969540975  969541577  602
2234  969542083  969542685  602
2235  969544984  969552118  7134
2236  969552247  969552879  632
2237  969552911  969559838  6927
2238  969559871  969561309  1438
2239  969563467  969563668  201
2240  969565506  969574462  8956
2241  969576461  969580718  4257
2242  969580847  969582415  1568
2243  969586001  969591772  5771
2244  969593546  969610024  16478
2245  969610050  969610224  174
2246  969621750  969627534  5784
2247  969630559  969630793  234
2248  969630804  969630951  147
2249  969636722  969638743  2021
2250  969638748  969641112  2364
2251  969642887  969645966  3079
2252  969645999  969652515  6516
2253  969658202  969661198  2996
2254  969662959  969667238  4279
2255  969667367  969679815  12448
2256  969680730  969685234  4504
2257  969708984  969713798  4814
2258  969720253  969721228  975
2259  969741560  969742162  602
2261  969742269  969744576  2307
2262  969747238  969749229  1991
2263  969750734  969753943  3209
2264  969757018  969769496  12478
2265  969769527  969773026  3499
2266  969781218  969782922  1704
2267  969782932  969792860  9928
2268  969794909  969798791  3882
2269  969806348  969811342  4994
2270  969811471  969813855  2384
2271  969816076  969816629  553
2272  969826906  969827984  1078
2273  969831521  969833915  2394
2274  969833918  969837054  3136
2275  969839325  969840030  705
2276  969840159  969855060  14901
2277  969856515  969857460  945
2278  969861741  969869254  7513
2279  969869383  969871365  1982
2280  969872854  969877463  4609
2281  969877495  969895680  18185
2282  969898019  969907126  9107
2283  969907159  969912410  5251
2284  969925851  969926759  908
2286  969927011  969927370  359
2287  969927390  969928049  659
2288  969929132  969943450  14318
2289  969943470  969951054  7584
2290  969951087  969951220  133
2291  969951240  969955239  3999
2292  969955367  969959076  3709
2293  969960759  969962764  2005
2294  969963528  969963766  238
2295  969963799  969969738  5939
2296  969976130  969979284  3154
2297  969982242  969984086  1844
2298  969984215  969992551  8336
2299  969992623  969995913  3290
2300  969996939  969997713  774
2301  969998915  969999513  598
2302  970000539  970006442  5903
2303  970007824  970012847  5023
2304  970012975  970014295  1320
2305  970014327  970023270  8943
2306  970023303  970026361  3058
2307  970027726  970041244  13518
2308  970042980  970049294  6314
2309  970049327  970055157  5830
2310  970056513  970059490  2977
2311  970060789  970070342  9553
2312  970070471  970083733  13262
2313  970085607  970090163  4556
2314  970097402  970099654  2252
2315  970099782  970121827  22045
2316  970121830  970128261  6431
2317  970128390  970129605  1215
2318  970129638  970134229  4591
2319  970137093  970142690  5597
2320  970146859  970157293  10434
2321  970157422  970168269  10847
2322  970170027  970174373  4346
2323  970175589  970176371  782
2324  970177579  970180006  2427
2325  970180079  970185654  5575
2326  970185783  970188290  2507
2327  970222908  970224460  1552
2328  970227317  970227421  104
2329  970228894  970234903  6009
2330  970236649  970239237  2588
2331  970242019  970243175  1156
2332  970243307  970245625  2318
2333  970245635  970251086  5451
2334  970251167  970254142  2975
2335  970375709  970376463  754
2336  970377488  970379983  2495
2337  970387059  970387573  514
2338  970387702  970397243  9541
2339  970398564  970405200  6636
2340  970405240  970411686  6446
2341  970411718  970414153  2435
2343  970419465  970420095  630
2344  970421809  970423965  2156
2345  970423998  970425714  1716
2346  970460478  970461294  816
2347  970461326  970463290  1964
2348  970465974  970469173  3199
2349  970469254  970473838  4584
2350  970473966  970474101  135
2351  970474105  970474722  617
2352  970489242  970492271  3029
2353  970496463  970497253  790
2354  970539326  970544009  4683
2355  970559980  970560293  313
2356  970560422  970561038  616
2357  970561070  970565700  4630
2358  970584625  970586368  1743
2359  970592304  970592478  174
2360  970596480  970606078  9598
2361  970606110  970608634  2524
2362  970636027  970638048  2021
2363  970638059  970646750  8691
2364  970646878  970647780  902
2365  970651004  970661653  10649
2366  970661734  970670043  8309
2367  970672642  970675645  3003
2368  970675774  970692093  16319
2369  970694627  970696762  2135
2370  970715552  970717693  2141
2371  970724199  970724779  580
2372  970731804  970733142  1338
2373  970733270  970750070  16800
2374  970750100  970755295  5195
2375  970755330  970761789  6459
2376  970761918  970778717  16799
2377  970778798  970785910  7112
2378  970785942  970790333  4391
2379  970790462  970811870  21408
2380  970821736  970822870  1134
2381  970827960  970829280  1320
2382  970845121  970846717  1596
2383  970857719  970858696  977
2384  970916011  970921838  5827
2385  970921870  970922772  902
2386  970926997  970930815  3818
2387  970958958  970963222  4264
2388  970963350  970965075  1725
2389  970966115  970972286  6171
2390  970972318  970978610  6292
2391  970981171  970985741  4570
2392  970985774  970991360  5586
2393  970992985  971002349  9364
2394  971004792  971014269  9477
2395  971026186  971029965  3779
2396  971030046  971030335  289
2397  971044771  971045050  279
2398  971068791  971078399  9608
2399  971078527  971084705  6178
2400  971085391  971085922  531
2401  971085948  971096405  10457
2402  971096416  971098772  2356
2405  971148838  971150301  1463
2406  971150430  971153902  3472
2407  971154030  971157501  3471
2408  971157630  971161102  3472
2409  971161230  971164701  3471
2410  971164830  971168301  3471
2411  971168430  971171901  3471
2412  971175352  971175501  149
2413  971175630  971178585  2955
2415  971198668  971200700  2032
2416  971200829  971201624  795
2417  971231745  971233101  1356
2418  971233230  971236701  3471
2419  971236830  971240301  3471
2420  971240430  971241004  574
2421  971244991  971246280  1289
2422  971246283  971247501  1218
2423  971247630  971251102  3472
2424  971251230  971254701  3471
2425  971254830  971258302  3472
2426  971258430  971259153  723
2427  971265717  971269101  3384
2428  971269230  971271656  2426
2429  971283721  971287101  3380
2430  971287230  971290701  3471
2431  971290830  971291138  308
2432  971291952  971292267  315
2433  971293866  971294405  539
2434  971294416  971297508  3092
2435  971321073  971323102  2029
2436  971323230  971324106  876
2437  971324109  971326701  2592
2438  971326830  971329408  2578
2439  971329478  971330301  823
2440  971330430  971333901  3471
2441  971334030  971337501  3471
2442  971337630  971340380  2750
2443  971340383  971341102  719
2444  971341230  971344701  3471
2445  971344830  971348404  3574
2446  971348416  971351845  3429
2447  971354464  971354699  235
2448  971354703  971355502  799
2449  971355630  971359101  3471
2450  971359230  971361493  2263
2451  971363682  971366301  2619
2452  971366430  971368766  2336
2453  971368846  971369901  1055
2454  971370030  971373502  3472
2455  971373631  971377101  3470
2456  971377231  971380702  3471
2457  971380830  971383976  3146
2458  971383979  971384301  322
2459  971384430  971385635  1205
2460  971387354  971387902  548
2461  971388030  971391501  3471
2462  971391630  971395101  3471
2463  971395230  971398701  3471
2464  971398830  971402301  3471
2465  971402430  971405902  3472
2466  971406030  971409501  3471
2467  971409631  971413102  3471
2468  971413230  971416701  3471
2469  971416830  971417207  377
2470  971417210  971420302  3092
2471  971420430  971423901  3471
2472  971424030  971426699  2669
2473  971426703  971427298  595
2474  971430972  971431101  129
2475  971431230  971432086  856
2476  971432166  971434702  2536
2477  971434830  971438302  3472
2478  971438430  971441901  3471
2479  971442030  971445502  3472
2480  971445630  971449101  3471
2481  971449230  971450792  1562
2482  971460805  971462598  1793
2483  971502047  971503105  1058
2484  971503233  971504457  1224
2485  971521230  971524701  3471
2486  971524830  971525461  631
2487  971525534  971528302  2768
