%!PS-Adobe-3.0 EPSF-3.0
%%Creator: MATLAB, The Mathworks, Inc. Version 7.4.0.287 (R2007a). Operating System: Linux 2.6.32-220.13.1.el6.x86_64 #1 SMP Tue Apr 17 15:16:22 CDT 2012 x86_64.
%%Title: ./model1_durations.eps
%%CreationDate: 07/31/2012  14:54:35
%%DocumentNeededFonts: Helvetica
%%DocumentProcessColors: Cyan Magenta Yellow Black
%%LanguageLevel: 2
%%Pages: 1
%%BoundingBox:    18   179   546   616
%%EndComments

%%BeginProlog
% MathWorks dictionary
/MathWorks 160 dict begin
% definition operators
/bdef {bind def} bind def
/ldef {load def} bind def
/xdef {exch def} bdef
/xstore {exch store} bdef
% operator abbreviations
/c  /clip ldef
/cc /concat ldef
/cp /closepath ldef
/gr /grestore ldef
/gs /gsave ldef
/mt /moveto ldef
/np /newpath ldef
/cm /currentmatrix ldef
/sm /setmatrix ldef
/rm /rmoveto ldef
/rl /rlineto ldef
/s {show newpath} bdef
/sc {setcmykcolor} bdef
/sr /setrgbcolor ldef
/sg /setgray ldef
/w /setlinewidth ldef
/j /setlinejoin ldef
/cap /setlinecap ldef
/rc {rectclip} bdef
/rf {rectfill} bdef
% page state control
/pgsv () def
/bpage {/pgsv save def} bdef
/epage {pgsv restore} bdef
/bplot /gsave ldef
/eplot {stroke grestore} bdef
% orientation switch
/portraitMode 0 def /landscapeMode 1 def /rotateMode 2 def
% coordinate system mappings
/dpi2point 0 def
% font control
/FontSize 0 def
/FMS {/FontSize xstore findfont [FontSize 0 0 FontSize neg 0 0]
  makefont setfont} bdef
/reencode {exch dup where {pop load} {pop StandardEncoding} ifelse
  exch dup 3 1 roll findfont dup length dict begin
  { 1 index /FID ne {def}{pop pop} ifelse } forall
  /Encoding exch def currentdict end definefont pop} bdef
/isroman {findfont /CharStrings get /Agrave known} bdef
/FMSR {3 1 roll 1 index dup isroman {reencode} {pop pop} ifelse
  exch FMS} bdef
/csm {1 dpi2point div -1 dpi2point div scale neg translate
 dup landscapeMode eq {pop -90 rotate}
  {rotateMode eq {90 rotate} if} ifelse} bdef
% line types: solid, dotted, dashed, dotdash
/SO { [] 0 setdash } bdef
/DO { [.5 dpi2point mul 4 dpi2point mul] 0 setdash } bdef
/DA { [6 dpi2point mul] 0 setdash } bdef
/DD { [.5 dpi2point mul 4 dpi2point mul 6 dpi2point mul 4
  dpi2point mul] 0 setdash } bdef
% macros for lines and objects
/L {lineto stroke} bdef
/MP {3 1 roll moveto 1 sub {rlineto} repeat} bdef
/AP {{rlineto} repeat} bdef
/PDlw -1 def
/W {/PDlw currentlinewidth def setlinewidth} def
/PP {closepath eofill} bdef
/DP {closepath stroke} bdef
/MR {4 -2 roll moveto dup  0 exch rlineto exch 0 rlineto
  neg 0 exch rlineto closepath} bdef
/FR {MR stroke} bdef
/PR {MR fill} bdef
/L1i {{currentfile picstr readhexstring pop} image} bdef
/tMatrix matrix def
/MakeOval {newpath tMatrix currentmatrix pop translate scale
0 0 1 0 360 arc tMatrix setmatrix} bdef
/FO {MakeOval stroke} bdef
/PO {MakeOval fill} bdef
/PD {currentlinewidth 2 div 0 360 arc fill
   PDlw -1 eq not {PDlw w /PDlw -1 def} if} def
/FA {newpath tMatrix currentmatrix pop translate scale
  0 0 1 5 -2 roll arc tMatrix setmatrix stroke} bdef
/PA {newpath tMatrix currentmatrix pop	translate 0 0 moveto scale
  0 0 1 5 -2 roll arc closepath tMatrix setmatrix fill} bdef
/FAn {newpath tMatrix currentmatrix pop translate scale
  0 0 1 5 -2 roll arcn tMatrix setmatrix stroke} bdef
/PAn {newpath tMatrix currentmatrix pop translate 0 0 moveto scale
  0 0 1 5 -2 roll arcn closepath tMatrix setmatrix fill} bdef
/vradius 0 def /hradius 0 def /lry 0 def
/lrx 0 def /uly 0 def /ulx 0 def /rad 0 def
/MRR {/vradius xdef /hradius xdef /lry xdef /lrx xdef /uly xdef
  /ulx xdef newpath tMatrix currentmatrix pop ulx hradius add uly
  vradius add translate hradius vradius scale 0 0 1 180 270 arc 
  tMatrix setmatrix lrx hradius sub uly vradius add translate
  hradius vradius scale 0 0 1 270 360 arc tMatrix setmatrix
  lrx hradius sub lry vradius sub translate hradius vradius scale
  0 0 1 0 90 arc tMatrix setmatrix ulx hradius add lry vradius sub
  translate hradius vradius scale 0 0 1 90 180 arc tMatrix setmatrix
  closepath} bdef
/FRR {MRR stroke } bdef
/PRR {MRR fill } bdef
/MlrRR {/lry xdef /lrx xdef /uly xdef /ulx xdef /rad lry uly sub 2 div def
  newpath tMatrix currentmatrix pop ulx rad add uly rad add translate
  rad rad scale 0 0 1 90 270 arc tMatrix setmatrix lrx rad sub lry rad
  sub translate rad rad scale 0 0 1 270 90 arc tMatrix setmatrix
  closepath} bdef
/FlrRR {MlrRR stroke } bdef
/PlrRR {MlrRR fill } bdef
/MtbRR {/lry xdef /lrx xdef /uly xdef /ulx xdef /rad lrx ulx sub 2 div def
  newpath tMatrix currentmatrix pop ulx rad add uly rad add translate
  rad rad scale 0 0 1 180 360 arc tMatrix setmatrix lrx rad sub lry rad
  sub translate rad rad scale 0 0 1 0 180 arc tMatrix setmatrix
  closepath} bdef
/FtbRR {MtbRR stroke } bdef
/PtbRR {MtbRR fill } bdef
/stri 6 array def /dtri 6 array def
/smat 6 array def /dmat 6 array def
/tmat1 6 array def /tmat2 6 array def /dif 3 array def
/asub {/ind2 exch def /ind1 exch def dup dup
  ind1 get exch ind2 get sub exch } bdef
/tri_to_matrix {
  2 0 asub 3 1 asub 4 0 asub 5 1 asub
  dup 0 get exch 1 get 7 -1 roll astore } bdef
/compute_transform {
  dmat dtri tri_to_matrix tmat1 invertmatrix 
  smat stri tri_to_matrix tmat2 concatmatrix } bdef
/ds {stri astore pop} bdef
/dt {dtri astore pop} bdef
/db {2 copy /cols xdef /rows xdef mul dup 3 mul string
  currentfile 
  3 index 0 eq {/ASCIIHexDecode filter}
  {/ASCII85Decode filter 3 index 2 eq {/RunLengthDecode filter} if }
  ifelse exch readstring pop
  dup 0 3 index getinterval /rbmap xdef
  dup 2 index dup getinterval /gbmap xdef
  1 index dup 2 mul exch getinterval /bbmap xdef pop pop}bdef
/it {gs np dtri aload pop moveto lineto lineto cp c
  cols rows 8 compute_transform 
  rbmap gbmap bbmap true 3 colorimage gr}bdef
/il {newpath moveto lineto stroke}bdef
currentdict end def
%%EndProlog

%%BeginSetup
MathWorks begin

0 cap

end
%%EndSetup

%%Page: 1 1
%%BeginPageSetup
%%PageBoundingBox:    18   179   546   616
MathWorks begin
bpage
%%EndPageSetup

%%BeginObject: obj1
bplot

/dpi2point 12 def
portraitMode 0216 7344 csm

    0   -48  6345  5233 rc
76 dict begin %Colortable dictionary
/c0 { 0.000000 0.000000 0.000000 sr} bdef
/c1 { 1.000000 1.000000 1.000000 sr} bdef
/c2 { 0.900000 0.000000 0.000000 sr} bdef
/c3 { 0.000000 0.820000 0.000000 sr} bdef
/c4 { 0.000000 0.000000 0.800000 sr} bdef
/c5 { 0.910000 0.820000 0.320000 sr} bdef
/c6 { 1.000000 0.260000 0.820000 sr} bdef
/c7 { 0.000000 0.820000 0.820000 sr} bdef
c0
1 j
1 sg
   0    0 6913 5186 rf
6 w
0 4154 5165 0 0 -4154 1090 4568 4 MP
PP
-5165 0 0 4154 5165 0 0 -4154 1090 4568 5 MP stroke
4 w
DO
SO
6 w
0 sg
1090 4568 mt 6255 4568 L
1090  414 mt 6255  414 L
1090 4568 mt 1090  414 L
6255 4568 mt 6255  414 L
1090 4568 mt 6255 4568 L
1090 4568 mt 1090  414 L
1090 4568 mt 1090 4542 L
1090  414 mt 1090  439 L
1090 4568 mt 1090 4516 L
1090  414 mt 1090  465 L
%%IncludeResource: font Helvetica
/Helvetica /ISOLatin1Encoding 240 FMSR

 866 4898 mt 
(10) s
%%IncludeResource: font Helvetica
/Helvetica /ISOLatin1Encoding 160 FMSR

1132 4750 mt 
(-1) s
1538 4568 mt 1538 4542 L
1538  414 mt 1538  439 L
1799 4568 mt 1799 4542 L
1799  414 mt 1799  439 L
1985 4568 mt 1985 4542 L
1985  414 mt 1985  439 L
2129 4568 mt 2129 4542 L
2129  414 mt 2129  439 L
2246 4568 mt 2246 4542 L
2246  414 mt 2246  439 L
2346 4568 mt 2346 4542 L
2346  414 mt 2346  439 L
2432 4568 mt 2432 4542 L
2432  414 mt 2432  439 L
2508 4568 mt 2508 4542 L
2508  414 mt 2508  439 L
2576 4568 mt 2576 4542 L
2576  414 mt 2576  439 L
2576 4568 mt 2576 4516 L
2576  414 mt 2576  465 L
%%IncludeResource: font Helvetica
/Helvetica /ISOLatin1Encoding 240 FMSR

2399 4898 mt 
(10) s
%%IncludeResource: font Helvetica
/Helvetica /ISOLatin1Encoding 160 FMSR

2665 4750 mt 
(0) s
3023 4568 mt 3023 4542 L
3023  414 mt 3023  439 L
3284 4568 mt 3284 4542 L
3284  414 mt 3284  439 L
3470 4568 mt 3470 4542 L
3470  414 mt 3470  439 L
3614 4568 mt 3614 4542 L
3614  414 mt 3614  439 L
3731 4568 mt 3731 4542 L
3731  414 mt 3731  439 L
3831 4568 mt 3831 4542 L
3831  414 mt 3831  439 L
3917 4568 mt 3917 4542 L
3917  414 mt 3917  439 L
3993 4568 mt 3993 4542 L
3993  414 mt 3993  439 L
4061 4568 mt 4061 4542 L
4061  414 mt 4061  439 L
4061 4568 mt 4061 4516 L
4061  414 mt 4061  465 L
%%IncludeResource: font Helvetica
/Helvetica /ISOLatin1Encoding 240 FMSR

3884 4898 mt 
(10) s
%%IncludeResource: font Helvetica
/Helvetica /ISOLatin1Encoding 160 FMSR

4150 4750 mt 
(1) s
4508 4568 mt 4508 4542 L
4508  414 mt 4508  439 L
4769 4568 mt 4769 4542 L
4769  414 mt 4769  439 L
4955 4568 mt 4955 4542 L
4955  414 mt 4955  439 L
5099 4568 mt 5099 4542 L
5099  414 mt 5099  439 L
5216 4568 mt 5216 4542 L
5216  414 mt 5216  439 L
5316 4568 mt 5316 4542 L
5316  414 mt 5316  439 L
5402 4568 mt 5402 4542 L
5402  414 mt 5402  439 L
5478 4568 mt 5478 4542 L
5478  414 mt 5478  439 L
5546 4568 mt 5546 4542 L
5546  414 mt 5546  439 L
5546 4568 mt 5546 4516 L
5546  414 mt 5546  465 L
%%IncludeResource: font Helvetica
/Helvetica /ISOLatin1Encoding 240 FMSR

5369 4898 mt 
(10) s
%%IncludeResource: font Helvetica
/Helvetica /ISOLatin1Encoding 160 FMSR

5635 4750 mt 
(2) s
5993 4568 mt 5993 4542 L
5993  414 mt 5993  439 L
6254 4568 mt 6254 4542 L
6254  414 mt 6254  439 L
1090 4568 mt 1116 4568 L
6255 4568 mt 6229 4568 L
1090 4568 mt 1142 4568 L
6255 4568 mt 6203 4568 L
%%IncludeResource: font Helvetica
/Helvetica /ISOLatin1Encoding 240 FMSR

 519 4657 mt 
(10) s
%%IncludeResource: font Helvetica
/Helvetica /ISOLatin1Encoding 160 FMSR

 785 4509 mt 
(-23) s
1090 4151 mt 1116 4151 L
6255 4151 mt 6229 4151 L
1090 3907 mt 1116 3907 L
6255 3907 mt 6229 3907 L
1090 3734 mt 1116 3734 L
6255 3734 mt 6229 3734 L
1090 3600 mt 1116 3600 L
6255 3600 mt 6229 3600 L
1090 3490 mt 1116 3490 L
6255 3490 mt 6229 3490 L
1090 3397 mt 1116 3397 L
6255 3397 mt 6229 3397 L
1090 3317 mt 1116 3317 L
6255 3317 mt 6229 3317 L
1090 3246 mt 1116 3246 L
6255 3246 mt 6229 3246 L
1090 3183 mt 1116 3183 L
6255 3183 mt 6229 3183 L
1090 3183 mt 1142 3183 L
6255 3183 mt 6203 3183 L
%%IncludeResource: font Helvetica
/Helvetica /ISOLatin1Encoding 240 FMSR

 519 3272 mt 
(10) s
%%IncludeResource: font Helvetica
/Helvetica /ISOLatin1Encoding 160 FMSR

 785 3124 mt 
(-22) s
1090 2766 mt 1116 2766 L
6255 2766 mt 6229 2766 L
1090 2522 mt 1116 2522 L
6255 2522 mt 6229 2522 L
1090 2349 mt 1116 2349 L
6255 2349 mt 6229 2349 L
1090 2215 mt 1116 2215 L
6255 2215 mt 6229 2215 L
1090 2105 mt 1116 2105 L
6255 2105 mt 6229 2105 L
1090 2013 mt 1116 2013 L
6255 2013 mt 6229 2013 L
1090 1932 mt 1116 1932 L
6255 1932 mt 6229 1932 L
1090 1862 mt 1116 1862 L
6255 1862 mt 6229 1862 L
1090 1798 mt 1116 1798 L
6255 1798 mt 6229 1798 L
1090 1798 mt 1142 1798 L
6255 1798 mt 6203 1798 L
%%IncludeResource: font Helvetica
/Helvetica /ISOLatin1Encoding 240 FMSR

 519 1887 mt 
(10) s
%%IncludeResource: font Helvetica
/Helvetica /ISOLatin1Encoding 160 FMSR

 785 1739 mt 
(-21) s
1090 1381 mt 1116 1381 L
6255 1381 mt 6229 1381 L
1090 1138 mt 1116 1138 L
6255 1138 mt 6229 1138 L
1090  965 mt 1116  965 L
6255  965 mt 6229  965 L
1090  830 mt 1116  830 L
6255  830 mt 6229  830 L
1090  721 mt 1116  721 L
6255  721 mt 6229  721 L
1090  628 mt 1116  628 L
6255  628 mt 6229  628 L
1090  548 mt 1116  548 L
6255  548 mt 6229  548 L
1090  477 mt 1116  477 L
6255  477 mt 6229  477 L
1090  414 mt 1116  414 L
6255  414 mt 6229  414 L
1090 4568 mt 6255 4568 L
1090  414 mt 6255  414 L
1090 4568 mt 1090  414 L
6255 4568 mt 6255  414 L
gs 1090 414 5166 4155 rc
DD
48 w
/c8 { 1.000000 0.000000 0.000000 sr} bdef
c8
35 2 37 1 39 2 42 1 44 2 48 2 52 1 56 2 
61 2 68 1 76 2 86 2 100 1 117 2 144 2 186 2 
261 2 447 2 1913 0 1090 2921 20 MP stroke
DA
/c9 { 0.000000 1.000000 0.000000 sr} bdef
c9
35 5 37 6 39 5 41 6 45 7 48 6 51 7 56 8 
62 8 68 8 76 10 86 10 99 11 118 13 144 14 185 17 
262 21 447 27 1002 10 1089 1667 20 MP stroke
SO
0 sg
35 5 37 6 39 5 41 6 45 6 48 7 51 7 56 7 
62 8 68 9 76 9 86 10 99 12 118 12 144 15 185 16 
262 21 447 27 3065 20 1090 2624 20 MP stroke
gr

48 w
%%IncludeResource: font Helvetica
/Helvetica /ISOLatin1Encoding 240 FMSR

3464 5129 mt 
(t \(s\)) s
 301 3407 mt  -90 rotate
(\(h) s
90 rotate
%%IncludeResource: font Helvetica
/Helvetica /ISOLatin1Encoding 192 FMSR

 421 3194 mt  -90 rotate
(+) s
90 rotate
%%IncludeResource: font Helvetica
/Helvetica /ISOLatin1Encoding 240 FMSR

 301 3082 mt  -90 rotate
(\(t\)) s
90 rotate
%%IncludeResource: font Helvetica
/Helvetica /ISOLatin1Encoding 192 FMSR

 181 2856 mt  -90 rotate
(2) s
90 rotate
%%IncludeResource: font Helvetica
/Helvetica /ISOLatin1Encoding 240 FMSR

 301 2750 mt  -90 rotate
( + h) s
90 rotate
%%IncludeResource: font Helvetica
/Helvetica /ISOLatin1Encoding 192 FMSR

 421 2343 mt  -90 rotate
(x) s
90 rotate
%%IncludeResource: font Helvetica
/Helvetica /ISOLatin1Encoding 240 FMSR

 301 2247 mt  -90 rotate
(\(t\)) s
90 rotate
%%IncludeResource: font Helvetica
/Helvetica /ISOLatin1Encoding 192 FMSR

 181 2021 mt  -90 rotate
(2) s
90 rotate
%%IncludeResource: font Helvetica
/Helvetica /ISOLatin1Encoding 240 FMSR

 301 1915 mt  -90 rotate
(\)) s
90 rotate
%%IncludeResource: font Helvetica
/Helvetica /ISOLatin1Encoding 192 FMSR

 181 1836 mt  -90 rotate
(1/2) s
90 rotate
%%IncludeResource: font Helvetica
/Helvetica /ISOLatin1Encoding 240 FMSR

3075  223 mt 
(d = 10 Mpc) s
%%IncludeResource: font Helvetica
/Helvetica /ISOLatin1Encoding 120 FMSR

1073 4611 mt 
( ) s
6239  456 mt 
( ) s
6 w
1 sg
0 897 639 0 0 -897 5556 1371 4 MP
PP
-639 0 0 897 639 0 0 -897 5556 1371 5 MP stroke
4 w
DO
SO
6 w
0 sg
5556 1371 mt 6195 1371 L
5556  474 mt 6195  474 L
5556 1371 mt 5556  474 L
6195 1371 mt 6195  474 L
5556 1371 mt 6195 1371 L
5556 1371 mt 5556  474 L
5556 1371 mt 6195 1371 L
5556  474 mt 6195  474 L
5556 1371 mt 5556  474 L
6195 1371 mt 6195  474 L
%%IncludeResource: font Helvetica
/Helvetica /ISOLatin1Encoding 240 FMSR

6010  722 mt 
(a) s
gs 5556 474 640 898 rc
DD
48 w
c8
349 0 5625 637 2 MP stroke
SO
gr

48 w
c8
0 sg
6010 1008 mt 
(b) s
gs 5556 474 640 898 rc
DA
c9
349 0 5625 922 2 MP stroke
SO
gr

c9
0 sg
6010 1294 mt 
(c) s
gs 5556 474 640 898 rc
349 0 5625 1207 2 MP stroke
6 w
gr

6 w

end %%Color Dict

eplot
%%EndObject

epage
end

showpage

%%Trailer
%%EOF
