815402926 815402953
815403073 815403133
815410857 815410873
815414233 815414263
815571733 815571789
815580733 815580747
815585893 815585916
815586553 815586554
815590153 815590206
815592253 815592255
815592373 815592403
815758153 815758210
815773813 815773847
815775913 815775949
815775960 815775973
815776993 815777020
815784013 815784050
815795533 815795565
815798533 815798536
815805673 815805725
815836093 815836133
815890633 815890662
815902153 815902187
815904913 815904962
815913193 815913215
815917033 815917034
815927353 815927380
815928373 815928392
815962813 815962840
815963893 815963921
815966713 815966753
815971693 815971738
815972893 815972923
815988433 815988452
816003493 816003503
816008593 816008611
816017051 816017053
816072973 816072999
816092053 816092089
816095833 816095866
816099133 816099188
816103333 816103368
816185353 816185397
816189793 816189818
816192433 816192452
816199993 816200044
816200773 816200817
816203293 816203334
816207613 816207653
816208453 816208496
816212173 816212186
816214213 816214255
816215773 816215801
816271633 816271648
816277093 816277105
816285013 816285051
816291553 816291558
816353593 816353623
816360253 816360307
816363853 816363869
816369013 816369029
816377053 816377082
816384433 816384439
816390253 816390300
816394513 816394514
816430813 816430831
816439273 816439320
816445753 816445782
816448813 816448831
816457633 816457647
816469873 816469875
816471733 816471737
816481453 816481474
816493573 816493576
816535093 816535114
816540853 816540895
816548593 816548609
816553621 816553633
816563173 816563179
816572173 816572182
816623293 816623335
816626713 816626750
816630133 816630186
816633673 816633688
816635113 816635158
816636913 816636935
816636954 816636973
816637693 816637720
816674833 816674866
816707713 816707755
816710413 816710462
816807193 816807237
816814153 816814200
816818413 816818429
816823633 816823636
816865153 816865202
816892993 816893005
816897913 816897944
816901453 816901507
816908893 816908940
816913993 816914022
816922513 816922516
816946933 816946986
816952153 816952167
816962653 816962659
816971113 816971164
817031473 817031520
817068253 817068262
817077853 817077860
817080493 817080530
817082113 817082157
817103833 817103846
817178293 817178316
817224013 817224067
817231993 817232024
817237693 817237733
817243333 817243366
817245973 817246017
817252453 817252456
817275433 817275445
817291153 817291180
817312573 817312619
817314493 817314548
817334233 817334288
817340713 817340746
817347013 817347031
817351033 817351054
817362433 817362475
817398373 817398384
817404973 817404998
817412773 817412816
817423333 817423381
817425733 817425751
817442413 817442433
817454053 817454089
817485253 817485286
817496113 817496166
817503193 817503239
817508353 817508384
817510273 817510278
817549453 817549487
817552693 817552747
817564333 817564369
817566613 817566651
817570693 817570710
817577233 817577263
817592533 817592582
817596493 817596505
817600273 817600284
817618093 817618176
817662193 817662197
817682953 817682955
817687093 817687097
817753213 817753252
817764673 817764724
817770793 817770796
817781833 817781841
817821553 817821601
817824433 817824455
817839313 817839360
817844293 817844341
817852393 817852413
817859413 817859420
817870633 817870638
817915213 817915216
817940293 817940319
818006473 818006476
818034373 818034384
818037013 818037019
818059273 818059293
818068453 818068488
818093533 818093542
818096053 818096086
818098573 818098618
818112793 818112840
818145073 818145093
818161393 818161428
818172853 818172854
818180053 818180105
818182033 818182080
818238913 818238925
818261473 818261520
818267533 818267551
818286913 818286925
818291413 818291458
818322373 818322390
818326513 818326543
818338813 818338836
818345473 818345495
818346853 818346865
818356273 818356321
818365813 818365824
818370673 818370726
818407393 818407407
818426533 818426543
818438953 818439002
818449333 818449339
818454073 818454115
818457133 818457168
818460073 818460089
818479693 818479729
818524753 818524804
818548873 818548888
818551033 818551036
818575693 818575727
818604193 818604215
818616793 818616823
818619133 818619189
818635033 818635044
818636533 818636580
818645233 818645237
818649493 818649505
818654653 818654699
818687173 818687205
818695213 818695232
818712013 818712058
818715313 818715346
818718013 818718058
818723593 818723647
818728393 818728437
818734873 818734879
818768713 818768758
818793793 818793816
818800573 818800614
818805493 818805535
818812393 818812417
818814973 818814997
818817013 818817034
818831833 818831850
818860213 818860255
818878573 818878585
818883193 818883230
818885353 818885398
818888293 818888296
818893993 818893995
818901373 818901413
818911813 818911868
818917813 818917845
818945593 818945603
818952373 818952386
818954293 818954318
818959393 818959400
818969113 818969166
819028033 819028048
819030073 819030086
819042913 819042919
819049993 819050042
819055213 819055264
819057913 819057930
819060193 819060220
819061873 819061926
819062773 819062826
819066613 819066639
819076993 819077012
819091573 819091599
819093853 819093885
819094453 819094503
819104293 819104313
819113413 819113465
819124273 819124298
819127993 819128035
819144553 819144604
819147013 819147015
819201793 819201809
819204073 819204103
819210013 819210047
819211273 819211314
819216073 819216115
819218593 819218622
819226573 819226616
819230113 819230127
819234373 819234397
819238093 819238104
819269413 819269458
819295033 819295076
819299713 819299758
819307993 819308033
819313033 819313079
819316033 819316039
819317113 819317114
819324673 819324676
819325333 819325387
819358273 819358312
819362593 819362641
819370153 819370163
819380113 819380145
819392353 819392375
819400753 819400756
819409213 819409237
819418753 819418798
819424093 819424101
819480733 819480759
819555913 819555933
819560053 819560094
819579913 819579925
819600193 819600237
819604093 819604127
819640813 819640860
819661333 819661345
819697633 819697644
819729073 819729092
819734713 819734745
819760333 819760370
819763753 819763782
819801973 819801998
819825373 819825401
819828193 819828244
819829933 819829984
819837733 819837761
819841213 819841252
819849433 819849474
819850753 819850782
819887413 819887414
819894193 819894215
819914473 819914476
819916213 819916251
819927313 819927320
819930853 819930870
819941653 819941673
819965953 819966008
819968533 819968534
819977533 819977550
819979273 819979295
819983893 819983920
820001713 820001763
820002913 820002954
820049713 820049766
820051513 820051547
820052953 820052974
820054693 820054716
820060513 820060527
820062973 820063001
820087093 820087101
820097593 820097606
820100953 820100977
820103353 820103366
820106713 820106731
820107853 820107893
820111753 820111800
820114033 820114074
820139413 820139450
820141573 820141599
820143613 820143651
820144393 820144403
820147273 820147286
820148533 820148562
820150993 820150998
820171993 820172005
820173973 820173979
820175653 820175693
820194253 820194264
820199653 820199656
820210633 820210680
820231333 820231364
820250473 820250488
820275913 820275928
820284793 820284794
820304473 820304494
820316353 820316390
820321153 820321193
820322233 820322267
820327213 820327238
820340173 820340205
820364653 820364670
820380193 820380198
820381993 820382000
820420513 820420567
820422973 820423009
820424353 820424392
820429933 820429980
820432393 820432404
820433713 820433758
820443253 820443259
820450933 820450961
820473193 820473243
820479553 820479591
820481413 820481446
820507933 820507980
820510633 820510674
820522033 820522060
820522513 820522530
820522753 820522779
820528753 820528761
820539373 820539406
820544833 820544856
820554553 820554555
820557373 820557419
820562893 820562896
820608073 820608082
820608613 820608621
820614853 820614878
820626133 820626137
820635193 820635248
820695673 820695680
820700113 820700116
820713073 820713075
820716193 820716195
820732033 820732037
820733833 820733852
820737133 820737171
820741513 820741540
820748953 820748993
820750993 820751001
820752433 820752485
820756033 820756089
820782733 820782780
820828093 820828129
820847413 820847424
820852273 820852287
820854493 820854523
820856833 820856847
820858153 820858194
820860733 820860773
820861633 820861675
820863793 820863840
820866313 820866337
820866793 820866804
820867093 820867149
820868593 820868638
820873213 820873214
820876273 820876303
820876813 820876858
820877233 820877268
820879033 820879060
820891273 820891309
820893493 820893539
820893793 820893794
820894153 820894154
820898653 820898696
820921273 820921292
820940113 820940148
820942873 820942918
820967233 820967251
820973653 820973675
820981453 820981499
820993813 820993837
820995793 820995794
820997773 820997815
820998373 820998414
821027233 821027277
821034553 821034556
821037373 821037383
821037553 821037573
821037913 821037924
821052913 821052931
821055733 821055762
821056333 821056352
821062753 821062807
821063293 821063315
821074813 821074827
821076013 821076038
821077033 821077058
821077633 821077636
821083993 821084035
821084593 821084621
821098633 821098679
821100373 821100393
821125033 821125041
821128333 821128350
821133553 821133560
821136853 821136866
821138113 821138156
821182393 821182397
821216953 821217002
821221333 821221359
821222053 821222109
821227273 821227280
821232433 821232462
821239333 821239361
821287393 821287448
821326273 821326323
821344153 821344189
821363113 821363156
821388553 821388574
821456833 821456837
821467633 821467687
821477413 821477459
821480113 821480154
821483353 821483397
821484673 821484686
821486593 821486596
821489353 821489381
821496253 821496290
821514253 821514262
821517553 821517554
821520373 821520414
821522833 821522843
821528653 821528694
821536033 821536060
821538613 821538623
821543833 821543859
821548693 821548708
821564833 821564854
821582773 821582825
821592253 821592296
821597413 821597449
821600233 821600273
821612953 821612960
821628433 821628473
821629333 821629365
821635213 821635242
821641513 821641541
821648113 821648124
821649973 821649977
821653453 821653473
821663953 821663996
821681653 821681690
821718673 821718677
821720773 821720815
821725813 821725821
821738173 821738175
821742793 821742811
821746933 821746985
821781373 821781398
821783053 821783064
821785153 821785184
821787253 821787282
821796433 821796473
821798773 821798775
821801953 821801992
821805133 821805140
821820733 821820769
821822413 821822423
821824753 821824757
821826613 821826638
821831413 821831461
821833093 821833099
821840653 821840708
821872813 821872837
821883253 821883300
821906353 821906408
821909473 821909503
821911933 821911969
821915113 821915134
821969293 821969307
821990653 821990692
821992693 821992727
822003373 822003393
822012073 822012116
822032173 822032188
822064933 822064942
822077713 822077762
822081013 822081057
822084253 822084264
822085213 822085230
822088153 822088209
822089713 822089767
822094513 822094560
822152173 822152221
822153253 822153288
822182953 822182957
822184993 822185012
822194533 822194568
822243673 822243718
822244213 822244251
822263173 822263181
822267013 822267051
822290413 822290439
822294793 822294825
822316213 822316223
822320233 822320235
822325933 822325981
822327673 822327681
822339613 822339640
822339853 822339897
822340093 822340100
822347773 822347814
822350893 822350927
822351673 822351725
822352993 822353005
822357613 822357656
822361453 822361480
822366313 822366346
822368593 822368620
822371353 822371360
822379633 822379675
822382753 822382759
822393853 822393854
822411673 822411714
822412333 822412341
822417133 822417181
822424993 822425002
822433573 822433589
822434593 822434600
822435553 822435584
822443173 822443204
822460873 822460882
822460917 822460933
822463693 822463721
822472093 822472107
822476173 822476179
822477973 822477998
822478273 822478318
822478753 822478767
822482413 822482418
822483253 822483302
822487153 822487182
822487573 822487617
822491953 822491969
822493993 822494011
822495493 822495523
822496093 822496123
822511093 822511112
822537673 822537692
822539953 822539978
822541873 822541915
822544513 822544524
822546493 822546507
822558553 822558578
822558973 822558998
822563170 822563173
822564733 822564740
822565513 822565546
822567013 822567042
822568693 822568713
822571933 822571938
822576553 822576573
822614593 822614609
822617533 822617562
822622273 822622293
822625753 822625763
822625801 822625813
822625993 822626018
822626293 822626297
822637993 822638011
822638113 822638150
822639853 822639863
822639903 822639913
822641653 822641689
822651433 822651467
822654193 822654206
822666073 822666105
822666613 822666640
822666913 822666917
822723073 822723115
822723493 822723521
822737893 822737940
822743113 822743147
822745333 822745357
822757813 822757843
822777733 822777746
822781453 822781460
822793393 822793435
822801913 822801924
822805753 822805775
822822313 822822340
822822853 822822866
822823333 822823344
822826213 822826223
822826264 822826273
822826393 822826397
822826434 822826453
822826693 822826736
822827105 822827113
822827173 822827191
822873313 822873323
822883667 822883693
822887533 822887564
822889873 822889885
822914953 822915000
822920413 822920422
822942853 822942879
822949813 822949848
822950953 822950963
822957313 822957315
822966493 822966525
822974893 822974927
823012333 823012355
823018333 823018347
823022053 823022082
823022893 823022920
823023253 823023269
823029613 823029640
823032433 823032434
823048693 823048716
823080373 823080389
823162933 823162950
823188373 823188420
823191313 823191316
823205233 823205247
823223113 823223135
823240813 823240825
823280233 823280242
823423453 823423485
823613833 823613884
823615153 823615186
823802953 823803002
823876273 823876279
824204584 824204593
824215333 824215365
824216174 824216233
824217433 824217446
824221812 824221813
824314333 824314382
824373793 824373837
824397913 824397923
824408990 824409059
824411893 824411917
824413813 824413862
824413967 824413993
824417413 824417435
824417738 824417773
824418013 824418067
824454253 824454268
824494633 824494678
824499913 824499951
824501293 824501309
824502073 824502080
824596573 824596597
824629333 824629380
824674513 824674557
824678713 824678717
824682973 824683020
824730013 824730027
824742733 824742760
824750473 824750482
824825533 824825564
824837893 824837903
824842213 824842251
824844853 824844894
824855353 824855361
824858233 824858246
824872753 824872779
824951773 824951823
824959213 824959240
825101833 825101865
825106393 825106398
825110953 825110977
825170473 825170502
825246073 825246104
825441973 825441983
825448393 825448435
825456193 825456236
825482233 825482234
825526333 825526361
825528733 825528755
825529213 825529248
825540013 825540014
825582013 825582017
825590773 825590819
825615253 825615257
825696073 825696106
825720193 825720224
825764353 825764378
825770413 825770429
825822793 825822820
825873733 825873779
825889573 825889619
825913813 825913838
825956690 825956706
825966673 825966707
826047433 826047481
826062493 826062512
826176793 826176800
826229353 826229399
826316353 826316366
826326913 826326942
826356793 826356794
826380793 826380838
826387513 826387554
826469833 826469868
826489453 826489478
826547953 826547970
826556113 826556166
826571473 826571507
826643593 826643625
826730473 826730505
826810513 826810541
826812853 826812908
826920613 826920659
826958893 826958943
826965973 826966027
827041453 827041464
827071513 827071529
827082853 827082896
827092993 827093009
827175133 827175151
827237173 827237186
827250793 827250794
827251153 827251167
827260213 827260240
827267773 827267795
827291893 827291899
827352973 827352976
827513053 827513078
827555653 827555662
827588653 827588654
827617093 827617126
827618473 827618505
827687653 827687675
827773033 827773061
827777953 827777991
827817733 827817747
827849233 827849245
827858713 827858759
827876353 827876402
827876456 827876473
827987293 827987322
828041293 828041330
828112393 828112398
828153373 828153415
828192013 828192021
828192313 828192334
828192613 828192656
828193573 828193587
828284953 828284955
828342793 828342813
828357913 828357927
828360913 828360959
828365293 828365343
828462073 828462109
828619873 828619900
828710113 828710164
828712753 828712767
828713233 828713236
828716413 828716463
828802633 828802649
828890053 828890071
828891253 828891276
828905953 828905969
828978553 828978558
828991601 828991633
828994993 828995022
829210393 829210427
829210533 829210573
829214413 829214456
829248313 829248334
829351213 829351246
829380193 829380214
829395373 829395383
829601353 829601393
829611193 829611199
829634653 829634660
829653733 829653758
829726213 829726214
829744753 829744764
829860133 829860183
829890253 829890258
829937773 829937806
829948693 829948716
829952893 829952936
829981933 829981978
830036653 830036669
830044393 830044428
830096713 830096742
830113813 830113844
830127733 830127781
830140693 830140739
830155753 830155757
830187193 830187225
830196073 830196104
830204893 830204943
830342773 830342820
830365573 830365588
830380213 830380234
830387233 830387271
830428693 830428704
830452093 830452115
830490853 830490889
830551813 830551863
830617273 830617320
830695873 830695881
830722753 830722778
830800813 830800853
830811433 830811446
830827813 830827852
830833513 830833521
830845753 830845778
830857513 830857522
830869453 830869462
830881213 830881245
830882773 830882794
830892673 830892712
830904853 830904874
830985433 830985457
831056833 831056865
831064993 831065006
831096913 831096937
831104653 831104681
831134413 831134433
831144493 831144505
831147013 831147032
831153013 831153026
831156673 831156704
831165613 831165619
831167593 831167613
831168193 831168194
831171553 831171601
831242113 831242154
831264553 831264586
831331573 831331598
831412633 831412660
831419053 831419090
831420973 831421000
831454693 831454733
831465553 831465602
831475513 831475533
831484033 831484040
831495673 831495685
831498793 831498839
831510553 831510554
831591433 831591486
831616693 831616694
831621193 831621240
831655153 831655176
831669193 831669197
831673873 831673915
831688933 831688971
831695893 831695914
831742813 831742857
831765193 831765209
831811933 831811971
831851653 831851688
831934033 831934042
831956293 831956333
831982693 831982731
832008853 832008900
832017673 832017725
832037653 832037681
832100533 832100553
832109353 832109383
832111573 832111574
832197073 832197082
832272013 832272018
832284913 832284926
832296433 832296457
832300393 832300428
832331713 832331763
832338973 832339015
832404313 832404338
832423153 832423166
832454593 832454606
832479853 832479855
832509793 832509814
832542553 832542566
832553353 832553354
832601893 832601943
832613833 832613858
832620973 832621018
832625473 832625486
832627513 832627557
832643893 832643917
832650613 832650620
832652833 832652850
832682533 832682561
832699033 832699055
832716673 832716696
832718833 832718880
832725253 832725273
832801933 832801968
832806853 832806882
832821973 832821975
832837213 832837257
832882813 832882840
832923553 832923583
832950553 832950598
833051353 833051364
833069173 833069190
833089633 833089661
833091133 833091180
833122093 833122123
833137573 833137608
833140813 833140818
833144653 833144701
833147233 833147270
833235193 833235215
833269393 833269413
833292373 833292376
833304613 833304667
833307733 833307770
833317933 833317937
833324053 833324059
833393773 833393815
833412433 833412457
833414773 833414803
833418013 833418060
833430793 833430824
833446693 833446738
833480293 833480335
833576833 833576874
833578453 833578465
833580673 833580714
833663473 833663500
833673673 833673702
833681833 833681862
833731273 833731309
833742313 833742353
833771833 833771872
833794753 833794793
833811793 833811843
833847373 833847391
833869633 833869636
833885533 833885546
833936833 833936851
833947513 833947562
834037333 834037337
834040633 834040679
834047953 834047987
834069553 834069565
834091993 834092009
834097693 834097729
834105133 834105154
834126733 834126739
834178753 834178785
834189193 834189235
834193573 834193600
834206173 834206183
834218893 834218910
834270493 834270535
834282013 834282053
834294373 834294409
834301873 834301878
834312193 834312213
834322993 834323001
834340033 834340040
834345793 834345832
834350533 834350584
834358393 834358433
834368473 834368528
834390133 834390187
834420973 834420999
834424273 834424301
834435493 834435530
834437773 834437802
834509293 834509328
834510793 834510814
834518353 834518386
834520093 834520144
834556242 834556273
834568153 834568202
834569948 834569953
834571213 834571217
834573350 834573373
834573853 834573910
834573992 834574033
834594295 834594313
834596593 834596645
834598884 834598933
834614353 834614407
834620814 834620833
834622813 834622864
834626164 834626173
834631933 834631954
834633082 834633133
834636137 834636193
834636253 834636296
834641495 834641533
834642553 834642562
834644221 834644233
834646513 834646519
834647513 834647533
834648013 834648015
834648096 834648133
834649753 834649781
834651954 834651973
834656893 834656939
834658682 834658693
834660373 834660411
834660502 834660553
834660793 834660834
834662144 834662173
834665113 834665166
834666136 834666193
834667153 834667195
834668463 834668473
834676213 834676245
834677878 834677893
834687733 834687749
834688912 834688933
834691093 834691116
834693900 834693913
834707473 834707500
834709720 834709753
834715873 834715925
834717324 834717373
834723853 834723908
834725179 834725233
834727093 834727118
834728253 834728293
834731713 834731726
834732621 834732673
834733093 834733106
834734187 834734233
834744433 834744448
834745836 834745873
834765433 834765466
834765577 834765613
834776473 834776514
834776571 834776593
834777013 834777029
834777285 834777313
834778633 834778656
834779704 834779713
834781873 834781894
834783768 834783793
834787753 834787793
834788996 834789013
834795913 834795924
834796832 834796873
834797473 834797525
834798296 834798313
834801230 834801253
834801853 834801886
834810552 834810553
834811153 834811190
834811276 834811333
834833053 834833075
834836382 834836413
834841033 834841040
834842567 834842593
834844453 834844491
834845499 834845533
834846553 834846571
834848376 834848413
834850813 834850827
834870058 834870073
834873793 834873849
834875129 834875173
834878053 834878094
834878969 834879013
834896173 834896184
834897114 834897133
834906073 834906106
834906993 834907033
834930373 834930414
834932773 834932829
834933728 834933733
834948553 834948576
834948898 834948913
834950173 834950181
834954624 834954673
834954793 834954844
834955940 834955993
834960373 834960433
834961469 834961513
834963553 834963579
834964591 834964633
834983653 834983663
834983697 834983713
834985753 834985755
834995603 834995653
835005673 835005696
835006771 835006813
835009393 835009413
835010582 835010593
835020073 835020087
835021459 835021513
835039693 835039737
835047553 835047606
835099633 835099671
835102093 835102105
835102993 835103044
835148473 835148485
835149553 835149561
835212313 835212358
835253893 835253932
835260793 835260842
835264273 835264290
835275733 835275760
835306573 835306587
835315213 835315224
835330933 835330936
835346653 835346684
835358533 835358557
835361833 835361871
835367953 835367994
835372513 835372514
835392073 835392125
835397893 835397912
835401013 835401065
835404373 835404410
835411633 835411657
835450033 835450039
835480033 835480056
835482853 835482892
835486573 835486620
835498873 835498892
835508593 835508645
835551553 835551568
835555573 835555606
835565653 835565672
835567453 835567489
835643653 835643705
835648033 835648034
835696813 835696823
835721833 835721853
835726333 835726353
835731733 835731780
835770733 835770758
835804333 835804341
835814413 835814418
835818133 835818152
835848133 835848163
835888393 835888415
835895113 835895155
835954333 835954345
835958893 835958902
835961413 835961458
835978753 835978799
835984093 835984132
835988653 835988688
835989613 835989661
836063473 836063489
836078833 836078869
836097853 836097906
836119273 836119289
836163613 836163654
836165653 836165698
836170093 836170094
836172373 836172398
836183833 836183873
836188633 836188665
836197393 836197409
836202433 836202438
836221933 836221976
836234593 836234608
836243533 836243538
836247733 836247776
836259673 836259728
836293093 836293131
836306113 836306137
836331613 836331629
836333533 836333581
836352733 836352742
836354173 836354206
836356453 836356483
836379073 836379090
836391253 836391283
836395933 836395968
836412493 836412538
836426833 836426860
836453893 836453924
836459653 836459684
836461573 836461575
836465113 836465127
836468293 836468341
836472313 836472329
836485033 836485086
836502313 836502314
836514013 836514023
836578693 836578719
836583433 836583456
836588773 836588788
836593993 836594002
836602393 836602436
836603713 836603752
836607253 836607256
836609953 836609994
836616853 836616864
836632753 836632777
836649073 836649100
836664913 836664961
836695093 836695104
836709913 836709942
836762293 836762304
836766373 836766378
836769073 836769088
836771113 836771131
836776333 836776358
836800453 836800497
836848153 836848171
836858113 836858162
836861773 836861782
836928973 836929022
836932093 836932107
836934853 836934877
836948833 836948870
836958073 836958118
836965093 836965111
837025873 837025904
837033733 837033741
837038053 837038084
837070813 837070868
837078613 837078632
837085873 837085902
837093133 837093177
837109033 837109068
837124873 837124927
837135013 837135043
837156013 837156014
837162853 837162879
837176653 837176706
837188533 837188554
837193513 837193522
837202153 837202196
837204673 837204722
837219433 837219436
837222253 837222294
837223393 837223449
837322033 837322041
837330193 837330217
837344593 837344626
837347053 837347073
837372253 837372255
837442153 837442156
837444013 837444016
837446593 837446622
837454333 837454384
837474673 837474693
837479653 837479687
837505873 837505926
837509533 837509581
837510853 837510875
837515533 837515541
837516913 837516965
837523993 837524015
837600193 837600204
837601393 837601431
837628273 837628327
837636313 837636336
837641653 837641688
837651913 837651958
837667933 837667951
837723733 837723753
837766513 837766538
837778273 837778282
837787273 837787284
837815473 837815487
837832393 837832402
837843253 837843258
837865933 837865957
837924253 837924306
837959893 837959935
837986953 837986959
838041793 838041821
838064533 838064569
838071493 838071520
838078933 838078972
838087153 838087187
838108393 838108416
838131133 838131150
838131373 838131386
838153933 838153987
838157833 838157857
838160233 838160249
838174513 838174534
838225033 838225066
838238533 838238575
838257913 838257963
838292713 838292739
838295713 838295758
838373653 838373693
838399513 838399519
838406353 838406369
838410373 838410407
838415413 838415442
838419133 838419189
838469773 838469781
838569433 838569439
838609813 838609841
838629613 838629614
838635733 838635776
838654693 838654726
838662193 838662210
838663093 838663095
838664353 838664384
838683793 838683799
838688353 838688378
838713253 838713259
838844113 838844166
838924093 838924129
838997113 838997143
839004253 839004297
839025073 839025080
839033893 839033945
839121433 839121443
839124853 839124900
839127733 839127744
839184613 839184668
839193193 839193205
839201773 839201776
839229073 839229088
839247673 839247725
839254573 839254594
839255833 839255873
839256373 839256385
839284933 839284959
839296813 839296822
839300113 839300121
839304313 839304322
839305633 839305668
839337913 839337937
839340553 839340592
839342233 839342265
839361313 839361316
839362993 839363020
839371033 839371053
839384773 839384814
839531953 839531966
839564713 839564715
839605213 839605223
839626453 839626508
839629573 839629601
839630653 839630703
839644993 839645032
839680393 839680446
839682793 839682825
839690773 839690788
839718673 839718680
839721973 839721977
839777293 839777328
839783053 839783099
839788333 839788378
839788813 839788830
839792293 839792333
839801293 839801329
839808193 839808222
839828533 839828581
839848813 839848823
839863873 839863878
839871313 839871349
839873833 839873857
839875873 839875907
839882893 839882906
839883013 839883049
839885293 839885321
839953813 839953828
839977633 839977657
840039673 840039697
840049273 840049276
840081733 840081737
840083833 840083837
840176713 840176733
840203593 840203631
840206413 840206460
840238333 840238344
840243973 840244000
840317173 840317227
840327193 840327196
840332293 840332328
840336313 840336352
840339433 840339442
840342133 840342183
840344353 840344359
840347053 840347095
840354073 840354120
840363253 840363263
840366493 840366504
840370633 840370664
840373093 840373122
840403933 840403945
840416533 840416572
840473653 840473691
840481273 840481307
840485593 840485621
840488413 840488444
840491953 840492010
840502633 840502638
840514453 840514504
840516433 840516479
840543253 840543283
840576613 840576661
840580753 840580799
840648613 840648633
840671293 840671297
840736813 840736828
840737653 840737681
840740713 840740761
840832633 840832679
840857893 840857943
840859753 840859801
840872233 840872254
840882613 840882645
840889993 840890020
840892093 840892095
840894973 840895008
840931153 840931192
840932653 840932664
840940753 840940792
840942733 840942752
840963733 840963766
840996013 840996055
841006633 841006660
841019173 841019205
841025173 841025197
841029253 841029306
841043533 841043553
841046773 841046797
841050493 841050496
841053613 841053618
841066873 841066897
841068493 841068503
841077853 841077855
841084453 841084475
841091173 841091181
841141933 841141961
841143793 841143796
841147813 841147844
841153753 841153797
841160053 841160086
841163353 841163374
841168693 841168704
841171573 841171582
841179013 841179060
841236733 841236739
841262293 841262336
841305673 841305700
841342873 841342896
841533313 841533348
841554493 841554530
841585993 841586017
841681693 841681712
841768813 841768815
841792453 841792455
841922173 841922221
842027293 842027332
842033353 842033385
842037013 842037042
842046973 842047007
842048413 842048467
842055733 842055748
842057353 842057357
842103793 842103830
842205433 842205451
842219593 842219608
842303953 842303984
842309413 842309464
842385133 842385188
842387953 842387968
842409253 842409262
842468473 842468479
842492053 842492085
842561773 842561795
842586793 842586797
842653333 842653371
842803513 842803549
842808073 842808097
842814193 842814235
842816113 842816140
842821873 842821925
842823613 842823615
842825833 842825886
842832913 842832936
842882173 842882214
842884453 842884458
842887393 842887418
842894953 842894991
842903353 842903375
842903593 842903618
842907853 842907863
842910493 842910532
842913553 842913591
842916253 842916275
842916733 842916779
842928253 842928274
842972893 842972913
842981113 842981163
842988973 842989005
842994493 842994541
842996053 842996083
842997973 842997996
843025573 843025626
843167713 843167743
843174973 843175000
843240073 843240077
843410593 843410599
843410710 843410713
843414253 843414263
843421633 843421663
843427513 843427565
843431653 843431677
843435853 843435868
843460453 843460464
843495133 843495152
843501073 843501087
843571093 843571121
843582133 843582139
843589753 843589804
843604873 843604921
843674413 843674441
843721513 843721532
843729373 843729385
843742093 843742105
843744493 843744541
843753433 843753471
843848833 843848840
843887053 843887081
844027633 844027645
844097053 844097076
844120693 844120722
844182973 844183011
844245193 844245211
844310893 844310947
844348093 844348105
844361053 844361058
844361413 844361414
844361464 844361473
844362613 844362633
844379520 844379533
844424173 844424174
844464553 844464585
844508473 844508486
844526413 844526469
844697833 844697890
844707853 844707895
844771273 844771317
844870213 844870265
844967713 844967738
845038513 845038544
845065033 845065046
845158693 845158698
845222953 845222962
845238253 845238288
845325493 845325530
845329933 845329973
845377213 845377240
845398933 845398963
845421373 845421382
845486773 845486782
845486875 845486893
845503693 845503700
845504053 845504072
845540413 845540428
845590633 845590660
845643493 845643501
845659333 845659355
845668153 845668170
845674153 845674178
845811373 845811389
845999832 845999833
846006313 846006333
846012553 846012575
846013213 846013230
846016693 846016727
846092293 846092301
846095533 846095571
846101653 846101667
846106873 846106904
846173233 846173275
846176113 846176125
846194773 846194778
846195133 846195180
846198013 846198055
846255373 846255399
846271393 846271432
846272473 846272475
846324313 846324333
846340993 846341022
846345373 846345393
846377833 846377836
846382513 846382524
846440173 846440191
846457813 846457825
846623773 846623795
846641653 846641654
846826513 846826569
846834613 846834645
846844693 846844732
846855253 846855280
846856033 846856054
847121113 847121134
847122853 847122876
847130053 847130067
847225933 847225973
847230613 847230658
847384633 847384683
847417093 847417125
847433233 847433264
847604953 847604965
847625053 847625073
847661533 847661557
847732813 847732816
847736953 847736955
847737433 847737483
847738153 847738188
847753393 847753435
847797133 847797165
847836313 847836373
847861573 847861622
847861689 847861693
847883713 847883765
847907767 847907773
847915333 847915384
847922233 847922267
847945273 847945293
847955113 847955163
848069473 848069492
848086213 848086250
848095213 848095229
848133913 848133959
848155993 848156007
848229913 848229944
848320273 848320290
848326093 848326118
848330593 848330600
848347273 848347310
848348353 848348400
848418253 848418298
848439973 848439990
848466313 848466317
848629993 848630010
848673433 848673457
848736733 848736750
848795893 848795927
848855593 848855649
848878273 848878306
848896813 848896840
848944273 848944322
848963713 848963726
849018013 849018049
849031813 849031845
849050293 849050347
849053473 849053476
849112153 849112178
849213013 849213046
849214753 849214801
849248233 849248244
849300013 849300029
849427453 849427506
849443413 849443429
849470593 849470625
849554413 849554425
849564253 849564291
849565138 849565153
849565273 849565319
849637813 849637851
849711493 849711515
849729313 849729318
849750973 849751013
849787273 849787311
849870133 849870150
849903493 849903538
849908413 849908417
849911653 849911705
849927253 849927285
849958753 849958807
849996193 849996238
849996793 849996833
850066753 850066774
850111273 850111307
850112233 850112273
850137733 850137783
850161553 850161576
850187413 850187443
850278253 850278295
850317433 850317459
850333873 850333877
850334113 850334156
850336573 850336589
850340593 850340632
850346053 850346072
850395853 850395856
850514473 850514500
850517953 850518004
850642993 850643035
850679353 850679385
850694593 850694602
850697173 850697189
850715773 850715830
850723153 850723189
850853413 850853423
850856833 850856888
850940413 850940456
851038873 851038877
851083093 851083097
851111293 851111335
851144053 851144128
851408053 851408108
851513353 851513398
851522173 851522177
851698033 851698054
851787973 851787975
851864173 851864221
852019213 852019254
852047773 852047804
852070033 852070053
852102133 852102157
852144733 852144755
852149473 852149521
852313033 852313035
852323413 852323454
852325453 852325464
852414673 852414690
852415333 852415356
852426973 852427007
852427753 852427798
852440053 852440091
852493273 852493284
852566233 852566260
852581053 852581093
852587053 852587095
852590533 852590551
852648673 852648677
852679333 852679339
852697993 852698001
852715693 852715736
852794533 852794545
852828253 852828277
852833713 852833714
852920953 852920969
852926233 852926258
853024153 853024167
853196713 853196732
853206673 853206711
853263973 853264017
853272973 853272981
853276453 853276488
853315993 853316011
853344433 853344479
853351153 853351203
853358833 853358875
853414933 853414965
853444753 853444758
853479013 853479064
853483033 853483088
854292373 854292423
854311873 854311877
854408773 854408775
