816209618 816209621
818454115 818454117
819828916 819828919
821388575 821388577
825654182 825654186
826090545 826090548
826174676 826174679
827161513 827161516
827855189 827855192
829283255 829283258
829283397 829283400
829284017 829284020
829284103 829284106
829284187 829284190
829284193 829284196
829284268 829284271
829284294 829284297
829284311 829284314
829284326 829284329
829284344 829284347
829284348 829284351
829284363 829284367
829284464 829284467
829284513 829284516
829284621 829284624
829285048 829285051
829285241 829285244
829286209 829286214
830138912 830138915
830342820 830342823
830681255 830681258
830681311 830681314
832636337 832636340
834121606 834121609
834189235 834189238
834668937 834668940
835562587 835562590
835881595 835881598
835954345 835954348
836259728 836259731
837322041 837322044
838406369 838406372
840039697 840039699
840502638 840502641
840740761 840740763
841046797 841046800
849213046 849213049
850066774 850066776
850137784 850137786
850187443 850187446
853272982 853272984
855294905 855294908
859852117 859852120
863984376 863984378
865490997 865491000
867766562 867766565
868054799 868054802
868794196 868794213
873147575 873147578
