815571791 815571792
815580749 815580750
815590207 815590209
815777022 815777023
815798538 815798539
815836134 815836136
815890663 815890665
815913217 815913218
815928393 815928395
815931086 815931088
815972925 815972926
815988454 815988455
816002533 816002534
816003504 816003505
816008613 816008614
816073001 816073002
816092090 816092091
816095868 816095869
816099189 816099191
816183195 816183196
816185399 816185401
816189819 816189820
816192453 816192454
816195493 816195494
816200818 816200820
816203335 816203337
816208498 816208499
816209620 816209621
816212188 816212189
816214257 816214258
816215803 816215804
816271649 816271651
816277107 816277108
816285052 816285054
816291559 816291562
816353625 816353626
816360308 816360310
816363871 816363872
816369030 816369032
816384440 816384441
816390301 816390302
816394515 816394517
816430832 816430834
816439321 816439322
816445783 816445784
816448833 816448834
816457649 816457650
816471738 816471739
816481475 816481477
816493577 816493579
816535116 816535117
816540896 816540898
816548611 816548612
816563181 816563182
816572183 816572184
816623336 816623337
816630187 816630189
816633690 816633691
816635159 816635161
816637722 816637723
816707756 816707758
816708387 816708388
816807238 816807240
816814201 816814203
816818430 816818432
816823637 816823639
816865203 816865204
816897945 816897946
816908941 816908943
816914024 816914026
816922517 816922519
816946987 816946988
816962660 816962662
816969492 816969493
816971166 816971167
817031521 817031522
817068264 817068265
817077862 817077863
817080531 817080533
817082157 817082159
817103848 817103849
817178317 817178319
817224069 817224070
817232026 817232027
817238893 817238894
817243368 817243369
817252458 817252459
817275446 817275447
817312621 817312622
817314549 817314551
817334289 817334291
817340747 817340749
817347032 817347034
817351055 817351057
817362476 817362477
817405000 817405001
817423382 817423383
817425752 817425753
817442434 817442436
817454090 817454091
817485287 817485288
817492567 817492568
817496167 817496169
817503241 817503243
817510280 817510281
817549488 817549490
817552748 817552749
817564371 817564372
817569552 817569553
817570711 817570712
817592583 817592585
817596506 817596507
817600286 817600287
817662199 817662200
817682955 817682956
817687097 817687099
817707373 817707374
817753253 817753254
817764726 817764727
817770797 817770798
817821603 817821604
817824457 817824459
817839361 817839362
817852415 817852416
817859422 817859424
817870639 817870641
817915217 817915219
817940321 817940322
818034386 818034387
818059295 818059296
818068489 818068490
818077212 818077213
818112842 818112843
818145095 818145097
818161430 818161431
818172856 818172857
818180106 818180107
818238926 818238927
818261522 818261524
818267553 818267554
818286926 818286928
818322391 818322393
818326545 818326546
818338838 818338839
818343193 818343195
818346867 818346868
818356322 818356323
818365826 818365827
818370728 818370729
818407409 818407411
818426544 818426546
818439004 818439005
818460091 818460092
818479731 818479732
818524805 818524807
818548889 818548891
818551038 818551039
818575729 818575730
818604216 818604218
818619191 818619192
818635046 818635047
818636581 818636582
818645238 818645240
818654700 818654702
818677634 818677636
818687206 818687207
818715348 818715349
818718060 818718061
818719633 818719634
818723649 818723650
818728439 818728440
818768759 818768760
818793817 818793819
818800616 818800617
818814998 818814999
818817035 818817037
818860256 818860257
818878587 818878588
818888298 818888299
818952386 818952387
818954320 818954321
819028050 819028051
819060222 819060223
819066640 819066642
819077014 819077015
819094504 819094506
819113466 819113468
819201811 819201812
819204105 819204106
819211316 819211318
819216116 819216117
819269460 819269461
819295077 819295079
819299760 819299761
819317115 819317117
819362643 819362644
819370164 819370166
819380146 819380147
819404714 819404715
819410253 819410254
819418800 819418802
819555934 819555936
819579927 819579928
819600238 819600239
819640861 819640862
819661346 819661347
819729093 819729094
819756312 819756314
819790032 819790034
819801999 819802001
819829986 819829987
819837762 819837763
819842655 819842656
819849475 819849477
819887416 819887417
819901752 819901754
819922510 819922512
819927321 819927322
819968536 819968537
819977552 819977553
819979297 819979298
820002956 820002957
820049767 820049768
820054718 820054719
820060529 820060530
820063003 820063004
820100979 820100980
820103367 820103368
820107894 820107895
820111800 820111802
820147287 820147289
820151000 820151001
820157114 820157116
820172007 820172008
820194265 820194266
820250490 820250492
820275930 820275931
820284795 820284796
820321195 820321196
820327239 820327241
820380199 820380200
820399031 820399032
820424394 820424395
820433759 820433761
820443260 820443262
820479592 820479594
820507981 820507983
820510676 820510677
820544857 820544859
820554556 820554558
820557420 820557421
820562897 820562899
820626139 820626140
820635251 820635252
820700117 820700119
820713076 820713078
820716197 820716198
820732038 820732039
820733854 820733855
820741541 820741543
820748995 820748996
820752486 820752488
820805050 820805052
820828131 820828132
820847425 820847426
820854525 820854526
820858196 820858197
820861677 820861678
820863841 820863843
820867151 820867152
820873216 820873218
820894155 820894157
820909873 820909874
820942919 820942921
820967252 820967254
820973676 820973678
820981500 820981502
820998415 820998417
821056354 821056355
821063317 821063318
821076039 821076041
821100394 821100396
821133561 821133563
821136867 821136869
821182399 821182400
821217004 821217005
821222110 821222112
821232463 821232464
821307730 821307732
821344191 821344192
821363157 821363159
821456839 821456840
821467688 821467689
821477461 821477462
821480156 821480157
821483399 821483400
821484687 821484689
821486597 821486599
821514264 821514265
821520415 821520417
821522844 821522846
821543861 821543862
821548709 821548711
821582827 821582829
821600274 821600275
821612961 821612963
821629366 821629368
821635243 821635245
821641542 821641544
821648125 821648126
821653475 821653476
821659691 821659692
821663998 821663999
821681691 821681693
821684653 821684654
821718678 821718679
821720816 821720817
821725823 821725824
821738177 821738178
821742812 821742814
821746987 821746988
821781399 821781401
821783066 821783067
821785185 821785187
821787283 821787285
821798777 821798778
821801993 821801994
821805142 821805143
821820770 821820772
821822425 821822426
821824758 821824759
821826639 821826640
821831462 821831463
821833100 821833101
821840710 821840711
821909505 821909506
821915135 821915136
821969308 821969310
822003395 822003396
822077764 822077765
822081059 822081060
822088210 822088212
822089769 822089770
822092531 822092532
822094561 822094562
822182958 822182959
822435586 822435587
822737942 822737943
822915002 822915003
822920424 822920425
822966527 822966528
823029641 823029643
824314384 824314386
824397924 824397925
824454270 824454271
824502082 824502083
824674559 824674561
824683021 824683023
824730029 824730031
824742761 824742762
824750484 824750485
824844896 824844897
824855362 824855363
824872780 824872782
825170503 825170504
825529250 825529251
825540015 825540016
825545891 825545892
825582019 825582020
825590820 825590822
825654192 825654194
825739632 825739633
825764379 825764381
825770430 825770432
825822821 825822822
825889621 825889622
825915193 825915194
825956707 825956708
826062514 826062515
826176801 826176803
826229401 826229402
826320944 826320945
826326944 826326945
826387556 826387557
826469869 826469871
826489479 826489480
826547971 826547972
826556168 826556169
826643625 826643627
826730506 826730507
826810542 826810544
826812909 826812912
826958945 826958946
826966028 826966029
827161515 827161516
827237188 827237189
827267796 827267798
827291901 827291902
827352977 827352978
827513080 827513081
827588655 827588656
827618506 827618509
827784131 827784132
827817748 827817750
827849247 827849248
827987324 827987325
828153417 828153418
828284956 828284957
828342814 828342815
828619902 828619903
828716465 828716466
828891277 828891278
828995025 828995026
829248335 829248337
829335974 829335975
829351247 829351248
829380215 829380216
829395385 829395386
829601395 829601396
829611200 829611202
829634661 829634663
829726215 829726217
829890260 829890261
829937806 829937809
829981979 829981981
830036671 830036672
830113844 830113846
830127783 830127784
830140741 830140742
830155758 830155759
830187226 830187227
830196106 830196107
830342822 830342823
830365589 830365590
830387273 830387274
830428705 830428707
830452116 830452117
830617322 830617323
830815454 830815455
830827854 830827855
830833524 830833525
830845779 830845780
830869464 830869465
830881246 830881247
830892713 830892715
830895314 830895315
830904875 830904876
830985459 830985460
831056866 831056868
831065007 831065009
831104682 831104684
831134435 831134436
831168195 831168196
831171603 831171604
831242156 831242157
831419092 831419093
831421002 831421003
831454734 831454736
831495687 831495688
831510555 831510557
831616696 831616697
831621241 831621242
831688973 831688974
831742859 831742860
831956335 831956336
831982733 831982734
832100554 832100556
832109385 832109386
832111575 832111577
832197084 832197085
832296459 832296460
832331764 832331765
832339016 832339017
832404340 832404341
832454608 832454609
832479856 832479857
832509815 832509816
832542567 832542568
832601944 832601945
832619113 832619115
832627558 832627560
832650622 832650623
832652851 832652853
832682562 832682564
832699056 832699057
832716698 832716700
832725274 832725275
832801970 832801972
832812554 832812555
832821976 832821978
832837258 832837260
832923584 832923586
832950599 832950601
833035635 833035637
833069191 833069193
833089662 833089664
833091182 833091183
833122124 833122126
833137610 833137611
833140820 833140821
833147272 833147273
833292377 833292379
833304668 833304670
833317938 833317940
833320153 833320154
833324061 833324062
833398091 833398093
833412459 833412460
833418062 833418063
833433252 833433253
833480337 833480338
833576876 833576877
833578467 833578468
833663501 833663503
833742355 833742356
833753692 833753693
833771873 833771874
833794795 833794796
833847393 833847394
833936852 833936853
833947563 833947565
834037338 834037340
834047988 834047990
834069566 834069567
834092010 834092011
834097729 834097730
834105156 834105157
834117431 834117432
834126740 834126742
834178786 834178787
834189237 834189238
834193601 834193603
834206184 834206185
834218912 834218913
834270536 834270538
834282055 834282056
834301880 834301881
834312215 834312216
834323003 834323004
834345833 834345835
834350586 834350587
834368530 834368531
834374714 834374716
834390189 834390190
834424302 834424303
834435532 834435534
834437804 834437805
834509329 834509330
834510815 834510817
834520146 834520147
834524292 834524293
834568203 834568204
834571218 834571219
834631956 834631957
834636298 834636299
834642563 834642565
834646520 834646522
834649782 834649784
834656940 834656941
834660836 834660837
834665167 834665168
834667196 834667198
834676246 834676248
834687750 834687752
834691118 834691119
834707502 834707503
834715926 834715927
834723909 834723911
834727120 834727121
834731728 834731729
834733107 834733109
834744449 834744450
834778658 834778659
834781896 834781897
834787794 834787796
834795925 834795927
834833077 834833078
834841041 834841042
834844492 834844494
834846572 834846574
834873851 834873852
834878096 834878097
834896185 834896187
834906108 834906109
834930416 834930417
834932830 834932832
834950373 834950374
834954845 834954846
834960434 834960435
834963580 834963582
835005698 835005700
835039739 835039740
835047607 835047609
835099672 835099673
835102106 835102107
835103046 835103047
835149563 835149564
835212360 835212361
835253932 835253934
835260844 835260845
835264292 835264293
835275761 835275762
835330938 835330939
835346686 835346687
835358559 835358560
835361872 835361874
835367996 835367997
835397913 835397914
835401066 835401068
835404411 835404412
835450040 835450042
835480058 835480060
835482894 835482895
835486621 835486622
835498893 835498895
835503731 835503733
835505952 835505953
835508646 835508648
835555607 835555608
835565674 835565675
835648036 835648037
835696824 835696826
835721855 835721856
835770760 835770761
835804342 835804344
835848165 835848166
835888416 835888417
835895156 835895158
835954347 835954348
835958903 835958905
835961460 835961461
835978800 835978801
835984134 835984135
836063490 836063492
836080694 836080696
836097907 836097909
836119291 836119292
836163655 836163657
836165700 836165701
836170095 836170097
836172399 836172400
836183874 836183876
836197411 836197412
836198772 836198774
836202439 836202440
836221977 836221979
836234610 836234611
836247778 836247779
836259730 836259731
836293133 836293134
836306138 836306140
836333583 836333584
836352745 836352746
836354208 836354209
836356485 836356486
836361854 836361856
836379092 836379093
836391284 836391286
836395970 836395971
836453926 836453927
836459686 836459687
836461577 836461578
836465129 836465131
836468342 836468344
836472330 836472332
836478312 836478313
836485087 836485089
836502316 836502317
836514025 836514026
836578720 836578722
836583457 836583459
836594003 836594005
836602437 836602438
836603753 836603755
836604984 836604985
836607257 836607258
836609995 836609997
836616865 836616867
836632778 836632780
836649102 836649104
836664962 836664963
836709944 836709946
836762305 836762306
836766378 836766380
836771133 836771134
836782094 836782095
836800498 836800499
836861784 836861785
836929023 836929024
836932109 836932110
836958119 836958120
836965113 836965114
837025906 837025907
837033742 837033744
837038085 837038086
837070869 837070870
837085904 837085905
837093178 837093180
837109069 837109071
837124927 837124929
837162881 837162882
837176707 837176709
837188555 837188556
837193524 837193525
837202197 837202199
837204724 837204725
837222295 837222296
837223450 837223452
837322043 837322044
837330218 837330220
837344628 837344629
837347075 837347076
837369551 837369552
837442158 837442159
837444017 837444019
837446624 837446625
837454386 837454388
837474694 837474696
837479688 837479690
837505928 837505929
837509583 837509585
837510876 837510878
837511839 837511840
837515543 837515544
837516966 837516967
837524016 837524017
837600206 837600207
837601433 837601434
837628329 837628330
837644053 837644054
837651959 837651961
837667953 837667954
837766539 837766540
837778283 837778285
837787285 837787286
837815488 837815489
837832404 837832405
837843260 837843262
837924308 837924309
837959937 837959938
838041823 838041824
838071522 838071523
838087189 838087190
838108418 838108420
838153989 838153990
838160250 838160252
838225068 838225069
838257964 838257966
838292740 838292741
838295759 838295760
838373695 838373696
838399521 838399522
838406371 838406372
838410409 838410410
838419190 838419191
838609843 838609844
838635777 838635778
838663097 838663098
838664386 838664387
838822634 838822636
838924130 838924132
839025082 839025083
839033946 839033947
839065086 839065087
839121444 839121445
839124901 839124902
839127745 839127746
839184669 839184671
839201777 839201779
839229089 839229091
839247727 839247728
839254595 839254597
839256386 839256387
839300122 839300123
839304323 839304324
839305669 839305670
839337939 839337940
839342267 839342268
839361317 839361318
839363022 839363023
839531967 839531969
839605224 839605225
839629602 839629603
839645033 839645035
839680449 839680450
839682827 839682828
839690790 839690791
839808224 839808225
839848824 839848826
839871351 839871352
840049278 840049279
840083839 840083840
840206461 840206463
840238346 840238348
840317229 840317230
840319153 840319155
840327197 840327200
840332330 840332331
840336353 840336354
840339443 840339445
840342185 840342186
840344360 840344362
840347096 840347098
840354121 840354123
840363265 840363266
840366505 840366506
840370666 840370667
840373124 840373125
840403946 840403948
840416573 840416574
840488445 840488447
840492011 840492012
840502640 840502642
840514506 840514507
840516481 840516482
840543285 840543286
840544633 840544634
840576663 840576664
840580801 840580802
840648634 840648636
840671298 840671300
840859802 840859803
840872255 840872256
840882646 840882648
840890022 840890023
840892097 840892098
840895009 840895010
840926473 840926475
840940793 840940795
840942753 840942754
840944954 840944955
840963767 840963768
840996057 840996058
841019206 841019208
841020855 841020856
841025198 841025199
841026371 841026373
841029308 841029309
841035371 841035372
841043555 841043557
841046799 841046800
841050498 841050499
841053619 841053621
841068504 841068505
841073031 841073033
841077856 841077858
841084476 841084477
841143797 841143798
841147845 841147846
841153798 841153800
841160087 841160089
841163375 841163377
841171583 841171584
841179062 841179063
841262338 841262339
841305701 841305703
841342897 841342898
841792457 841792458
842037044 842037045
842048468 842048470
842103831 842103833
842309465 842309467
842385190 842385191
842409263 842409264
842492086 842492088
842561796 842561798
842586798 842586799
842653372 842653373
842903619 842903620
842913592 842913594
842987112 842987113
842994542 842994545
842996084 842996086
843025627 843025629
843167744 843167745
843427566 843427567
843431678 843431680
843460466 843460467
843571123 843571124
843589806 843589807
843674443 843674444
843721533 843721534
843729386 843729387
843742106 843742107
843744543 843744544
843753473 843753474
843887082 843887084
844097077 844097078
844310949 844310950
844348107 844348108
844526470 844526472
844623132 844623133
844697891 844697893
844870267 844870268
845038546 845038547
845065048 845065049
845222964 845222965
845329975 845329976
845377242 845377243
845398965 845398966
845421384 845421385
845668172 845668173
846106906 846106907
846198057 846198058
846324335 846324336
846342250 846342251
846345395 846345396
846377837 846377838
846623796 846623797
846641656 846641657
846826571 846826572
846834647 846834648
847417126 847417127
847433265 847433266
847604966 847604971
847625075 847625079
847661557 847661562
847753435 847753440
847883741 847883768
847915381 847915386
847922264 847922268
847945290 847945295
847955161 847955164
848095229 848095232
848320291 848320293
848326120 848326122
848330602 848330604
848630012 848630013
848795928 848795930
848855650 848855652
848865373 848865374
848878307 848878309
848944324 848944325
849053477 849053478
849112179 849112180
849213048 849213049
849214803 849214804
849248245 849248247
849427508 849427510
849443431 849443432
849554427 849554428
849711517 849711518
849751014 849751016
849903539 849903540
849908419 849908420
849911707 849911708
849927287 849927288
850187445 850187446
850278297 850278298
850346073 850346074
850395857 850395859
850514502 850514503
850643036 850643038
850715831 850715832
850723191 850723192
850853424 850853426
851038879 851038880
851083099 851083100
851111336 851111338
851787977 851787978
851864222 851864224
852019255 852019257
852047806 852047807
852149522 852149523
852323456 852323457
852493285 852493286
852566262 852566263
852581094 852581096
852644894 852644895
852648678 852648679
852698003 852698005
852828278 852828280
852920971 852920972
853196733 853196735
853264018 853264019
853316012 853316014
853344480 853344482
853747197 853747199
854050936 854050937
854171884 854171885
854198246 854198247
854288384 854288385
854482251 854482252
855414411 855414412
855526487 855526489
855546457 855546458
855712869 855712871
855778741 855778742
855901526 855901527
855955336 855955338
856058221 856058222
856135779 856135780
856322034 856322035
856527718 856527719
856544306 856544307
856900938 856900940
856987278 856987280
857169286 857169287
857402387 857402388
857406433 857406434
857596931 857596932
857639339 857639340
857645452 857645453
857739208 857739209
857767052 857767053
857772391 857772392
857790250 857790252
858219652 858219653
858291807 858291808
858467834 858467835
858617714 858617716
858620392 858620393
858777107 858777108
858792797 858792799
858966263 858966264
858973813 858973814
858985566 858985567
859068996 859068998
859155442 859155443
859281380 859281381
859399949 859399950
859722652 859722654
859782848 859782849
859852119 859852121
859922118 859922119
859934498 859934499
859937572 859937573
860060492 860060494
860341498 860341499
860342999 860343000
860364450 860364451
860366162 860366163
860440203 860440205
860543425 860543426
860710825 860710826
860722395 860722396
860728993 860728995
860735194 860735196
860759718 860759720
860789308 860789309
860888759 860888760
860944704 860944705
860988153 860988154
861025279 861025280
861158552 861158553
861159902 861159903
861162747 861162749
861173546 861173547
861320417 861320418
861330512 861330513
861357119 861357120
861369642 861369644
861625603 861625604
861764618 861764619
861780144 861780145
861886167 861886168
861946275 861946276
861996889 861996891
862130481 862130482
862158453 862158454
862177048 862177049
862179452 862179453
862258345 862258346
862521815 862521816
862599906 862599907
862668097 862668098
862698698 862698699
862947251 862947252
862957993 862957995
863053276 863053278
863202529 863202531
863216964 863216965
863344411 863344413
863377907 863377908
863669776 863669777
864058997 864058999
864253445 864253446
864257765 864257766
864434097 864434099
864592284 864592285
864594250 864594252
864606934 864606935
864777348 864777349
864778547 864778549
865034994 865034995
865057164 865057165
865185448 865185450
865345198 865345199
865490999 865491001
865645724 865645725
865668380 865668382
865743331 865743333
865864247 865864248
865876537 865876538
865885248 865885250
865893522 865893523
866168708 866168709
866169995 866169996
866223872 866223874
866413924 866413926
866447400 866447401
866497431 866497433
866583669 866583671
866736424 866736425
866738365 866738367
866958188 866958190
867036681 867036683
867121310 867121311
867170846 867170847
867191170 867191172
867353147 867353148
867689606 867689607
867766564 867766565
867795637 867795638
867836866 867836867
868054801 868054802
868631330 868631331
868662761 868662762
868745036 868745037
868864980 868864981
869051382 869051383
869234027 869234028
869413837 869413838
869466234 869466236
869831494 869831496
870007512 870007514
870059882 870059883
870177900 870177901
870273275 870273276
870274343 870274345
870342133 870342134
870403873 870403874
870467421 870467422
870568242 870568243
870743032 870743033
870763696 870763697
870815200 870815201
870905951 870905952
870939918 870939919
870960081 870960082
871016645 871016646
871032523 871032524
871075844 871075845
871243439 871243440
871272694 871272696
871291520 871291521
871329515 871329516
871392602 871392603
871597100 871597101
871685684 871685685
872104001 872104003
872242604 872242605
872367581 872367582
872373274 872373275
872515649 872515650
872564699 872564700
872626263 872626264
872635370 872635371
872709124 872709126
872731826 872731828
872885773 872885774
873081668 873081670
873103495 873103496
873119803 873119805
873141123 873141124
873147577 873147578
873179450 873179451
873424756 873424758
873631800 873631802
873645313 873645314
873745623 873745625
873959137 873959139
873994944 873994945
874132567 874132569
874275439 874275440
874313464 874313466
874316938 874316940
874347702 874347703
874352760 874352761
874436901 874436903
874514096 874514097
874622926 874622927
874706781 874706783
874817620 874817621
874848009 874848011
874979375 874979376
874984892 874984893
875022654 875022655
875041725 875041726
875104061 875104062
875167232 875167234
875184833 875184836
