816166353 816166370
817420778 817420795
817534455 817534472
817703473 817703490
818803900 818803917
819673737 819673754
819759369 819759386
819917808 819917825
820446927 820446944
821731401 821731418
821748018 821748035
821828728 821828745
822779882 822779899
823036778 823036795
824473639 824473656
824474862 824474879
824485378 824485395
824495994 824496011
824496524 824496541
824496815 824496832
824499794 824499811
824507103 824507120
825439266 825439283
825782029 825782046
825870178 825870195
825913202 825913219
826045177 826045194
826045185 826045202
826045202 826045219
826045212 826045229
826045219 826045236
826045232 826045249
826045241 826045258
826045746 826045763
826059700 826059717
826059723 826059740
826214618 826214635
826326463 826326480
826337347 826337364
826475109 826475126
826475173 826475190
826485016 826485033
826485090 826485107
826485185 826485202
826485552 826485569
827258769 827258786
827627073 827627090
829347153 829347170
829510852 829510869
829511854 829511871
829670319 829670336
829954225 829954242
830102066 830102083
830103223 830103240
830104523 830104540
830125755 830125772
830145263 830145281
830284003 830284020
830721580 830721597
830722081 830722098
830722260 830722277
830723233 830723250
830723245 830723262
830792840 830792857
831134076 831134093
