817049922 817049939
817420778 817420795
818803900 818803917
820446927 820446944
821748018 821748035
821827799 821827816
821828728 821828745
822779882 822779899
824474862 824474879
824485378 824485395
824494581 824494598
824496524 824496541
824499794 824499811
824507103 824507120
825439266 825439283
825782029 825782046
825870178 825870195
825898568 825898585
825913202 825913219
825979611 825979628
826045178 826045195
826045728 826045745
826056799 826056816
826337347 826337364
826475109 826475126
826475173 826475190
826485016 826485033
826485184 826485201
826655778 826655795
826746862 826746879
827165374 827165391
827622525 827622542
827627073 827627090
827881982 827881999
827882279 827882296
827886100 827886117
828234122 828234139
829511484 829511502
829511854 829511871
829512966 829512983
829525239 829525256
829591649 829591666
829670319 829670336
829940717 829940734
830102066 830102083
830104522 830104539
830113709 830113726
830125755 830125772
830145264 830145281
830616470 830616487
830722081 830722098
830792840 830792857
