831360070 831360087
832015088 832015105
832194227 832194244
833056326 833056343
833217611 833217628
834356375 834356392
835725112 835725129
835725117 835725134
836841254 836841271
836843831 836843848
837448179 837448196
837448251 837448268
837449518 837449535
837451444 837451461
837451613 837451630
837451648 837451665
837451916 837451933
837539955 837539972
837550507 837550524
837806903 837806920
838499722 838499739
838656332 838656349
838657240 838657257
838660376 838660393
838660550 838660567
839106114 839106131
839119053 839119070
839609304 839609321
840749138 840749155
842372393 842372410
842811035 842811055
842811079 842811096
842811129 842811146
842811349 842811366
842827082 842827099
842897275 842897292
843258393 843258410
843586227 843586244
843850514 843850531
843862177 843862194
844101613 844101630
844122495 844122512
845664168 845664185
847119839 847119856
