847608363 847608380
847610193 847610210
847616166 847616183
847624225 847624242
847655387 847655404
847656937 847656954
847702748 847702765
847703092 847703109
847708944 847708961
847710268 847710285
847723487 847723504
847726541 847726558
847728660 847728677
847728680 847728697
847728829 847728846
847729125 847729142
847730427 847730444
847730458 847730475
847856195 847856212
847864047 847864064
847866728 847866745
847876859 847876876
847909256 847909273
847913652 847913669
847937816 847937833
847939671 847939688
847939689 847939706
847942401 847942418
847964124 847964141
847984191 847984208
847984234 847984251
847984400 847984417
847984420 847984439
847984563 847984580
847985353 847985370
847986335 847986352
847987122 847987139
847987297 847987314
847987595 847987612
847994607 847994624
847996054 847996071
847999779 847999796
847999788 847999805
848001790 848001807
848036813 848036830
848042265 848042282
848045608 848045625
848050173 848050190
848052243 848052260
848058277 848058294
848058752 848058769
848077480 848077497
848104156 848104173
848107573 848107590
848122475 848122492
848122742 848122759
848123197 848123214
848142485 848142502
848146810 848146827
848147243 848147260
848202280 848202297
848222742 848222759
848226013 848226030
848234163 848234180
848237593 848237610
848240296 848240313
848316720 848316737
848316878 848316895
848338806 848338823
848388481 848388498
848394929 848394946
848407234 848407251
848442774 848442791
848449385 848449402
848462042 848462059
848469984 848470001
848476714 848476731
848494098 848494115
848502405 848502422
848533855 848533872
848545690 848545707
848548447 848548464
848568916 848568933
848570457 848570474
848575521 848575538
848578209 848578226
848591469 848591486
848600595 848600612
848618045 848618062
848618377 848618394
848619138 848619155
848619358 848619375
848646020 848646037
848646543 848646560
848648385 848648402
848650741 848650758
848657409 848657426
848660386 848660403
848663219 848663236
848663250 848663267
848668218 848668235
848671919 848671936
848671963 848671980
848678217 848678234
848680593 848680610
848680612 848680629
848680698 848680715
848681181 848681198
848681352 848681369
848681493 848681510
848681524 848681541
848681536 848681553
848682081 848682098
848682547 848682566
848683069 848683086
848683773 848683790
848687613 848687630
848687622 848687639
848688845 848688862
848688852 848688869
848690223 848690240
848690273 848690290
848691069 848691086
848691090 848691107
848698813 848698830
848741273 848741290
848750448 848750465
848786837 848786854
848820056 848820073
848820569 848820586
848822784 848822801
848834232 848834249
848837832 848837849
848852687 848852704
848861279 848861296
848861369 848861386
848861389 848861406
848862032 848862049
848862069 848862086
848862445 848862462
848862464 848862481
848862617 848862634
848863185 848863202
848863250 848863267
848863276 848863293
848890972 848890989
848904907 848904924
848906761 848906778
848931740 848931757
848950395 848950412
848954163 848954180
848961047 848961064
848975729 848975746
848976934 848976951
848983783 848983800
848986399 848986416
848992888 848992905
849002767 849002784
849012316 849012333
849013508 849013525
849018834 849018851
849019594 849019611
849037878 849037895
849062920 849062937
849085841 849085858
849088041 849088058
849097300 849097317
849153817 849153834
849176894 849176911
849179078 849179095
849179119 849179136
849180181 849180198
849180232 849180249
849180311 849180328
849180888 849180905
849181114 849181131
849183542 849183559
849196266 849196283
849201569 849201586
849206944 849206961
849208649 849208666
849212381 849212398
849225997 849226014
849271121 849271138
849273971 849273988
849275921 849275938
849276669 849276686
849277374 849277391
849277494 849277511
849278327 849278344
849278452 849278469
849278503 849278520
849279575 849279592
849279868 849279885
849284053 849284070
849293358 849293375
849297747 849297764
849307929 849307946
849366194 849366211
849407520 849407538
849432527 849432544
849433640 849433657
849436381 849436398
849438794 849438811
849455733 849455750
849507381 849507398
849513258 849513275
849513966 849513983
849515698 849515715
849539671 849539688
849539981 849539998
849543687 849543706
849551204 849551221
849557176 849557193
849561487 849561504
849562279 849562296
849567087 849567104
849570228 849570245
849576071 849576088
849576076 849576093
849576110 849576127
849576259 849576276
849579757 849579774
849584992 849585009
849587291 849587308
849598153 849598170
849598536 849598553
849599212 849599229
849602081 849602098
849604943 849604960
849606862 849606879
849607645 849607662
849609321 849609338
849611733 849611750
849622727 849622744
849627132 849627149
849682551 849682568
849690658 849690675
849696877 849696894
849715615 849715632
849722406 849722423
849749711 849749728
849758043 849758060
849774836 849774853
849777520 849777537
849797853 849797870
849803716 849803733
849811544 849811561
849819918 849819935
849835704 849835721
849859285 849859302
849860515 849860532
849874154 849874171
849879444 849879461
849898226 849898243
849936534 849936551
849941690 849941707
849947879 849947896
849951897 849951914
849973384 849973401
850000565 850000582
850001210 850001227
850001347 850001364
850001760 850001777
850002744 850002761
850004064 850004081
850004393 850004410
850004934 850004951
850005570 850005587
850007797 850007814
850009372 850009389
850011738 850011755
850015709 850015726
850016556 850016573
850021013 850021030
850025015 850025032
850028097 850028114
850029011 850029028
850042072 850042089
850044087 850044104
850047907 850047924
850048961 850048978
850049921 850049938
850050219 850050236
850051198 850051215
850053201 850053218
850054593 850054610
850063126 850063143
850064217 850064234
850131116 850131133
850136029 850136046
850155465 850155482
850169686 850169703
850171783 850171800
850172370 850172387
850172422 850172439
850172437 850172454
850172466 850172483
850172504 850172521
850172511 850172528
850176972 850176989
850178789 850178806
850179242 850179259
850267467 850267484
850270646 850270663
850271994 850272011
850274186 850274203
850284362 850284379
850285189 850285206
850285330 850285347
850286930 850286947
850288827 850288844
850295041 850295058
850311024 850311041
850311894 850311911
850312636 850312653
850313909 850313926
850314735 850314752
850315633 850315650
850317019 850317036
850317027 850317044
850354911 850354928
850378796 850378813
850378974 850378991
850418177 850418194
850422054 850422071
850437485 850437502
850439024 850439041
850448577 850448594
850448869 850448886
850468903 850468920
850474505 850474522
850510187 850510204
850516141 850516158
850542749 850542766
850546627 850546644
850570151 850570168
850603207 850603224
850612588 850612605
850617715 850617732
850618370 850618387
850624923 850624940
850634665 850634682
850654317 850654334
850677131 850677148
850699261 850699278
850805289 850805306
850832194 850832211
850833136 850833153
850890708 850890725
850894673 850894690
850903349 850903366
850923124 850923141
850929359 850929376
850931608 850931625
850946118 850946135
850953228 850953245
850967894 850967911
850970423 850970440
850970774 850970791
850989419 850989436
850996857 850996874
851013553 851013570
851061602 851061619
851065225 851065242
851073527 851073544
851075269 851075286
851090275 851090292
851098323 851098340
851121275 851121292
851133981 851133998
851444209 851444226
851481214 851481231
851487873 851487890
851513229 851513246
851623773 851623790
851632481 851632498
851653491 851653508
851703773 851703790
851713404 851713421
851744376 851744393
851772173 851772190
851825687 851825704
851830698 851830715
851868233 851868250
851918340 851918357
851964583 851964600
852001880 852001897
852036099 852036116
852036457 852036474
852099932 852099949
852142655 852142672
852148616 852148633
852162289 852162306
852189731 852189748
852193620 852193637
852197344 852197361
852293319 852293336
852359946 852359963
852417691 852417708
852419441 852419458
852420322 852420339
852422420 852422437
852422626 852422643
852431177 852431194
852433461 852433478
852436399 852436416
852437947 852437964
852469340 852469357
852470613 852470630
852478965 852478982
852511985 852512002
852570180 852570197
852632923 852632940
852638057 852638074
852639215 852639232
852723052 852723069
852734217 852734234
852760398 852760415
852766598 852766615
852777343 852777360
852783014 852783031
852814938 852814955
852830473 852830490
852848925 852848942
852862694 852862711
852880409 852880426
852896209 852896226
852918588 852918605
853028979 853028996
853041246 853041263
853054242 853054259
853096589 853096606
853128948 853128965
853132608 853132625
853152551 853152568
853221301 853221318
853270084 853270101
853272419 853272436
853274109 853274126
853278619 853278636
853355463 853355480
853360805 853360822
853373928 853373945
853428156 853428173
853497653 853497670
853501760 853501777
853599689 853599706
853751388 853751405
853755992 853756009
853760441 853760458
853833680 853833697
853838598 853838615
853953454 853953471
854132068 854132085
854132735 854132752
854145871 854145888
854162001 854162018
854162128 854162145
854175982 854175999
854180358 854180375
854192845 854192862
854239597 854239614
854242564 854242581
854246619 854246636
854252819 854252836
854256659 854256676
854256811 854256828
854264056 854264073
854267203 854267220
854277646 854277663
854328735 854328752
854330276 854330293
854332405 854332422
854350467 854350484
854400541 854400558
854414059 854414076
854417526 854417543
854434319 854434336
854440262 854440279
854448531 854448548
854469939 854469956
854487171 854487188
854499255 854499272
854500752 854500769
854515877 854515894
854534919 854534936
854553992 854554009
854595002 854595019
854647599 854647616
854771806 854771823
854794976 854794993
854799610 854799627
854802748 854802765
854835439 854835456
854846269 854846286
854849602 854849619
854876738 854876755
854887615 854887632
854906145 854906162
854929581 854929598
854942723 854942740
854974738 854974755
855034797 855034814
855052345 855052362
855074147 855074164
855119086 855119103
855207741 855207758
855213467 855213484
855243109 855243126
855270256 855270273
855277965 855277982
855281453 855281470
855294897 855294914
855296539 855296556
855303755 855303772
855397961 855397978
855408845 855408862
855413554 855413571
855466311 855466328
855468741 855468758
855493265 855493282
855577410 855577427
855622999 855623016
855655076 855655093
855662281 855662298
855665738 855665755
855681027 855681044
855792305 855792322
855827890 855827907
855831997 855832014
855870240 855870257
855887491 855887508
855891927 855891944
855900543 855900560
855903635 855903652
855909599 855909616
855924105 855924122
855943622 855943639
855948297 855948314
856006763 856006780
856008491 856008508
856008865 856008882
856009584 856009601
856009616 856009633
856010413 856010430
856010498 856010515
856011303 856011320
856011755 856011772
856016171 856016188
856020653 856020670
856021700 856021717
856057477 856057494
856064459 856064476
856065344 856065361
856085501 856085518
856087044 856087061
856093568 856093585
856102916 856102933
856105167 856105184
856111039 856111056
856117652 856117669
856121198 856121215
856139468 856139485
856148477 856148494
856197154 856197171
856243644 856243661
856245300 856245317
856269644 856269661
856274389 856274406
856285759 856285776
856299083 856299100
856299631 856299648
856303244 856303261
856315081 856315098
856317246 856317263
856354596 856354613
856372256 856372273
856409195 856409212
856413207 856413224
856413410 856413427
856466897 856466914
856482360 856482377
856515046 856515063
856526938 856526955
856567080 856567097
856590247 856590264
856600976 856600993
856607349 856607366
856610256 856610273
856660853 856660870
856672024 856672041
856701346 856701363
856702116 856702133
856712293 856712310
856752908 856752925
856776002 856776019
856817023 856817040
856819599 856819616
856843377 856843394
856844172 856844189
856849330 856849347
856853499 856853516
856867799 856867816
856869732 856869749
856875211 856875228
856888664 856888681
856921283 856921300
856926139 856926156
856927605 856927622
856932253 856932270
856933210 856933227
856936376 856936393
856941824 856941841
857048954 857048971
857060210 857060227
857063994 857064011
857087898 857087915
857104696 857104713
857117545 857117562
857128590 857128607
857131829 857131848
857131837 857131854
857131855 857131872
857131864 857131881
857131872 857131889
857131881 857131898
857148772 857148789
857148794 857148811
857172053 857172070
857175781 857175798
857203063 857203080
857213192 857213209
857229468 857229485
857231459 857231476
857279008 857279025
857299204 857299221
857299302 857299319
857299742 857299759
857299843 857299860
857301234 857301251
857304320 857304337
857312068 857312085
857318582 857318599
857319590 857319607
857325327 857325344
857327039 857327056
857328840 857328857
857350008 857350025
857386392 857386409
857425953 857425970
857448616 857448633
857480467 857480484
857481773 857481790
857495864 857495881
857506026 857506043
857507230 857507247
857548667 857548684
857558262 857558279
857570277 857570294
857585452 857585469
857670473 857670490
857670509 857670526
857675418 857675435
857682271 857682288
857689556 857689573
857692670 857692687
857697028 857697045
857699765 857699782
857700806 857700823
857700995 857701012
857702670 857702687
857703150 857703167
857704335 857704352
857729045 857729062
857749861 857749878
857751518 857751535
857755161 857755178
857762137 857762154
857762171 857762188
857762337 857762354
857762356 857762373
857763137 857763154
857773567 857773584
857774288 857774305
857775043 857775060
857775436 857775453
857776567 857776584
857776762 857776779
857776768 857776785
857776803 857776820
857776838 857776855
857776864 857776881
857776915 857776932
857776939 857776956
857777611 857777628
857777665 857777682
857777866 857777883
857778214 857778231
857778766 857778783
857778846 857778863
857778875 857778892
857778906 857778923
857779364 857779381
857780746 857780763
857785690 857785707
857785702 857785719
857787737 857787754
857787756 857787773
857787763 857787780
857787834 857787851
857788392 857788409
857788771 857788788
857789179 857789196
857793649 857793666
857793679 857793696
857793715 857793732
857793742 857793759
857793749 857793766
857793999 857794016
857794012 857794029
857794033 857794050
857794043 857794060
857794131 857794148
857794155 857794172
857794191 857794208
857794213 857794230
857794516 857794535
857794535 857794552
857794568 857794585
857794581 857794598
857795148 857795165
857795186 857795203
857795212 857795229
857795378 857795395
857795394 857795411
857796011 857796028
857796162 857796179
857799720 857799737
857799753 857799770
857800000 857800017
857800014 857800031
857800026 857800043
857800357 857800374
857800381 857800398
857801173 857801190
857802863 857802880
857806276 857806293
857807020 857807037
857810607 857810624
857817450 857817467
857818140 857818157
857849105 857849122
857849569 857849586
857850551 857850568
857850587 857850604
857850824 857850841
857851008 857851025
857863356 857863373
857863784 857863801
857863917 857863934
857864091 857864108
857864182 857864199
857864338 857864355
857865440 857865457
857865736 857865753
857865770 857865787
857865889 857865906
857865942 857865959
857865977 857865994
857866018 857866035
857866047 857866064
857866116 857866133
857866196 857866213
857866241 857866258
857866503 857866520
857866539 857866556
857866580 857866597
857866596 857866613
857866757 857866774
857868240 857868257
857871716 857871733
857872844 857872861
857877612 857877629
857878053 857878070
857878617 857878634
857878655 857878672
857881405 857881422
857881742 857881759
857887066 857887083
857887378 857887395
857888062 857888079
857888073 857888090
857888552 857888569
857893947 857893964
857922188 857922205
857922619 857922636
857923797 857923814
857925095 857925112
857935644 857935661
857938504 857938521
857941886 857941903
857963746 857963763
857966303 857966320
857970662 857970679
857980463 857980480
857982923 857982940
857993115 857993132
858009292 858009309
858047631 858047648
858050211 858050228
858057832 858057849
858066275 858066292
858160953 858160970
858161333 858161350
858161350 858161367
858162038 858162055
858162057 858162074
858162067 858162084
858162599 858162616
858162740 858162757
858164156 858164173
858164216 858164233
858164279 858164296
858164569 858164586
858174873 858174890
858177369 858177386
858177540 858177557
858178440 858178457
858178670 858178687
858199827 858199844
858228799 858228816
858237194 858237211
858251804 858251821
858252212 858252229
858273761 858273778
858288782 858288799
858323437 858323454
858330726 858330743
858334452 858334469
858345923 858345940
858373998 858374015
858386664 858386681
858458335 858458352
858459819 858459836
858466128 858466145
858494661 858494678
858506979 858506996
858519847 858519864
858537217 858537234
858551372 858551389
858551993 858552010
858552272 858552289
858552353 858552370
858552707 858552724
858552880 858552897
858552898 858552915
858552931 858552948
858553469 858553486
858553538 858553555
858553570 858553587
858553655 858553672
858553665 858553682
858553688 858553705
858553743 858553760
858553765 858553782
858553793 858553810
858553847 858553864
858554075 858554092
858554601 858554618
858555001 858555018
858555079 858555096
858555109 858555126
858555122 858555139
858555147 858555164
858555734 858555751
858555745 858555762
858558723 858558740
858560024 858560041
858563162 858563179
858568260 858568277
858571775 858571792
858575901 858575918
858598134 858598151
858635567 858635584
858635780 858635797
858635833 858635850
858640363 858640380
858642023 858642040
858642294 858642311
858647441 858647458
858661701 858661718
858743016 858743033
858761089 858761106
858796315 858796332
858796388 858796405
858801988 858802005
858832762 858832779
858844408 858844425
858849467 858849484
858849495 858849512
858862058 858862075
858864961 858864978
858870196 858870213
858878753 858878770
858880526 858880543
858880960 858880977
858895448 858895465
858901038 858901055
858901124 858901141
858910444 858910461
858910942 858910959
858922008 858922025
858930845 858930862
858954465 858954482
858976565 858976582
858991001 858991018
858993041 858993058
859026468 859026485
859062950 859062967
859064559 859064576
859064907 859064924
859066263 859066280
859067382 859067399
859067622 859067639
859072430 859072447
859072543 859072560
859081127 859081144
859095589 859095606
859127408 859127425
859131873 859131890
859165114 859165131
859170695 859170712
859175033 859175050
859211347 859211364
859212237 859212254
859250475 859250492
859254859 859254876
859274110 859274127
859317523 859317540
859329573 859329590
859330501 859330518
859333636 859333653
859343114 859343131
859369700 859369717
859373623 859373643
859377426 859377443
859377485 859377502
859398038 859398055
859406838 859406855
859413136 859413153
859415532 859415549
859425454 859425472
859425801 859425818
859448584 859448601
859449151 859449168
859482652 859482669
859489549 859489566
859516878 859516895
859517144 859517161
859535894 859535911
859540308 859540325
859545278 859545295
859550301 859550318
859553345 859553362
859557278 859557295
859564330 859564347
859565276 859565293
859565604 859565621
859567085 859567102
859569973 859569990
859570537 859570554
859574548 859574565
859583069 859583086
859623929 859623946
859624107 859624124
859624877 859624894
859635118 859635135
859636640 859636657
859636650 859636667
859642233 859642250
859669207 859669224
859672181 859672198
859677776 859677793
859677852 859677869
859678228 859678245
859679126 859679143
859708294 859708311
859711431 859711448
859726896 859726913
859735235 859735252
859809924 859809941
859825477 859825494
859836992 859837009
859843777 859843794
859847376 859847393
859877364 859877381
859881700 859881717
859886159 859886176
859898255 859898272
859902019 859902036
859930400 859930417
859944007 859944024
859947042 859947059
859948975 859948992
859952717 859952734
860007258 860007275
860008537 860008554
860027656 860027673
860028031 860028048
860055619 860055636
860060364 860060381
860066168 860066185
860066720 860066737
860066866 860066883
860066984 860067001
860067148 860067165
860067232 860067249
860072252 860072269
860072337 860072354
860072418 860072435
860072447 860072464
860072913 860072930
860072995 860073012
860073403 860073420
860073505 860073522
860073539 860073556
860073695 860073712
860074203 860074220
860074257 860074274
860074351 860074368
860074582 860074599
860074733 860074750
860089663 860089680
860089737 860089754
860099855 860099872
860108772 860108789
860111454 860111471
860112960 860112977
860114240 860114257
860114584 860114601
860127226 860127243
860153105 860153122
860162952 860162969
860211004 860211021
860211035 860211052
860222389 860222406
860225106 860225123
860228155 860228172
860233750 860233767
860237629 860237646
860238055 860238072
860238989 860239006
860243753 860243770
860245756 860245773
860249856 860249873
860250315 860250332
860251747 860251764
860298425 860298442
860302477 860302494
860326395 860326412
860328233 860328250
860330794 860330811
860338789 860338806
860383513 860383530
860390884 860390901
860390956 860390973
860391633 860391650
860406449 860406466
860423108 860423125
860423132 860423149
860423288 860423306
860423898 860423915
860424928 860424945
860425131 860425148
860425341 860425358
860425688 860425705
860426133 860426150
860429402 860429419
860430439 860430456
860433090 860433107
860433200 860433217
860434038 860434055
860434058 860434075
860436443 860436460
860447778 860447795
860457341 860457358
860457353 860457370
860468656 860468673
860469032 860469049
860475168 860475185
860476025 860476042
860476760 860476777
860477652 860477669
860498192 860498209
860498271 860498288
860503147 860503164
860514377 860514394
860521818 860521835
860525975 860525992
860531307 860531324
860533695 860533712
860535814 860535831
860538736 860538753
860545848 860545865
860546936 860546953
860547449 860547466
860548700 860548717
860552827 860552844
860557502 860557519
860558263 860558280
860558799 860558816
860561675 860561692
860561725 860561742
860561972 860561989
860562896 860562913
860564148 860564165
860564764 860564781
860565000 860565017
860565500 860565517
860575662 860575679
860575964 860575981
860579107 860579124
860579147 860579164
860589812 860589829
860606981 860606998
860607026 860607043
860607175 860607192
860607291 860607308
860610192 860610209
860610349 860610366
860610439 860610456
860610473 860610490
860610671 860610688
860610996 860611013
860611108 860611125
860611429 860611446
860611459 860611476
860611470 860611487
860611505 860611522
860611794 860611811
860612277 860612294
860612292 860612309
860612725 860612742
860612735 860612752
860613718 860613735
860613910 860613927
860613973 860613990
860614189 860614206
860623765 860623782
860625149 860625166
860625159 860625176
860625325 860625342
860625430 860625448
860625686 860625703
860625731 860625748
860626007 860626024
860626036 860626053
860626130 860626147
860626798 860626815
860627036 860627053
860628462 860628479
860628674 860628691
860628786 860628803
860628975 860628992
860629291 860629308
860629507 860629524
860629757 860629774
860629916 860629933
860630020 860630037
860630369 860630386
860630603 860630620
860630878 860630895
860631248 860631265
860631315 860631332
860631569 860631586
860632944 860632961
860633136 860633153
860633263 860633280
860634200 860634217
860635130 860635147
860635168 860635185
860635337 860635354
860635514 860635531
860635547 860635564
860635837 860635854
860636871 860636888
860637365 860637382
860637505 860637522
860637509 860637526
860637549 860637566
860638134 860638151
860638203 860638220
860638284 860638301
860638470 860638487
860638506 860638523
860638547 860638564
860639099 860639116
860639113 860639130
860639265 860639283
860639281 860639298
860639619 860639636
860639634 860639651
860639639 860639656
860640306 860640323
860640362 860640379
860641832 860641849
860642388 860642405
860642432 860642449
860642461 860642478
860642508 860642525
860643401 860643418
860643731 860643748
860643766 860643783
860643815 860643832
860644023 860644040
860644141 860644158
860644207 860644224
860644265 860644282
860644443 860644460
860644725 860644742
860644941 860644958
860644961 860644978
860645011 860645028
860645060 860645077
860645074 860645091
860645181 860645198
860645196 860645213
860645254 860645271
860645298 860645315
860645352 860645369
860645381 860645398
860645491 860645508
860645561 860645578
860645627 860645644
860645920 860645937
860646208 860646225
860646406 860646423
860646456 860646473
860646516 860646533
860646538 860646555
860646616 860646633
860646755 860646772
860647117 860647134
860647469 860647486
860647482 860647499
860647533 860647550
860647575 860647592
860648153 860648170
860648183 860648200
860650385 860650402
860650513 860650530
860650545 860650562
860650552 860650569
860650712 860650729
860650749 860650766
860650770 860650787
860650797 860650814
860650843 860650860
860650900 860650917
860650913 860650930
860650923 860650940
860650973 860650990
860651382 860651399
860651496 860651513
860652290 860652307
860652322 860652339
860652367 860652384
860652386 860652403
860652394 860652411
860652410 860652427
860652788 860652805
860652793 860652810
860653449 860653466
860658866 860658883
860658871 860658888
860659587 860659604
860659629 860659646
860659651 860659668
860660034 860660051
860660275 860660292
860660437 860660454
860660924 860660941
860660937 860660954
860666634 860666651
860667889 860667906
860673960 860673977
860675129 860675146
860683962 860683979
860685590 860685607
860685782 860685799
860691894 860691911
860696662 860696679
860701917 860701934
860702134 860702151
860708133 860708150
860714952 860714969
860715246 860715263
860752964 860752981
860755093 860755110
860755240 860755257
860762112 860762129
860786197 860786214
860791115 860791132
860791588 860791605
860791854 860791871
860798168 860798185
860803040 860803057
860803285 860803302
860804035 860804052
860805636 860805653
860817897 860817914
860828017 860828034
860829350 860829367
860838283 860838300
860846870 860846887
860856094 860856111
860875782 860875799
860876745 860876762
860882810 860882827
860883808 860883825
860884288 860884305
860884478 860884495
860884971 860884988
860885840 860885857
860886303 860886320
860886374 860886391
860887226 860887243
860893494 860893511
860895409 860895426
860895959 860895976
860900829 860900846
860902889 860902906
860903453 860903470
860904184 860904201
860906793 860906810
860912326 860912343
860914102 860914119
860925520 860925537
860926523 860926540
860927242 860927259
860942832 860942849
860946345 860946362
860956261 860956278
860960411 860960428
860970780 860970797
860972646 860972663
860974021 860974038
860983266 860983283
861010504 861010521
861017718 861017735
861040743 861040760
861072621 861072638
861077439 861077456
861081486 861081503
861083666 861083683
861086240 861086257
861099455 861099472
861100480 861100497
861104213 861104230
861116572 861116589
861120862 861120879
861151540 861151557
861154325 861154342
861186399 861186416
861211128 861211145
861222998 861223015
861223178 861223195
861223305 861223322
861224678 861224695
861225585 861225602
861225729 861225746
861226434 861226451
861227285 861227302
861227517 861227534
861227820 861227837
861228215 861228232
861228794 861228811
861229742 861229759
861230388 861230405
861232185 861232202
861232304 861232321
861232757 861232774
861232893 861232910
861233608 861233625
861234379 861234396
861234670 861234687
861235087 861235104
861235276 861235293
861236104 861236121
861237024 861237041
861237435 861237452
861239027 861239044
861239164 861239181
861240507 861240524
861240787 861240804
861240891 861240908
861241508 861241525
861242040 861242057
861243429 861243446
861245462 861245479
861245735 861245752
861245818 861245835
861246131 861246148
861246303 861246320
861247586 861247603
861248804 861248821
861249181 861249198
861249993 861250010
861250320 861250337
861250475 861250492
861251676 861251693
861253400 861253417
861254142 861254159
861254480 861254497
861254522 861254539
861259607 861259624
861261785 861261802
861265339 861265356
861269002 861269019
861272192 861272209
861273865 861273882
861276935 861276952
861277580 861277597
861278039 861278056
861283798 861283815
861303589 861303606
861306367 861306384
861307657 861307674
861311278 861311295
861316939 861316956
861349826 861349843
861354148 861354165
861409727 861409744
861409915 861409932
861409996 861410013
861410473 861410490
861431966 861431983
861432291 861432308
861432396 861432413
861450073 861450090
861459732 861459749
861483676 861483693
861484355 861484372
861488328 861488345
861492350 861492367
861497784 861497801
861501481 861501498
861503435 861503452
861503509 861503526
861508435 861508452
861515172 861515189
861525040 861525057
861534919 861534936
861535700 861535717
861557545 861557562
861560582 861560599
861560755 861560772
861573163 861573180
861655736 861655753
861659760 861659777
861662259 861662276
861674089 861674106
861674342 861674359
861674397 861674414
861675116 861675134
861675513 861675530
861675555 861675572
861682988 861683005
861683039 861683056
861683087 861683104
861683331 861683348
861683404 861683421
861684205 861684222
861684292 861684309
861698324 861698341
861702605 861702622
861738381 861738398
861746171 861746188
861753516 861753533
861761599 861761616
861762082 861762099
861773226 861773243
861775021 861775038
861778591 861778608
861793984 861794001
861827982 861827999
861841028 861841045
861845645 861845662
861846476 861846493
861846492 861846509
861854150 861854167
861855031 861855048
861856672 861856689
861858042 861858059
861864746 861864763
861864781 861864798
861871225 861871242
861873467 861873484
861876637 861876654
861877323 861877340
861877433 861877450
861881840 861881857
861906853 861906870
861908897 861908914
861913747 861913764
861928714 861928731
861931286 861931303
861952009 861952026
861953513 861953530
861953657 861953674
861953910 861953927
861954053 861954070
861954063 861954080
861955465 861955482
861956578 861956595
861956607 861956624
861956932 861956949
861956941 861956958
861957026 861957043
861957079 861957096
861957224 861957241
861957941 861957958
861958113 861958130
861958484 861958501
861958679 861958696
861958710 861958727
861958726 861958743
861958756 861958773
861958959 861958976
861959026 861959043
861959099 861959116
861959337 861959354
861960644 861960661
861960716 861960733
861961217 861961234
861966869 861966886
861966936 861966953
861967012 861967029
861971180 861971197
861992290 861992307
861994114 861994131
862039849 862039866
862045489 862045506
862056091 862056108
862059808 862059825
862063464 862063481
