831396296 831396313
831403792 831403809
831440501 831440518
831444838 831444855
831444903 831444920
831444921 831444939
831444926 831444943
831444934 831444951
831444990 831445007
831445060 831445077
831445079 831445096
831445111 831445128
831449822 831449839
831451507 831451524
831629827 831629844
831630549 831630566
831630994 831631011
831655528 831655545
831718963 831718980
831883971 831883988
832045282 832045299
832045780 832045797
832049751 832049768
832096500 832096517
832283187 832283204
832318742 832318759
832382170 832382187
832465146 832465163
832465150 832465167
832561878 832561896
832568131 832568148
832624454 832624471
832636129 832636146
832636329 832636346
832636750 832636767
832637189 832637206
832654815 832654832
832656800 832656817
832664194 832664211
832673556 832673573
832677361 832677378
832677970 832677987
832727589 832727606
832851155 832851172
832858417 832858434
832921379 832921396
832921389 832921406
832923470 832923487
833034134 833034151
833094970 833094987
833128643 833128660
833128649 833128669
833148476 833148493
833308900 833308917
833311005 833311022
833323192 833323209
833360172 833360189
833369503 833369521
833380384 833380401
833395242 833395259
833396798 833396815
833396811 833396828
833396821 833396838
833410013 833410030
833416115 833416132
833480252 833480269
833539519 833539536
833564224 833564241
833586772 833586789
833618686 833618703
833632775 833632792
833667694 833667714
833706661 833706678
833807517 833807534
833829517 833829534
833845621 833845638
833856136 833856153
833868624 833868642
833961972 833961989
833969058 833969075
834022875 834022892
834038994 834039012
834039000 834039017
834090415 834090432
834097562 834097579
834109659 834109676
834111713 834111730
834121598 834121615
834125208 834125225
834126653 834126670
834137472 834137489
834277929 834277946
834279718 834279735
834285265 834285282
834287801 834287818
834341813 834341830
834344405 834344422
834373792 834373809
834419242 834419259
834465481 834465498
834490797 834490814
834504135 834504152
834505697 834505714
834568045 834568062
834574127 834574144
834656329 834656346
834664916 834664933
834668930 834668947
834670351 834670368
834731628 834731645
834741086 834741103
834800139 834800156
834839887 834839904
834879931 834879948
834882766 834882783
835025087 835025104
835524513 835524530
835526601 835526618
835732413 835732430
835739017 835739034
835759724 835759741
835766964 835766981
835799904 835799921
835799913 835799930
835887341 835887358
835892489 835892506
835924793 835924810
835944845 835944862
835956796 835956813
835978469 835978486
836019902 836019919
836061545 836061562
836135534 836135551
836169979 836169996
836169988 836170005
836179044 836179061
836191512 836191529
836191562 836191579
836218544 836218561
836226474 836226491
836233731 836233748
836233998 836234015
836389343 836389362
836389433 836389450
836491095 836491112
836494357 836494374
836534780 836534797
836558279 836558296
836583284 836583301
836588953 836588970
836588963 836588980
836601987 836602004
836616637 836616654
836621841 836621858
836626339 836626357
836626419 836626436
836635586 836635603
836636447 836636464
836649013 836649030
836696355 836696372
836696876 836696893
836697792 836697809
836698193 836698210
836698303 836698320
836701633 836701650
836701667 836701684
836701996 836702013
836702523 836702540
836703362 836703379
836703721 836703738
836705449 836705466
836705474 836705491
836706903 836706920
836707215 836707232
836708247 836708264
836709792 836709809
836712340 836712357
836721693 836721710
836721862 836721879
836730242 836730259
836733139 836733156
836734333 836734350
836737583 836737600
836744894 836744911
836753955 836753972
836755224 836755241
836761377 836761394
836766253 836766270
836780099 836780116
836780555 836780572
836781406 836781423
836798068 836798085
836805216 836805233
836810464 836810481
836815948 836815965
836819756 836819773
836820592 836820609
836865205 836865222
836960790 836960807
837010945 837010962
837014289 837014306
837014301 837014318
837031654 837031671
837072656 837072673
837073718 837073735
837088328 837088345
837089773 837089790
837118762 837118779
837124237 837124254
837124252 837124269
837174005 837174022
837174147 837174164
837195701 837195718
837196572 837196589
837218600 837218617
837226472 837226489
837329968 837329985
837481211 837481228
837593042 837593059
837597760 837597777
837677525 837677542
837678290 837678307
837696595 837696612
837728321 837728338
837751676 837751693
837772895 837772912
837785376 837785393
837801661 837801678
837826365 837826382
837829130 837829147
837830637 837830654
837830795 837830812
837831205 837831222
837831718 837831735
837915577 837915594
837915930 837915947
837920177 837920194
837923090 837923107
837948988 837949005
837955153 837955170
837955596 837955613
838257590 838257607
838261991 838262008
838291251 838291268
838291467 838291484
838292278 838292295
838292299 838292316
838292335 838292352
838292560 838292577
838319188 838319205
838503348 838503365
838583308 838583326
838621769 838621786
838675910 838675927
838845751 838845768
838966557 838966574
839020534 839020551
839104277 839104294
839106952 839106969
839107979 839107996
839110409 839110426
839116719 839116736
839116868 839116885
839117288 839117305
839117416 839117433
839120835 839120852
839139032 839139049
839296622 839296639
839301708 839301725
839302211 839302228
839303359 839303376
839303512 839303529
839512075 839512092
839514703 839514720
839596834 839596851
839711666 839711683
839798113 839798130
840222288 840222305
841705491 841705508
841827852 841827869
841846488 841846505
842236247 842236264
842272165 842272182
842533735 842533752
842753277 842753294
842781438 842781455
842922615 842922632
843190133 843190150
843555225 843555242
843951399 843951416
843957438 843957455
843963651 843963668
843967658 843967675
843969313 843969330
843969368 843969385
843984729 843984746
844122032 844122049
844561744 844561761
844566015 844566032
844566233 844566250
844575987 844576004
844576781 844576798
844589246 844589263
844590494 844590511
844672346 844672363
844767539 844767556
844770017 844770034
844779352 844779369
845492591 845492608
845564375 845564392
845581722 845581739
845801978 845801995
845802434 845802451
846102581 846102598
846599127 846599144
846689904 846689921
846698860 846698878
847099645 847099662
847100144 847100161
847271019 847271036
847272054 847272071
847285222 847285239
847350547 847350564
847353988 847354005
847354728 847354745
847426118 847426135
847427487 847427504
847427758 847427775
847428158 847428175
847429667 847429684
847432284 847432301
847432625 847432642
847518877 847518894
847550711 847550728
847656937 847656954
848646020 848646037
849307929 849307946
849960332 849960349
850001210 850001227
850001347 850001364
850004064 850004081
850004934 850004951
850005570 850005587
850011738 850011755
850015709 850015726
850016556 850016573
850044087 850044104
850267467 850267484
850612588 850612605
852148616 852148633
852433461 852433478
852632923 852632940
853041246 853041263
853953454 853953471
854849602 854849619
855034797 855034814
855294897 855294914
856020653 856020670
856117652 856117669
856372256 856372273
857131829 857131846
857131868 857131885
857309955 857309972
857325327 857325344
857480467 857480484
857548667 857548684
857763137 857763154
857849569 857849586
857850587 857850604
857863356 857863373
857864091 857864108
857866047 857866064
857866757 857866774
857877612 857877629
857893947 857893964
858057832 858057849
858459819 858459836
858563162 858563179
859062950 859062967
859095589 859095606
859107722 859107739
859574548 859574565
859642233 859642250
859669207 859669224
859726896 859726913
859877364 859877381
859948975 859948992
860330794 860330811
860575662 860575679
860828017 860828034
860883808 860883825
860884288 860884305
860884478 860884495
860884971 860884988
860886303 860886320
860886374 860886391
860893494 860893511
860906793 860906810
860926523 860926540
860946345 860946362
861010504 861010521
861214941 861214958
861222998 861223015
861226434 861226451
861227285 861227302
861227820 861227837
861229742 861229759
861230077 861230094
861232185 861232202
861239027 861239044
861239164 861239181
861240507 861240524
861240787 861240804
861245735 861245752
861247586 861247603
861249181 861249198
861249993 861250010
861250475 861250492
861265339 861265356
861306367 861306384
861311278 861311295
861503435 861503452
861544164 861544181
861662259 861662276
861713021 861713038
861775021 861775038
861871225 861871242
861994114 861994131
