817420778 817420795
817421100 817421117
817703473 817703490
818803900 818803917
820446927 820446944
821748018 821748035
821827799 821827816
821828728 821828745
822779882 822779899
824462244 824462261
824474862 824474879
824485378 824485395
824494581 824494598
824495994 824496011
824496524 824496541
824496814 824496831
824499794 824499811
824507103 824507120
824507116 824507133
825439266 825439283
825782029 825782046
825870178 825870195
825898568 825898585
825913202 825913219
825974409 825974426
825979611 825979628
826045177 826045194
826045202 826045219
826045728 826045745
826045746 826045763
826214618 826214635
826337347 826337364
826474844 826474861
826475109 826475126
826475173 826475190
826485016 826485033
826485184 826485201
826587021 826587038
826679159 826679176
827258769 827258786
827285152 827285169
827527625 827527642
827627073 827627090
827882279 827882296
827950207 827950224
828234122 828234139
828993357 828993374
829510852 829510869
829511484 829511502
829511854 829511871
829512966 829512983
829670319 829670336
829940717 829940734
830102066 830102083
830103223 830103240
830104522 830104539
830106857 830106874
830110995 830111012
830113709 830113726
830125755 830125772
830145263 830145281
830289429 830289446
830466834 830466851
830549525 830549542
830614698 830614715
830616396 830616413
830616470 830616487
830616624 830616641
830722081 830722098
830723233 830723250
830792840 830792857
830806603 830806620
831005375 831005392
831134076 831134093
