815564582 815564599
815564632 815564649
815564874 815564891
815564968 815564985
815565084 815565101
815566794 815566811
815569230 815569247
815574575 815574592
815726947 815726964
815728453 815728470
815731060 815731077
815751840 815751857
815752738 815752755
815753136 815753153
815753876 815753893
815754200 815754217
815755016 815755033
815757145 815757162
815757699 815757716
815775734 815775751
815889044 815889061
815902065 815902082
816064915 816064932
816079561 816079578
816084821 816084838
816188625 816188642
816188909 816188926
816192335 816192352
816199150 816199167
816266589 816266606
816363161 816363178
816389443 816389460
816457120 816457137
816473203 816473220
816493415 816493432
816513811 816513828
816538892 816538909
816662445 816662462
816689323 816689340
816785916 816785933
816788863 816788880
816882020 816882037
816892469 816892486
816901148 816901165
816977568 816977585
816996036 816996053
817005263 817005280
817018545 817018562
817073851 817073868
817077413 817077430
817114323 817114340
817138130 817138147
817149237 817149254
817161974 817161991
817175080 817175097
817260867 817260884
817336298 817336315
817336569 817336586
817339798 817339815
817345806 817345823
817354035 817354052
817371732 817371749
817392913 817392930
817396983 817397000
817411867 817411884
817412731 817412748
817560508 817560525
817634317 817634334
817634333 817634350
817636312 817636329
817638119 817638136
817638199 817638216
817639623 817639640
817642644 817642661
817644389 817644406
817646058 817646075
817646837 817646854
817647737 817647754
817650132 817650149
817651029 817651046
817652966 817652983
817682360 817682377
817684301 817684318
817735679 817735696
817892563 817892580
817945218 817945235
817946085 817946102
817946483 817946500
817947164 817947181
817947503 817947520
817949041 817949058
817949350 817949367
817950159 817950176
817950452 817950469
817951014 817951031
817951089 817951106
817951244 817951261
817952287 817952304
817960569 817960586
817961672 817961689
817961878 817961895
817962536 817962553
817964109 817964126
817964394 817964411
817970887 817970904
817971283 817971300
817972054 817972071
817976162 817976179
817977583 817977600
817978563 817978580
817979229 817979246
817982212 817982229
817985214 817985231
817985804 817985821
817989358 817989375
818009231 818009248
818148677 818148694
818152638 818152655
818152670 818152687
818177087 818177104
818271373 818271390
818351053 818351070
818370620 818370637
818485973 818485990
818582558 818582575
818641126 818641143
818642476 818642493
818708298 818708315
818739970 818739987
818761228 818761245
819165874 819165891
819166368 819166385
819166493 819166510
819167177 819167194
819167349 819167366
819167403 819167420
819167484 819167501
819167656 819167673
819167672 819167689
819168435 819168452
819168488 819168505
819168737 819168754
819169870 819169887
819171028 819171045
819171099 819171116
819171356 819171373
819171715 819171732
819172111 819172128
819172214 819172231
819172220 819172237
819172261 819172278
819172642 819172659
819174693 819174710
819174761 819174778
819175169 819175186
819176387 819176404
819176732 819176749
819176828 819176845
819176936 819176953
819179319 819179336
819179712 819179729
819180024 819180041
819180309 819180326
819180317 819180334
819180521 819180538
819180782 819180799
819180933 819180950
819181405 819181422
819182020 819182037
819182154 819182171
819182350 819182367
819182483 819182500
819182738 819182755
819184029 819184046
819184046 819184063
819184085 819184102
819192186 819192203
819193783 819193800
819197194 819197211
819197215 819197232
819200822 819200839
819208535 819208552
819209251 819209268
819221510 819221527
819222166 819222183
819223159 819223176
819235782 819235799
819243719 819243736
819456122 819456139
819542710 819542727
819820855 819820872
819832650 819832667
820000450 820000467
820161954 820161971
820285924 820285941
820301964 820301981
820360346 820360363
820360555 820360572
820360746 820360763
820360942 820360959
820361041 820361058
820361405 820361422
820361427 820361444
820361463 820361480
820361497 820361514
820361828 820361845
820361957 820361974
820362023 820362040
820362449 820362466
820362506 820362523
820362671 820362688
820362820 820362840
820362857 820362874
820362967 820362984
820363106 820363123
820363795 820363812
820363896 820363913
820364072 820364089
820364091 820364108
820364317 820364334
820364361 820364378
820364391 820364408
820364413 820364430
820364439 820364456
820365909 820365926
820366306 820366323
820366737 820366754
820366989 820367006
820367440 820367457
820368054 820368071
820368815 820368832
820368842 820368860
820368961 820368978
820369408 820369425
820369478 820369495
820369617 820369634
820369728 820369745
820370086 820370103
820370462 820370479
820370477 820370494
820373821 820373838
820374154 820374171
820374589 820374606
820374673 820374690
820375112 820375129
820375739 820375756
820376300 820376317
820376653 820376670
820377001 820377018
820377479 820377496
820378155 820378172
820378917 820378934
820379320 820379337
820379688 820379705
820379745 820379762
820382383 820382400
820382421 820382438
820382923 820382940
820382932 820382949
820383087 820383104
820383504 820383521
820384290 820384307
820384315 820384332
820384842 820384859
820385602 820385619
820385655 820385672
820386758 820386775
820387605 820387622
820388737 820388754
820388894 820388911
820388916 820388933
820389909 820389926
820390590 820390607
820391754 820391771
820392019 820392036
820392105 820392122
820392323 820392340
820392599 820392616
820393724 820393741
820394815 820394832
820395584 820395601
820396309 820396326
820396422 820396439
820396871 820396888
820397098 820397115
820397720 820397737
820410227 820410244
820410515 820410532
820410708 820410725
820417912 820417929
820419116 820419133
820427675 820427692
820436523 820436540
820447967 820447984
820448242 820448259
820467087 820467104
820474488 820474505
820494870 820494887
820590098 820590115
820648149 820648166
820697564 820697581
820782466 820782483
820818615 820818632
820970679 820970696
820980407 820980424
820983639 820983656
820992494 820992511
821168261 821168278
821304907 821304924
821315214 821315231
821360017 821360034
821360106 821360123
821360709 821360726
821772287 821772304
821790592 821790609
821790810 821790827
821791794 821791811
821935749 821935766
822013477 822013494
822098905 822098922
822128751 822128768
822179911 822179928
822180691 822180708
822181193 822181210
822181319 822181336
822181484 822181501
822181723 822181740
822181860 822181877
822181914 822181931
822182050 822182067
822182211 822182228
822182410 822182427
822182666 822182683
822185784 822185801
822186001 822186018
822186019 822186036
822186148 822186165
822186258 822186275
822186292 822186309
822186452 822186469
822186478 822186495
822186687 822186704
822187004 822187021
822187065 822187082
822187276 822187293
822187361 822187378
822187588 822187605
822187711 822187728
822187819 822187836
822187863 822187880
822189871 822189888
822189906 822189923
822190557 822190574
822190605 822190622
822190809 822190826
822190965 822190982
822191002 822191019
822191159 822191176
822191448 822191465
822191839 822191856
822192275 822192292
822192334 822192351
822192487 822192504
822192902 822192919
822193622 822193639
822194392 822194409
822194437 822194454
822196246 822196263
822196916 822196933
822197207 822197224
822197223 822197240
822203775 822203792
822203793 822203810
822204425 822204442
822205430 822205447
822205469 822205486
822205577 822205594
822205927 822205944
822206273 822206290
822207368 822207385
822207795 822207812
822207946 822207963
822208266 822208283
822208677 822208694
822209133 822209150
822210875 822210892
822210908 822210925
822211308 822211325
822212112 822212129
822213901 822213918
822214099 822214116
822214993 822215010
822216979 822216996
822217046 822217063
822219047 822219064
822220993 822221010
822232660 822232677
822234096 822234113
822237303 822237320
822271475 822271492
822276263 822276280
822279999 822280016
822284761 822284778
822285834 822285851
822373832 822373849
823012275 823012292
823078077 823078094
823259980 823259997
823260008 823260025
823360400 823360417
823412827 823412844
823413168 823413185
823416121 823416138
823416185 823416202
823416226 823416243
823418462 823418479
823419290 823419307
823419745 823419762
823419862 823419879
823421748 823421765
823421989 823422006
823429128 823429145
823430502 823430519
823430718 823430735
823430958 823430975
823431969 823431986
823433334 823433351
823434398 823434415
823434551 823434568
823435538 823435555
823438984 823439001
823444179 823444196
823448236 823448253
823518464 823518481
823519389 823519406
823520070 823520087
823520413 823520430
823520514 823520531
823521044 823521061
823521531 823521548
823521838 823521855
823523068 823523085
823523119 823523136
823524818 823524835
823525133 823525150
823527192 823527209
823527223 823527240
823527272 823527289
823529483 823529500
823605454 823605471
823699973 823699990
823772163 823772180
823780690 823780707
823782353 823782370
823795102 823795119
823941876 823941893
823943733 823943750
823945467 823945484
823951395 823951412
823958225 823958242
823962681 823962698
824038431 824038448
824205384 824205401
824206699 824206716
824211513 824211530
824211821 824211838
824212736 824212753
824223255 824223272
824308974 824308991
824312280 824312297
824313924 824313941
824382448 824382465
824382991 824383008
824384779 824384796
824384901 824384918
824385912 824385929
824386615 824386632
824387988 824388005
824391018 824391035
824392760 824392777
824392867 824392884
824394043 824394060
824394097 824394114
824394329 824394346
824396103 824396120
824414597 824414614
824416714 824416731
824417325 824417342
824452857 824452874
824453951 824453968
824457445 824457462
824458753 824458770
824467868 824467885
824468822 824468839
824472687 824472704
824473811 824473828
824474068 824474085
824480095 824480112
824480764 824480781
824508970 824508987
824510449 824510466
824510506 824510523
824510549 824510566
824510667 824510687
824510744 824510762
824510782 824510799
824511219 824511236
824534898 824534915
824623241 824623258
824779107 824779124
824779830 824779847
824781563 824781580
824782694 824782711
824783773 824783790
824784695 824784712
824785018 824785035
824786227 824786244
824788400 824788417
824795969 824795986
824811897 824811914
824815150 824815167
824821012 824821029
824823873 824823890
824824870 824824887
824837256 824837273
824843368 824843385
824843740 824843757
824843817 824843834
824843833 824843850
824843839 824843856
824843855 824843872
824843881 824843898
824843917 824843934
824843933 824843950
824843968 824843985
824843988 824844005
824844009 824844029
824844068 824844085
824844112 824844129
824844161 824844178
824844425 824844443
824844451 824844468
824844509 824844526
824844533 824844550
824844640 824844657
824886502 824886519
824978608 824978625
824984474 824984491
824984578 824984595
824985931 824985948
824999670 824999687
825014701 825014718
825018187 825018204
825074922 825074939
825078316 825078333
825098086 825098103
825204530 825204547
825204534 825204551
825204929 825204946
825205227 825205244
825205523 825205540
825205833 825205850
825206689 825206706
825206762 825206779
825207641 825207658
825207733 825207750
825207852 825207869
825208538 825208555
825209443 825209460
825210424 825210441
825211123 825211140
825211167 825211184
825211769 825211786
825220062 825220079
825222200 825222217
825223701 825223718
825225389 825225406
825226159 825226176
825226542 825226559
825226975 825226992
825227109 825227126
825232723 825232740
825233591 825233608
825241177 825241194
825413486 825413503
825421159 825421176
825497985 825498002
825513188 825513205
825539019 825539037
825539084 825539101
825539125 825539142
825539178 825539197
825539191 825539208
825539203 825539220
825539261 825539279
825539277 825539296
825539287 825539304
825539297 825539314
825539319 825539336
825539372 825539389
825539389 825539406
825539591 825539608
825539619 825539636
825539637 825539654
825539699 825539716
825539709 825539726
825539726 825539743
825539754 825539771
825539761 825539778
825545114 825545131
825545133 825545151
825545155 825545172
825545166 825545183
825551331 825551348
825622893 825622910
825622948 825622965
825635132 825635149
825691749 825691766
825693073 825693090
825701975 825701992
825711637 825711654
825723696 825723713
825724021 825724038
825761714 825761731
825764054 825764071
825781604 825781621
825838904 825838921
825841810 825841827
825843796 825843813
825889392 825889409
825889528 825889545
825889534 825889551
825895599 825895616
825897082 825897099
825899608 825899625
825941039 825941056
825944363 825944380
825944462 825944479
825945231 825945248
825945657 825945674
825946125 825946142
825950105 825950122
825950812 825950829
825951348 825951365
825951934 825951951
825952162 825952179
825953046 825953063
825964737 825964754
825964884 825964901
825969051 825969068
825972532 825972549
825974962 825974979
825979425 825979442
825983467 825983484
825992196 825992213
826021263 826021280
826028634 826028651
826030741 826030758
826033828 826033845
826036585 826036602
826044770 826044787
826086696 826086713
826118930 826118947
826235030 826235047
826237600 826237617
826272601 826272618
826273980 826273997
826312697 826312714
826374102 826374119
826435971 826435988
826437873 826437890
826437973 826437990
826439627 826439644
826442363 826442380
826444852 826444869
826445402 826445419
826449529 826449546
826451018 826451035
826451367 826451384
826451714 826451731
826454213 826454230
826459747 826459764
826461005 826461022
826462558 826462575
826474568 826474585
826476573 826476590
826507525 826507542
826517507 826517524
826569541 826569558
826571912 826571929
826593329 826593346
826657601 826657618
826704811 826704828
826707862 826707879
826807239 826807256
826820270 826820287
826836176 826836193
826843368 826843385
826867183 826867200
826917205 826917222
826930141 826930158
826934092 826934109
826971734 826971751
827027842 827027859
827029465 827029482
827030909 827030926
827034080 827034097
827035717 827035734
827036613 827036630
827059575 827059592
827061472 827061489
827160453 827160470
827170284 827170301
827329178 827329195
827347054 827347071
827401774 827401791
827453977 827453994
827520820 827520837
827614567 827614584
827635982 827635999
827638580 827638597
827648070 827648087
827756885 827756902
827797121 827797138
827833030 827833047
827880709 827880726
827922191 827922208
827930647 827930664
827944411 827944428
828018007 828018024
828049058 828049075
828074774 828074791
828165380 828165397
828169965 828169982
828173175 828173192
828233093 828233110
828449215 828449232
828451232 828451249
828451495 828451512
828453138 828453155
828454306 828454323
828454437 828454454
828454607 828454624
828454627 828454644
828454800 828454817
828456280 828456297
828456886 828456903
828456911 828456928
828456989 828457006
828457156 828457173
828457294 828457311
828458267 828458284
828459570 828459587
828460183 828460200
828460360 828460377
828460829 828460846
828461135 828461152
828461255 828461272
828461421 828461438
828461802 828461819
828462008 828462025
828523466 828523483
828525626 828525643
828527382 828527399
828706377 828706394
828768341 828768358
828835167 828835184
828835803 828835820
828864438 828864455
828866688 828866705
828866700 828866717
828991856 828991873
829035109 829035126
829046504 829046521
829048906 829048923
829143045 829143062
829155780 829155797
829279643 829279660
829280097 829280114
829314254 829314271
829406046 829406064
829442913 829442930
829442983 829443000
829443127 829443144
829443248 829443265
829443561 829443578
829443638 829443655
829443957 829443974
829444145 829444162
829444392 829444409
829444535 829444552
829444550 829444567
829444696 829444713
829444857 829444874
829444889 829444906
829445130 829445147
829445202 829445219
829445248 829445265
829445801 829445818
829446066 829446083
829446099 829446116
829446300 829446317
829446845 829446862
829447035 829447052
829447063 829447080
829447405 829447422
829447470 829447487
829447646 829447663
829447706 829447723
829447946 829447963
829448257 829448274
829448677 829448694
829448710 829448727
829449832 829449849
829450971 829450988
829451691 829451708
829451715 829451732
829452272 829452289
829452480 829452497
829452916 829452933
829452955 829452972
829453051 829453068
829453217 829453234
829453297 829453314
829453555 829453572
829453569 829453586
829453802 829453820
829453845 829453862
829453938 829453955
829454128 829454145
829454135 829454152
829454469 829454486
829454735 829454752
829455043 829455060
829455163 829455180
829455219 829455236
829455729 829455746
829455869 829455886
829456041 829456058
829456257 829456274
829460876 829460893
829461835 829461852
829462098 829462115
829463717 829463734
829463731 829463748
829463815 829463832
829464153 829464170
829464575 829464592
829464701 829464718
829465479 829465496
829466088 829466105
829466565 829466582
829467041 829467058
829467673 829467690
829469874 829469891
829471157 829471174
829471798 829471815
829474319 829474336
829476924 829476941
829477920 829477937
829478886 829478903
829479101 829479118
829480266 829480283
829480347 829480364
829480461 829480478
829480980 829480997
829481802 829481819
829491134 829491151
829493652 829493669
829494896 829494913
829499326 829499343
829501239 829501256
829506735 829506752
829508602 829508619
829513997 829514014
829761687 829761704
829777922 829777939
829787475 829787492
829872172 829872189
829878465 829878482
829993287 829993304
830032776 830032793
830032857 830032874
830032894 830032911
830033103 830033120
830033133 830033150
830033199 830033216
830033958 830033975
830034335 830034352
830034455 830034472
830034649 830034666
830034838 830034855
830035466 830035483
830035806 830035823
830036110 830036127
830036181 830036198
830036384 830036401
830041535 830041552
830041862 830041879
830042346 830042363
830043205 830043222
830043358 830043375
830043620 830043637
830044218 830044235
830046275 830046292
830046304 830046321
830048956 830048973
830055698 830055715
830057311 830057328
830057470 830057487
830057759 830057776
830062382 830062399
830066664 830066681
830068968 830068985
830072376 830072393
830073088 830073105
830078634 830078651
830090601 830090618
830090653 830090670
830103416 830103433
830107161 830107178
830120071 830120088
830136231 830136248
830146294 830146311
830174475 830174492
830179325 830179342
830180070 830180087
830180330 830180347
830181824 830181841
830182105 830182122
830183099 830183116
830186365 830186382
830191125 830191142
830197804 830197821
830236651 830236668
830256145 830256162
830295620 830295637
830326645 830326662
830331289 830331306
830531141 830531158
830531301 830531318
830606541 830606558
830607518 830607535
830672750 830672767
830676832 830676849
830678196 830678213
830679255 830679272
830680222 830680239
830681235 830681252
830683872 830683889
830688937 830688954
830722107 830722124
830759849 830759866
830860112 830860129
830909991 830910008
830917345 830917362
830935607 830935624
830945704 830945721
830960212 830960229
830971314 830971331
830999178 830999195
830999996 831000013
831019608 831019625
831086639 831086656
831141258 831141275
831142467 831142484
831151229 831151246
831164534 831164551
831176464 831176481
831244722 831244739
831245078 831245095
831245273 831245290
831245297 831245314
831245497 831245514
831245802 831245819
831245865 831245882
831245943 831245960
831246113 831246130
831246294 831246311
831246744 831246761
831247296 831247313
831247401 831247418
831247582 831247599
831248307 831248324
831248810 831248827
831249447 831249464
831249548 831249565
831249949 831249966
831250394 831250411
831250554 831250571
831250809 831250826
831250816 831250833
831250891 831250908
831250914 831250931
831250965 831250982
831251358 831251375
831251614 831251631
831251641 831251658
831251719 831251736
831252014 831252031
831252071 831252088
831252208 831252225
831252397 831252414
831252460 831252477
831252847 831252864
831253031 831253048
831253073 831253090
831253111 831253128
831253311 831253328
831253379 831253396
831253987 831254004
831254365 831254382
831254533 831254550
831254637 831254654
831254697 831254714
831254885 831254902
831255437 831255454
831255489 831255506
831255523 831255540
831255755 831255772
831255963 831255980
831256184 831256201
831256775 831256792
831257181 831257198
831257567 831257584
831257804 831257821
831258140 831258157
831259593 831259610
831260353 831260370
831260787 831260804
831261915 831261932
831261960 831261977
831262537 831262554
831263312 831263329
831264036 831264053
831268280 831268297
831269136 831269153
831269452 831269469
831269590 831269607
831273499 831273516
831274124 831274141
831274928 831274945
831275005 831275022
831275418 831275435
831275490 831275507
831275560 831275577
831275584 831275601
831275813 831275830
831277649 831277666
831279363 831279380
831279671 831279688
831282651 831282668
831297864 831297881
831302313 831302330
831306570 831306587
831309285 831309302
831332220 831332237
