847647748 847647765
847650551 847650568
847651415 847651432
847657882 847657899
847753128 847753145
847813624 847813641
847819616 847819633
847827063 847827080
847915268 847915285
848516053 848516070
848932600 848932617
849045338 849045355
849307929 849307946
849974297 849974314
850004393 850004410
850005570 850005587
850800449 850800466
850851088 850851105
851878773 851878790
852417486 852417503
852532695 852532712
852583941 852583958
852632923 852632940
852671136 852671153
852676785 852676802
852993702 852993719
853041246 853041263
854403338 854403355
854653388 854653405
854736033 854736050
854836810 854836827
854837372 854837389
854837430 854837447
855000504 855000521
855004722 855004739
855096916 855096933
855337718 855337735
855345735 855345752
855347956 855347973
855677351 855677368
855696987 855697004
855747275 855747292
855766927 855766944
855769087 855769104
855772842 855772859
855813082 855813099
856097210 856097227
856100429 856100446
856112284 856112301
856114550 856114567
856289351 856289368
856292008 856292025
856372257 856372274
856716711 856716728
856828456 856828473
857325328 857325345
857340383 857340400
857344796 857344813
857344813 857344830
857344822 857344839
857345048 857345065
857349358 857349375
857349493 857349510
857430851 857430868
857430938 857430955
857431776 857431793
857431856 857431873
857431883 857431900
857432029 857432046
857432275 857432292
857432567 857432584
857433182 857433199
857516249 857516266
857548667 857548684
857763137 857763154
857849569 857849586
857850587 857850604
857863356 857863373
857866047 857866064
857877612 857877629
857935644 857935661
858531592 858531609
858563162 858563179
858623593 858623610
858625220 858625237
858701092 858701109
858704222 858704239
858714631 858714648
858714648 858714665
858858227 858858244
858971763 858971780
859064349 859064366
859095589 859095606
859136939 859136956
859145473 859145490
859221074 859221091
859225412 859225429
859230414 859230431
859236941 859236958
859305813 859305830
859307377 859307394
859311967 859311984
859396686 859396703
859490554 859490571
859564225 859564242
859567434 859567451
859573849 859573866
859664348 859664365
859726896 859726913
859752914 859752931
859826261 859826278
859829040 859829057
859834992 859835009
859913723 859913740
859948975 859948992
860012707 860012724
860330794 860330811
860341166 860341183
860345960 860345977
860350007 860350024
860352386 860352403
860444015 860444032
860447578 860447595
860449273 860449290
860449755 860449772
860575662 860575679
860777799 860777816
860876746 860876763
860882810 860882827
860883277 860883294
860884971 860884988
860886375 860886392
860975367 860975384
861041962 861041979
861172079 861172096
861172944 861172961
861226434 861226451
861239027 861239044
861240507 861240524
861242040 861242057
861306367 861306384
861484446 861484463
861503435 861503452
861555432 861555449
861639868 861639885
861660470 861660487
861660704 861660721
861809399 861809416
861815161 861815178
861904887 861904904
861984978 861984995
861985159 861985176
861988224 861988241
861994114 861994131
