847702748 847702765
848234163 848234180
848338806 848338823
848394929 848394946
848548447 848548464
848570457 848570474
848682081 848682098
848822784 848822801
848992888 848992905
849307929 849307946
849433640 849433657
849539670 849539687
849567087 849567104
849584992 849585009
849690658 849690675
849696877 849696894
849715615 849715632
849811544 849811561
849874154 849874171
850001210 850001227
850004393 850004410
850005570 850005587
850016556 850016573
850047907 850047924
850286930 850286947
850546627 850546644
850903349 850903366
850923124 850923141
850931608 850931625
851065225 851065242
851481214 851481231
852036099 852036116
852420322 852420339
852570180 852570197
852734217 852734234
852777343 852777360
853041246 853041263
853428156 853428173
853953454 853953471
854132068 854132085
854256659 854256676
854256811 854256828
854330276 854330293
854469939 854469956
854846269 854846286
854876738 854876755
855277965 855277982
855294897 855294914
855413554 855413571
855466311 855466328
855792305 855792322
855924105 855924122
856269644 856269661
856372256 856372273
856413207 856413224
856515046 856515063
856526938 856526955
856590247 856590264
856819599 856819616
856843377 856843394
857063994 857064011
857104696 857104713
857131829 857131846
857131844 857131861
857131872 857131889
857131881 857131898
857325327 857325344
857328840 857328857
857386392 857386409
857480467 857480484
857548667 857548684
857704335 857704352
857763137 857763154
857778766 857778783
857787834 857787851
857800026 857800043
857817450 857817467
857849569 857849586
857850587 857850604
857850824 857850841
857863356 857863373
857864338 857864355
857866047 857866064
857866757 857866774
857872844 857872861
857877612 857877629
857887378 857887395
857935644 857935661
857970662 857970679
857993115 857993132
858066275 858066292
858178440 858178457
858237194 858237211
858251804 858251821
858551993 858552010
858553538 858553555
858563162 858563179
858761089 858761106
858796315 858796332
858801988 858802005
858849467 858849484
858849495 858849512
858862058 858862075
858880526 858880543
858910942 858910959
858930845 858930862
858993041 858993058
859095589 859095606
859254859 859254876
859413136 859413153
859635118 859635135
859642233 859642250
859726896 859726913
859809924 859809941
859847376 859847393
859877364 859877381
859947042 859947059
859948975 859948992
860027656 860027673
860055619 860055636
860153105 860153122
860211004 860211021
860302477 860302494
860330794 860330811
860564764 860564781
860575662 860575679
860638134 860638151
860715246 860715263
860762112 860762129
860817897 860817914
860828017 860828034
860876745 860876762
860882810 860882827
860884288 860884305
860884971 860884988
860886303 860886320
860886374 860886391
860887226 860887243
860914102 860914119
860946345 860946362
860972646 860972663
861072621 861072638
861099455 861099472
861151540 861151557
861186399 861186416
861211128 861211145
861222998 861223015
861226434 861226451
861227285 861227302
861227517 861227534
861227820 861227837
861232185 861232202
861239027 861239044
861239164 861239181
861240507 861240524
861242040 861242057
861245735 861245752
861265339 861265356
861283798 861283815
861303589 861303606
861306367 861306384
861349826 861349843
861354148 861354165
861459732 861459749
861503435 861503452
861662259 861662276
861682988 861683005
861775021 861775038
861778591 861778608
861877323 861877340
861994114 861994131
862056091 862056108
