817420778 817420795
818358683 818358700
818459628 818459645
818770704 818770721
819917808 819917825
820446584 820446601
820446927 820446944
821748018 821748035
821827799 821827816
821828728 821828745
822779882 822779899
822795073 822795090
823036778 823036795
826475109 826475126
826475173 826475190
826485184 826485201
826587021 826587038
826655778 826655795
826666311 826666328
826679159 826679176
826827360 826827377
827165374 827165391
827213870 827213887
827272257 827272274
827482650 827482667
827506014 827506031
827665507 827665524
827716576 827716593
827745491 827745508
827927949 827927966
828001382 828001399
828010067 828010084
828234122 828234139
829403574 829403591
829510852 829510869
829511484 829511501
829511854 829511871
829591649 829591666
829670319 829670336
830104522 830104539
830616470 830616487
830792840 830792857
