815564582 815564599
815564632 815564649
815564874 815564891
815564968 815564985
815565748 815565765
815566794 815566811
815568277 815568294
815569230 815569247
815726947 815726964
815731060 815731077
815751840 815751857
815752738 815752755
815753136 815753153
815753876 815753893
815754200 815754217
815754926 815754943
815754986 815755003
815755016 815755033
815757145 815757162
816148275 816148292
816155972 816155989
816156047 816156064
816188625 816188642
816188909 816188926
816192335 816192352
816199150 816199167
816251715 816251732
816266589 816266606
816430485 816430502
816430501 816430518
816456372 816456389
816493415 816493432
816513811 816513828
816538892 816538909
816586756 816586773
816590328 816590345
816668091 816668108
816689323 816689340
816695412 816695429
816782826 816782843
816846065 816846082
816882020 816882037
816892469 816892486
816917140 816917157
816977568 816977585
817018545 817018562
817133877 817133894
817138130 817138147
817259610 817259627
817336298 817336315
817336569 817336586
817345806 817345823
817354010 817354027
817354035 817354052
817358316 817358333
817371732 817371749
817412731 817412748
817635447 817635464
817638199 817638216
817639259 817639276
817639623 817639640
817642644 817642661
817646837 817646854
817650132 817650149
817651029 817651046
817654129 817654146
817684301 817684318
817735679 817735696
817947164 817947181
817947503 817947520
817949041 817949058
817949411 817949428
817951127 817951144
817951244 817951261
817952287 817952304
817961672 817961689
817961878 817961895
817970173 817970190
817970887 817970904
817978563 817978580
817982212 817982229
817983070 817983087
817988767 817988784
818057716 818057733
818152449 818152466
818152477 818152494
818152552 818152569
818152622 818152639
818152638 818152655
818152670 818152687
818177087 818177104
818360037 818360054
818370620 818370637
818395623 818395640
818474228 818474245
818485973 818485990
818496889 818496906
818591982 818591999
818603828 818603845
818737818 818737835
819070036 819070053
819166754 819166771
819167177 819167194
819167403 819167420
819168435 819168452
819171099 819171116
819172883 819172900
819173720 819173737
819174693 819174710
819176732 819176749
819177216 819177233
819179712 819179729
819180521 819180538
819180531 819180548
819182020 819182037
819182350 819182367
819345166 819345183
819456122 819456139
819510209 819510226
819523921 819523938
819542710 819542727
819596517 819596534
819654580 819654597
819668295 819668312
820000450 820000467
820028459 820028476
820070946 820070963
820079248 820079265
820136012 820136029
820188679 820188696
820360058 820360075
820361041 820361058
820361463 820361480
820361497 820361514
820361828 820361845
820362820 820362837
820363106 820363123
820364413 820364430
820365909 820365926
820367605 820367622
820368815 820368832
820370462 820370479
820373821 820373838
820374775 820374792
820375112 820375129
820377431 820377448
820377479 820377496
820384125 820384142
820384290 820384307
820393211 820393228
820393724 820393741
820394200 820394217
820396871 820396888
820448242 820448259
820590098 820590115
820614721 820614738
820697564 820697581
820970679 820970696
820971516 820971533
820980407 820980424
821168261 821168278
821315214 821315231
821360017 821360034
821360083 821360100
821360106 821360123
821360126 821360143
821360144 821360161
821360152 821360169
821360174 821360191
821360182 821360199
821360667 821360684
821360673 821360690
821360690 821360707
821360709 821360726
821462672 821462689
821790592 821790609
821790810 821790827
822098905 822098922
822179911 822179928
822179953 822179970
822181319 822181336
822181860 822181877
822186687 822186704
822187004 822187021
822187276 822187293
822187863 822187880
822190809 822190826
822192902 822192919
822193622 822193639
822196246 822196263
822196651 822196668
822198084 822198101
822205430 822205447
822207769 822207786
822207795 822207812
822213901 822213918
822232660 822232677
822234096 822234113
822271475 822271492
822279999 822280016
822304048 822304065
822374049 822374066
823002099 823002116
823012275 823012292
823024025 823024042
823065197 823065214
823210007 823210024
823216878 823216895
823217214 823217231
823217597 823217614
823228245 823228262
823231581 823231598
823238369 823238386
823259980 823259997
823260008 823260025
823360400 823360417
823412827 823412844
823427444 823427461
823434551 823434568
823435538 823435555
823437658 823437675
823448236 823448253
823518310 823518327
823519386 823519406
823520218 823520235
823520514 823520531
823520760 823520777
823520796 823520813
823521531 823521548
823521659 823521676
823522363 823522380
823524229 823524246
823524818 823524835
823526221 823526238
823529483 823529500
823530310 823530327
823605454 823605471
823699973 823699990
823795102 823795119
823943733 823943750
823960305 823960322
823962681 823962698
824038431 824038448
824213080 824213097
824309609 824309626
824312280 824312297
824370602 824370619
824379124 824379141
824379420 824379437
824379593 824379610
824379886 824379903
824381507 824381524
824382156 824382173
824382448 824382465
824382877 824382894
824382991 824383008
824383271 824383288
824383461 824383478
824384901 824384918
824385912 824385929
824386615 824386632
824387988 824388005
824388392 824388409
824388526 824388543
824389398 824389415
824390825 824390842
824391018 824391035
824391172 824391189
824391874 824391891
824392760 824392777
824392867 824392884
824394024 824394041
824394043 824394060
824394097 824394114
824394124 824394141
824394329 824394346
824394679 824394696
824394829 824394846
824396103 824396120
824396518 824396535
824414597 824414614
824453460 824453477
824453951 824453968
824453971 824453988
824456959 824456976
824457445 824457462
824458545 824458562
824458753 824458770
824462255 824462272
824473811 824473828
824474068 824474085
824476879 824476896
824478710 824478727
824508970 824508987
824509511 824509528
824510449 824510466
824510506 824510523
824510549 824510566
824510667 824510687
824510744 824510762
824510776 824510795
824510782 824510799
824510869 824510886
824510880 824510897
824510925 824510942
824511031 824511048
824511219 824511236
824523880 824523897
824552324 824552341
824564194 824564211
824724869 824724886
824779107 824779124
824781563 824781580
824783773 824783790
824784695 824784712
824786227 824786244
824804154 824804171
824816483 824816500
824823873 824823890
824837336 824837353
824837382 824837399
824843368 824843385
824843817 824843834
824843855 824843872
824843874 824843891
824843881 824843898
824843933 824843950
824843968 824843985
824843988 824844005
824844012 824844029
824844053 824844070
824844068 824844085
824844086 824844103
824844112 824844129
824844161 824844178
824844425 824844443
824844451 824844468
824844509 824844526
824844533 824844550
824844640 824844657
824870551 824870568
824978608 824978625
824980358 824980375
824988065 824988082
825001007 825001024
825014701 825014718
825033295 825033312
825040766 825040783
825053377 825053394
825060024 825060041
825063794 825063811
825067947 825067964
825076081 825076098
825085808 825085825
825096204 825096221
825096662 825096679
825125758 825125775
825204004 825204021
825204530 825204547
825206689 825206706
825207641 825207658
825207852 825207869
825209443 825209460
825210210 825210227
825210807 825210824
825211167 825211184
825220062 825220079
825233591 825233608
825421159 825421176
825458203 825458220
825469454 825469471
825482111 825482128
825510042 825510059
825539637 825539654
825580106 825580123
825645170 825645187
825691749 825691766
825701975 825701992
825723696 825723713
825724021 825724038
825734913 825734930
825761714 825761731
825764054 825764071
825764268 825764285
825768125 825768142
825843796 825843813
825851155 825851172
825889392 825889409
825889528 825889545
825897061 825897078
825910397 825910414
825941039 825941056
825942298 825942315
825944363 825944380
825945231 825945248
825945657 825945674
825946125 825946142
825949288 825949305
825955614 825955631
825964737 825964754
825972532 825972549
825974962 825974979
825983016 825983033
825997205 825997222
826017734 826017751
826044501 826044518
826096022 826096039
826147180 826147197
826168957 826168974
826195830 826195847
826243042 826243059
826249483 826249500
826273980 826273997
826298176 826298193
826333504 826333521
826341717 826341734
826435617 826435634
826437873 826437890
826439511 826439528
826439627 826439644
826445402 826445419
826454213 826454230
826459747 826459764
826459779 826459796
826462558 826462575
826474568 826474585
826475172 826475189
826476573 826476590
826500760 826500777
826507525 826507542
826569541 826569558
826607918 826607935
826608586 826608603
826631457 826631474
826655425 826655442
826663237 826663254
826713138 826713155
826714022 826714039
826718554 826718571
826753872 826753889
826759349 826759366
826786179 826786196
826789880 826789897
826792911 826792928
826804337 826804354
826806669 826806686
826806980 826806997
826807144 826807161
826807239 826807256
826810317 826810334
826817040 826817057
826820270 826820287
826824023 826824040
826834519 826834536
826841304 826841321
826843110 826843127
826843368 826843385
826902884 826902901
826930141 826930158
826940903 826940920
826982043 826982060
826986376 826986393
826990999 826991016
827029465 827029482
827030909 827030926
827036613 827036630
827040515 827040532
827056520 827056537
827059575 827059592
827106523 827106540
827138340 827138357
827153691 827153708
827179921 827179938
827184546 827184563
827205682 827205699
827207933 827207950
827284401 827284418
827285942 827285959
827329178 827329195
827455564 827455581
827494392 827494409
827528349 827528366
827588093 827588110
827634333 827634350
827635624 827635641
827646539 827646556
827647744 827647761
827654544 827654561
827663521 827663538
827694792 827694809
827706296 827706313
827707169 827707186
827720762 827720779
827721298 827721315
827745876 827745893
827756885 827756902
827771788 827771805
827790005 827790022
827798737 827798754
827833030 827833047
827847001 827847018
827847542 827847559
827858498 827858515
827874066 827874083
827874815 827874832
827880709 827880726
827888976 827888993
827895736 827895753
827936068 827936085
827944704 827944721
827995534 827995551
828018007 828018024
828049058 828049075
828056892 828056909
828093546 828093563
828165380 828165397
828169965 828169982
828173175 828173192
828233093 828233110
828239521 828239538
828272416 828272433
828282763 828282780
828452800 828452817
828456886 828456903
828456989 828457006
828460083 828460100
828460360 828460377
828462008 828462025
828518490 828518507
828706377 828706394
828768341 828768358
828768390 828768407
828835167 828835184
828835803 828835820
828836816 828836833
828837899 828837916
828854048 828854065
828975359 828975376
828994902 828994919
829035109 829035126
829035930 829035947
829035968 829035985
829048906 829048923
829155780 829155797
829244419 829244436
829254305 829254322
829280097 829280114
829314254 829314271
829361170 829361187
829406046 829406064
829442913 829442930
829443638 829443655
829443800 829443817
829444392 829444409
829444696 829444713
829444889 829444906
829445130 829445147
829445202 829445219
829445801 829445818
829445929 829445946
829446066 829446083
829447035 829447052
829447063 829447080
829447470 829447487
829447646 829447663
829447706 829447723
829447808 829447825
829447946 829447963
829448366 829448383
829448677 829448694
829449343 829449360
829449962 829449979
829450971 829450988
829451294 829451311
829452916 829452933
829452955 829452972
829453217 829453234
829453407 829453424
829453802 829453820
829454128 829454145
829454469 829454486
829454608 829454625
829455163 829455180
829455606 829455623
829455869 829455886
829456257 829456274
829460876 829460893
829463389 829463406
829463731 829463748
829464849 829464866
829465479 829465496
829466088 829466105
829466129 829466146
829467041 829467058
829467673 829467690
829468215 829468232
829469874 829469891
829494896 829494913
829499326 829499343
829507634 829507651
829513997 829514014
829586445 829586462
829646919 829646936
829674759 829674776
829688530 829688547
829721359 829721376
829746945 829746962
829777922 829777939
829799017 829799034
829834174 829834191
829855550 829855567
829859032 829859049
829885027 829885044
829914069 829914086
829981181 829981198
829993287 829993304
830007070 830007087
830032857 830032874
830033103 830033120
830033133 830033150
830033958 830033975
830034335 830034352
830034411 830034428
830034455 830034472
830034838 830034855
830036181 830036198
830036384 830036401
830042346 830042363
830050939 830050956
830055698 830055715
830057311 830057328
830057470 830057487
830057517 830057534
830057759 830057776
830070809 830070826
830073088 830073105
830074159 830074176
830075026 830075043
830078634 830078651
830092896 830092913
830107161 830107178
830113114 830113131
830136231 830136248
830138743 830138760
830146294 830146311
830163700 830163717
830166211 830166228
830166739 830166756
830168073 830168090
830174475 830174492
830176742 830176759
830179325 830179342
830180070 830180087
830180330 830180347
830180507 830180524
830181824 830181841
830182105 830182122
830183099 830183116
830186365 830186382
830191125 830191142
830197804 830197821
830198149 830198166
830213290 830213307
830225862 830225879
830230251 830230268
830231150 830231167
830236651 830236668
830250729 830250746
830255756 830255773
830269191 830269208
830289353 830289370
830295620 830295637
830326645 830326662
830328658 830328675
830329935 830329952
830330256 830330273
830331289 830331306
830335915 830335932
830338188 830338205
830338501 830338518
830363812 830363829
830424155 830424172
830476195 830476212
830488304 830488321
830502515 830502532
830510016 830510033
830536126 830536143
830545276 830545293
830606541 830606558
830607518 830607535
830671687 830671704
830672750 830672767
830674200 830674217
830676832 830676849
830676912 830676929
830678196 830678213
830681235 830681252
830803578 830803595
830809413 830809430
830860112 830860129
830887492 830887509
830909991 830910008
830917345 830917362
830935607 830935624
830960212 830960229
830970645 830970662
830971314 830971331
830999178 830999195
831019608 831019625
831026318 831026335
831063560 831063577
831063918 831063935
831064761 831064778
831141258 831141275
831142467 831142484
831144378 831144395
831162380 831162397
831164390 831164407
831245078 831245095
831245273 831245290
831245297 831245314
831245802 831245819
831245865 831245882
831245882 831245899
831246113 831246130
831246140 831246157
831246269 831246286
831246294 831246311
831246744 831246761
831247184 831247201
831247296 831247313
831247401 831247418
831247822 831247839
831249548 831249565
831250554 831250571
831250809 831250826
831250891 831250908
831250965 831250982
831251614 831251631
831251641 831251658
831251719 831251736
831252397 831252414
831252460 831252477
831253073 831253090
831253111 831253128
831253987 831254004
831254533 831254550
831254637 831254654
831254691 831254708
831254697 831254714
831255452 831255469
831255523 831255540
831255963 831255980
831256184 831256201
831257181 831257198
831257567 831257584
831257644 831257661
831260353 831260370
831260787 831260804
831261915 831261932
831264036 831264053
831269136 831269153
831272475 831272492
831274347 831274364
831275418 831275435
831275813 831275830
831278444 831278461
831279690 831279707
831282651 831282668
831297920 831297937
831302313 831302330
831306570 831306587
831309285 831309302
831330478 831330495
