862136204 862136385
862222784 862222965
862356044 862356225
862505204 862505385
862565384 862565565
862571204 862571385
862575344 862575525
862690784 862690965
862696364 862696545
862709324 862709685
862717304 862717485
862773944 862774245
862775324 862775685
862790684 862790865
862790924 862791105
862803644 862803825
862819124 862819305
862914284 862914465
863025284 863025465
863053904 863054085
863059424 863059605
863094884 863095065
863126864 863127045
863282744 863282925
863283884 863284065
863375264 863375445
863380604 863380905
863436044 863436225
863439944 863440125
863573504 863573805
863586884 863587245
863592764 863592945
863601824 863602005
863631224 863631405
863697284 863697465
863697704 863697885
863742224 863742405
863747204 863747385
863826884 863827065
863938784 863938965
863943644 863943825
864004004 864004185
864004544 864004785
864010724 864010905
864011324 864011505
864065624 864065805
864067064 864067365
864068924 864069225
864079664 864079845
864079904 864080085
864097004 864097185
864207884 864208065
864208544 864208725
864212504 864212685
864212804 864212985
864237764 864237945
864333284 864333465
864359804 864359985
864501524 864501705
864502064 864502245
864518684 864518925
864756344 864756525
864784604 864784785
864811424 864811605
864857384 864857565
864866444 864866625
864946724 864946905
864957524 864957705
864961244 864961485
864972764 864973125
864973244 864973425
864974264 864974445
864975704 864975885
864976724 864976905
865033364 865033545
865036544 865036725
865048064 865048245
865049084 865049265
865051604 865051785
865052024 865052205
865052924 865053105
865056884 865057065
865057544 865057725
865058984 865059165
865059824 865060005
865094024 865094205
865104224 865104405
865106864 865107045
865107164 865107405
865110404 865110585
865113224 865113405
865114664 865114905
865280744 865280925
865282604 865282785
865282964 865283145
865645544 865645725
865685444 865685625
865786004 865786365
865951004 865951185
865951304 865951485
866031224 866031405
866031464 866031645
866060864 866061045
866078144 866078385
866086004 866086245
866110784 866110965
866226404 866226585
866235584 866235765
866257724 866257905
866265044 866265225
866270804 866270985
866290064 866290305
866362064 866362245
866408264 866408445
866410304 866410485
866435924 866436345
866506124 866506305
866524244 866524425
866584004 866584185
866584724 866584905
866633444 866633625
866644724 866644905
866648804 866648985
866655224 866655405
866655464 866655645
866657324 866657505
866663324 866663505
866711384 866711565
866712104 866712285
866715464 866715645
866951504 866951685
866968544 866968725
867111344 867111525
867135704 867135885
867145604 867145905
867152384 867152745
867195344 867195705
867197024 867197205
867198524 867198705
867198764 867198945
867199004 867199185
867199424 867199605
867200144 867200325
867200804 867201105
867201944 867202185
867203024 867203205
867205844 867206025
867211664 867211845
867212264 867212445
867247544 867247725
867397004 867397185
867436064 867436245
867496424 867496605
867582944 867583125
867583244 867583425
867588824 867589005
867654824 867655005
867657764 867657945
867685244 867685425
867773444 867773805
867783524 867783705
867791984 867792345
867794564 867794805
867794984 867795165
867797204 867797385
867797444 867797625
867797864 867798045
867809084 867809265
867813644 867813825
867815444 867815625
868066184 868066365
868067384 868067565
868079084 868079325
868143104 868143285
868143884 868144125
868147664 868147845
868148564 868148745
868149404 868149585
868170224 868170405
868341404 868341585
868344764 868344945
868347824 868348005
868349624 868349805
868380404 868380585
868382444 868382685
868385804 868386225
868386584 868386765
868388864 868389045
868389884 868390065
868394744 868394925
868396604 868396965
868404044 868404225
868407824 868408005
868411784 868411965
868413524 868413705
868413884 868414185
868419944 868420125
868427744 868427925
868431224 868431405
868545104 868545285
868595324 868595505
868756064 868756365
868757144 868757325
868760924 868761105
868766144 868766385
868792664 868792845
868793024 868793205
868793684 868793865
868794104 868794285
868795304 868795485
868800464 868800645
868801304 868801485
868804004 868804185
868804484 868805085
868807784 868807965
868809464 868810065
868845764 868846185
868848164 868848345
868868744 868868925
868873004 868873185
868878284 868878465
868881464 868881645
868958684 868958865
869170904 869171085
869203124 869203305
869237384 869237565
869278424 869278725
869282564 869282745
869300924 869301105
869307344 869307525
869308544 869308725
869348084 869348265
869349164 869349345
869396864 869397045
869425424 869425605
869425724 869425905
869483384 869483565
869781164 869781345
869786324 869786505
869825444 869825625
869825684 869825865
869899904 869900085
869957024 869957265
869964044 869964405
870016424 870016605
870048704 870048885
870050144 870050325
870079304 870079485
870106964 870107145
870109904 870110085
870110744 870110925
870121904 870122085
870156284 870156465
870156764 870156945
870160844 870161025
870171044 870171225
870236444 870236625
870262544 870262725
870262784 870262965
870421004 870421185
870472724 870473145
870473324 870473505
870559244 870559425
870561704 870561885
870562304 870562485
870627344 870627525
870630824 870631005
871110224 871110525
871150304 871150485
871164284 871164465
871219184 871219365
871285604 871285785
871316744 871316925
871330424 871330605
871339124 871339305
871347524 871347825
871425044 871425225
871449224 871449405
871545824 871546005
871546664 871546845
871547324 871547505
871547564 871547745
871564124 871564305
871627124 871627305
871631204 871631385
871658744 871658925
871807244 871807425
872172284 872172465
872246684 872246865
872390324 872390505
872465444 872465625
872466644 872466885
872483264 872483445
872507804 872507985
872508284 872508465
872508584 872508765
872513084 872513385
872513504 872513685
872561444 872561685
872569724 872570025
872582744 872582925
872629484 872629665
872630384 872630565
872631164 872631345
872636084 872636265
872638904 872639085
872642024 872642205
872642564 872642745
872647904 872648085
872651744 872651925
872654144 872654325
872658944 872659125
872696864 872697045
872712584 872712765
872716604 872716785
872731724 872731905
872739944 872740125
872871704 872871885
872895164 872895345
872920184 872920365
872979524 872979705
873039584 873039765
873040364 873040545
873087644 873087825
873490664 873490845
873494924 873495105
873592784 873592965
873627644 873627825
873632564 873632745
873645404 873645585
873657884 873658065
873662684 873662865
873808724 873808905
873854624 873854805
873897044 873897225
874079984 874080165
874096724 874096905
874098044 874098225
874193984 874194165
874254344 874254525
874257884 874258125
874276604 874276785
874277504 874277685
874414124 874414305
874433384 874433565
874505024 874505205
874505384 874505925
874578884 874579065
874580264 874580445
874593224 874593525
874714844 874715025
874720064 874720245
874876904 874877085
874918244 874918425
874939664 874939845
875030504 875030685
875037284 875037465
875056064 875056245
875095484 875095665
875134904 875135085
875216684 875216865
