817561022 817561043
817562974 817562996
817563012 817563033
817569187 817569208
819844104 819844126
819844154 819844176
821796227 821796251
821796287 821796308
821796319 821796341
821798764 821798786
822347322 822347343
822347364 822347386
822347379 822347403
822379119 822379141
822382932 822382956
822382989 822383011
822382997 822383021
822383009 822383031
822433297 822433318
822748124 822748151
822822452 822822476
822822479 822822501
822822499 822822521
822823187 822823208
822823689 822823711
822823929 822823953
822823944 822823966
822824002 822824026
822826539 822826561
822826547 822826571
822826579 822826601
822826587 822826608
822826817 822826838
822827099 822827121
822827279 822827301
822827292 822827321
822970797 822970818
822970824 822970846
822970857 822970883
824210919 824210941
825907032 825907053
825909237 825909258
825909697 825909718
825910054 825910083
825910069 825910091
825910127 825910156
825910157 825910178
825910219 825910241
825910249 825910271
825910259 825910283
825910299 825910321
825910309 825910331
825910324 825910346
825910602 825910638
825910959 825910986
825911002 825911023
825911097 825911121
825911137 825911163
825911152 825911173
825911222 825911246
825911449 825911471
825911537 825911561
825911587 825911608
825911604 825911626
825911637 825911658
825911679 825911701
825911699 825911728
825911742 825911766
825911817 825911838
825911852 825911876
825911902 825911926
825911912 825911938
825911982 825912003
825912019 825912041
825912079 825912101
825912094 825912116
825914352 825914376
825914942 825914963
827250437 827250458
827250499 827250521
827594294 827594316
828884869 828884891
828885684 828885706
828885762 828885783
828886917 828886938
828888904 828888928
828889059 828889081
828899912 828899933
828910494 828910518
828910534 828910556
828910567 828910588
828974307 828974336
829702344 829702366
829859597 829859618
829942997 829943018
830544489 830544511
830544502 830544523
830551549 830551571
830551592 830551613
830551687 830551708
830551719 830551741
832037654 832037683
832116474 832116496
832460284 832460306
846851352 846851378
846851739 846851761
847396624 847396646
848231899 848231926
848232354 848232376
848232479 848232501
848304874 848304898
848311967 848311996
848317069 848317091
848317079 848317101
848317517 848317538
848327029 848327051
848637662 848637683
848638437 848638458
849470057 849470078
850056779 850056801
850056792 850056821
850060259 850060281
850060667 850060688
850060764 850060791
850061404 850061426
850061499 850061523
850061509 850061533
850061752 850061776
850061782 850061803
850061797 850061821
850061814 850061838
850061824 850061853
850061949 850061971
850062042 850062068
850062054 850062076
850062599 850062623
850062667 850062698
850062684 850062723
850062907 850062928
850063272 850063293
850063284 850063306
850064374 850064398
850064417 850064438
850064512 850064533
850064874 850064901
850065284 850065306
850065299 850065321
850065329 850065351
850065659 850065681
850065744 850065766
850065762 850065793
850065789 850065811
850065807 850065828
850065819 850065841
850065829 850065851
850065842 850065863
850065887 850065908
850065897 850065921
850065937 850065958
850065947 850065968
850066014 850066036
850066039 850066061
850066062 850066096
850066082 850066103
850066137 850066158
850066144 850066168
850066199 850066221
850066209 850066231
850066219 850066246
850066252 850066273
850066259 850066281
850066417 850066441
850066442 850066466
850066574 850066598
850066624 850066646
850066644 850066671
850066657 850066688
850066677 850066703
850066697 850066718
850066727 850066748
850066757 850066781
850241354 850241376
851787694 851787716
851818274 851818298
852100004 852100026
855862429 855862451
855867994 855868016
856126847 856126868
856126862 856126888
856126874 856126896
857635594 857635616
857639277 857639298
857674642 857674663
857674817 857674841
857675089 857675111
857697259 857697281
857742112 857742133
858631734 858631758
860162989 860163011
862354397 862354418
862928919 862928941
865190004 865190026
865284854 865284876
865361507 865361528
865361677 865361706
868324334 868324356
868324377 868324398
868351264 868351286
868411502 868411523
871350082 871350103
