822175198 822175215
822182950 822182970
822282903 822282920
822290437 822290457
822424230 822424249
822424252 822424270
822435592 822435609
822483068 822483085
822483365 822483382
822485847 822485864
822487683 822487701
822491148 822491173
822491266 822491283
822491467 822491484
822491767 822491784
822492232 822492249
822497558 822497576
822497748 822497765
822510321 822510338
822510860 822510878
822519844 822519861
822520188 822520205
822520731 822520748
822523515 822523532
822527218 822527235
822530109 822530126
822530382 822530399
822544517 822544534
822546075 822546092
822546611 822546628
822546631 822546648
822635882 822635899
822637036 822637054
822666403 822666420
822667794 822667814
822667845 822667871
822667866 822667887
822667942 822667960
822668015 822668032
822668140 822668157
822668178 822668195
822668244 822668262
822668286 822668307
822668328 822668345
822668342 822668359
822668374 822668397
822696042 822696068
822777752 822777773
822790609 822790626
822796634 822796651
822798485 822798502
822798647 822798664
822800392 822800409
822801325 822801342
822804668 822804685
822804939 822804956
822817837 822817854
822821549 822821566
822821672 822821689
822828250 822828267
822828336 822828362
822828359 822828396
822828420 822828437
822828472 822828499
822828503 822828520
822828727 822828744
822845483 822845500
822845506 822845531
822845582 822845599
822845783 822845801
822845866 822845883
822845882 822845912
822845911 822845929
822846577 822846594
822846595 822846615
822846804 822846821
822846884 822846902
822847068 822847090
822847089 822847106
822847780 822847797
822850383 822850400
822852453 822852470
822852675 822852693
822856035 822856053
822857331 822857348
822857870 822857887
822858762 822858779
822858876 822858896
822860703 822860720
822861990 822862007
822867872 822867889
823012353 823012370
823029635 823029652
823042024 823042041
823079712 823079729
823080386 823080406
823080401 823080418
823080453 823080470
823083970 823083987
823085285 823085302
823085870 823085887
823086295 823086312
823088960 823088977
823090134 823090151
823090193 823090210
823090269 823090286
823090709 823090726
823092085 823092103
823092852 823092870
823100587 823100604
823100745 823100762
823100824 823100841
823100946 823100963
823101071 823101088
823101158 823101176
823101298 823101315
823101326 823101343
823101421 823101439
823101527 823101544
823101587 823101604
823101750 823101772
823101956 823101974
823103398 823103415
823103730 823103747
823103894 823103911
823103926 823103943
823103944 823103961
823104068 823104085
823104188 823104205
823104280 823104297
823104310 823104327
823104381 823104398
823161107 823161124
823161150 823161168
823161583 823161600
823200118 823200135
823223128 823223151
823223147 823223165
823615179 823615197
823784419 823784436
823873920 823873937
823881450 823881467
823882122 823882139
823883511 823883528
823883545 823883562
823961653 823961670
824131375 824131392
824211371 824211388
824211540 824211557
824216889 824216906
824397915 824397936
824501189 824501206
824504282 824504299
824591499 824591517
824591532 824591549
824596587 824596604
824833092 824833111
824858237 824858254
825085153 825085170
825109972 825109989
825114621 825114638
825171276 825171294
825268585 825268602
825278361 825278378
825279409 825279426
825280422 825280447
825280467 825280491
825288410 825288466
825319574 825319591
825330682 825330699
825345448 825345466
825345677 825345694
825348044 825348061
825348126 825348143
825348148 825348165
825348287 825348304
825378162 825378179
825572355 825572372
825579021 825579054
825697369 825697386
825748910 825748927
825822811 825822829
825868621 825868638
825876808 825876825
825883953 825883970
825884033 825884050
825884634 825884651
825889605 825889623
825908314 825908331
825908520 825908537
825908633 825908650
825908730 825908747
825908822 825908839
825909050 825909068
825909413 825909430
825909482 825909502
825909833 825909860
825910061 825910078
825910077 825910094
825910104 825910129
825910152 825910171
825910170 825910195
825943278 825943295
825948381 825948398
825952006 825952023
825959964 825959981
825969592 825969609
825974162 825974179
825975585 825975602
825978556 825978575
825979416 825979433
826010802 826010826
826010821 826010838
826150632 826150649
826152638 826152655
826237038 826237090
826355818 826355835
826380822 826380839
826491522 826491543
826566718 826566735
826567674 826567691
826568628 826568645
826568984 826569001
826569081 826569098
826569535 826569552
826579194 826579211
826585467 826585484
826586297 826586314
826586671 826586688
826586742 826586762
826606398 826606415
826643617 826643639
826648085 826648102
826660952 826660969
826667403 826667420
826672993 826673010
826702899 826702916
826702934 826702951
826730498 826730524
826914028 826914045
826920647 826920665
826928724 826928744
827017506 827017523
827041445 827041464
827078903 827078920
827101427 827101446
827156388 827156406
827173488 827173507
827173519 827173536
827236218 827236235
827236284 827236301
827236340 827236357
827236363 827236380
827249964 827249981
827250117 827250142
827258389 827258407
827267781 827267799
827291873 827291890
827336626 827336643
827373568 827373595
827459086 827459104
827459599 827459618
827526008 827526033
827536984 827537001
827571149 827571166
827596680 827596699
827597268 827597285
827616522 827616539
827617124 827617141
827617743 827617760
827618484 827618503
827681488 827681506
827686375 827686392
827695353 827695370
827702724 827702741
827706853 827706870
827767669 827767686
827769480 827769498
827782129 827782146
827782321 827782338
827782467 827782486
827784115 827784133
827790412 827790429
827791060 827791077
827791117 827791134
827791248 827791267
827795252 827795269
827857466 827857483
827858624 827858641
827861688 827861705
827865914 827865931
827874306 827874326
827945825 827945842
827971449 827971466
828281805 828281824
828336047 828336064
828365701 828365718
828366006 828366023
828390439 828390456
828529738 828529755
828889830 828889847
828889936 828889953
828906093 828906110
829075804 829075821
829076239 829076256
829083208 829083225
829083898 829083915
829196497 829196514
829589898 829589915
829601376 829601393
829684788 829684805
829698865 829698882
829704931 829704948
829710435 829710452
830120669 830120687
830124675 830124692
830187218 830187235
830298138 830298155
830391567 830391584
830391769 830391786
830392574 830392591
830393477 830393494
830393501 830393518
830393522 830393539
830486361 830486378
830543121 830543138
830550146 830550163
830551534 830551551
830719718 830719735
830838742 830838759
830904856 830904873
830985436 830985453
831005180 831005197
831038949 831038967
831160631 831160648
831160653 831160670
831161406 831161423
831161425 831161451
831162009 831162037
831162104 831162124
831162130 831162147
831174681 831174698
831175980 831175997
831495672 831495689
831520924 831520941
831523289 831523306
831526249 831526266
831964210 831964227
832012663 832012680
832025372 832025389
832031798 832031815
832100856 832100873
832111387 832111404
832255316 832255333
832256969 832256986
832257486 832257503
832270315 832270333
832309834 832309851
832312162 832312179
832342188 832342205
832344460 832344477
832375917 832375934
832459805 832459822
832461357 832461374
832502125 832502142
832515700 832515717
832606170 832606187
832606269 832606286
832640287 832640304
832640507 832640524
832713838 832713855
832718872 832718889
832823324 832823341
832860496 832860514
833021382 833021399
833064646 833064663
833069003 833069020
833233713 833233736
833498243 833498260
833681826 833681843
833681851 833681874
833688487 833688504
833703329 833703346
833718232 833718249
833731311 833731331
833742345 833742362
833744885 833744902
833822042 833822059
833832965 833832982
833838872 833838889
833853341 833853358
833947555 833947572
834017870 834017887
834028083 834028100
834040667 834040685
834040720 834040737
834042570 834042587
834043181 834043198
834051977 834051994
834183078 834183099
834270522 834270548
834282040 834282066
834294398 834294415
834317033 834317050
834340032 834340049
834340046 834340066
834346944 834346961
834357484 834357501
834376254 834376271
834390150 834390172
834409672 834409689
834409698 834409716
834409713 834409737
834409744 834409761
834435517 834435536
834439862 834439890
834439889 834439906
834455336 834455353
834455931 834455948
834457338 834457355
834457749 834457766
834458579 834458596
834458906 834458923
834460747 834460764
834463080 834463097
834475706 834475723
834518363 834518392
834524281 834524300
834525349 834525366
834530043 834530060
834610069 834610089
834635061 834635078
834781889 834781906
834799940 834799957
834799996 834800018
834800022 834800039
834800216 834800233
834810523 834810540
834810820 834810837
834810939 834810956
834810962 834810979
834811069 834811086
834833065 834833083
834839872 834839889
834839894 834839939
834844313 834844330
834846562 834846579
834874354 834874384
834932819 834932840
834932845 834932862
835047593 835047611
835047609 835047636
835049418 835049435
835049433 835049450
835099643 835099668
835100808 835100830
835212351 835212370
835247118 835247135
835315218 835315235
835393145 835393163
835397905 835397925
835443415 835443432
835450120 835450138
835475781 835475798
835483825 835483857
835490032 835490056
835499627 835499651
835500521 835500538
835500552 835500569
835501732 835501757
835557045 835557063
835557054 835557071
835567480 835567507
835643699 835643716
835643702 835643719
835643704 835643722
835648023 835648049
835653077 835653094
835669660 835669679
835721842 835721863
835731773 835731793
835738626 835738643
835738651 835738668
835770748 835770765
835770750 835770774
835818138 835818156
835818141 835818166
835848117 835848134
835848119 835848136
835848125 835848144
835848133 835848150
835848135 835848160
835895147 835895186
835900486 835900509
835954338 835954372
835999719 835999738
835999731 835999748
835999735 835999752
836039186 836039203
836039416 836039434
836039515 836039533
836039533 836039565
836069500 836069525
836073503 836073520
836080685 836080709
836081943 836081960
836118817 836118834
836127798 836127815
836188659 836188685
836247768 836247792
836261526 836261552
836273441 836273458
836273714 836273731
836273717 836273734
836293100 836293118
836325076 836325093
836325102 836325119
836331462 836331479
836331640 836331668
836335199 836335216
836335204 836335221
836335206 836335225
836343988 836344005
836352735 836352760
836375219 836375237
836412516 836412533
836412531 836412555
836422943 836422960
836426853 836426879
836442360 836442377
836454235 836454263
836459674 836459693
836459678 836459696
836461555 836461572
836461557 836461581
836485069 836485095
836601977 836601995
836601980 836602008
836602885 836602910
836605328 836605345
836664949 836664966
836664952 836664969
836665499 836665517
836665643 836665660
836665645 836665663
836667510 836667527
836667513 836667532
836699358 836699376
836709936 836709965
836763579 836763596
836769080 836769098
836769085 836769111
836771127 836771154
836776348 836776365
836776350 836776368
836776353 836776378
836778997 836779014
836779109 836779126
836782968 836782985
836782985 836783002
836783528 836783546
836783654 836783671
836783916 836783933
836790737 836790763
836853270 836853287
836858155 836858176
836861775 836861802
836929017 836929040
836932101 836932118
836932106 836932126
836943508 836943525
836943511 836943528
836943513 836943537
836948859 836948877
836948866 836948883
836948868 836948885
836948872 836948890
836948875 836948893
836948887 836948905
837025896 837025913
837028343 837028360
837028352 837028371
837033731 837033750
837038079 837038103
837086131 837086156
837135035 837135052
837135038 837135072
837160800 837160818
837160810 837160834
837164699 837164723
837185580 837185597
837209808 837209825
837209825 837209842
837218906 837218923
837218940 837218957
837221019 837221036
837222139 837222156
837223419 837223436
837223421 837223439
837223426 837223443
837223437 837223458
837223488 837223506
837223687 837223712
837224577 837224594
837224591 837224608
837224593 837224610
837224925 837224949
837226266 837226283
837226271 837226290
837226291 837226308
837226293 837226310
837226660 837226677
837226662 837226679
837226711 837226729
837227375 837227392
837227377 837227394
837227383 837227409
837229044 837229061
837229678 837229695
837229681 837229698
837229683 837229700
837271082 837271099
837271088 837271105
837272170 837272187
837333089 837333113
837344619 837344637
837344622 837344647
837369539 837369556
837369542 837369568
837384582 837384599
837452442 837452459
837457200 837457217
837457202 837457220
837458183 837458200
837474687 837474704
837548045 837548070
837569256 837569282
837579796 837579820
837723745 837723763
837801648 837801665
837801652 837801675
837815479 837815505
837830515 837830532
837830889 837830906
837831140 837831157
837831979 837831996
837832185 837832202
837832275 837832292
837832588 837832606
837832667 837832690
837833389 837833406
837833569 837833587
837833605 837833622
837833607 837833624
837833609 837833626
837833789 837833806
837834160 837834177
837834304 837834322
837834715 837834733
837834725 837834742
837834734 837834751
837835971 837835988
837836410 837836427
837836414 837836431
837837458 837837475
837843251 837843268
837843255 837843275
837865950 837865969
837898366 837898383
837898368 837898394
837899118 837899135
837900252 837900270
837924293 837924312
837924300 837924317
837924302 837924321
837970607 837970642
837974736 837974754
837974739 837974756
837974741 837974758
837974745 837974762
837977686 837977710
837978605 837978631
837986969 837986986
838041813 838041830
838041815 838041840
838064560 838064577
838064563 838064582
838078965 838078991
838086375 838086393
838086697 838086714
838087175 838087193
838087179 838087196
838087182 838087206
838108401 838108419
838108411 838108429
838108419 838108443
838153980 838154004
838160217 838160234
838160331 838160350
838160337 838160354
838174525 838174549
838238568 838238594
838257952 838257969
838261953 838261970
838261985 838262002
838325703 838325729
838373686 838373716
838388663 838388684
838388669 838388686
838399512 838399536
838406362 838406387
838410402 838410419
838410417 838410434
838410423 838410441
838415430 838415456
838419178 838419196
838469774 838469798
838481630 838481654
838483218 838483238
838483290 838483316
838487867 838487884
838503348 838503365
838503354 838503371
838504991 838505008
838569432 838569456
838584573 838584591
838607534 838607551
838607542 838607566
838609835 838609853
838609840 838609868
838629608 838629626
838635766 838635792
838664375 838664392
838664382 838664399
838664386 838664405
838675893 838675911
838675902 838675920
838675925 838675942
838675947 838675964
838675949 838675966
838675955 838675972
838675960 838675977
838677909 838677926
838677912 838677929
838683803 838683828
838688373 838688398
838713248 838713273
838822625 838822643
838831630 838831648
838844161 838844178
838910803 838910820
838910818 838910835
838910822 838910839
838910836 838910853
838910839 838910856
838911822 838911840
838911826 838911850
838923980 838924005
839017954 839017971
839017965 839017982
839020529 839020554
839025071 839025095
839033938 839033956
839073627 839073644
839084533 839084551
839087086 839087103
839088313 839088337
839102747 839102766
839102751 839102768
839102901 839102919
839102916 839102934
839103004 839103021
839103019 839103036
839103141 839103166
839127717 839127735
839127721 839127738
839127724 839127743
839127736 839127760
839169234 839169251
839185870 839185897
839193198 839193223
839198878 839198899
839198888 839198905
839201759 839201776
839201767 839201784
839201770 839201787
839201774 839201791
839229055 839229073
839229059 839229076
839229083 839229100
839267106 839267123
839267110 839267134
839279206 839279223
839284951 839284975
839296809 839296826
839296853 839296879
839297442 839297459
839297708 839297735
839299228 839299246
839299235 839299252
839299274 839299299
839299990 839300007
839300017 839300035
839300051 839300068
839300114 839300131
839300736 839300753
839300768 839300785
839300871 839300888
839300874 839300891
839300890 839300907
839300931 839300955
839301542 839301559
839301568 839301585
839301696 839301713
839302003 839302020
839302028 839302046
839302209 839302234
839302807 839302825
839303008 839303026
839303114 839303132
839303236 839303253
839303238 839303255
839303348 839303365
839303478 839303495
839303512 839303529
839303516 839303533
839303583 839303600
839303649 839303668
839304159 839304176
839304170 839304187
839304201 839304227
839304722 839304739
839304802 839304820
839304883 839304900
839305420 839305437
839305424 839305441
839305465 839305482
839305514 839305531
839305516 839305534
839305586 839305603
839305588 839305605
839305603 839305625
839305652 839305670
839305655 839305672
839305663 839305680
839305665 839305682
839305698 839305715
839306125 839306142
839311110 839311127
839311112 839311139
839311139 839311157
839311146 839311163
839311176 839311193
839337935 839337962
839342233 839342250
839343782 839343805
839371047 839371065
839375309 839375327
839443918 839443935
839512075 839512093
839564682 839564699
839564688 839564705
839564695 839564712
839564698 839564722
839596758 839596776
839596761 839596778
839596793 839596810
839618644 839618667
839626497 839626515
839629592 839629617
839630684 839630711
839680436 839680461
839706927 839706951
839718673 839718690
839721971 839721995
839801318 839801344
839808215 839808232
839828565 839828590
839848815 839848832
839862835 839862852
839862838 839862855
839863870 839863890
839869619 839869636
839885317 839885336
839953840 839953857
839953908 839953927
839953921 839953947
839963146 839963163
839963148 839963165
839963428 839963447
839971607 839971630
839977653 839977678
840039682 840039699
840039685 840039703
840039688 840039713
840049267 840049284
840078646 840078665
840078653 840078671
840078656 840078673
840078668 840078695
840081687 840081711
840144738 840144755
840144742 840144759
840176707 840176737
840196469 840196486
840197538 840197555
840200734 840200751
840222282 840222300
840222287 840222313
840225002 840225027
840230183 840230201
840230186 840230203
840230191 840230210
840230197 840230216
840230202 840230219
840230215 840230240
840231609 840231626
840238330 840238354
840243995 840244026
840305979 840306004
840308577 840308604
840309280 840309297
840309282 840309299
840310695 840310712
840311225 840311242
840317216 840317240
840320348 840320365
840403556 840403573
840403559 840403576
840403572 840403589
840403575 840403592
840403588 840403605
840403590 840403608
840406168 840406186
840406171 840406189
840406174 840406191
840414647 840414664
840474597 840474614
840481832 840481849
840486726 840486744
840488406 840488435
840491993 840492010
840491995 840492022
840500895 840500912
840502628 840502645
840502631 840502655
840576647 840576664
840576649 840576675
840580787 840580812
840582320 840582337
840582322 840582346
840585709 840585727
840671289 840671313
840734648 840734667
840736555 840736574
840736819 840736840
840737674 840737699
840740749 840740776
840752607 840752624
840752613 840752637
840824142 840824159
840824145 840824162
840836515 840836535
840837050 840837069
840837067 840837084
840837077 840837094
840837151 840837169
840837457 840837474
840837460 840837478
840857934 840857951
840857936 840857953
840857938 840857965
840882786 840882803
840882788 840882812
840926203 840926220
840926211 840926239
840930659 840930676
840930756 840930773
840931139 840931166
840932655 840932679
840933365 840933391
840933917 840933934
840995746 840995763
840995753 840995772
841003004 841003021
841003009 841003026
841003011 841003028
841023796 841023813
841063346 841063363
841073088 841073107
841080197 841080216
841085933 841085960
841096968 841096985
841097868 841097885
841141939 841141956
841141941 841141959
841143894 841143911
841147836 841147860
841178609 841178626
841236733 841236750
841242300 841242318
841262337 841262354
841262339 841262356
841262342 841262367
841305684 841305710
841342888 841342911
841471834 841471851
841505331 841505357
841533332 841533349
841533338 841533362
841554513 841554531
841554519 841554536
841554522 841554539
841586003 841586021
841597087 841597104
841609155 841609174
841691467 841691492
841694518 841694537
841767473 841767490
841769423 841769440
841769426 841769446
841777386 841777403
841777393 841777410
841792449 841792473
841811474 841811498
841827856 841827873
841863894 841863911
841863907 841863931
841915451 841915468
841915461 841915480
841915471 841915488
841915473 841915490
841922195 841922220
842037035 842037053
842046993 842047017
842048299 842048319
842048324 842048341
842048452 842048469
842048457 842048482
842103821 842103844
842108530 842108548
842117060 842117096
842119512 842119536
842122973 842122991
842123000 842123018
842124745 842124763
842131136 842131159
842133465 842133483
842133999 842134021
842134870 842134887
842135701 842135719
842135704 842135729
842137110 842137135
842189731 842189749
842189735 842189760
842205427 842205445
842205439 842205456
842205441 842205466
842219601 842219619
842219604 842219624
842219609 842219633
842236243 842236260
842236245 842236263
842294328 842294356
842295377 842295396
842295858 842295876
842295866 842295883
842303963 842303980
842303967 842303992
842309455 842309472
842309458 842309475
842309462 842309479
842309465 842309482
842309473 842309490
842337257 842337274
842385163 842385180
842385165 842385182
842385169 842385186
842385175 842385201
842409225 842409243
842409229 842409246
842409240 842409257
842468462 842468480
842495242 842495266
842521631 842521655
842533734 842533756
842533741 842533759
842533744 842533762
842561777 842561805
842608712 842608730
842654836 842654855
842710704 842710722
842711861 842711878
842713760 842713786
842715374 842715391
842715396 842715422
842716409 842716435
842718686 842718703
842718799 842718816
842719970 842719989
842728714 842728739
842732047 842732064
842732050 842732067
842732099 842732116
842732101 842732126
842740181 842740199
842740184 842740202
842740190 842740210
842740200 842740226
842796364 842796382
842803543 842803568
842814219 842814238
842814224 842814250
842815140 842815158
842816608 842816625
842816614 842816637
842817170 842817187
842817177 842817194
842817195 842817212
842817200 842817218
842817207 842817224
842817209 842817227
842821917 842821936
842823599 842823616
842823603 842823620
842825874 842825901
842831230 842831247
842832927 842832951
842834729 842834746
842899892 842899909
842900144 842900162
842900147 842900172
842902064 842902081
842902397 842902415
842902565 842902583
842902573 842902592
842907857 842907881
842909206 842909223
842911007 842911030
842912568 842912585
842912809 842912826
842912898 842912915
842913333 842913350
842913341 842913358
842913584 842913601
842913586 842913603
842913602 842913619
842913604 842913621
842913607 842913625
842913636 842913654
842913646 842913663
842913662 842913679
842913760 842913778
842913830 842913847
842913976 842913993
842914186 842914203
842914203 842914221
842914927 842914944
842915101 842915118
842915406 842915423
842915412 842915429
842915611 842915628
842915613 842915632
842915640 842915659
842916954 842916971
842917036 842917053
842917046 842917063
842917056 842917073
842917076 842917096
842917103 842917120
842917121 842917138
842917133 842917150
842917218 842917243
842918764 842918781
842918768 842918785
842918783 842918803
842918790 842918807
842918795 842918813
842919617 842919634
842919735 842919759
842921458 842921475
842921480 842921497
842921511 842921529
842921522 842921539
842921709 842921726
842921749 842921766
842922025 842922042
842922054 842922071
842922466 842922483
842922480 842922498
842922497 842922514
842922554 842922571
842922556 842922573
842922559 842922576
842922615 842922649
842928265 842928291
842973751 842973768
842981156 842981191
842986089 842986115
842987096 842987113
842987102 842987119
842987104 842987121
842987106 842987123
842987111 842987129
842988989 842989012
842994525 842994551
842996042 842996065
842997987 842998014
843025607 843025633
843108852 843108878
843167733 843167750
843167735 843167759
843174991 843175010
843174995 843175012
843188828 843188845
843254566 843254583
843254574 843254591
843257750 843257774
843311704 843311721
843331861 843331878
843331870 843331887
843331872 843331898
843421649 843421677
843427558 843427577
843427987 843428005
843427990 843428008
843427994 843428014
843427999 843428016
843428001 843428025
843429145 843429162
843431665 843431688
843435858 843435876
843435861 843435885
843443215 843443232
843443219 843443246
843445277 843445302
843460457 843460481
843461988 843462011
843503047 843503064
843503049 843503074
843506093 843506120
843507438 843507463
843512816 843512833
843514480 843514497
843514496 843514513
843514498 843514524
843526531 843526548
843571114 843571140
843589996 843590019
843593881 843593898
843603257 843603275
843604907 843604925
843604914 843604939
843642854 843642871
843643676 843643705
843644523 843644547
843656392 843656409
843656408 843656425
843656415 843656432
843656421 843656438
843656424 843656447
843664198 843664215
843666103 843666120
843669512 843669570
843669557 843669578
843669567 843669590
843674429 843674446
843684397 843684414
843685343 843685360
843685561 843685578
843703586 843703603
843709085 843709102
843709094 843709111
843710881 843710898
843710896 843710914
843710899 843710916
843712761 843712778
843713618 843713635
843713939 843713957
843714844 843714861
843721520 843721545
843722254 843722278
843726705 843726724
843729370 843729405
843742077 843742094
843742079 843742103
843795782 843795806
843801523 843801541
843802754 843802778
843803299 843803316
843803301 843803318
843803312 843803335
843804648 843804665
843827709 843827726
843833300 843833326
843837438 843837461
843838961 843838978
843839058 843839076
843839063 843839080
843839088 843839106
843839445 843839462
843840423 843840448
843843238 843843264
843844162 843844179
843844211 843844228
843844441 843844458
843847613 843847630
843848427 843848445
843854598 843854615
843854616 843854633
843854622 843854639
843854668 843854685
843855501 843855518
843855548 843855565
843855573 843855590
843855612 843855630
843860142 843860159
843860302 843860319
843860349 843860366
843860378 843860395
843860410 843860427
843860435 843860452
843860447 843860465
843862732 843862749
843862749 843862766
843862949 843862966
843863876 843863893
843864934 843864951
843871077 843871094
843887068 843887085
843887070 843887087
843887072 843887096
843888295 843888312
843888403 843888426
843894036 843894053
843902031 843902050
843906349 843906371
843910224 843910242
843910227 843910245
843910230 843910247
843912263 843912280
843912265 843912282
843912267 843912284
843912283 843912310
843921448 843921473
843922217 843922234
843922221 843922240
843940939 843940957
843940942 843940959
843941024 843941041
843941092 843941109
843941210 843941227
843941308 843941325
843941312 843941337
843942092 843942109
843942141 843942160
843942145 843942162
843942493 843942510
843942495 843942512
843942510 843942527
843942653 843942670
843942657 843942674
843942892 843942916
843943858 843943875
843944077 843944095
843944132 843944150
843944192 843944209
843944233 843944250
843944781 843944807
843945344 843945361
843945483 843945500
843945528 843945546
843945582 843945599
843945619 843945636
843945653 843945670
843945850 843945867
843945971 843945989
843946010 843946028
843946064 843946081
843946108 843946125
843946131 843946148
843946160 843946178
843946740 843946757
843947219 843947236
843947221 843947238
843947372 843947389
843947696 843947713
843948850 843948867
843948893 843948910
843949074 843949091
843949165 843949182
843949384 843949401
843949407 843949424
843949506 843949526
843949511 843949528
843951246 843951263
843957205 843957223
843960962 843960979
843961193 843961210
843965338 843965356
843965898 843965915
843965912 843965930
843981989 843982006
843986110 843986129
843986193 843986210
844007065 844007082
844009172 844009190
844009502 844009519
844009723 844009740
844009905 844009922
844009961 844009979
844010060 844010077
844010076 844010093
844010099 844010116
844010403 844010420
844010703 844010727
844012235 844012252
844012237 844012261
844013238 844013255
844013541 844013559
844013594 844013612
844013651 844013676
844014258 844014275
844014282 844014299
844014322 844014339
844014338 844014355
844014442 844014459
844014580 844014597
844014644 844014662
844014663 844014680
844014694 844014711
844014812 844014829
844014889 844014906
844015038 844015055
844015048 844015066
844015200 844015217
844015206 844015223
844015214 844015238
844015777 844015794
844015789 844015807
844015865 844015882
844016026 844016049
844017293 844017311
844017296 844017313
844017582 844017599
844017616 844017633
844017689 844017706
844017720 844017737
844017724 844017761
844024574 844024591
844024584 844024601
844024599 844024616
844024630 844024647
844024643 844024667
844025836 844025853
844029828 844029845
844029831 844029849
844030584 844030601
844030590 844030609
844030835 844030852
844031262 844031279
844031355 844031372
844031357 844031374
844031541 844031558
844031575 844031592
844031589 844031606
844031867 844031884
844031869 844031887
844031872 844031890
844032014 844032031
844032141 844032158
844032156 844032174
844032266 844032284
844032397 844032414
844033042 844033059
844033450 844033468
844035128 844035145
844035230 844035248
844039398 844039416
844039401 844039418
844051577 844051601
844097067 844097092
844120630 844120648
844122031 844122055
844186219 844186237
844189231 844189249
844189234 844189251
844201163 844201189
844245202 844245227
844310941 844310958
844446097 844446122
844450262 844450280
844450665 844450702
844457486 844457503
844457488 844457513
844463090 844463108
844464567 844464591
844497539 844497556
844508472 844508490
844508475 844508492
844508478 844508499
844508484 844508511
844521381 844521408
844521442 844521459
844521849 844521936
844526541 844526558
844555485 844555502
844578542 844578559
844656112 844656130
844656118 844656135
844656125 844656144
844656155 844656172
844656212 844656229
844656870 844656887
844656873 844656893
844656930 844656947
844657066 844657083
844657069 844657088
844657078 844657095
844657282 844657307
844673006 844673023
844684702 844684719
844884758 844884777
844960098 844960115
845057219 845057243
845065034 845065051
845065040 845065057
845065043 845065060
845065046 845065070
845146362 845146379
845146431 845146448
845146509 845146526
845146657 845146674
845146725 845146742
845146761 845146779
845146767 845146784
845146853 845146870
845146858 845146875
845146921 845146938
845146934 845146951
845146992 845147009
845147009 845147026
845147026 845147043
845147092 845147109
845147145 845147163
845147150 845147167
845147156 845147173
845147217 845147234
845147263 845147280
845147315 845147333
845147420 845147437
845147426 845147443
845147480 845147498
845147709 845147727
845147773 845147790
845147787 845147804
845147826 845147843
845147859 845147876
845147870 845147887
845147943 845147960
845147949 845147966
845148062 845148079
845148350 845148367
845148728 845148746
845148738 845148755
845148743 845148760
845148851 845148868
845149264 845149281
845149368 845149385
845149489 845149506
845149583 845149600
845149592 845149618
845150802 845150819
845150833 845150850
845151046 845151063
845151093 845151110
845151122 845151139
845151223 845151241
845151228 845151245
845152906 845152924
845152911 845152929
845152966 845152983
845152989 845153006
845153006 845153023
845153104 845153121
845153200 845153217
845153302 845153319
845153342 845153359
845153371 845153388
845153385 845153402
845153389 845153407
845153392 845153409
845153406 845153423
845153412 845153429
845153421 845153438
845153501 845153520
845153518 845153535
845153549 845153566
845153588 845153605
845153590 845153607
845153595 845153613
845155585 845155602
845155588 845155605
845155594 845155611
845155614 845155631
845155665 845155682
845155667 845155684
845155772 845155789
845155827 845155844
845155831 845155848
845155843 845155860
845155883 845155901
845155911 845155928
845155927 845155944
845155975 845155992
845155980 845155997
845155985 845156002
845156059 845156077
845156080 845156097
845156138 845156155
845156173 845156190
845156248 845156265
845156282 845156299
845156295 845156312
845156299 845156319
845156323 845156341
845156340 845156357
845156357 845156374
845156367 845156384
845156371 845156388
845156404 845156421
845156427 845156444
845156479 845156496
845156493 845156510
845156495 845156512
845156498 845156516
845156509 845156527
845156514 845156532
845156572 845156591
845156578 845156595
845156588 845156606
845156625 845156642
845156647 845156664
845156711 845156728
845156738 845156755
845156750 845156767
845156836 845156853
845156904 845156923
845156926 845156943
845156942 845156959
845156975 845156992
845157027 845157044
845157040 845157057
845157246 845157263
845157313 845157330
845157494 845157511
845157508 845157525
845157642 845157659
845157648 845157665
845157790 845157807
845157924 845157941
845158007 845158025
845158154 845158172
845158647 845158664
845158650 845158667
845158679 845158696
845158681 845158708
845161064 845161082
845161069 845161086
845161077 845161094
845161114 845161132
845161167 845161184
845161271 845161288
845161364 845161382
845161499 845161516
845161540 845161558
845161624 845161641
845161642 845161660
845161657 845161674
845161665 845161682
845161720 845161738
845161773 845161790
845161833 845161850
845161867 845161884
845161932 845161949
845162263 845162280
845162300 845162317
845162306 845162323
845162309 845162327
845162418 845162435
845162452 845162469
845162520 845162537
845164130 845164147
845164173 845164190
845164730 845164747
845164791 845164808
845165581 845165598
845166628 845166645
845171421 845171438
845171775 845171792
845171777 845171794
845171779 845171796
845176012 845176029
845176188 845176212
845178509 845178526
845178564 845178582
845178571 845178588
845178591 845178608
845178953 845178971
845179932 845179949
845179937 845179954
845180142 845180159
845183469 845183486
845184439 845184456
845185151 845185168
845186722 845186747
845188095 845188112
845188739 845188756
845188884 845188901
845188924 845188941
845188954 845188971
845188978 845188995
845222956 845222981
845319957 845319974
845324257 845324275
845329960 845329977
845329962 845329979
845334380 845334399
845360332 845360350
845377228 845377245
845398942 845398962
845398951 845398969
845398954 845398978
845403713 845403731
845404017 845404037
845404242 845404463
845405052 845405069
845405055 845405304
845405753 845405837
845405849 845405979
845406463 845406566
845406595 845406892
845408070 845408799
845411541 845411558
845421376 845421401
845462852 845462869
845462855 845462872
845476794 845476811
845477464 845477481
845478673 845478691
845492586 845492604
845492590 845492615
845504063 845504088
845506048 845506065
845585748 845585765
845590653 845590670
845636165 845636191
845657686 845657703
845657693 845657718
845665847 845665873
845668155 845668172
845668157 845668176
845669937 845669954
845673258 845673275
845674158 845674183
845690028 845690045
845722239 845722256
845754110 845754128
845756546 845756564
845762570 845762587
845762577 845762594
845762580 845762597
845762583 845762600
845762589 845762606
845762810 845762830
845826220 845826237
845827935 845827958
845834261 845834285
845840530 845840555
845843838 845843855
845854972 845854994
845889246 845889263
845889248 845889267
845889255 845889284
845908867 845908885
845908870 845908888
845929804 845929821
845931170 845931187
845936688 845936705
846003497 846003514
846003591 846003608
846013220 846013243
846014873 846014890
846037615 846037639
846095565 846095583
846106895 846106920
846188970 846188995
846191779 846191803
846197997 846198022
846370202 846370219
846409607 846409624
846449571 846449594
846457820 846457843
846510721 846510745
846529466 846529491
846545003 846545021
846545012 846545029
846545020 846545044
846632747 846632770
846675240 846675258
846675677 846675701
846684057 846684074
846689896 846689913
846692424 846692448
846698860 846698877
846746051 846746068
846750082 846750099
846750433 846750450
846751160 846751178
846826557 846826584
846834626 846834643
846896689 846896710
846908548 846908572
846919000 846919017
846920804 846920828
846924971 846924995
846930681 846930699
846936484 846936508
846941875 846941893
846951330 846951353
846964884 846964901
846964932 846964956
846966691 846966708
846977466 846977490
847041968 847041991
847063541 847063564
847095151 847095176
847096862 847096887
847120120 847120137
847123169 847123186
847136951 847136968
847141609 847141632
847149720 847149745
847153078 847153102
847179178 847179201
847228168 847228185
847230649 847230674
847237385 847237415
847248074 847248092
847256998 847257021
847335328 847335346
847335338 847335361
847381421 847381438
847381450 847381474
847383641 847383664
847402649 847402673
847417118 847417135
847421845 847421868
847430491 847430508
847469290 847469314
847555139 847555163
847588591 847588614
847590404 847590421
847604956 847604979
847622492 847622527
847625055 847625072
847625059 847625082
847639319 847639336
847651127 847651144
847661117 847661134
847661530 847661548
847731460 847731477
847734814 847734831
847738139 847738156
847739531 847739549
847744315 847744338
847753428 847753445
847772744 847772761
847773997 847774014
847774006 847774029
847797110 847797135
847822243 847822260
847823962 847823991
847834713 847834736
847836321 847836345
847837424 847837441
847837430 847837454
847841062 847841086
847883721 847883745
847890190 847890207
847900094 847900111
847915369 847915393
847922244 847922268
847945278 847945301
847955159 847955177
847998428 847998451
848004638 848004655
848004643 848004660
848004645 848004669
848007108 848007125
848010382 848010399
848032506 848032523
848033341 848033358
848035724 848035741
848069432 848069455
848095212 848095235
848099933 848099950
848116321 848116338
848156008 848156025
848191563 848191586
848192889 848192906
848219980 848220002
848229934 848229957
848231087 848231104
848231638 848231655
848237097 848237119
848258219 848258243
848311660 848311685
848317904 848317926
848319465 848319482
848319593 848319615
848324957 848324979
848325668 848325690
848327857 848327874
848330591 848330614
848335491 848335514
848345319 848345337
848348084 848348107
848372824 848372848
848379664 848379682
848387589 848387606
848418269 848418292
848430972 848430989
848439981 848440003
848458139 848458157
848466307 848466324
848492202 848492219
848492204 848492227
848527662 848527679
848581265 848581282
848619437 848619454
848630001 848630018
848638821 848638845
848641341 848641364
848648685 848648703
848673433 848673455
848684655 848684677
848691434 848691458
848692447 848692470
848701447 848701469
848736707 848736729
848741975 848741998
848744554 848744571
848755590 848755613
848757264 848757281
848770051 848770069
848785896 848785919
848786267 848786284
848789432 848789449
848843329 848843346
848846387 848846410
848850543 848850568
848853393 848853410
848855641 848855664
848865354 848865377
848876452 848876478
848896823 848896846
848918519 848918536
848918530 848918553
848922357 848922380
848942070 848942088
848944313 848944337
848970236 848970260
849037134 849037151
849044946 849044971
849050336 849050353
849050344 849050366
849053461 849053478
849053466 849053490
849076411 849076428
849087826 849087843
849089100 849089125
849213036 849213061
849214793 849214811
849248227 849248250
849300028 849300051
849301230 849301252
849369911 849369933
849377162 849377180
849396875 849396898
849399822 849399845
849413739 849413756
849443407 849443430
849470622 849470644
849477118 849477140
849554416 849554439
849564284 849564301
849568091 849568113
849637556 849637580
849705308 849705331
849711508 849711526
849720091 849720114
849726062 849726085
849729311 849729328
849751007 849751024
849751009 849751031
849774030 849774047
849774037 849774059
849786115 849786138
849822497 849822514
849823398 849823415
849870122 849870139
849870130 849870153
849892656 849892673
849901322 849901339
849901324 849901347
849906577 849906595
849911418 849911436
849911426 849911443
849918590 849918607
849950617 849950640
849958672 849958689
849959548 849959571
849959925 849959942
849974926 849974943
850020507 850020530
850058287 850058304
850061103 850061127
850064037 850064060
850101590 850101607
850109753 850109770
850109871 850109888
850110099 850110116
850110107 850110124
850110259 850110276
850111902 850111919
850137778 850137795
850137780 850137803
850148304 850148321
850148310 850148327
850153177 850153194
850153570 850153587
850153573 850153596
850156635 850156652
850156637 850156655
850161569 850161587
850164456 850164479
850165881 850165898
850166824 850166841
850170213 850170230
850172994 850173012
850182174 850182197
850197814 850197837
850271904 850271928
850275995 850276017
850282733 850282750
850282735 850282757
850317444 850317466
850320087 850320104
850320139 850320156
850320245 850320262
850330620 850330643
850331145 850331168
850346060 850346083
850362310 850362327
850395832 850395855
850405259 850405282
850426190 850426207
850437870 850437887
850461588 850461605
850461590 850461607
850488183 850488206
850495114 850495131
850514492 850514515
850517998 850518021
850532643 850532666
850595984 850596007
850602905 850602927
850643028 850643051
850666510 850666533
850674314 850674339
850677417 850677434
850677419 850677442
850679377 850679400
850691058 850691075
850692240 850692257
850692250 850692267
850694593 850694615
850697182 850697199
850715819 850715843
850721338 850721355
850742368 850742385
850744868 850744891
850749600 850749618
850751377 850751395
850754112 850754129
850757481 850757498
850758074 850758091
850759947 850759964
850759950 850759976
850772943 850772961
850777152 850777169
850777159 850777177
850780658 850780681
850814340 850814357
850825141 850825158
850825147 850825165
850841076 850841098
850853412 850853435
850856881 850856905
850880232 850880249
851033103 851033126
851038867 851038892
851231912 851231933
851262776 851262794
851262780 851262802
851276620 851276643
851279042 851279059
851286670 851286687
851292803 851292820
851295648 851295665
851295651 851295668
851305006 851305023
851309505 851309528
851332068 851332091
851338623 851338646
851341147 851341169
851346991 851347013
851353982 851353999
851359230 851359247
851361204 851361221
851362327 851362345
851362330 851362347
851362677 851362694
851367169 851367186
851371081 851371104
851373050 851373067
851408098 851408120
851464255 851464272
851464258 851464281
851513387 851513404
851520001 851520018
851522152 851522176
851646560 851646577
851660183 851660206
851665981 851665998
851670390 851670407
851698044 851698068
851729489 851729514
851778334 851778351
851783825 851783842
851784636 851784653
851785376 851785400
851787953 851787970
851787955 851787978
851934654 851934672
851959475 851959492
851968837 851968855
852025693 852025717
852051478 852051501
852056328 852056346
852057235 852057252
852057298 852057315
852062237 852062255
852062880 852062897
852064714 852064731
852065277 852065299
852147401 852147423
852156158 852156180
852212137 852212155
852212319 852212342
852213474 852213497
852216163 852216186
852257615 852257632
852263401 852263425
852266705 852266722
852312973 852312996
852323447 852323464
852324649 852324667
852325453 852325475
852327680 852327697
852331115 852331132
852334086 852334103
852358204 852358227
852393216 852393234
852435980 852435997
852440083 852440105
852458892 852458915
852489584 852489607
852490442 852490464
852493275 852493297
852497244 852497267
852498671 852498688
852500769 852500786
852501362 852501379
852502421 852502438
852504073 852504091
852509082 852509099
852520747 852520765
852566253 852566277
852575028 852575045
852575030 852575047
852577349 852577366
852577436 852577453
852579625 852579642
852579933 852579950
852580468 852580490
852583847 852583870
852587451 852587468
852595321 852595338
852627999 852628021
852633513 852633535
852652946 852652963
852652948 852652965
852660460 852660477
852661377 852661401
852669928 852669951
852679324 852679347
852687578 852687595
852697994 852698016
852715726 852715749
852716872 852716895
852745650 852745673
852752868 852752891
852758777 852758795
852794523 852794540
852794526 852794543
852794528 852794551
852825686 852825709
852920960 852920984
852931500 852931523
852953060 852953077
852998248 852998265
853024161 853024184
853187095 853187112
853196724 853196741
853264006 853264030
853272968 853272986
853272971 853272989
853280287 853280309
853290941 853290965
853316004 853316021
853349306 853349323
853414940 853414962
853444751 853444774
853453950 853453974
853479049 853479067
853483082 853483104
853510086 853510103
853522316 853522333
853575842 853575859
853575850 853575867
853575858 853575875
853577111 853577130
853595429 853595452
853625236 853625253
853668728 853668753
853693633 853693650
853694137 853694155
853701410 853701427
853702874 853702891
853710504 853710530
853711473 853711496
853713780 853713797
853758766 853758789
853781117 853781134
853797124 853797142
853838692 853838715
853869010 853869027
853949426 853949450
853955031 853955048
853955035 853955053
853955038 853955061
854041759 854041777
854123131 854123154
854145571 854145588
854228997 854229014
854234063 854234085
854237612 854237636
854249350 854249373
854292417 854292439
854293257 854293274
854293265 854293282
854293267 854293290
854306095 854306118
854311871 854311888
854383160 854383177
854408769 854408786
854427604 854427628
854476866 854476883
854476869 854476893
854478776 854478795
854482231 854482256
854483447 854483465
854485088 854485105
854490161 854490178
854490502 854490520
854504683 854504708
854570545 854570562
854584190 854584208
854584198 854584215
854618026 854618049
854658322 854658345
854666478 854666500
854705315 854705339
854706544 854706568
854744351 854744368
854751264 854751282
854770228 854770251
854794522 854794545
854825267 854825290
854829921 854829938
854829924 854829941
854908914 854908932
854910437 854910459
854916988 854917011
854919407 854919424
854919411 854919433
854926279 854926296
854988025 854988048
855004892 855004915
855005657 855005674
855011521 855011544
855016390 855016407
855030914 855030937
855067819 855067836
855067821 855067838
855067826 855067843
855086943 855086960
855086950 855086967
855152162 855152179
855158556 855158573
855199430 855199447
855220540 855220558
855243391 855243414
855258370 855258387
855268090 855268115
855312447 855312465
855312459 855312484
855339278 855339295
855356567 855356590
855414403 855414426
855457678 855457696
855458789 855458806
855461359 855461378
855486917 855486934
855488438 855488455
855489638 855489655
855491159 855491176
855506458 855506475
855526479 855526496
855544104 855544121
855546449 855546467
855599317 855599334
855604234 855604253
855604639 855604658
855606346 855606364
855608320 855608339
855620228 855620245
855630044 855630062
855689324 855689341
855689326 855689344
855706435 855706452
855706438 855706457
855778730 855778750
855783259 855783276
855809722 855809740
855824227 855824245
855862435 855862454
855866238 855866256
855867703 855867721
855869761 855869779
855901523 855901540
855901528 855901547
855907802 855907819
855938839 855938856
855943446 855943463
855949022 855949040
855953839 855953858
855987169 855987188
855988376 855988394
856006449 856006468
856023155 856023178
856075783 856075802
856105823 856105842
856127817 856127836
856129200 856129217
856133539 856133556
856133541 856133558
856135770 856135789
856142937 856142955
856150235 856150254
856167370 856167387
856210349 856210368
856218071 856218089
856223835 856223853
856233106 856233124
856258807 856258826
856276900 856276918
856294329 856294349
856308676 856308693
856308678 856308695
856320429 856320448
856323747 856323764
856331101 856331118
856365445 856365463
856383002 856383021
856396270 856396289
856401856 856401875
856411004 856411023
856414768 856414785
856436340 856436359
856451157 856451175
856466327 856466346
856471176 856471196
856500900 856500917
856527708 856527728
856536430 856536447
856544298 856544316
856550653 856550670
856571524 856571542
856583612 856583631
856591054 856591073
856613470 856613489
856646909 856646926
856646934 856646952
856646944 856646961
856653437 856653457
856698646 856698665
856703018 856703035
856710918 856710937
856718609 856718626
856718678 856718697
856726124 856726142
856727672 856727689
856728796 856728814
856764506 856764523
856778888 856778906
856826550 856826569
856845800 856845817
856876842 856876859
856900928 856900946
856908870 856908887
856908873 856908891
856912810 856912827
856987267 856987286
857007027 857007044
857007029 857007049
857007983 857008002
857094667 857094686
857131824 857131843
857215131 857215150
857232584 857232604
857258006 857258024
857262625 857262642
857262629 857262647
857268808 857268825
857334915 857334934
857362642 857362661
857366112 857366131
857402372 857402389
857406259 857406276
857406423 857406440
857406451 857406468
857435212 857435231
857436356 857436375
857445587 857445607
857502330 857502347
857505404 857505421
857505410 857505428
857507491 857507510
857509764 857509783
857511499 857511517
857514489 857514508
857516520 857516539
857522140 857522159
857529337 857529356
857531052 857531069
857544370 857544388
857551803 857551820
857559163 857559182
857582002 857582021
857592077 857592094
857596918 857596937
857632790 857632807
857636334 857636352
857637114 857637133
857645438 857645455
857652037 857652055
857655502 857655519
857673244 857673262
857678592 857678609
857682028 857682048
857686187 857686204
857695467 857695486
857735288 857735306
857739012 857739030
857742735 857742752
857743028 857743045
857746748 857746765
857746914 857746931
857754375 857754392
857755023 857755044
857758150 857758170
857763710 857763728
857790239 857790258
857855327 857855344
857898528 857898545
857932505 857932522
857940936 857940953
857946459 857946477
857995238 857995256
858024621 858024642
858107573 858107593
858132585 858132603
858165024 858165043
858182877 858182894
858185000 858185020
858207172 858207191
858217005 858217024
858219642 858219660
858291795 858291814
858372405 858372422
858377797 858377816
858390351 858390368
858390353 858390370
858428996 858429013
858429006 858429023
858429009 858429026
858463003 858463020
858465396 858465415
858467824 858467843
858469463 858469480
858470032 858470051
858489768 858489786
858528515 858528532
858532043 858532064
858535254 858535271
858541506 858541523
858551059 858551076
858556064 858556083
858594464 858594483
858607768 858607788
858615217 858615235
858617699 858617719
858620383 858620402
858626646 858626663
858626652 858626671
858628977 858628994
858643074 858643094
858693364 858693381
858724951 858724970
858741265 858741282
858741272 858741292
858785010 858785029
858797945 858797964
858801213 858801230
858805154 858805173
858806783 858806803
858819202 858819220
858849811 858849828
858885527 858885544
858951734 858951751
858955811 858955828
858961261 858961279
858961264 858961281
858963330 858963349
858964073 858964094
858966261 858966280
858970472 858970489
858973799 858973818
858991176 858991193
858991179 858991196
858991182 858991199
858991186 858991204
858991193 858991210
859068986 859069003
859074827 859074844
859074839 859074857
859075069 859075086
859075131 859075148
859082792 859082811
859084676 859084693
859084714 859084732
859093683 859093700
859094940 859094959
859095885 859095904
859096241 859096260
859123616 859123636
859127658 859127677
859140892 859140909
859145858 859145876
859146707 859146724
859155435 859155455
859182073 859182090
859231919 859231936
859231924 859231942
859242787 859242806
859281364 859281384
859312548 859312565
859312555 859312574
859320131 859320150
859348550 859348568
859399943 859399962
859431748 859431767
859477535 859477554
859496000 859496017
859551345 859551365
859576017 859576037
859591362 859591379
859607395 859607414
859704489 859704508
859720436 859720455
859751625 859751644
859761479 859761497
859781280 859781297
859787093 859787110
859831599 859831618
859848844 859848863
859898976 859898995
859925078 859925096
860000751 860000772
860010993 860011012
860060483 860060501
860071413 860071430
860091131 860091150
860149693 860149712
860160352 860160371
860162614 860162634
860166854 860166871
860169331 860169349
860253643 860253662
860284326 860284344
860292938 860292957
860331248 860331265
860341490 860341507
860342990 860343010
860356308 860356325
860357873 860357890
860357875 860357892
860357879 860357898
860364238 860364255
860366155 860366174
860367291 860367308
860371198 860371215
860440192 860440210
860453998 860454017
860478567 860478586
860489468 860489487
860497449 860497466
860506914 860506932
860506936 860506954
860509660 860509677
860509666 860509683
860527301 860527318
860543526 860543543
860550848 860550868
860552183 860552201
860585210 860585229
860624069 860624086
860675497 860675514
860710809 860710829
860736268 860736286
860743412 860743429
860759706 860759725
860789300 860789320
860796794 860796813
860857377 860857394
860879020 860879040
860921068 860921087
860944696 860944716
860947986 860948003
860975191 860975209
860990006 860990023
861038237 861038257
861042838 861042855
861044660 861044677
861055430 861055448
861064796 861064813
861069541 861069560
861073824 861073841
861089137 861089154
861111711 861111728
861125227 861125247
861131207 861131226
861133838 861133857
861141021 861141040
861175522 861175542
861214947 861214966
861217168 861217185
861217276 861217294
861278792 861278809
861278794 861278811
861306864 861306885
861315718 861315736
861390954 861390972
861398706 861398723
861398712 861398730
861424464 861424484
861428462 861428480
861483182 861483200
861483511 861483528
861484278 861484296
861486478 861486497
861489562 861489581
861495225 861495243
861501244 861501261
861504692 861504709
861544084 861544102
861566199 861566218
861577257 861577277
861616380 861616399
861625592 861625611
861629586 861629603
861641347 861641364
861644408 861644425
861644411 861644430
861647527 861647546
861650104 861650121
861650106 861650125
861652900 861652920
861654557 861654575
861739769 861739788
861750695 861750714
861824195 861824428
861843044 861843062
861866591 861866609
861886158 861886175
861919906 861919927
861924510 861924527
861931762 861931779
861946267 861946284
861992530 861992549
861996881 861996900
862009910 862009928
862068188 862068207
862139814 862139833
862158447 862158466
862163225 862163243
862177031 862177050
862179437 862179456
862187307 862187324
862207604 862207623
862258336 862258355
862262540 862262557
862262549 862262568
862278835 862278852
862312807 862312824
862324860 862324878
862351893 862351913
862381098 862381118
862384726 862384745
862404451 862404468
862409252 862409271
862521807 862521826
862524763 862524782
862533382 862533401
862543209 862543227
862556182 862556201
862565808 862565827
862568014 862568031
862583634 862583651
862599891 862599909
862605866 862605884
862646156 862646175
862668088 862668106
862674497 862674514
862685791 862685808
862685795 862685813
862685825 862685842
862685829 862685848
862685835 862685852
862685845 862685862
862685848 862685866
862685856 862685873
862685861 862685878
862685864 862685883
862685869 862685886
862685872 862685889
862685875 862685893
862685879 862685897
862685883 862685900
862685888 862685907
862685892 862685909
862685894 862685913
862685898 862685916
862685901 862685918
862685904 862685921
862685908 862685926
862685912 862685929
862685916 862685933
862685921 862685938
862685929 862685946
862685934 862685951
862685947 862685964
862685950 862685968
862685955 862685973
862685958 862685975
862685960 862685977
862685977 862685995
862685980 862685997
862685988 862686005
862685993 862686010
862686002 862686020
862686006 862686023
862686087 862686104
862686089 862686106
862686119 862686136
862686129 862686146
862686202 862686219
862686226 862686243
862686272 862686292
862686277 862686295
862688417 862688434
862688425 862688442
862688427 862688445
862688430 862688447
862688433 862688451
862689701 862689719
862698686 862698705
862701047 862701066
862704853 862704872
862705965 862705984
862711824 862711843
862716229 862716248
862732321 862732338
862768796 862768815
862773084 862773102
862855426 862855447
862858304 862858322
862870011 862870030
862871030 862871047
862880083 862880102
862897005 862897024
862942192 862942210
862944117 862944135
862947241 862947258
862947243 862947260
862948339 862948356
863034386 863034405
863073114 863073131
863091503 863091522
863158078 863158097
863167006 863167024
863201547 863201564
863202520 863202537
863205202 863205221
863216955 863216973
863295680 863295699
863301800 863301818
863317378 863317397
863371788 863371805
863377887 863377905
863377891 863377909
863377896 863377913
863457767 863457784
863470481 863470500
863539873 863539890
863539876 863539895
863547531 863547551
863556017 863556035
863637343 863637361
863648266 863648285
863669768 863669786
863683951 863683968
863718371 863718391
863734109 863734129
863770795 863770814
863805584 863805602
863810259 863810276
863830584 863830601
863848317 863848334
863885788 863885805
863898883 863898900
863931122 863931139
863931138 863931158
863938116 863938133
863945547 863945564
863951341 863951358
863965457 863965474
863969686 863969705
863977651 863977668
863979281 863979298
863982947 863982964
863984369 863984389
863993748 863993765
864014654 864014671
864058986 864059003
864069321 864069340
864146467 864146486
864149870 864149889
864158795 864158813
864168558 864168575
864168562 864168581
864193840 864193859
864253432 864253450
864272181 864272200
864305751 864305769
864314462 864314479
864325508 864325526
864328178 864328195
864328184 864328201
864339199 864339216
864340126 864340145
864353215 864353233
864416214 864416231
864434088 864434107
864436596 864436616
864464144 864464161
864486288 864486305
864501118 864501135
864586024 864586041
864592276 864592293
864594238 864594257
864606923 864606944
864612156 864612174
864628202 864628221
864673449 864673466
864751168 864751187
864761260 864761279
864771374 864771392
864778537 864778555
864859054 864859073
864921833 864921851
864963096 864963115
864969405 864969424
865019917 865019937
865029061 865029080
865030607 865030626
865055965 865055982
865093436 865093453
865095028 865095045
865111420 865111437
865129309 865129326
865129586 865129605
865134173 865134190
865181808 865181825
865182925 865182943
865183405 865183422
865183422 865183439
865183436 865183455
865196750 865196767
865198283 865198302
865199185 865199202
865199398 865199417
865220619 865220636
865345188 865345207
865354326 865354346
865364607 865364625
865376743 865376762
865474636 865474654
865490975 865490994
865542464 865542481
865557038 865557055
865613978 865613997
865625903 865625920
865632921 865632938
865668372 865668389
865684199 865684216
865695518 865695536
865710707 865710726
865717615 865717633
865720713 865720730
865737501 865737518
865743324 865743341
865795310 865795329
865798649 865798666
865824192 865824209
865828739 865828758
865829362 865829379
865853740 865853759
865864239 865864259
865872564 865872581
865876523 865876543
865893513 865893532
865947213 865947232
865966160 865966177
865971917 865971937
865982208 865982227
865990576 865990594
866032211 866032229
866078355 866078375
866086262 866086279
866099698 866099716
866110356 866110373
866112045 866112062
866123134 866123152
866125781 866125798
866129098 866129117
866132237 866132254
866159755 866159775
866160695 866160714
866162808 866162828
866164158 866164179
866183545 866183564
866216779 866216796
866220257 866220274
866225168 866225186
866226681 866226698
866231542 866231560
866235632 866235649
866235992 866236011
866241555 866241574
866301871 866301889
866302682 866302701
866321324 866321343
866325904 866325922
866333481 866333500
866354767 866354784
866355946 866355963
866386709 866386726
866410907 866410925
866413726 866413745
866477792 866477809
866497425 866497444
866560687 866560704
866571374 866571391
866576163 866576182
866578540 866578559
866583662 866583680
866586839 866586856
866592969 866592986
866593669 866593689
866600581 866600600
866601320 866601339
866603975 866603994
866605030 866605047
866605055 866605074
866656394 866656411
866672705 866672723
866736409 866736427
866762353 866762371
866769572 866769589
866770507 866770524
866770581 866770599
866770953 866770971
866774055 866774075
866776173 866776191
866836131 866836148
866905562 866905579
866905571 866905588
866905622 866905639
866905624 866905641
866952747 866952765
867000103 867000123
867008031 867008048
867017286 867017304
867021144 867021162
867027857 867027876
867029206 867029223
867056198 867056217
867089621 867089640
867092240 867092259
867109606 867109623
867120021 867120110
867172168 867172189
867176038 867176057
867191162 867191181
867275333 867275350
867277029 867277046
867278228 867278245
867281753 867281772
867285592 867285612
867298964 867298981
867319762 867319781
867364088 867364106
867378792 867378809
867449554 867449572
867501129 867501146
867510467 867510484
867539495 867539512
867548100 867548117
867548108 867548125
867619682 867619700
867628385 867628403
867687404 867687421
867689698 867689715
867692278 867692295
867693680 867693697
867708192 867708211
867710107 867710127
867719787 867719805
867771681 867771701
867774879 867774897
867777490 867777507
867779585 867779603
867782783 867782802
867791003 867791020
867815999 867816017
867956640 867956657
868045688 868045706
868054781 868054800
868060781 868060800
868114707 868114724
868123188 868123205
868144472 868144490
868213010 868213027
868216384 868216403
868224670 868224688
868232605 868232624
868247664 868247683
868253678 868253695
868262638 868262657
868300765 868300784
868305173 868305192
868391916 868391933
868399315 868399333
868472287 868472307
868527528 868527547
868540486 868540504
868584290 868584307
868602708 868602728
868612600 868612620
868631321 868631339
868651845 868651863
868661468 868661487
868701167 868701186
868720378 868720395
868731247 868731265
868734413 868734430
868735475 868735494
868745027 868745047
868753248 868753268
868835730 868835749
868836791 868836808
868837692 868837712
868839393 868839410
868851572 868851589
868909135 868909152
868932340 868932357
868933253 868933270
868934345 868934362
868934352 868934369
868934361 868934379
868934376 868934394
868934403 868934421
868934415 868934433
868934418 868934436
868934426 868934482
868934488 868934505
868934558 868934575
868934561 868934581
868941330 868941347
868943252 868943271
868943267 868943284
868943269 868943287
868943785 868943802
868987989 868988010
869006686 869006705
869008580 869008597
869020199 869020218
869060236 869060255
869068022 869068041
869164319 869164339
869177769 869177788
869234000 869234019
869255655 869255674
869282798 869282817
869326280 869326297
869327255 869327272
869342349 869342366
869442635 869442653
869464565 869464582
869472331 869472349
869474361 869474378
869505232 869505252
869524298 869524318
869535588 869535606
869540713 869540732
869583596 869583614
869600598 869600615
869600605 869600624
869604865 869604883
869613887 869613904
869616264 869616283
869617366 869617384
869648698 869648718
869661183 869661201
869668095 869668113
869720577 869720596
869773244 869773261
869773253 869773272
869776709 869776726
869868639 869868658
869871451 869871470
869922592 869922610
869986914 869986932
869992032 869992051
870024111 870024132
870038683 870038703
870058122 870058141
870060557 870060574
870067988 870068006
870071463 870071481
870103411 870103430
870122290 870122310
870137360 870137377
870138291 870138308
870211143 870211160
870214719 870214736
870214722 870214741
870273266 870273285
870290000 870290017
870342116 870342134
870453094 870453111
870456499 870456516
870467411 870467430
870474471 870474488
870535218 870535238
870544906 870544923
870546350 870546367
870548665 870548683
870568795 870568812
870568810 870568828
870578144 870578163
870629013 870629033
870645640 870645658
870716146 870716166
870788354 870788373
870805962 870805979
870813955 870813973
870815191 870815211
870824947 870824964
870891406 870891425
870956302 870956321
870980995 870981013
870980998 870981017
870991915 870991932
871061228 871061248
871075836 871075856
871105565 871105583
871140978 871140998
871150937 871150956
871177788 871177805
871182929 871182946
871187022 871187039
871187188 871187205
871187913 871187932
871236631 871236650
871243429 871243449
871257141 871257159
871272636 871272653
871277318 871277337
871277324 871277341
871289568 871289587
871300090 871300108
871312988 871313007
871320687 871320704
871522461 871522482
871590273 871590292
871597091 871597108
871619294 871619314
871653651 871653670
871672015 871672032
871679611 871679630
871685673 871685693
871695396 871695416
871745620 871745639
871756967 871756984
871803504 871803522
871836978 871836995
871857001 871857020
871920981 871921000
871933674 871933694
872015153 872015172
872049098 872049117
872103992 872104010
872129370 872129387
872129876 872129893
872129925 872129943
872129959 872129976
872142128 872142148
872167778 872167796
872201829 872201846
872201831 872201850
872299573 872299594
872367561 872367580
872373258 872373276
872373266 872373283
872442800 872442821
872461196 872461213
872635359 872635376
872643796 872643813
872643798 872643815
872704670 872704687
872712942 872712959
872712950 872712969
872816908 872816927
872871893 872871910
872885763 872885782
872886723 872886740
872953196 872953213
872953223 872953241
872978784 872978801
872979796 872979813
872997220 872997239
873039661 873039679
873039667 873039687
873056536 873056553
873057753 873057772
873060195 873060213
873104410 873104427
873137070 873137087
873141107 873141126
873148153 873148171
873222855 873222874
873245571 873245589
873257943 873257960
873274723 873274740
873318428 873318448
873419406 873419423
873424746 873424763
873436437 873436459
873489654 873489672
873489657 873489674
873631782 873631802
873645661 873645678
873648737 873648756
873651421 873651440
873657117 873657136
873665970 873665989
873670110 873670127
873670125 873670144
873677293 873677312
873690883 873690901
873713256 873713274
873713261 873713279
873735481 873735498
873736110 873736131
873745612 873745631
873786060 873786079
873806616 873806636
873828407 873828424
873834761 873834779
873844507 873844526
873964105 873964122
873995557 873995574
874044316 874044333
874163987 874164004
874189116 874189134
874227031 874227048
874263011 874263028
874265677 874265696
874272866 874272886
874275427 874275445
874313431 874313450
874347691 874347708
874347693 874347713
874352741 874352758
874352749 874352770
874354135 874354154
874360662 874360681
874436870 874436907
874439969 874439987
874478789 874478806
874501479 874501500
874514086 874514103
874526303 874526322
874613726 874613744
874621447 874621464
874622906 874622927
874650114 874650133
874682468 874682485
874695973 874695990
874706765 874706785
874768927 874768946
874782176 874782193
874802177 874802196
874817611 874817629
874846210 874846227
874846212 874846229
874867618 874867636
874878322 874878339
874878332 874878350
874901674 874901691
874952424 874952444
