862192248 862192265
862350549 862350566
862356129 862356146
862697383 862697400
863397577 863397594
863397662 863397679
863429485 863429502
863532184 863532201
863534883 863534900
863760341 863760359
863802652 863802669
864056083 864056100
864709361 864709378
864885316 864885333
865015103 865015120
865015176 865015193
865015431 865015449
865015542 865015563
865085550 865085567
865131296 865131313
865220618 865220635
865303426 865303443
865317648 865317665
865321781 865321798
865724597 865724614
865728689 865728706
865784170 865784187
865804889 865804906
865818940 865818957
865823244 865823261
865835459 865835476
865839451 865839468
865844527 865844544
865902670 865902687
865906223 865906240
865926207 865926224
865927326 865927343
865929307 865929324
865957866 865957883
865961909 865961926
865975781 865975798
865979492 865979509
865983739 865983756
865987317 865987334
865997180 865997197
866008257 866008274
866012109 866012126
866014030 866014047
866020256 866020273
866026744 866026761
866027747 866027764
866028950 866028967
866030901 866030918
866040413 866040430
866040540 866040557
866044284 866044301
866046260 866046277
866048762 866048779
866051210 866051227
866051828 866051845
866052704 866052721
866056334 866056351
866056680 866056697
866057543 866057560
866059544 866059561
866059941 866059958
866063368 866063385
866063962 866063979
866064711 866064728
866065910 866065927
866066078 866066095
866066153 866066170
866067521 866067538
866067759 866067776
866068361 866068378
866071947 866071964
866072646 866072663
866072842 866072859
866075331 866075348
866089340 866089357
866089918 866089935
866090037 866090054
866090092 866090109
866090196 866090213
866091281 866091298
866091548 866091565
866092519 866092536
866093115 866093132
866093216 866093233
866093356 866093373
866093513 866093530
866093554 866093571
866093565 866093582
866093797 866093814
866094058 866094075
866094206 866094223
866095216 866095233
866097116 866097133
866097121 866097138
866097130 866097147
866097488 866097505
866098791 866098808
866099066 866099083
866101935 866101952
866102485 866102502
866103134 866103151
866104956 866104973
866104974 866104991
866105445 866105462
866105770 866105787
866106218 866106235
866106276 866106293
866107831 866107848
866107922 866107939
866108146 866108163
866108166 866108183
866114168 866114185
866114307 866114324
866115099 866115116
866115273 866115290
866115432 866115449
866116079 866116096
866116322 866116339
866116341 866116358
866116640 866116657
866117050 866117067
866117520 866117537
866118455 866118472
866118475 866118492
866118577 866118594
866118840 866118857
866119510 866119527
866120088 866120105
866120403 866120420
866121195 866121212
866121569 866121586
866122018 866122035
866122129 866122146
866122413 866122430
866122808 866122825
866138982 866138999
866139058 866139077
866139079 866139096
866139173 866139190
866139645 866139662
866139843 866139860
866139887 866139904
866139946 866139963
866141259 866141276
866141988 866142005
866142099 866142116
866142208 866142225
866142371 866142388
866142843 866142860
866142992 866143009
866143855 866143872
866144142 866144161
866144342 866144359
866144373 866144390
866144431 866144448
866144907 866144924
866145066 866145083
866145111 866145128
866145284 866145301
866145589 866145606
866145965 866145982
866146296 866146313
866147383 866147400
866147630 866147647
866148582 866148599
866148775 866148792
866148999 866149016
866149128 866149145
866149322 866149339
866149348 866149365
866149639 866149656
866149946 866149963
866149976 866149993
866150162 866150179
866153582 866153599
866154018 866154035
866155502 866155519
866156037 866156054
866156389 866156406
866156968 866156985
866157151 866157168
866157581 866157598
866157766 866157783
866157780 866157797
866158006 866158023
866158117 866158134
866158288 866158305
866158307 866158324
866158675 866158692
866158688 866158705
866158830 866158847
866158840 866158857
866158970 866158987
866159197 866159214
866159268 866159285
866159343 866159360
866174636 866174653
866174694 866174711
866175242 866175259
866175489 866175506
866175614 866175631
866175685 866175702
866176045 866176062
866176338 866176355
866176404 866176421
866176550 866176567
866176560 866176577
866176589 866176606
866176630 866176647
866176721 866176738
866176841 866176858
866177199 866177216
866177382 866177399
866177424 866177441
866177583 866177600
866177705 866177722
866177729 866177746
866177964 866177981
866178024 866178041
866178073 866178090
866178262 866178279
866178323 866178340
866178376 866178393
866178805 866178822
866178965 866178982
866178977 866178994
866179196 866179213
866179260 866179277
866179455 866179472
866179510 866179527
866179608 866179625
866179747 866179764
866179787 866179804
866179897 866179914
866180565 866180582
866180576 866180593
866180623 866180640
866180686 866180703
866180766 866180783
866180793 866180810
866180858 866180875
866180973 866180990
866181035 866181052
866181194 866181211
866181215 866181232
866181441 866181458
866181730 866181747
866181863 866181880
866181880 866181897
866181909 866181926
866181977 866181994
866182050 866182067
866182626 866182643
866182763 866182780
866183082 866183099
866183126 866183143
866184955 866184972
866185000 866185017
866185009 866185026
866185168 866185185
866185176 866185194
866185280 866185297
866185707 866185724
866185764 866185781
866185809 866185826
866185899 866185916
866185986 866186003
866186021 866186038
866186691 866186708
866186728 866186745
866186969 866186986
866187062 866187079
866187117 866187134
866187271 866187288
866187369 866187386
866187461 866187478
866187787 866187804
866187816 866187833
866187855 866187872
866188012 866188029
866188211 866188228
866188251 866188268
866188268 866188285
866188282 866188299
866188322 866188339
866188365 866188382
866188654 866188671
866188896 866188913
866188989 866189006
866189060 866189077
866189065 866189082
866189194 866189211
866189249 866189266
866189256 866189273
866189498 866189515
866189893 866189910
866190117 866190134
866190122 866190139
866190157 866190174
866190276 866190293
866190357 866190374
866190392 866190409
866190456 866190473
866190526 866190543
866190644 866190661
866190729 866190746
866190845 866190862
866191085 866191102
866191176 866191194
866191333 866191350
866191478 866191495
866191581 866191598
866191691 866191708
866191755 866191772
866191868 866191885
866191897 866191914
866191947 866191964
866191980 866191997
866192155 866192172
866192169 866192186
866192199 866192216
866192203 866192220
866192381 866192398
866192546 866192563
866192576 866192593
866192622 866192639
866192648 866192666
866192707 866192724
866192718 866192735
866192811 866192828
866192920 866192937
866193118 866193135
866193227 866193244
866193318 866193335
866193387 866193404
866193583 866193600
866193668 866193685
866193801 866193818
866194129 866194146
866194155 866194172
866194188 866194205
866194600 866194617
866194724 866194741
866194795 866194812
866194811 866194828
866194865 866194882
866195121 866195138
866195183 866195200
866195196 866195213
866195241 866195258
866195302 866195319
866195353 866195370
866195503 866195520
866195715 866195732
866195735 866195752
866195876 866195893
866195912 866195929
866196010 866196027
866196184 866196201
866196189 866196206
866196256 866196273
866196292 866196309
866196308 866196325
866196401 866196418
866196424 866196441
866196587 866196604
866196639 866196656
866196728 866196745
866197135 866197152
866197177 866197194
866197229 866197246
866197252 866197269
866197271 866197288
866197308 866197325
866197346 866197363
866197350 866197367
866197369 866197386
866197446 866197463
866197597 866197614
866197612 866197629
866197646 866197663
866197735 866197752
866197842 866197859
866198018 866198035
866198056 866198073
866198365 866198382
866198388 866198405
866198510 866198527
866198642 866198659
866198921 866198938
866199077 866199094
866199094 866199111
866199251 866199268
866199381 866199398
866199409 866199426
866199547 866199564
866199574 866199591
866199580 866199597
866199773 866199790
866199795 866199812
866199914 866199931
866199944 866199961
866200005 866200022
866200091 866200108
866200134 866200151
866200271 866200288
866200470 866200487
866200661 866200678
866200806 866200823
866200854 866200871
866200941 866200958
866200998 866201015
866201110 866201127
866201241 866201258
866201263 866201280
866201301 866201318
866201384 866201401
866201593 866201610
866201735 866201752
866201866 866201883
866201933 866201950
866201951 866201968
866202023 866202040
866202071 866202088
866202205 866202222
866202499 866202516
866202745 866202762
866202864 866202881
866202894 866202911
866203163 866203180
866203194 866203211
866203269 866203286
866203294 866203311
866203575 866203592
866203617 866203634
866203654 866203671
866203733 866203750
866203856 866203873
866203929 866203946
866204248 866204265
866204300 866204317
866204330 866204347
866204429 866204446
866204646 866204663
866204827 866204844
866205058 866205075
866205100 866205117
866205354 866205371
866205385 866205402
866205408 866205425
866205521 866205538
866205772 866205789
866205821 866205838
866205916 866205933
866206084 866206101
866206129 866206146
866206139 866206156
866206329 866206346
866206491 866206508
866206577 866206594
866206635 866206652
866206777 866206794
866207008 866207025
866207043 866207060
866207079 866207096
866207118 866207135
866207270 866207287
866207435 866207452
866207550 866207567
866207593 866207610
866207655 866207672
866207685 866207702
866207766 866207783
866207825 866207842
866207938 866207955
866208110 866208127
866208183 866208200
866208204 866208221
866208261 866208278
866208295 866208312
866208312 866208329
866208403 866208420
866208418 866208435
866208521 866208538
866208546 866208563
866208633 866208650
866208786 866208803
866208952 866208972
866209266 866209283
866209321 866209338
866209334 866209351
866209379 866209396
866209392 866209409
866209478 866209495
866209504 866209521
866209542 866209559
866209630 866209647
866209777 866209794
866209781 866209798
866209808 866209825
866209820 866209837
866211433 866211450
866211459 866211476
866211646 866211663
866211992 866212009
866212289 866212306
866212436 866212453
866212460 866212477
866212485 866212502
866212895 866212912
866212920 866212937
866213026 866213044
866213055 866213072
866213059 866213076
866213343 866213360
866213487 866213504
866213627 866213644
866213725 866213742
866213792 866213809
866213844 866213861
866214083 866214100
866214099 866214116
866214112 866214129
866214379 866214396
866214433 866214450
866214458 866214475
866214593 866214610
866214601 866214618
866214630 866214647
866336140 866336157
866353305 866353322
866368859 866368876
866718923 866718944
866718942 866718959
866726643 866726660
866767006 866767023
866769815 866769832
866770507 866770524
866770579 866770596
866777714 866777731
867696578 867696595
867696609 867696626
867696627 867696644
868740926 868740943
868760541 868760558
869005199 869005216
869005221 869005238
869005253 869005270
869241147 869241164
869528235 869528252
869528404 869528421
869847143 869847160
870019248 870019265
870137497 870137514
870627150 870627167
870798650 870798667
870819349 870819366
871057213 871057230
871314922 871314939
871842170 871842187
872127249 872127266
872446649 872446666
872546407 872546424
872625960 872625977
872785734 872785751
872980467 872980484
873219590 873219607
873224378 873224395
873271067 873271084
873749332 873749349
873963196 873963213
874078138 874078155
874101107 874101124
874423447 874423464
875103198 875103215
