847642451 847642468
847644854 847644871
847647897 847647914
847650441 847650458
847651127 847651144
847651223 847651240
847654805 847654822
847654914 847654931
847658566 847658583
847659697 847659714
847659746 847659763
847730679 847730696
847863007 847863024
847890190 847890207
847940675 847940692
847979850 847979867
847985212 847985229
847998119 847998136
848007189 848007206
848011273 848011290
848086100 848086117
848091446 848091463
848113756 848113773
848251103 848251120
848252421 848252438
848308188 848308205
848336760 848336777
848337151 848337168
848343571 848343588
848345294 848345311
848345319 848345337
848347844 848347861
848347855 848347872
848387594 848387611
848387787 848387804
848388183 848388200
848394456 848394473
848594192 848594209
848658399 848658416
848680230 848680247
848812603 848812620
848823118 848823135
849042924 849042941
849898137 849898154
849904456 849904473
849916382 849916399
850104259 850104276
850156637 850156654
850165881 850165898
850437870 850437887
850724099 850724116
850738933 850738950
850772133 850772150
851290339 851290356
851291738 851291755
851295648 851295665
851810291 851810308
851825074 851825091
851888206 851888223
851924664 851924681
852064714 852064731
852257615 852257632
852332286 852332303
852665300 852665317
853116772 853116789
853176456 853176473
853349305 853349322
853497019 853497036
854122137 854122154
855152160 855152177
856393215 856393233
856498240 856498257
856669810 856669827
856822398 856822415
856845780 856845798
857169507 857169524
857434676 857434693
857596448 857596465
857645193 857645210
857678225 857678242
857735179 857735196
857741813 857741830
857746748 857746765
857746914 857746931
857832911 857832928
858111116 858111133
858369133 858369150
858372388 858372405
858373318 858373335
858436196 858436213
858615928 858615945
858801405 858801422
858849811 858849828
859060671 859060688
859068244 859068261
859074305 859074322
859074839 859074856
859252353 859252370
859440568 859440585
859759386 859759403
859821812 859821829
859821887 859821904
859847797 859847814
859926200 859926217
860071413 860071430
860331267 860331284
860340867 860340884
860340947 860340964
860359114 860359133
860367291 860367308
860643134 860643151
861033762 861033779
861035831 861035848
862002603 862002620
862018803 862018820
