831446895 831446912
831596313 831596330
831676747 831676764
831698359 831698376
831705126 831705143
832135821 832135838
832144714 832144732
832144731 832144748
832144737 832144754
832144760 832144777
832144766 832144783
832144775 832144792
832145421 832145438
832145428 832145445
832154927 832154944
832173047 832173064
832175303 832175320
832179228 832179246
832179250 832179267
832180531 832180548
832180535 832180552
832180544 832180561
832180550 832180567
832180572 832180589
832180578 832180595
832180619 832180637
832180628 832180645
832180639 832180656
832180650 832180667
832180687 832180704
832180695 832180712
832185270 832185287
832200942 832200962
832201815 832201834
832201835 832201852
832221191 832221208
832228752 832228769
832230789 832230806
832283647 832283664
832318857 832318874
832326425 832326442
832326552 832326569
832342029 832342046
832360653 832360670
832360677 832360694
832360695 832360712
832367025 832367044
832373222 832373239
832373249 832373266
832373256 832373274
832373273 832373290
832373277 832373294
832373285 832373302
832373292 832373309
832373301 832373318
832373314 832373331
832460662 832460679
832713503 832713520
832811826 832811843
832856677 832856694
832928077 832928094
832930184 832930201
832953061 832953078
832953075 832953092
833065121 833065138
833190138 833190155
833304670 833304687
833304688 833304705
833304698 833304719
833304738 833304755
833304755 833304772
833304761 833304778
833304766 833304783
833304788 833304805
833549357 833549374
833570170 833570187
833591425 833591442
833624724 833624741
833625083 833625100
833688487 833688504
833691594 833691611
833744885 833744902
833757846 833757863
833832965 833832982
833853341 833853358
833913707 833913724
833914474 833914491
833917801 833917818
833942647 833942664
834040668 834040685
834040675 834040692
834208735 834208752
834268693 834268710
834269195 834269212
834269735 834269752
834273311 834273328
834278994 834279011
834284867 834284884
834285003 834285020
834292597 834292614
834409699 834409716
834409744 834409761
834418482 834418499
834439873 834439890
834439880 834439897
834524281 834524298
834610070 834610087
834610952 834610969
834639193 834639210
834643009 834643026
834643115 834643132
834778672 834778689
834823433 834823450
834844313 834844330
834874355 834874374
834874400 834874417
834932823 834932840
834932845 834932862
835047619 835047636
835077900 835077917
835148477 835148494
835154018 835154035
835217613 835217630
835255300 835255317
835265379 835265396
835372507 835372524
835392187 835392204
835473525 835473542
835479395 835479412
835541504 835541521
835557045 835557063
835557054 835557071
835602829 835602846
835731773 835731793
835738651 835738668
835805975 835805992
835814437 835814454
835814450 835814469
835814461 835814478
835814660 835814677
835870777 835870794
835999719 835999738
835999735 835999753
836034662 836034679
836081943 836081960
836121249 836121266
836131851 836131868
836164332 836164349
836167237 836167254
836183875 836183894
836183883 836183900
836225121 836225138
836236114 836236131
836236655 836236672
836237176 836237193
836243532 836243549
836273717 836273734
836307182 836307199
836325102 836325119
836343988 836344005
836452694 836452711
836538928 836538945
836557266 836557283
836560932 836560949
836564666 836564683
836588781 836588798
836605328 836605345
836623819 836623836
836632787 836632806
836632807 836632824
836632827 836632844
836632833 836632850
836632839 836632856
836632852 836632869
836632865 836632882
836632875 836632892
836632880 836632897
836632892 836632909
836632901 836632918
836632930 836632947
836632955 836632973
836632966 836632983
836633197 836633214
836664949 836664966
836701927 836701944
836701998 836702015
836702193 836702210
836703760 836703777
836704576 836704593
836705649 836705666
836705842 836705859
836706105 836706122
836708130 836708147
836708205 836708222
836708484 836708501
836709715 836709732
836710795 836710812
836714477 836714494
836714707 836714724
836718578 836718595
836722728 836722745
836722954 836722971
836724025 836724042
836725439 836725456
836725641 836725658
836728872 836728889
836731473 836731490
836772008 836772025
836772020 836772037
836797417 836797434
836798104 836798121
836798157 836798174
836798412 836798429
836798595 836798612
836798889 836798906
836802071 836802088
836803711 836803728
836804336 836804353
836805808 836805825
836807459 836807476
836807646 836807663
836808478 836808495
836809756 836809773
836810543 836810560
836814293 836814310
836814702 836814719
836825569 836825586
836843242 836843259
836848165 836848182
836858159 836858176
836910895 836910912
836931505 836931522
836934871 836934888
836948860 836948877
836948873 836948892
836948888 836948905
837019637 837019654
837028353 837028371
837034899 837034916
837154369 837154386
837155027 837155044
837155160 837155177
837155185 837155202
837155284 837155301
837155460 837155477
837155520 837155537
837162888 837162906
837162894 837162911
837162904 837162921
837162913 837162930
837162958 837162975
837162963 837162982
837162974 837162991
837188428 837188445
837209808 837209825
837209825 837209842
837218906 837218923
837223421 837223439
837223426 837223443
837223438 837223458
837223488 837223506
837229679 837229700
837356936 837356953
837373609 837373626
837376490 837376507
837397934 837397951
837411282 837411299
837457200 837457220
837509132 837509149
837597491 837597508
837780243 837780260
837797072 837797089
837831140 837831157
837912720 837912737
837920541 837920558
837927499 837927516
837954746 837954763
837980961 837980978
837990133 837990150
838086375 838086392
838089721 838089738
838130905 838130922
838160332 838160350
838160337 838160354
838165067 838165084
838200074 838200091
838261984 838262001
838272448 838272465
838308461 838308478
838388666 838388683
838410423 838410440
838526101 838526118
838578149 838578166
838578169 838578186
838601418 838601435
838664375 838664393
838675902 838675919
838753551 838753568
838768501 838768518
838822626 838822643
838856218 838856235
838910822 838910839
839017954 839017971
839017965 839017982
839033939 839033956
839101773 839101790
839101963 839101980
839102629 839102646
839102748 839102768
839102902 839102919
839102917 839102934
839103019 839103036
839104603 839104620
839105105 839105122
839106274 839106291
839107113 839107130
839107610 839107627
839108773 839108790
839120571 839120588
839121334 839121351
839125481 839125498
839126654 839126671
839127613 839127630
839132140 839132157
839133921 839133938
839198880 839198898
839198888 839198905
839229059 839229076
839270155 839270172
839270803 839270820
839289172 839289189
839305420 839305437
839305517 839305534
839305588 839305605
839305604 839305624
839305653 839305672
839305665 839305682
839311113 839311137
839311139 839311156
839311176 839311193
839324557 839324574
839359552 839359569
839370754 839370771
839388211 839388228
839390262 839390279
839398704 839398721
839401573 839401590
839540710 839540727
839596759 839596778
839629311 839629328
839780703 839780720
839783098 839783115
839862838 839862855
839961209 839961226
839963146 839963163
840023435 840023452
840095537 840095554
840130899 840130916
840144738 840144755
840189722 840189739
840270105 840270122
840316774 840316791
840320348 840320365
840332357 840332374
840332376 840332393
840382856 840382873
840406171 840406189
840417651 840417671
840417659 840417676
840417671 840417688
840418536 840418553
840418544 840418561
840418566 840418583
840418582 840418599
840431089 840431106
840474597 840474614
840486726 840486744
840510241 840510258
840568435 840568452
840585709 840585727
840648643 840648660
840648651 840648668
840648657 840648674
840648710 840648727
840824145 840824162
840825402 840825419
840830081 840830098
840944383 840944400
840988709 840988726
841003004 841003021
841003011 841003028
841023796 841023813
841050507 841050528
841050521 841050538
841050525 841050542
841050535 841050552
841050541 841050561
841050594 841050611
841073090 841073107
841080198 841080215
841093651 841093668
841213560 841213577
841231047 841231064
841251687 841251704
841347818 841347835
841499139 841499156
841528426 841528443
841609156 841609173
841689229 841689246
841769426 841769443
841809676 841809693
841892016 841892033
841915461 841915480
842056754 842056771
842252255 842252272
842272442 842272459
842275706 842275723
842309465 842309482
842309473 842309490
842337257 842337274
842340485 842340502
842365141 842365158
842439504 842439521
842447043 842447060
842466824 842466841
842533737 842533755
842533742 842533759
842574698 842574715
842577039 842577056
842627980 842627997
842636811 842636828
842660295 842660312
842772586 842772603
842791860 842791877
842796363 842796380
842800761 842800778
842831230 842831247
842863210 842863227
842871725 842871742
842881699 842881716
842902398 842902415
842902565 842902582
842902574 842902592
842913586 842913603
842913606 842913624
842913646 842913663
842913830 842913847
842914204 842914221
842947621 842947638
842978889 842978906
842987096 842987113
842987104 842987121
842987112 842987129
842990935 842990952
843000767 843000784
843015613 843015630
843148419 843148436
843171827 843171844
843199353 843199370
843236752 843236769
843427558 843427577
843494776 843494793
843526529 843526546
843586228 843586245
843593881 843593898
843664198 843664215
843685343 843685360
843713618 843713635
843726706 843726724
843819001 843819018
843829463 843829480
843848428 843848445
843854622 843854639
843855501 843855518
843871077 843871094
843896520 843896537
843896738 843896755
843910225 843910245
843947221 843947238
843948408 843948425
843948965 843948982
843949192 843949209
843949407 843949424
843949506 843949528
843950556 843950573
843951642 843951659
843952232 843952249
843956216 843956233
843957206 843957223
843960962 843960979
843963123 843963140
843963316 843963333
843965338 843965355
843965544 843965561
843977868 843977885
843986110 843986129
843986193 843986210
843995369 843995386
844031867 844031886
844032141 844032158
844032156 844032174
844032267 844032284
844035128 844035145
844039398 844039416
844086586 844086603
844095879 844095896
844153560 844153577
844182988 844183005
844189232 844189249
844204387 844204404
844221661 844221678
844223715 844223732
844289262 844289279
844377328 844377345
844377408 844377425
844377422 844377439
844378155 844378172
844378731 844378750
844378739 844378756
844378761 844378778
844378787 844378804
844381272 844381289
844385377 844385394
844386032 844386049
844386224 844386241
844386623 844386640
844393262 844393279
844418028 844418047
844418035 844418052
844418047 844418064
844418156 844418173
844419317 844419337
844419532 844419551
844420359 844420377
844420421 844420438
844420430 844420447
844420445 844420464
844420457 844420474
844420461 844420483
844420488 844420505
844420517 844420534
844420541 844420561
844420551 844420569
844420563 844420580
844420568 844420585
844420581 844420598
844420594 844420611
844427805 844427822
844433001 844433018
844442210 844442227
845411541 845411558
845462855 845462872
845495318 845495335
845512996 845513013
845516249 845516266
845540465 845540482
845540489 845540506
845540493 845540510
845540499 845540516
845887325 845887342
845899007 845899024
846200361 846200378
846280004 846280021
846281267 846281284
846496778 846496795
846498853 846498870
846544124 846544141
846642349 846642367
846642424 846642441
846642435 846642453
846642442 846642459
846642456 846642473
846642468 846642485
846646204 846646221
846684057 846684074
846737951 846737968
846813000 846813018
846923434 846923451
847002077 847002094
847002721 847002738
847002786 847002803
847003046 847003063
847006157 847006174
847006710 847006727
847014101 847014118
847020439 847020456
847183730 847183747
847197556 847197573
847200305 847200322
847213468 847213485
847221833 847221850
847223209 847223226
847224895 847224912
847228168 847228185
847234074 847234091
847234256 847234273
847263928 847263945
847323278 847323295
847347572 847347589
847380919 847380936
847398938 847398955
847408654 847408671
847410131 847410148
847499656 847499673
847516240 847516257
