847644854 847644871
847647897 847647916
847650441 847650458
847651127 847651144
847654914 847654931
847657882 847657899
847658566 847658583
847827602 847827619
847863007 847863024
847890190 847890207
847911262 847911279
847940675 847940692
847985212 847985229
847998008 847998025
847998119 847998136
848007108 848007125
848007189 848007206
848010382 848010399
848011273 848011290
848086100 848086117
848091446 848091463
848093886 848093903
848149160 848149177
848229728 848229745
848237007 848237024
848251103 848251120
848252421 848252438
848333089 848333106
848343571 848343588
848345294 848345311
848345319 848345337
848347303 848347321
848347844 848347861
848347855 848347872
848387589 848387606
848387594 848387611
848387787 848387804
848387840 848387857
848516053 848516070
848594192 848594209
848598526 848598543
848812603 848812621
848823118 848823135
849035119 849035136
849062217 849062234
849285381 849285398
849465591 849465608
849898137 849898154
849904456 849904473
849916382 849916399
849918587 849918604
850104259 850104276
850109841 850109858
850111217 850111234
850149691 850149708
850165881 850165898
850417539 850417556
850437870 850437887
850495114 850495131
850738802 850738819
850738933 850738950
850740233 850740250
850748389 850748406
850751886 850751903
850772133 850772150
850915509 850915526
851280652 851280669
851291738 851291755
851295649 851295666
851812554 851812571
851825074 851825091
851888206 851888223
852064714 852064731
852316678 852316695
852332286 852332303
852487716 852487733
852573640 852573657
852587088 852587105
852833708 852833725
852926251 852926268
853176802 853176819
853206804 853206821
853349305 853349322
853351196 853351213
853358868 853358885
853497019 853497036
853518599 853518616
854122137 854122154
854836810 854836827
854837190 854837207
855152160 855152177
856129200 856129217
856308678 856308695
856498240 856498257
856725849 856725866
856804550 856804567
856822398 856822415
856845781 856845798
857571609 857571626
857591702 857591719
857605276 857605293
857645269 857645286
857678225 857678242
857735179 857735196
857746748 857746765
857746914 857746931
857754375 857754392
857924668 857924685
858111116 858111133
858158152 858158169
858183891 858183908
858191278 858191295
858204073 858204090
858274329 858274346
858369133 858369150
858372388 858372405
858373318 858373335
858428996 858429013
858541506 858541523
858615928 858615945
858801405 858801422
858849811 858849828
858955811 858955828
859060671 859060688
859068244 859068261
859074305 859074322
859099537 859099554
859102733 859102750
859252353 859252370
859440569 859440586
859567434 859567451
859759387 859759404
859821812 859821829
859821851 859821868
859821856 859821873
859847797 859847814
859926200 859926217
860071413 860071430
860340947 860340964
860359114 860359131
860367291 860367308
860441406 860441423
860441417 860441434
860537360 860537377
860643134 860643151
860774249 860774266
860968204 860968221
861035831 861035848
861035896 861035913
861222919 861222936
861390700 861390717
861697318 861697335
861718880 861718897
861736867 861736884
862002603 862002620
862018803 862018820
