847644854 847644871
847651127 847651144
847654914 847654931
847657882 847657899
847940675 847940692
847985212 847985229
848337152 848337169
848345320 848345337
848387589 848387606
848594192 848594209
848761770 848761787
848812603 848812620
848823118 848823135
848878888 848878905
848953900 848953917
849035119 849035136
849898137 849898154
849904456 849904473
849911419 849911436
849961270 849961287
849961451 849961468
850099089 850099106
850102825 850102842
850104259 850104276
850109871 850109888
850110100 850110117
850110258 850110275
850156635 850156652
850156646 850156663
850165881 850165898
850317064 850317081
850437870 850437887
850495114 850495131
850738802 850738819
850738933 850738950
850740233 850740251
850751377 850751394
850814344 850814361
851280651 851280668
851291738 851291755
851295648 851295665
851808529 851808546
852056328 852056345
852064714 852064731
852257615 852257632
852327680 852327697
852487716 852487733
852665300 852665317
852838640 852838657
853116772 853116789
853276366 853276383
853349306 853349323
853358868 853358885
853489725 853489742
853598162 853598179
854122137 854122154
854154929 854154946
854391527 854391544
854577687 854577704
855152160 855152177
855173043 855173060
855333911 855333928
855623044 855623061
856198683 856198700
856393215 856393233
856562375 856562392
856659245 856659262
856724674 856724691
856764506 856764523
856845781 856845798
857169507 857169524
857571609 857571626
857605276 857605293
857735179 857735196
857742756 857742773
857746748 857746765
857746914 857746931
858111116 858111133
858200223 858200240
858368231 858368248
858372388 858372405
858428996 858429013
858457745 858457762
858539787 858539804
858614132 858614149
858615539 858615556
858955811 858955828
858985561 858985578
859074839 859074856
859758235 859758252
859759386 859759403
859821812 859821829
859821856 859821873
859821887 859821904
860340867 860340884
860340947 860340964
860359114 860359131
860367291 860367308
860447856 860447873
860968204 860968221
860987759 860987776
861035831 861035848
861035896 861035913
861891237 861891254
862002603 862002620
862018803 862018820
