824510819 824510869
824561350 824561400
824564350 824564400
824566600 824566700
824595531 824595581
824625378 824625478
824628628 824628678
824795073 824795173
824800973 824801023
824804423 824804473
825058305 825058405
825058905 825059005
825062631 825062681
825063131 825063231
825069741 825069841
825073069 825073119
825075919 825075969
825078919 825078969
825082019 825082119
825082569 825082619
825084819 825084869
825087858 825087908
825100375 825100525
825102725 825102775
825113103 825113153
825117850 825117900
825174629 825174679
825250608 825250658
825253408 825253458
825256211 825256261
825262061 825262111
825265155 825265205
825268805 825268855
825278601 825278651
825288692 825288742
825315548 825315598
825326433 825326483
825418033 825418083
825426783 825426833
825515248 825515298
825567989 825568039
825575139 825575189
825595508 825595558
825598308 825598358
825623954 825624004
825624504 825624554
825629304 825629354
825636504 825636554
825645004 825645054
825645454 825645504
825663604 825663654
825671154 825671254
825680954 825681004
825683004 825683054
825691754 825691804
825694804 825694854
825701617 825701667
825707505 825707555
825714032 825714082
825717982 825718032
825835973 825836073
825855568 825855618
825858468 825858568
825867518 825867568
825964455 825964505
825964805 825964855
825975114 825975164
825978090 825978140
826005996 826006046
826017132 826017182
826030509 826030609
826033559 826033709
826034609 826034909
826036559 826036709
826037609 826037759
826039509 826039709
826042309 826042409
826043609 826043659
826045209 826045259
826059859 826059909
826117805 826117855
826120855 826120905
826123855 826123955
826126805 826126855
826210524 826210624
826288142 826288192
826291192 826291342
826292292 826292342
826294192 826294342
826297142 826297292
826300042 826300292
826303142 826303242
826310142 826310192
826313892 826313942
826378207 826378257
826384133 826384183
826387483 826387533
826459842 826459942
826462892 826462942
826465792 826465892
826471579 826471629
826472429 826472479
826480919 826480969
826495894 826495944
826503459 826503509
826506559 826506609
826524174 826524224
826525824 826525974
826530274 826530374
826533224 826533324
826535824 826535874
826544595 826544645
826547595 826547645
826551345 826551395
826552095 826552145
826552845 826552895
826568832 826568882
826582086 826582136
826592049 826592099
826604090 826604140
826616290 826616340
826621990 826622040
826646441 826646491
826706917 826706967
826712717 826712767
826721648 826721748
826796156 826796206
827077257 827077307
827262643 827262693
827272825 827272875
827273325 827273375
827273525 827273575
827447814 827447864
827478179 827478229
827478779 827478829
827480679 827480729
827627880 827627930
827703877 827703927
827753765 827753815
827755615 827755665
827791486 827791536
827924148 827924198
827926198 827926248
827926948 827927048
827930598 827930648
827931398 827931448
827999817 827999867
828003217 828003267
828005867 828005917
828033417 828033467
828033967 828034017
828183879 828183929
828191686 828191736
828222467 828222517
828224467 828224517
828231303 828231353
828252048 828252098
828271740 828271790
828273840 828273890
828274490 828274540
828276690 828276740
828277390 828277440
828279690 828279740
828280890 828280940
828285318 828285368
828287618 828287668
828301538 828301588
828301838 828301888
828363922 828363972
828438873 828438923
828441473 828441523
828471563 828471613
828479417 828479467
828570738 828570788
828613706 828613756
828615806 828615856
828991789 828991839
829003315 829003365
829071133 829071183
829302466 829302566
829315116 829315166
829318366 829318416
829321916 829321966
829385506 829385606
829386156 829386306
829388006 829388056
829391356 829391406
829400441 829400491
829403341 829403391
829481536 829481636
829483636 829483686
829487686 829487786
829488236 829488286
829491436 829491536
829492036 829492086
829492586 829492686
829493136 829493236
829493736 829493786
829500679 829500729
829672259 829672309
829695280 829695330
829779953 829780003
829972279 829972329
830307220 830307270
831160658 831160708
831277139 831277189
831315216 831315266
831324843 831324893
831373071 831373121
831517714 831517764
831684486 831684536
831743473 831743523
831937250 831937300
832007826 832007876
832024111 832024161
832475303 832475353
832622891 832622941
832950996 832951046
833132222 833132272
833134322 833134372
833242344 833242394
833824220 833824270
834290202 834290252
834341721 834341771
834426027 834426077
834788531 834788581
834878429 834878479
835148463 835148513
835334578 835334628
835372528 835372578
835455253 835455303
835559022 835559072
835974306 835974356
835980056 835980106
835999256 835999306
836259922 836259972
836319725 836319775
836589212 836589262
836744530 836744580
836748780 836748830
836760130 836760180
836767280 836767330
836774183 836774233
836842771 836842821
836847121 836847171
836847471 836847521
836859259 836859309
836948378 836948428
836951878 836951928
837210380 837210430
837212480 837212530
837266697 837266747
837455628 837455678
837539249 837539299
837789478 837789528
837792828 837792878
837805210 837805260
837806460 837806510
838007655 838007705
838150736 838150786
838160325 838160375
838236829 838236879
838395164 838395214
838577975 838578025
838654910 838654960
838659060 838659110
838662410 838662460
838665202 838665252
838665752 838665802
838745370 838745420
838750870 838750920
839108766 839108816
839111116 839111166
839174052 839174102
839193106 839193156
839263377 839263427
839340549 839340599
839347087 839347137
839608362 839608412
839690697 839690747
839713703 839713753
839875497 839875597
839883347 839883397
839948697 839948747
839983514 839983564
840227149 840227199
840402677 840402727
840472057 840472107
840822021 840822071
840828921 840828971
841688830 841688880
842022748 842022798
842027298 842027348
842031698 842031748
842195387 842195437
842378805 842378855
842808047 842808097
842811597 842811647
842820310 842820360
842888344 842888394
842975256 842975306
843233254 843233304
843404837 843404887
843407837 843407887
843425567 843425617
843426317 843426367
843427217 843427267
843427667 843427717
843435078 843435128
843489642 843489692
844106505 844106605
844115205 844115255
844436895 844436945
844437545 844437595
844438095 844438195
844438695 844438745
845463848 845463898
845464648 845464698
845465148 845465198
845466198 845466348
845466898 845467098
845467698 845467748
845472548 845472598
845473898 845473948
845475198 845475248
845551507 845551557
845552057 845552107
845552607 845552757
845553257 845553307
845557007 845557057
845557407 845557457
845559857 845559907
845590793 845590843
845626243 845626293
845626893 845626943
845627493 845627543
845629593 845629643
845633093 845633143
845634243 845634443
845637529 845637729
845640179 845640229
845641279 845641979
845643479 845643529
845644329 845644379
845644779 845645279
845647579 845647629
845648079 845648329
845650629 845650679
845651029 845651079
845652579 845652829
845653679 845653729
845654479 845654529
845729425 845729475
845732375 845732425
845732825 845732925
845733075 845733275
845801005 845801055
845820956 845821006
845823056 845823156
845887049 845887099
845887599 845888149
845888849 845888899
845890695 845890895
845891745 845891795
845891995 845892045
845896318 845896368
845896668 845896768
845899218 845899268
845899718 845899768
845902471 845902571
845905021 845905071
845905671 845905721
845907871 845908071
845908221 845908321
845971315 845971365
845971915 845971965
845972565 845972665
845973665 845973715
845974465 845974665
845975315 845975415
845976365 845976415
845976965 845977165
845977715 845977915
845978615 845978815
845982315 845982565
845984815 845984865
845985765 845985815
845986265 845986515
845987265 845987315
845988515 845988565
845989565 845989715
845990265 845990315
845992365 845992415
845993065 845993165
845995965 845996015
845998865 845998915
845999715 845999765
846000965 846001015
846003265 846003315
846010815 846010865
846012665 846012715
846056228 846056278
846056778 846056828
846059528 846059578
846060078 846060578
846061578 846061628
846062728 846063078
846064428 846064478
846064728 846064778
846065578 846066528
846067378 846067428
846068778 846069378
846070228 846070278
846070478 846070628
846073078 846073178
846073528 846073578
846076278 846076428
846078928 846079028
846081878 846082028
846082228 846082278
846082428 846082528
846084678 846084728
846086378 846086578
846086778 846086828
846087878 846087928
846088128 846088328
846088678 846088728
846091778 846091878
846092528 846092578
846147305 846147355
846147755 846147905
846150305 846150355
846150805 846151255
846151755 846151855
846153755 846153805
846154105 846154205
846155055 846155105
846156105 846156155
846156555 846156605
846156955 846157105
846157455 846157605
846157955 846158005
846159905 846160005
846162805 846162855
846258020 846258070
846262870 846262920
846270470 846270520
846285270 846285320
846289920 846289970
846332101 846332301
846340648 846340898
846419171 846419321
846421821 846421871
846427471 846427521
846430021 846430071
846434171 846434321
846457458 846457508
846507959 846508109
846516328 846516478
846519628 846519778
846522228 846522278
846525878 846525978
846526378 846526478
846526978 846527078
846527928 846527978
846531055 846531105
846531855 846531905
846532255 846532355
846532755 846532805
846533155 846533255
846535555 846535605
846537105 846537205
846537655 846537705
846538255 846538305
846541505 846541555
846542105 846542205
846542705 846542805
846544105 846544155
846544655 846544705
846544855 846544905
846548300 846548350
846548800 846549450
846551450 846551500
846551700 846551850
846554400 846554450
846554650 846554750
846557300 846557350
846557650 846557700
846560300 846560350
846563200 846563250
846566400 846566450
846575200 846575250
846578150 846578200
846584000 846584050
846586900 846586950
846589850 846589900
846599200 846599250
846602200 846602250
846604200 846604250
846604600 846604650
846604800 846604850
846606300 846606350
846607350 846607400
846608250 846608300
846609100 846609150
846615900 846615950
846616700 846616750
846626684 846626734
846642503 846642553
846645103 846645153
846646003 846646053
846648553 846648603
846656253 846656303
846947274 846947324
847015075 847015125
847022025 847022125
847033675 847033775
847105794 847105844
847117844 847117894
847118494 847118544
847119244 847119294
847124066 847124116
847182505 847182555
847182805 847183405
847185255 847185305
847185605 847185655
847187205 847187305
847189155 847189205
847191405 847191455
847191955 847192005
847193955 847194005
847194305 847194355
847195455 847195505
847196005 847196055
847196555 847196605
847197105 847197205
847197405 847197455
847198755 847198805
847199405 847199455
847200005 847200055
847200605 847200655
847201955 847202005
847202805 847202855
847203355 847204055
847206305 847206355
847206805 847207605
847209605 847209655
847210005 847210605
847211755 847211805
847212605 847212655
847213355 847213405
847213855 847214005
847214605 847214655
847214755 847214805
847215005 847215105
847217305 847217355
847218105 847218155
847218655 847218855
847221705 847221805
847222805 847222855
847223155 847223205
847225555 847225605
847227855 847227905
847229755 847229805
847232167 847232217
847235517 847235567
847269191 847269241
847284341 847284391
847287791 847287891
847288341 847288391
847288791 847288841
847289041 847289291
847290341 847290391
847290741 847290841
847291641 847291841
847291991 847292041
847292191 847292241
847293091 847293141
847293441 847293841
847293991 847294091
847295191 847295241
847296541 847296591
847299391 847299491
847300241 847300291
847365312 847365362
847370912 847370962
847371862 847371912
847375912 847375962
847379962 847380012
847475874 847475924
847512524 847512574
847529574 847529674
847531424 847531524
847532474 847532524
847533974 847534024
847534874 847535174
847536924 847537074
847537924 847538024
847541124 847541274
847542474 847542674
847543374 847543474
847543624 847543924
847544124 847544224
847545974 847546274
847546874 847546924
847549124 847549274
847552124 847552274
847554224 847554374
847605996 847606046
847606746 847606796
847608796 847608896
847609446 847609646
847612746 847612796
847613496 847613546
847616796 847616846
847638926 847638976
847645962 847646012
847651062 847651262
847652462 847652512
847661336 847661386
847722481 847722731
847724781 847724831
847725031 847725131
847727431 847727531
847728131 847728231
847728631 847728681
847730581 847730681
847733510 847733560
847752721 847752771
847776581 847776631
847777081 847777131
847777931 847778331
847779581 847779631
847780181 847780281
847782381 847782431
847783031 847783081
847785281 847785331
847785631 847785881
847788331 847788431
847788881 847788931
847791131 847791181
847791331 847791381
847794031 847794081
847800083 847800133
847800783 847800833
847805691 847805791
847806191 847806541
847808591 847808641
847811741 847811791
847826698 847826748
847827048 847827298
847827598 847827648
847828698 847828748
847828998 847829048
847829348 847829398
847829448 847829498
847829898 847830098
847830898 847830948
847831398 847831448
847831848 847831898
847832848 847832948
847832998 847833148
847833448 847833498
847833698 847833748
847833998 847834248
847837365 847837415
847838412 847838462
847838662 847838712
847838962 847839012
847839162 847839362
847839562 847839612
847840062 847840112
847840862 847840962
847841012 847841062
847842623 847842723
847842923 847843023
847843523 847843623
847844023 847844073
847844973 847845023
847845423 847845473
847845923 847845973
847849423 847849473
847849773 847849823
847851423 847851473
847853773 847853823
847854023 847854073
847854323 847854373
847858073 847858123
847866173 847866223
847867023 847867123
847867673 847867723
847867923 847867973
847868573 847868623
847869823 847869873
847870323 847870373
847872923 847873023
847875273 847875323
847875973 847876023
847876623 847876673
847878973 847879023
847882323 847882373
847882973 847883023
847887826 847887876
847888876 847888926
847890326 847890376
847890526 847890576
847896676 847896726
847902328 847902378
847903828 847903878
847904928 847904978
847911078 847911128
847938577 847938627
847940077 847940127
847943727 847943777
847944427 847944477
847954238 847954338
847954738 847954838
847958015 847958065
847958265 847958315
847960215 847960265
847960565 847960615
847964365 847964415
847968115 847968415
847968815 847968865
847971365 847971415
847974315 847974365
847978265 847978315
847980615 847980665
847983315 847983365
847985665 847985715
847987565 847987715
847991365 847991415
847995965 847996015
848008172 848008222
848022541 848022591
848042870 848042920
848048920 848048970
848049320 848049370
848051520 848051570
848057770 848057820
848074237 848074287
848090464 848090514
848094564 848094614
848128053 848128103
848131353 848131403
848131553 848131603
848133603 848133653
848135603 848135653
848137103 848137153
848139903 848139953
848141703 848141753
848154453 848154503
848213845 848213895
848222205 848222255
848222955 848223005
848226005 848226055
848229655 848229705
848309633 848309683
848310533 848310583
848337139 848337189
848406817 848406867
848407867 848407917
848411667 848411717
848413467 848413517
848419928 848419978
848421478 848421528
848469594 848469644
848475694 848475744
848476294 848476344
848482044 848482094
848488094 848488144
848493715 848493765
848497165 848497265
848503765 848503815
848504115 848504165
848506015 848506065
848511465 848511515
848544970 848545020
848554420 848554470
848554520 848554570
848560020 848560070
848562870 848562920
848565520 848565570
848568470 848568520
848571520 848571570
848574020 848574070
848577970 848578020
848581170 848581220
848583987 848584037
848592437 848592487
848598637 848598687
848622576 848622676
848646644 848646694
848650701 848650751
848655551 848655701
848658001 848658201
848664601 848664651
848679036 848679086
848713376 848713476
848714976 848715076
848715276 848715326
848715376 848715476
848718726 848718826
848718976 848719026
848728076 848728176
848729276 848729326
848729576 848729626
848730326 848730926
848732576 848732626
848732876 848733026
848733526 848734076
848735908 848736208
848928824 848928874
848931724 848931774
848931874 848932074
848934774 848934824
848937674 848937874
848940124 848940574
848949443 848949493
848971829 848971879
848971929 848971979
848975079 848975129
848977729 848977779
848977979 848978079
848985785 848985885
848985935 848986035
848988335 848988535
848991435 848991885
848994535 848994735
848997635 848998085
849000335 849000835
849002935 849003385
849005535 849005985
849008635 849009185
849009385 849009435
849011335 849011685
849014785 849015335
849017885 849018485
849021285 849021385
849026935 849027135
849029435 849029985
849032785 849032885
849033785 849033935
849042312 849042462
849056200 849056400
849058650 849058900
849059500 849059650
849061500 849061650
849062200 849062500
849064450 849064650
849065400 849065450
849067300 849067400
849068500 849068800
849070250 849070500
849071300 849071450
849073150 849073250
849073950 849074050
849075950 849076100
849085126 849085376
849090689 849090839
849091689 849091889
849093439 849093639
849093889 849093939
849094289 849094339
849096189 849096339
849096839 849096889
849099239 849099389
849100089 849100239
849102239 849102389
849104839 849104989
849107739 849107839
849110771 849110871
849111421 849111521
849113621 849113771
849116571 849116621
849116671 849116771
849117671 849117921
849119671 849119871
849120921 849121271
849122521 849122671
849123671 849123771
849125371 849125821
849126521 849126571
849126721 849126771
849128421 849128471
849129371 849129621
849131121 849131171
849132171 849132321
849134021 849134321
849135121 849135271
849136871 849137021
849137971 849138021
849139571 849139821
849140671 849140721
849141021 849141121
849142621 849142771
849143671 849143821
849145571 849145871
849146671 849146821
849166151 849166201
849166401 849166501
849166851 849166951
849168151 849168201
849168601 849168901
849169901 849170151
849171651 849171801
849173201 849173451
849174451 849174701
849177401 849177901
849178401 849178751
849178901 849179051
849179201 849179401
849179501 849179551
849179701 849179901
849179951 849180001
849180101 849180251
849180651 849180851
849181201 849181251
849181651 849181901
849182101 849182351
849182551 849182601
849183301 849183951
849184051 849184201
849186301 849186801
849186951 849187001
849187601 849187851
849189351 849189751
849191051 849191101
849191501 849191601
849192001 849192051
849192401 849192901
849193401 849193451
849195401 849195901
849196251 849196301
849198101 849198151
849198301 849198351
849198551 849198851
849198951 849199001
849199101 849199151
849199451 849200151
849200551 849200951
849201101 849201301
849201351 849201451
849201601 849201751
849203001 849203251
849203601 849203851
849206551 849207051
849207401 849207701
849207901 849208251
849209501 849209651
849209751 849209801
849212451 849212751
849216668 849216718
849218068 849218318
849219318 849219618
849220718 849221068
849221918 849222168
849223668 849223718
849223768 849223968
849224318 849224368
849224518 849224568
849224618 849224668
849224968 849225368
849225968 849226118
849226518 849226818
849227068 849227118
849227868 849228168
849229368 849229668
849230468 849230568
849230718 849230768
849232168 849232418
849233268 849233368
849234968 849235218
849235968 849236018
849236168 849236218
849237968 849238168
849238918 849239018
849240918 849241218
849242268 849242368
849243768 849243968
849245218 849245268
849245418 849245468
849246768 849247218
849249940 849250090
849251290 849251340
849252690 849252840
849253890 849254140
849255540 849255690
849256690 849256940
849258390 849258540
849259840 849259890
849261340 849261640
849264040 849264240
849265290 849265340
849265590 849265640
849266990 849267140
849268290 849268390
849269840 849269940
849270090 849270140
849271240 849271290
849271440 849271490
849272640 849272740
849272790 849273090
849274240 849274290
849275490 849275590
849275640 849275840
849276890 849276990
849278490 849278690
849281590 849281790
849282840 849282890
849283040 849283090
849284390 849284490
849285790 849285940
849287540 849287790
849290490 849290590
849293140 849293190
849293340 849293390
849295840 849296190
849298840 849298940
849299140 849299240
849307561 849307611
849308661 849308761
849310111 849310211
849310361 849310461
849311711 849311911
849313011 849313261
849314011 849314161
849314411 849314461
849314661 849314711
849315861 849315961
849318761 849318811
849319761 849320311
849321611 849321761
849322661 849322811
849324611 849324761
849325811 849325861
849327661 849327711
849328761 849328811
849329011 849329061
849330361 849330561
849331661 849331811
849333411 849333661
849334761 849335011
849336211 849336461
849337361 849337861
849339061 849339261
849340211 849340661
849342011 849342261
849343261 849343311
849345111 849345161
849346111 849346261
849347861 849348161
849349261 849349411
849350761 849351211
849352361 849352411
849353761 849353911
849354111 849354161
849355261 849355311
849356561 849356761
849357911 849358161
849359361 849359711
849360711 849360861
849362361 849362661
849363661 849363711
849363861 849364011
849365261 849365461
849366511 849366661
849368061 849368161
849396544 849396644
849402657 849402907
849405657 849405957
849408407 849408657
849411457 849411557
849416988 849417488
849418688 849418838
849419788 849419938
849420138 849420238
849422888 849423238
849425738 849426038
849427288 849427388
849428639 849428939
849430089 849430289
849431539 849431889
849434389 849434739
849435839 849436039
849437389 849437489
849439939 849440089
849440239 849440289
849441489 849441689
849443189 849443389
849445877 849446227
849447177 849447377
849448927 849449277
849450427 849450577
849451877 849451927
849452077 849452227
849453377 849453427
849454677 849455027
849456577 849456627
849457477 849457577
849457727 849457827
849458827 849459177
849460527 849460777
849464077 849464577
849469127 849469177
849476605 849476705
849478758 849478808
849480858 849480908
849481408 849481458
849484358 849484408
849487358 849487458
849492408 849492508
849495208 849495408
849496358 849496408
849496958 849497008
849498058 849498208
849499058 849499108
849500958 849501058
849501908 849502158
849504008 849504208
849505158 849505208
849505358 849505408
849505558 849505608
849506908 849507058
849508208 849508408
849510008 849510108
849511608 849511658
849512808 849513108
849514208 849514358
849515658 849515858
849516758 849516958
849518508 849518708
849519658 849520058
849521458 849521608
849522608 849522758
849524258 849524458
849525308 849525608
849527008 849527158
849528058 849528108
849528258 849528358
849529958 849530008
849532758 849532808
849533608 849533658
849535808 849536158
849536958 849537258
849538758 849539108
849540158 849540408
849541708 849541958
849542758 849543058
849544408 849544558
849545558 849545858
849547408 849547558
849548308 849548358
849548558 849548908
849550058 849550208
849550808 849551208
849552808 849552958
849553958 849554058
849556545 849556645
849556745 849556795
849556995 849557045
849557445 849557495
849557895 849557945
849558345 849558395
849558845 849558895
849559295 849559345
849562845 849562895
849564195 849564245
849567870 849567970
849578263 849578563
849580113 849580163
849581263 849581363
849582913 849582963
849583013 849583063
849583913 849583963
849585863 849585963
849586663 849586713
849586963 849587163
849588763 849588813
849590163 849590213
849591613 849591663
849592213 849592313
849592613 849592663
849595763 849595863
849597463 849597513
849598663 849598813
849600313 849600413
849604063 849604213
849606863 849606913
849608063 849608163
849608613 849608663
849609663 849609713
849610363 849610413
849610963 849611013
849613363 849613413
849614113 849614313
849616163 849616213
849619063 849619163
849619963 849620013
849620313 849620363
849622013 849622063
849622663 849622713
849624913 849624963
849625363 849625513
849627763 849627863
849628313 849628363
849629263 849629313
849630663 849630763
849633663 849633763
849634263 849634463
849634613 849634663
849637063 849637113
849680926 849681026
849683876 849683926
849686776 849686876
849688776 849688826
849689826 849689976
849690426 849690576
849693626 849693776
849696476 849696576
849699276 849699526
849702326 849702426
849703476 849703526
849705226 849705326
849708162 849708312
849709062 849709162
849711162 849711212
849713314 849713414
849714114 849714214
849717114 849717264
849723090 849723390
849723540 849723590
849727986 849728036
849729969 849730069
849730469 849730519
849734169 849734219
849738919 849738969
849741419 849741869
849742419 849742469
849743519 849743569
849755108 849755258
849756408 849756558
849757208 849757408
849758058 849758308
849758808 849758958
849759708 849759758
849760258 849760358
849760908 849761158
849761558 849761758
849762058 849762108
849762258 849762308
849762608 849762908
849763158 849763408
849763658 849763958
849764208 849764458
849764908 849764958
849765208 849765508
849765758 849766008
849766808 849766858
849812026 849812126
849815226 849815376
849818876 849819326
849819976 849820326
849820926 849821076
849832176 849832226
849838176 849838226
849840926 849840976
849843876 849843926
849846776 849846876
849849776 849849826
849851376 849851526
849852226 849852426
849853476 849853676
849854176 849854376
849855226 849855326
849856376 849856426
849857376 849857426
849861826 849862126
849864726 849864876
849875705 849875755
849877455 849877505
849880005 849880105
849882855 849882905
849883805 849883855
849884205 849884405
849885355 849885405
849887305 849887455
849887955 849888055
849889855 849890155
849891055 849891355
849891605 849891655
849892205 849892555
849897524 849897824
849898124 849898424
849898724 849899024
849899324 849899574
849899774 849900124
849900324 849900624
849900824 849901124
849902048 849902248
849927944 849928044
849928394 849928594
849929094 849929394
849942644 849942844
849943094 849943144
849943294 849943744
849943894 849944244
849944494 849944744
849944894 849945094
849945244 849945544
849945744 849946044
849946194 849946944
849947144 849948044
849948144 849948244
849948294 849948444
849948594 849949144
849949344 849950394
849961486 849961536
849972536 849972586
850005296 850005346
850006296 850006346
850007196 850007246
850011096 850011146
850011346 850011596
850011946 850011996
850014346 850014396
850014846 850014996
850017396 850017746
850024132 850024182
850038632 850038682
850039532 850039582
850042982 850043032
850043632 850043782
850109920 850109970
850118520 850118570
850133170 850133220
850140962 850141012
850146562 850146612
850147312 850147562
850148062 850148412
850149212 850149312
850151062 850151262
850151912 850152062
850154406 850154606
850157756 850157856
850158006 850158106
850160206 850160356
850164312 850164462
850165636 850165686
850167286 850167386
850167536 850167586
850168086 850168136
850170815 850170865
850177179 850177329
850180529 850180679
850184041 850184141
850190781 850190881
850194053 850194203
850197253 850197353
850275722 850275972
850278394 850278494
850278644 850278744
850281494 850281944
850284878 850284978
850285128 850285228
850287878 850288278
850291328 850291728
850294128 850294478
850295728 850295828
850297378 850297928
850300728 850300928
850301928 850301978
850303778 850304028
850306828 850306978
850307778 850307828
850308028 850308078
850310078 850310278
850313278 850313328
850313378 850313578
850314328 850314378
850316578 850316828
850325137 850325187
850326287 850326487
850329287 850329487
850329587 850329837
850330187 850330387
850330537 850330637
850331960 850332010
850332560 850332660
850337860 850337910
850338310 850338410
850338760 850338910
850339210 850339310
850339660 850339760
850340160 850340210
850340760 850340860
850341210 850341360
850341810 850341960
850342410 850342460
850343710 850343760
850344360 850344510
850345860 850346060
850346806 850346856
850349056 850349256
850349456 850349506
850349906 850350056
850352406 850352556
850353056 850353106
850354356 850354406
850355456 850355756
850356306 850356506
850358756 850359056
850362106 850362156
850364363 850364413
850365413 850365463
850368613 850368813
850375168 850375368
850378518 850378668
850381718 850381918
850385018 850385168
850388218 850388268
850394768 850394818
850395518 850395568
850398698 850398748
850401348 850401448
850402098 850402248
850408748 850408798
850418948 850418998
850421948 850421998
850431148 850431198
850431598 850431648
850432048 850432098
850432898 850432948
850433398 850433448
850435048 850435098
850441448 850441498
850444698 850444748
850447998 850448048
850451248 850451348
850455048 850455098
850457898 850457948
850461098 850461148
850477898 850477948
850484398 850484448
850487348 850487398
850487698 850487748
850493893 850493943
850503693 850503743
850506993 850507043
850510293 850510343
850510643 850510693
850514093 850514143
850517509 850517559
850520747 850520847
850522197 850522247
850524047 850524147
850524647 850524697
850529697 850529747
850537192 850537242
850540542 850540592
850541092 850541142
850560142 850560192
850601357 850601407
850604483 850604533
850607483 850607533
850610383 850610533
850612833 850612883
850613433 850613533
850614083 850614133
850616383 850616483
850619583 850619633
850622683 850622733
850625683 850625833
850626433 850626483
850628633 850628683
850629233 850629283
850629333 850629383
850631683 850631733
850631783 850631833
850634733 850634783
850634883 850634933
850640983 850641033
850647156 850647206
850647806 850647856
850648806 850648906
850650806 850650856
850653506 850653656
850656506 850656656
850659656 850659756
850660406 850660456
850661206 850661256
850662706 850662806
850665806 850665906
850667571 850667621
850668771 850668821
850668921 850668971
850669521 850669621
850671871 850671921
850672421 850672471
850675671 850675721
850680431 850680481
850680931 850680981
850682681 850682731
850684081 850684131
850688231 850688281
850689731 850689881
850690231 850690381
850694503 850694553
850698487 850698587
850701687 850701737
850704687 850704737
850707787 850707987
850710137 850710187
850710937 850711037
850713937 850714037
850720232 850720332
850723282 850723332
850723782 850723832
850732632 850732682
850732932 850732982
850735582 850735632
850735882 850735932
850738732 850738832
850739082 850739182
850741932 850741982
850742332 850742382
850742832 850742882
850748358 850748458
850748758 850748858
850750646 850750696
850751496 850751546
850753346 850753396
850754596 850754646
850754946 850755046
850776327 850776377
850776877 850776977
850780507 850780607
850785762 850785912
850788962 850789012
850792012 850792062
850795262 850795312
850798412 850798512
850801612 850801662
850802312 850802412
850804712 850804762
850805412 850805462
850807712 850807762
850808362 850808462
850810712 850810762
850811312 850811362
850814262 850814312
850817412 850817512
850823212 850823262
850823612 850823662
850829783 850829833
850830233 850830283
850832883 850832933
850833183 850833283
850835983 850836033
850836283 850836433
850839333 850839383
850839633 850839733
850842502 850842552
850842802 850842852
850845652 850845702
850848802 850848852
850852002 850852102
850856008 850856108
850856458 850856508
850860312 850860412
850863462 850863512
850866612 850866662
850869962 850870012
850872162 850872262
850879462 850879512
850882630 850882680
850885230 850885280
850885780 850885830
850888880 850888930
850895030 850895080
850898080 850898180
850901480 850901530
850904680 850904730
850907730 850907830
850910830 850910880
850911130 850911180
850913980 850914030
850915530 850915580
850920430 850920480
850920730 850920780
850923580 850923630
850926730 850926780
850933180 850933230
850933630 850933680
850936380 850936430
850936830 850936880
850940180 850940230
850940580 850940630
850941180 850941230
850944130 850944280
850948330 850948430
850948930 850948980
850949280 850949330
850951980 850952080
850952380 850952430
850955230 850955280
850955580 850955630
850958430 850958480
850962030 850962130
850964180 850964230
850965480 850965530
850968280 850968330
850971580 850971680
850972030 850972130
850974830 850974880
850975280 850975330
850978180 850978230
850978580 850978730
850981480 850981530
850982030 850982180
850984680 850984730
850985030 850985080
850988080 850988180
850988730 850988880
850991330 850991430
850991980 850992080
850997730 850997880
850998230 850998330
851001030 851001130
851001430 851001480
851004280 851004330
851004630 851004680
851007830 851007930
851010830 851010880
851011230 851011280
851014430 851014480
851017380 851017430
851017730 851017830
851020680 851020730
851020980 851021030
851035232 851035282
851038532 851038582
851045070 851045120
851048820 851048870
851052070 851052120
851054920 851054970
851058770 851058820
851059120 851059170
851061970 851062020
851062370 851062470
851064420 851064470
851065270 851065320
851065620 851065670
851068570 851068620
851068920 851068970
851069270 851069320
851078452 851078502
851078802 851078852
851081652 851081752
851085592 851085642
851089142 851089192
851092392 851092492
851098942 851098992
851102242 851102292
851105392 851105442
851105792 851105842
851108592 851108642
851112942 851112992
851113442 851113492
851113992 851114042
851116792 851116842
851117392 851117442
851118292 851118342
851122392 851122442
851125592 851125642
851128692 851128742
851129042 851129092
851129142 851129192
851130242 851130292
851131842 851131942
851132192 851132242
851132442 851132492
851135142 851135192
851135392 851135442
851138342 851138392
851138542 851138692
851141442 851141492
851141792 851141842
851215478 851215578
851215728 851215778
851218628 851218778
851221878 851221928
851222178 851222228
851225028 851225128
851225378 851225428
851228178 851228278
851228778 851228828
851229078 851229128
851235467 851235517
851235767 851235867
851238667 851238717
851238917 851238967
851241767 851241817
851241867 851241917
851242117 851242167
851245017 851245067
851245317 851245367
851248217 851248317
851248467 851248517
851251367 851251417
851251667 851251717
851254517 851254617
851254817 851254917
851258117 851258167
851258417 851258467
851261117 851261167
851261417 851261467
851270629 851270729
851270929 851271029
851273829 851273879
851274079 851274229
851317404 851317454
851317854 851317904
851329104 851329154
851329954 851330004
851332004 851332054
851335244 851335544
851338544 851338594
851341035 851341135
851343833 851343883
851344801 851344851
851346901 851347001
851348112 851348162
851349912 851350162
851353012 851353062
851353112 851353262
851356364 851356514
851359764 851359814
851360764 851360814
851392784 851393134
851394234 851394284
851395534 851395784
851398331 851398581
851401648 851402298
851405148 851405548
851407848 851408098
851410461 851410611
851410711 851410761
851413611 851413711
851413861 851413911
851416211 851416361
851419211 851419361
851425011 851425111
851427511 851427561
851430411 851430461
851434261 851434311
851435161 851435211
851441361 851441411
851442561 851442611
851446461 851446511
851446711 851446761
851448961 851449011
851452761 851452911
851469855 851469955
851470705 851471005
851472505 851472755
851473455 851473505
851475255 851475405
851476055 851476205
851478255 851478305
851481255 851481305
851484255 851484305
851486255 851486305
851487255 851487305
851488305 851488355
851499305 851499355
851500005 851500055
851502555 851502605
851504105 851504155
851505705 851505755
851506105 851506155
851506805 851506855
851517388 851517488
851518588 851518638
851519788 851519988
851524044 851524094
851527744 851527794
851533194 851533244
851533594 851533644
851533694 851533744
851534794 851534844
851536594 851536644
851539244 851539294
851539794 851539844
851540994 851541044
851543094 851543144
851548244 851548394
851548794 851548894
851551544 851551694
851554494 851554544
851560544 851560744
851563694 851563794
851566594 851566644
851569644 851569694
851572744 851572894
851575794 851575844
851578844 851578894
851585494 851585594
851588144 851588194
851589144 851589194
851589344 851589394
851593244 851593294
851597694 851597744
851602294 851602344
851603844 851603894
851604394 851604444
851606394 851606444
851616094 851616144
851616594 851616644
851620444 851620494
851622744 851622794
851625894 851625994
851629044 851629094
851629244 851629294
851632094 851632444
851635244 851635294
851638194 851638444
851639194 851639244
851641444 851641744
851642694 851642794
851643394 851643494
851645527 851645827
851646377 851646527
851648256 851648406
851648856 851648956
851651206 851651406
851651956 851652006
851654356 851654456
851655006 851655056
851657356 851657606
851658106 851658156
851663530 851663730
851669740 851670090
851672758 851672808
851680033 851680233
851682933 851683083
851685833 851685933
851689033 851689183
851692083 851692133
851696033 851696083
851701086 851701286
851704286 851704336
851707336 851707486
851711386 851711536
851712036 851712086
851714786 851714886
851715286 851715336
851717836 851717986
851720836 851721136
851721636 851721686
851723936 851724136
851724536 851724586
851726886 851727036
851727536 851727586
851732898 851732948
851733298 851733348
851735948 851735998
851736398 851736448
851739148 851739198
851742598 851742698
851745798 851745898
851746248 851746298
851748898 851749048
851751948 851752048
851755048 851755148
851758048 851758098
851758148 851758198
851761148 851761248
851764248 851764348
851767398 851767448
851770648 851770698
851773548 851773598
851773898 851773998
851784550 851784650
851814924 851814974
851828474 851828524
851873924 851873974
851877224 851877274
851889774 851889824
851912874 851913074
851915274 851915524
851918174 851918374
851919474 851919824
851921824 851922024
851924474 851924624
851925674 851926074
851927824 851928024
851932024 851932074
851932224 851932324
851933824 851933974
851937918 851938168
851941494 851941694
851943194 851943394
851945944 851946194
851946894 851946944
851947144 851947194
851947394 851947444
851947644 851947694
851949044 851949194
851950294 851950344
851950794 851950894
851952844 851953144
851956794 851956894
851961644 851961694
851968257 851968307
851969757 851969957
851980326 851980476
851982026 851982126
851983076 851983176
851983626 851983776
851984276 851984326
851984776 851984876
851985276 851985376
851985826 851985876
851986226 851986326
851986726 851986826
851987176 851987276
851987676 851987726
851988176 851988226
851988626 851988676
851992776 851993476
851994076 851994576
851996626 851996876
852000076 852000426
852012576 852012626
852012776 852012826
852015426 852015676
852019276 852019376
852019526 852019676
852021826 852021976
852022126 852022676
852022976 852023026
852178366 852178416
852180916 852180966
852193116 852193416
852196666 852197016
852199416 852199516
852210816 852210866
852286038 852286188
852288488 852288638
852289738 852289838
852291138 852291238
852291838 852291938
852294038 852294188
852294588 852294788
852297088 852297138
852297588 852297638
852297838 852297938
852301838 852302238
852303388 852303538
852304138 852304238
852306788 852307088
852309338 852309388
852310088 852310138
852310638 852310688
852311288 852311388
852311838 852311938
852312388 852312438
852317192 852317242
852318742 852318792
852345833 852346033
852351233 852351383
852353433 852353533
852354233 852354583
852356083 852356133
852356933 852357183
852363435 852363635
852363785 852363935
852365285 852365385
852366335 852366785
852368135 852368285
852368835 852368885
852369135 852369285
852369435 852369585
852370885 852370985
852371585 852371685
852371835 852372185
852372485 852373035
852373185 852373235
852374035 852374185
852374835 852374885
852375585 852375685
852376185 852376285
852377935 852378035
852378485 852378585
852379135 852379235
852380235 852380285
852380985 852381085
852381535 852381735
852383985 852384035
852384535 852384685
852386985 852387035
852387435 852387535
852389935 852390135
852390435 852390635
852390885 852390935
852392885 852393035
852457177 852457227
852457377 852457427
852483008 852483058
852483508 852483558
852487085 852487135
852501202 852501252
852543076 852543476
852545626 852545976
852548476 852548826
852551176 852551476
852554176 852554226
852554376 852554526
852554676 852554726
852557576 852558126
852560726 852560776
852561076 852561126
852562426 852562476
852563026 852563276
852564576 852564626
852565626 852565676
852571018 852571068
852575901 852575951
852587082 852587132
852599726 852599776
852606276 852606326
852632641 852632691
852642793 852642843
852649851 852649901
852667272 852667322
852714185 852714235
852714385 852714485
852714685 852714835
852715085 852715135
852715335 852715535
852716332 852716382
852716582 852716732
852718263 852718313
852718363 852718513
852718563 852719013
852719963 852720313
852721263 852721313
852723213 852723513
852724213 852724963
852725363 852725663
852726613 852726663
852727163 852727213
852728313 852728363
852728563 852728863
852729113 852729263
852729363 852729763
852730363 852730463
852730613 852730663
852730813 852731013
852731363 852731413
852731463 852731513
852731663 852731763
852732163 852732363
852733463 852733563
852733613 852733663
852733863 852733963
852734713 852734763
852734913 852734963
852735013 852735213
852735563 852735613
852737213 852737263
852739013 852739063
852741413 852741813
852744513 852744663
852744813 852744863
852745263 852745313
852746790 852746840
852747140 852747290
852748090 852748290
852748440 852748590
852748740 852748790
852749190 852749240
852771938 852771988
852776888 852776938
852792788 852793138
852798343 852798693
852801743 852801993
852804743 852805093
852806043 852806093
852807343 852807843
852810743 852810943
852812043 852812093
852813393 852813843
852814393 852814543
852816443 852816543
852819343 852819393
852819643 852820143
852821543 852821593
852823493 852823893
852824193 852824243
852825243 852825343
852826657 852826707
852826907 852827007
852827257 852827457
852828257 852828407
852828757 852828807
852829007 852829057
852829207 852829607
852830807 852831207
852831507 852831707
852832907 852833657
852834307 852834357
852834557 852834657
852834907 852835307
852835457 852835507
852836007 852836057
852844557 852844607
852846907 852847157
852850107 852850307
852850457 852850607
852851557 852851657
852851907 852851957
852852257 852852507
852852657 852852857
852853007 852853307
852853557 852853907
852853957 852854007
852854157 852854307
852854457 852854907
852868607 852869007
852870807 852871107
852873407 852873607
852874607 852874707
852874757 852874807
852875907 852875957
852876407 852876657
852880007 852880357
852881257 852881307
852882907 852882957
852883207 852883707
852886557 852886957
852889607 852889907
852892707 852892957
852895607 852895957
852898207 852898407
852899457 852899557
852901157 852901307
852903857 852903957
852905557 852905607
852907057 852907407
852909807 852909907
852910357 852910507
852910657 852911157
852911657 852911707
852911757 852912107
852913607 852913757
852915357 852915407
852916607 852916757
852918807 852919157
852919407 852919557
852919807 852919957
852922808 852922958
852923008 852923058
852923508 852923658
852923708 852923758
852925258 852925358
852925708 852925858
852926408 852926758
852926858 852927258
852927408 852927558
852928308 852928358
852929908 852929958
852931258 852931308
852943957 852944257
852948007 852948207
852950207 852950707
852956333 852956633
852958533 852958583
852959333 852959533
852959683 852959733
852959783 852959883
852960783 852960833
852962183 852962483
852962633 852962683
852963283 852963333
852965433 852965683
852968783 852968983
852971183 852971233
852971283 852971383
852974233 852974383
852974733 852974783
852975033 852975083
852975733 852975933
852976183 852976233
852976483 852976533
852977383 852977583
852977733 852977783
852978133 852978183
852978533 852978583
852978783 852978833
852978983 852979033
852980183 852980383
852981533 852981583
852982283 852982483
852983083 852983233
852983633 852983783
852983933 852983983
852984233 852984383
852984833 852984883
852985733 852985833
852985883 852985933
852986383 852986483
852987233 852987283
852988883 852988983
852990383 852990433
852991633 852991733
852991983 852992033
852993483 852993583
852993633 852993683
852993833 852993883
852994733 852994883
852997783 852998033
853042502 853042602
853043002 853043052
853044552 853044602
853045202 853045252
853048152 853048202
853048252 853048302
853051252 853051352
853054702 853054952
853056002 853056202
853057602 853057952
853058352 853058402
853058852 853058902
853059152 853059202
853060402 853060452
853060502 853060602
853061252 853061452
853063352 853063452
853064052 853064102
853064152 853064202
853064402 853064702
853065752 853065802
853065952 853066002
853066202 853066502
853066652 853066702
853067302 853067352
853069572 853069622
853076672 853076872
853077072 853077122
853078572 853078722
853081572 853081622
853084622 853084822
853087572 853087722
853093772 853093822
853098972 853099022
853099822 853099922
853102972 853103022
853105272 853105322
853106322 853106522
853109172 853109272
853112072 853112222
853113472 853113522
853115072 853115122
853115272 853115372
853118222 853118272
853119172 853119222
853121122 853121172
853121222 853121372
853124272 853124372
853127172 853127222
853130022 853130072
853130572 853130622
853131472 853131522
853132322 853132372
853133222 853133272
853134322 853134372
853136272 853136372
853136972 853137022
853137722 853137772
853138272 853138322
853139172 853139372
853142322 853142372
853143472 853143522
853145472 853145522
853148722 853148772
853149722 853149772
853151472 853151522
853152022 853152072
853153022 853153072
853154022 853154072
853154322 853154422
853155172 853155222
853159372 853159422
853160422 853160472
853161522 853161572
853162922 853162972
853163522 853163572
853163722 853163772
853165122 853165172
853168072 853168122
853168722 853168772
853168922 853168972
853175822 853175872
853177772 853177822
853178722 853178772
853179422 853179472
853179772 853179822
853180922 853180972
853184972 853185122
853185172 853185322
853185372 853185472
853186672 853186722
853192622 853192672
853194922 853194972
853195472 853195522
853201690 853201790
853204740 853204990
853207640 853208040
853210490 853210590
853210740 853210790
853213640 853213790
853216590 853216790
853217790 853217840
853219440 853219590
853222240 853222390
853225340 853225390
853228590 853228740
853231690 853231790
853234640 853234740
853235690 853235740
853237640 853237740
853240740 853240790
853243840 853243940
853244190 853244240
853246990 853247040
853248040 853248090
853249790 853249840
853249990 853250040
853253040 853253240
853255990 853256040
853258490 853258540
853258940 853258990
853259340 853259540
853260590 853260640
853262490 853262540
853268955 853269205
853269255 853269305
853272405 853272505
853272555 853272605
853274481 853274531
853288159 853288359
853290746 853290946
853293884 853294184
853296934 853297184
853298084 853298134
853299584 853299634
853299984 853300184
853301284 853301384
853301534 853301584
853303134 853303234
853304334 853304484
853306034 853306234
853309184 853309234
853309284 853309334
853309384 853309434
853310434 853310534
853312334 853312584
853313634 853313684
853315084 853315134
853315234 853315284
853348808 853348858
853350008 853350058
853351008 853351058
853351958 853352058
853352608 853352808
853353158 853353208
853355358 853355608
853357558 853357658
853367639 853367689
853374589 853374639
853379189 853379489
853381189 853381289
853382289 853382339
853384089 853384389
853385189 853385389
853387189 853387389
853388289 853388389
853388539 853388589
853390539 853390839
853391389 853391439
853391989 853392139
853393489 853393689
853394789 853394839
853396539 853396839
853397539 853397589
853399439 853399689
853400589 853400739
853402689 853402939
853403889 853404139
853405689 853405989
853406939 853406989
853409039 853409189
853410239 853410389
853411939 853411989
853412939 853413089
853413389 853413439
853414189 853414239
853414889 853414939
853423802 853423952
853424702 853424752
853426952 853427002
853427202 853427302
853428252 853428402
853430352 853430502
853431652 853431702
853433502 853433602
853436452 853436752
853439552 853439752
853440452 853440502
853442102 853442152
853442602 853442702
853443752 853443852
853445802 853445902
853462054 853462204
853464054 853464104
853464204 853464254
853465404 853465654
853466954 853467054
853468004 853468354
853469854 853470104
853471004 853471104
853473004 853473204
853474104 853474254
853476004 853476154
853477204 853477354
853482157 853482357
853484958 853485008
853485258 853485508
853486508 853486608
853488408 853488658
853489558 853489608
853491508 853491658
853492558 853492608
853492758 853492908
853493458 853493508
853494708 853494908
853495658 853495758
853497708 853497858
853498758 853498858
853500808 853500858
853501958 853502058
853504008 853504158
853505158 853505208
853507108 853507208
853508258 853508308
853510058 853510208
853511358 853511408
853511958 853512008
853513258 853513408
853514408 853514508
853515058 853515308
853516158 853516408
853517258 853517358
853517558 853517658
853519208 853519308
853520408 853520458
853520658 853520708
853580036 853580086
853581086 853581136
853581686 853581736
853582786 853582936
853583336 853583536
853584636 853584686
853585236 853585436
853586486 853586586
853587036 853587136
853588136 853588186
853588686 853588736
853589886 853590036
853590436 853590486
853591336 853591386
853591686 853591786
853592386 853592536
853593536 853593686
853594186 853594236
853595386 853595436
853597766 853597816
853598916 853598966
853599566 853599616
853599916 853599966
853600866 853600916
853601566 853601666
853601816 853601866
853601966 853602016
853602066 853602116
853602466 853602616
853603166 853603316
853679736 853679786
853681886 853681936
853682786 853682836
853683686 853683736
853687667 853687767
853749998 853750048
853763007 853763057
853775457 853775507
853836814 853836864
853845631 853845681
853860631 853860681
853933106 853933156
853934806 853934906
853936506 853936556
853938306 853938356
853940056 853940156
853941806 853941956
853943606 853943706
853945406 853945506
853947206 853947306
853948656 853948706
853949006 853949206
853952546 853952646
853954346 853954496
853956215 853956265
853958415 853958515
854007968 854008018
854010968 854011018
854016118 854016168
854023718 854023768
854026568 854026618
854029368 854029418
854030068 854030118
854089881 854089931
854104881 854104931
854108081 854108181
854109531 854109581
854110431 854110481
854110531 854110581
854111381 854111431
854112981 854113031
854114831 854114881
854116581 854116731
854117381 854117431
854118381 854118431
854120281 854120331
854129847 854129897
854134347 854134397
854135197 854135247
854140247 854140297
854142097 854142147
854147447 854147497
854151247 854151297
854156297 854156347
854157997 854158047
854158397 854158447
854160197 854160247
854160947 854160997
854161997 854162047
854163297 854163347
854165797 854165847
854166197 854166247
854166647 854166697
854167197 854167247
854170947 854170997
854171497 854171547
854171847 854171997
854173497 854173547
854175247 854175347
854176947 854177047
854178747 854178797
854180447 854180547
854181397 854181447
854182247 854182347
854183147 854183197
854183747 854183797
854183947 854184147
854184947 854185047
854185547 854185797
854187497 854187597
854189197 854189347
854189547 854189597
854190097 854190197
854190347 854190447
854190947 854191047
854191997 854192147
854193547 854193897
854194497 854194597
854196247 854196347
854198797 854198897
854198947 854198997
854199747 854199797
854199847 854199897
854200697 854200797
854201447 854201547
854202347 854202597
854203247 854203347
854204897 854204997
854205797 854205997
854206747 854206797
854207547 854207597
854240716 854240766
854241816 854241916
854243066 854243116
854244766 854244816
854248166 854248216
854251282 854251332
854251682 854251832
854252632 854252682
854253432 854253482
854257282 854257332
854257482 854257532
854259182 854259232
854260382 854260432
854262682 854262732
854264032 854264082
854265682 854265732
854265982 854266032
854267432 854267482
854269832 854269882
854271532 854271582
854274732 854274782
854274932 854274982
854276282 854276332
854276982 854277032
854278082 854278132
854278632 854278682
854279782 854279832
854281582 854281682
854281982 854282032
854283932 854283982
854285082 854285132
854285732 854285782
854286832 854286932
854287832 854287882
854288632 854288682
854289132 854289182
854290432 854290482
854292182 854292232
854300968 854301018
854301468 854301518
854302718 854302918
854304568 854304618
854308056 854308106
854308156 854308206
854309862 854309912
854314472 854314522
854327783 854327833
854330783 854330833
854331233 854331283
854333133 854333183
854333883 854333933
854336133 854336183
854336633 854336683
854337533 854337583
854345533 854345583
854349633 854349683
854351333 854351383
854352633 854352733
854356833 854356883
854357283 854357333
854357983 854358033
854358433 854358483
854359733 854359783
854361583 854361633
854363233 854363283
854365033 854365083
854365833 854365883
854366833 854366883
854367483 854367533
854368533 854368633
854369683 854369733
854371333 854371383
854373133 854373183
854373883 854373933
854373983 854374033
854374333 854374383
854374983 854375033
854376683 854376783
854377083 854377133
854377383 854377533
854378433 854378483
854378583 854378783
854379183 854379233
854380333 854380383
854380933 854381033
854382033 854382133
854382683 854382833
854384533 854384583
854386433 854386483
854386533 854386583
854387683 854387733
854388433 854388783
854390383 854390433
854390583 854390683
854392183 854392283
854392383 854392433
854394283 854394333
854395283 854395333
854400683 854400733
854418552 854418602
854419752 854419802
854421252 854421352
854422902 854422952
854424402 854424502
854425452 854425502
854426102 854426202
854429166 854429216
854429466 854429516
854430116 854430166
854431166 854431266
854432466 854432516
854433116 854433166
854433616 854433666
854435416 854435466
854436416 854436466
854437216 854437266
854438166 854438216
854438566 854438616
854438866 854438916
854440716 854440816
854441266 854441316
854442216 854442266
854442416 854442466
854443466 854443566
854444516 854444566
854445166 854445216
854445866 854445916
854446066 854446116
854446816 854447016
854448666 854448766
854449316 854449366
854450116 854450166
854450366 854450466
854451066 854451166
854452116 854452216
854452616 854452716
854453866 854453966
854454316 854454366
854454816 854454866
854455616 854455716
854456116 854456166
854456766 854456816
854457416 854457466
854457966 854458066
854459166 854459266
854459666 854459766
854460966 854461066
854461416 854461466
854462716 854462816
854463166 854463266
854464366 854464566
854464766 854464816
854464916 854464966
854466216 854466266
854467966 854468066
854468266 854468316
854469766 854469866
854470216 854470266
854471516 854471666
854473316 854473466
854473666 854473716
854473866 854473916
854475066 854475166
854478699 854478749
854480445 854480545
854482195 854482245
854484040 854484090
854485740 854485790
854486240 854486290
854487440 854487540
854488640 854488690
854489940 854489990
854491040 854491090
854492590 854492640
854492790 854492840
854494590 854494640
854496290 854496440
854498090 854498140
854506930 854506980
854507630 854507680
854512030 854512080
854512580 854512630
854513180 854513230
854514030 854514080
854515830 854515880
854517580 854517630
854518130 854518180
854519230 854519330
854521030 854521080
854521380 854521430
854521630 854521680
854521980 854522030
854522780 854522880
854523480 854523530
854524530 854524680
854525230 854525280
854526280 854526380
854526930 854526980
854527430 854527480
854528030 854528180
854528680 854528730
854529830 854529930
854530480 854530530
854530830 854530880
854531330 854531380
854531530 854531680
854532230 854532380
854533280 854533480
854534080 854534130
854535080 854535180
854535630 854535680
854535830 854535880
854536830 854536980
854537630 854537680
854538580 854538730
854540380 854540480
854542080 854542230
854542430 854542480
854542830 854542880
854543880 854543980
854544630 854544680
854545680 854545780
854547430 854547480
854549130 854549280
854550980 854551030
854551880 854551930
854552730 854552880
854553530 854553580
854554480 854554580
854556230 854556330
854556930 854556980
854557980 854558080
854558680 854558730
854559730 854559980
854560380 854560430
854561530 854561580
854563280 854563380
854565030 854565130
854565730 854565880
854566830 854566930
854567430 854567480
854567680 854567830
854568530 854568680
854570330 854570480
854571380 854571480
854572130 854572280
854574780 854574830
854575530 854575630
854577280 854577380
854577980 854578030
854579030 854579130
854579780 854579930
854580780 854580880
854581480 854581580
854582580 854582680
854583730 854583780
854587819 854587869
854588269 854588319
854589619 854589669
854591319 854591419
854596569 854596619
854598319 854598369
854602819 854602869
854605019 854605069
854605469 854605519
854605669 854605719
854608719 854608769
854609019 854609069
854610769 854610819
854612269 854612319
854614069 854614119
854614419 854614469
854615819 854615869
854616169 854616219
854617569 854617619
854621096 854621146
854622846 854622896
854629946 854629996
854630196 854630246
854635246 854635296
854636996 854637046
854638796 854638896
854640596 854640646
854640946 854640996
854642346 854642396
854644146 854644196
854644546 854644596
854652596 854652646
854653746 854653796
854655146 854655196
854673369 854673419
854693619 854693669
854696769 854696819
854708821 854708871
854713621 854713671
854720071 854720121
854733421 854733471
854735421 854735471
854749721 854749771
854761574 854761624
854794350 854794400
854798729 854798779
854805029 854805079
854831324 854831674
854831874 854832624
854837224 854837274
854838274 854838324
854844674 854844724
854859074 854859124
854880024 854880074
854892574 854892624
854923068 854923118
854923368 854923418
854924018 854924068
854930601 854930651
854978301 854978351
855008784 855008834
855032144 855032194
855052744 855052794
855066344 855066394
855084144 855084194
855123266 855123316
855135616 855135666
855139066 855139116
855149666 855149716
855160102 855160152
855172452 855172502
855196102 855196152
855217491 855217541
855237358 855237408
855364406 855364456
855380306 855380356
855553514 855553564
855574864 855574914
855671172 855671222
855671972 855672022
855681322 855681372
855685984 855686034
855686184 855686234
855701025 855701075
855773663 855773713
855838166 855838216
855840616 855840666
855840716 855840766
855940478 855940528
856020475 856020525
856166499 856166549
856193458 856193508
856223688 856223738
856228480 856228530
856233756 856233806
856305190 856305240
856308640 856308690
856392060 856392110
856473404 856473454
856526965 856527015
856710366 856710416
856720947 856720997
856723347 856723397
856724597 856724647
856804168 856804218
856935816 856935916
856964916 856965316
856965566 856965766
857022116 857022166
857140695 857140745
857172935 857172985
857907117 857907267
857908767 857908867
857910817 857910967
857912617 857912717
857914267 857914467
857982534 857982584
857997408 857997558
857998908 857999008
858000558 858000708
858002708 858002808
858004358 858004558
858006008 858006158
858007708 858007858
858009708 858009858
858038867 858038917
858079417 858079517
858080967 858081067
858081467 858081617
858082767 858082867
858083217 858083317
858084467 858084517
858084867 858085017
858086117 858086217
858086517 858086667
858087917 858087967
858088267 858088317
858089667 858089767
858090117 858090317
858091767 858091867
858093017 858093067
858097217 858097267
858098217 858098267
858162983 858163033
858164533 858164583
858164933 858165033
858166299 858166349
858166649 858166749
858168049 858168099
858168349 858168399
858169849 858169899
858170099 858170249
858171649 858171699
858171999 858172099
858173399 858173449
858173649 858173699
858175149 858175199
858175449 858175649
858176949 858176999
858177299 858177399
858178849 858178899
858179249 858179399
858180899 858180999
858257322 858257472
858258572 858258622
858259022 858259372
858260422 858260472
858260972 858261122
858262572 858262672
858351644 858351694
858363744 858363794
858513225 858513275
858518325 858518525
858525475 858525525
858527225 858527275
858596569 858596669
858598069 858598169
858598619 858598669
858599719 858599819
858600169 858600269
858601369 858601469
858601769 858601969
858603419 858603519
858605069 858605169
858605519 858605619
858606969 858607019
858610594 858610744
858683209 858683309
858685009 858685359
858686459 858686509
858686809 858686959
858687109 858687509
858688209 858688259
858688459 858688559
858690009 858690059
858690309 858690359
858691759 858691809
858692009 858692109
858695814 858696014
858700064 858700114
858708164 858708214
858940747 858940847
858941247 858941297
858942097 858942197
858942497 858942697
858943897 858943947
858944297 858944497
858945647 858945697
858946197 858946397
858947597 858947697
858948097 858948247
858949397 858949497
858949897 858950097
858950997 858951047
858951497 858951547
858955060 858955210
858956260 858956360
858956760 858957210
858958360 858958460
858958810 858959010
858960610 858960760
859030896 859030946
859032446 859032496
859032996 859033046
859034096 859034196
859035846 859035896
859037846 859037996
859039796 859039896
859153807 859153857
859157866 859157916
859199741 859199791
859200191 859200341
859201191 859201241
859201541 859201741
859202891 859202941
859203241 859203291
859204591 859204641
859204841 859204941
859206641 859206691
859208291 859208341
859208641 859208691
859210041 859210091
859210341 859210391
859212041 859212091
859212441 859212541
859213641 859213691
859214041 859214091
859215241 859215341
859215541 859215591
859217341 859217391
859217691 859217841
859219491 859219541
859287789 859287889
859289289 859289339
859289739 859289839
859290989 859291039
859291389 859291489
859291839 859291889
859292739 859292789
859293089 859293139
859294839 859294989
859296189 859296239
859296439 859296539
859297889 859297989
859298189 859298339
859299789 859299839
859300089 859300139
859301689 859301739
859302039 859302289
859302539 859302589
859377120 859377220
859378570 859378620
859380520 859380620
859382170 859382270
859383970 859384020
859385820 859385870
859460533 859460583
859461083 859461183
859462083 859462183
859462633 859462783
859463883 859463983
859464433 859464583
859465733 859465833
859466333 859466483
859467683 859467783
859469333 859469433
859471233 859471383
859472883 859473083
859474633 859474733
859548396 859548546
859642355 859642405
859672920 859672970
859735480 859735530
859742307 859742357
859742857 859742957
859747157 859747207
859807038 859807088
859807438 859807788
859808738 859808838
859809138 859809288
859810488 859810588
859811038 859811138
859812188 859812238
859812588 859813138
859814038 859814088
859814538 859814938
859816088 859816138
859816538 859816588
859817638 859817688
859818038 859818138
859818288 859818488
859819738 859819788
859820888 859820938
859987076 859987276
860241263 860241413
860242663 860242763
860244513 860244663
860246413 860246513
860248213 860248413
860249863 860250163
860325807 860325907
860327057 860327157
860327657 860327707
860328757 860328807
860329307 860329457
860330607 860330657
860331107 860331257
860332357 860332457
860333007 860333057
860334407 860334457
860336107 860336207
860337557 860337707
860338107 860338307
860339607 860339707
860413573 860413623
860414823 860414923
860416573 860416623
860417023 860417273
860418373 860418423
860418873 860419023
860420023 860420073
860422073 860422173
860422523 860422773
860424173 860424323
860498790 860498890
860500240 860500290
860500690 860500940
860502040 860502090
860502440 860502590
860503790 860503890
860504290 860504490
860505640 860505690
860509327 860509377
860509577 860509627
860669941 860669991
860671341 860671441
860673241 860673341
860674991 860675091
860678617 860678717
860755490 860755590
860756540 860756590
860756990 860757390
860758390 860758440
860758790 860758890
860761863 860761913
860762213 860762313
860763563 860763613
860763913 860764063
860765363 860765413
860767113 860767163
860767463 860767713
860769213 860769313
860844241 860844341
860845791 860845891
860847291 860847341
860847791 860847841
860848891 860848941
860849441 860849641
860850791 860850841
860852541 860852591
860853041 860853191
860854641 860854841
860975534 860975584
861035320 861035470
861110074 861110174
861113282 861113382
861114882 861114982
861116732 861116882
861117682 861117732
861119482 861119682
861195483 861195533
861226137 861226187
861572997 861573047
861573497 861573547
861581569 861581619
861732694 861732744
861985780 861985830
861990480 861990530
861998416 861998466
862002316 862002366
862064894 862064944
862085667 862085717
862088267 862088317
862240125 862240175
862242125 862242175
862252425 862252475
862336818 862336868
862357897 862357947
862769954 862770054
863398300 863398350
864160926 864160976
864584546 864584596
864669454 864669504
864671204 864671254
864681799 864681849
864688099 864688149
864706749 864706799
864999208 864999308
865089601 865089651
865172536 865172586
865179836 865179886
865623071 865623121
865636000 865636050
865783332 865783382
865798138 865798188
865807302 865807352
865872540 865872590
865886262 865886312
866181593 866181643
866299524 866299574
866375943 866375993
866405634 866405684
866513415 866513465
867699056 867699106
867815202 867815252
868017983 868018033
868051713 868051763
868063567 868063617
868114667 868114717
868201446 868201496
868297520 868297570
868307868 868307918
868897345 868897395
868985086 868985136
869006174 869006224
869279898 869279948
869282498 869282548
869508576 869508626
869519926 869519976
869530455 869530505
869580991 869581041
869596262 869596312
869597262 869597312
869926863 869926913
870041569 870041619
870091620 870091670
870120276 870120326
870716068 870716118
871063679 871063729
871082100 871082150
871304761 871304811
871314915 871314965
871342449 871342499
871349099 871349149
871402525 871402575
871679449 871679499
871709727 871709777
871727745 871727795
871767675 871767725
871843851 871843901
871847851 871847901
871852751 871852801
871927559 871927609
871928609 871928659
871931809 871931859
871936768 871936818
871999768 871999818
872016335 872016385
872023142 872023192
872255631 872255681
872394519 872394569
872447462 872447512
872524744 872524794
872530044 872530094
872950713 872950763
872953163 872953213
873133919 873133969
873140861 873140911
873145481 873145531
873209586 873209636
873224179 873224229
873547605 873547655
873647546 873647596
873648196 873648246
874193464 874193514
874520989 874521039
874785235 874785285
874787735 874787785
