815216370 815216371
815221331 815221332
815230105 815230106
815239972 815239973
815247182 815247183
815266842 815266843
815304781 815304782
815332267 815332268
815370568 815370569
815378735 815378736
815394327 815394328
815404265 815404266
815413824 815413827
815422278 815422279
815470990 815470991
815626134 815626135
815635973 815635974
815788988 815788989
816185398 816185399
816209626 816209629
816217256 816217259
816379709 816379710
816807237 816807240
816814463 816814464
816988833 816988834
817431059 817431078
817440419 817440467
817504514 817504515
817693079 817693098
818120279 818120316
818352312 818352315
818493659 818493699
818780219 818780247
818878589 818878592
819269475 819269478
819409242 819409243
819687419 819687464
819790047 819790048
819828899 819828918
820364694 820364697
820523874 820523875
820554555 820554556
821725822 821725823
822175205 822175208
822182964 822182965
822853313 822853314
822920423 822920424
822973537 822973538
823102002 823102003
823336872 823336873
824807206 824807215
824807224 824807228
825093214 825093215
825448430 825448431
825822819 825822822
826111620 826111621
826341471 826341472
826355836 826355837
826489477 826489478
826497025 826497026
826554054 826554058
826580418 826580419
826667412 826667413
827017516 827017517
827031826 827031827
827104845 827104846
827250138 827250139
827536995 827536996
827868906 827868907
828118077 828118078
828388268 828388269
828527910 828527911
828712767 828712768
828985277 828985278
828994357 828994358
829187861 829187862
829505279 829505305
829508099 829508123
829516019 829516028
829607465 829607466
829611198 829611199
830057207 830057208
830365586 830365587
830534944 830534945
831099674 831099675
831151228 831151229
831171535 831171536
831264579 831264580
831465591 831465592
831616695 831616696
831767879 831767924
831923487 831923488
831934043 831934044
831982733 831982734
832008899 832008903
832031810 832031811
832109380 832109381
832504109 832504110
832627552 832627553
832698921 832698922
832718883 832718884
832940011 832940012
833020530 833020531
833227328 833227329
833235215 833235216
833576874 833576875
833663505 833663506
833742355 833742356
833845575 833845576
834092010 834092011
834183087 834183090
834518385 834518386
834520145 834520146
834691116 834691117
834953269 834953270
835212364 835212365
835401779 835401804
835411655 835411656
835443449 835443450
835450123 835450127
835450148 835450151
835848144 835848145
835895155 835895156
835954344 835954347
836426861 836426862
836459686 836459687
837038087 837038088
837164707 837164708
837344626 837344630
837369550 837369551
837456779 837456838
837642959 837643020
837865959 837865960
838087189 838087190
838238577 838238578
838242179 838242186
838242719 838242751
838257959 838257960
838325709 838325712
838413239 838413281
838583315 838583318
838664383 838664387
838664388 838664391
838844168 838844169
838894799 838894818
838911831 838911834
839201777 839201780
839267118 839267119
839296862 839296863
839300122 839300123
839680445 839680446
839863877 839863881
839869627 839869628
840049275 840049276
840176715 840176718
840222289 840222293
840317224 840317225
840488414 840488415
840491997 840492001
840926223 840926224
840995762 840995763
841236741 841236742
841262341 841262344
841554526 841554530
841767481 841767482
841792457 841792458
841827864 841827865
842189744 842189745
842236253 842236254
842303975 842303976
842409231 842409235
842803550 842803551
842915649 842915650
842922624 842922625
842928273 842928274
842981165 842981166
842988992 842988995
842996050 842996051
843132723 843132724
843175002 843175003
843251645 843251646
843421659 843421660
843428003 843428006
843507446 843507447
843514506 843514507
843571122 843571123
843642862 843642863
843669520 843669521
843703594 843703595
843721528 843721529
843729379 843729380
843801531 843801532
843855620 843855621
843887080 843887081
844035238 844035239
844122039 844122040
844245211 844245212
844485668 844485669
844508481 844508484
845360340 845360341
845377235 845377236
845478681 845478682
845665855 845665856
845674166 845674167
846188978 846188979
846421079 846421100
846623385 846623389
846675248 846675249
846689904 846689905
846924979 846924980
846941883 846941884
847922252 847922253
847955167 847955168
848069436 848069440
848319601 848319602
848981906 848981907
849214801 849214802
849554421 849554424
849711516 849711517
849786123 849786124
849911091 849911094
849917260 849917263
849918592 849918595
849938103 849938106
850161577 850161578
850173002 850173003
850197811 850197814
850317451 850317452
850346068 850346069
850437877 850437880
850677427 850677428
850679385 850679386
850715827 850715828
850742378 850742382
850756652 850756656
850757482 850757485
850780666 850780667
851236586 851236589
851239211 851239215
851247144 851247148
851276517 851276520
851338631 851338632
851395812 851395816
852393222 852393225
852566261 852566262
852583855 852583856
852649898 852649902
852652951 852652956
852752876 852752877
853272979 853272980
854408777 854408778
854427612 854427613
854584197 854584200
854658322 854658326
854658329 854658330
854706552 854706553
854751272 854751273
854910444 854910445
854916996 854916997
855220548 855220549
855312452 855312458
855414411 855414412
855689331 855689334
855778736 855778739
855869769 855869770
856061368 856061371
856126699 856126702
856127808 856127811
856150228 856150231
856150233 856150236
856218069 856218073
856218076 856218080
856233081 856233084
856233088 856233093
856233099 856233102
856233108 856233111
856251932 856251935
856251939 856251942
856322044 856322047
856322060 856322064
856323596 856323599
856323602 856323605
856323607 856323610
856323614 856323617
856323619 856323622
856323639 856323642
856323662 856323665
856323674 856323677
856323685 856323688
856323690 856323693
856331103 856331107
856396278 856396279
856411011 856411012
856451150 856451153
856451156 856451159
856451160 856451163
856451165 856451166
856466316 856466319
856466325 856466333
856466334 856466335
856471184 856471185
856500888 856500891
856500893 856500896
856500904 856500907
856527715 856527718
856583614 856583617
856591057 856591060
856591062 856591063
856613478 856613479
856703012 856703016
856703021 856703025
856703026 856703027
856718556 856718559
856718561 856718564
856718565 856718568
856718570 856718573
856718576 856718587
856718588 856718593
856718595 856718598
856718602 856718605
856718607 856718610
856718616 856718619
856718620 856718623
856718625 856718633
856718634 856718644
856718648 856718658
856718662 856718665
856718671 856718674
856718676 856718679
856726103 856726106
857007037 857007038
857445592 857445596
857461697 857461698
857521890 857521893
857544354 857544357
857544361 857544371
857544372 857544378
857559144 857559147
857559149 857559152
857559158 857559161
857559167 857559170
857652045 857652046
857673252 857673253
857695465 857695468
857706575 857706576
857790247 857790248
857995246 857995247
858031504 858031508
858107580 858107583
858185008 858185009
858207179 858207180
858429001 858429004
858532051 858532052
858617707 858617708
858626653 858626656
858693372 858693373
858805162 858805163
858951741 858951742
858961271 858961272
858966269 858966270
859094948 859094949
859123620 859123625
859145863 859145866
859155442 859155443
859576022 859576025
859576026 859576027
859831607 859831608
860071420 860071423
860149679 860149682
860284334 860284335
860342998 860342999
860364240 860364243
860440200 860440201
860585218 860585219
860624077 860624078
860921074 860921077
861038245 861038246
861040899 861040900
861131215 861131216
861390961 861390962
861544092 861544093
861561836 861561840
861625598 861625601
861660739 861660742
861666236 861666239
861843052 861843053
861866599 861866600
861886166 861886167
861919909 861919913
862158455 862158456
862163233 862163234
862187308 862187311
862324868 862324869
862381086 862381090
862462613 862462616
862855436 862855437
862870019 862870020
862947247 862947251
863126288 863126296
863205210 863205211
863539880 863539883
863637351 863637352
863805592 863805593
863826939 863826942
863828806 863828809
863830592 863830593
863982948 863982952
863982954 863982955
864168565 864168570
864584751 864584754
864585226 864585227
864592283 864592284
864606933 864606934
864612164 864612165
864859058 864859061
864859062 864859063
865019924 865019925
865055972 865055973
865183444 865183445
865364614 865364615
865465055 865465058
865465059 865465060
865632927 865632930
865668379 865668380
865798656 865798657
865853748 865853749
866032219 866032220
866159763 866159764
866231550 866231551
866672710 866672713
867056205 867056206
867378799 867378800
867438847 867438851
867441760 867441763
867449561 867449562
867708199 867708200
867710115 867710116
867841717 867841720
868045694 868045697
868054789 868054790
868290646 868290650
868386137 868386140
868472295 868472296
868483050 868483056
868540493 868540494
868565662 868565665
868681174 868681177
868681180 868681183
868987997 868987998
869068029 869068030
869505239 869505240
869524306 869524307
869540721 869540722
869604872 869604873
869613894 869613895
869617374 869617375
869648705 869648706
869773251 869773255
869922600 869922601
870024117 870024120
870060564 870060565
870086674 870086678
870103419 870103420
870122298 870122299
870273268 870273272
870273273 870273274
870415525 870415528
870467411 870467414
870578152 870578153
870645647 870645648
870788362 870788363
870905942 870905946
870905950 870905951
870939915 870939916
870980988 870980991
871158599 871158630
871228549 871228554
871257149 871257150
871277320 871277324
871293928 871293929
871404357 871404360
871414321 871414322
871432679 871432718
871441449 871441450
871446179 871446239
871456499 871456509
871468139 871468146
871478039 871478060
871515839 871515898
871522456 871522460
871522461 871522468
871539479 871539537
871551179 871551210
871560179 871560197
871566359 871566370
871597096 871597099
871598519 871598541
871601519 871601531
871619302 871619303
871629359 871629389
871639919 871639933
871685681 871685682
871695404 871695405
871803492 871803495
871920986 871920989
871942265 871942268
872142136 872142137
872167786 872167787
872217649 872217652
872229069 872229072
872262131 872262134
872635366 872635367
872871900 872871901
872953203 872953206
873137078 873137079
873271074 873271077
874044308 874044311
874263015 874263018
874313434 874313438
874352753 874352757
874354143 874354144
874514091 874514094
874613735 874613739
874680967 874680970
874682475 874682478
874706772 874706775
874867626 874867627
874959077 874959078
875020179 875020182
875056060 875056061
875116741 875116744
875154087 875154090
875200566 875200567
