862262526 862262531
862267831 862267836
862273518 862273523
862361801 862361806
862412915 862412920
862768323 862768328
862775065 862775070
862775127 862775132
862775809 862775814
862811136 862811141
862817196 862817201
862819582 862819587
862821311 862821316
862831604 862831609
862834145 862834150
862846748 862846753
862856044 862856049
862856524 862856529
862856547 862856552
862857720 862857725
862868822 862868827
862870315 862870320
862872839 862872848
862884335 862884340
862890042 862890047
862895891 862895896
862913928 862913933
862916663 862916668
862920220 862920225
862922340 862922345
862924914 862924919
862924947 862924952
862933153 862933158
862935359 862935364
862938282 862938287
862938784 862938789
862939416 862939421
862940253 862940258
862940606 862940611
862944747 862944752
862945550 862945555
