862246348 862246365
862247058 862247075
862247459 862247476
862247649 862247666
862247809 862247826
862247997 862248014
862248311 862248328
862249914 862249931
862249989 862250006
862265424 862265441
862284687 862284704
862285313 862285330
862285456 862285473
862286804 862286821
862287028 862287045
862287400 862287417
862294256 862294273
862295328 862295345
862325152 862325169
862326749 862326766
862327081 862327098
862327878 862327895
862328153 862328170
862328321 862328338
862328967 862328984
862329047 862329064
862964420 862964437
862965800 862965817
863210634 863210651
863210754 863210771
863211051 863211068
863211237 863211254
863211256 863211273
863211294 863211311
863211304 863211321
863299159 863299176
863303460 863303477
863303586 863303603
863303979 863303996
863304348 863304365
863372201 863372218
863372354 863372372
863372472 863372489
863372514 863372531
863372674 863372691
863372835 863372852
863373008 863373025
863384711 863384728
863384857 863384874
863385809 863385826
863386466 863386483
863386535 863386552
863386841 863386858
863386978 863386995
863387967 863387984
863388459 863388476
863388543 863388560
863388633 863388650
863388735 863388752
863388936 863388953
863389117 863389134
864666150 864666167
864666432 864666449
864666487 864666504
864667173 864667190
864668085 864668102
864668148 864668165
864678577 864678594
864678880 864678897
865037812 865037829
865038500 865038517
865192732 865192749
865192911 865192928
865193251 865193268
865193923 865193940
865195387 865195404
865381208 865381225
865381249 865381266
865381334 865381351
865381802 865381819
865381834 865381851
865381840 865381857
865381862 865381879
865381883 865381900
865381912 865381929
865382025 865382042
865382099 865382116
865382228 865382245
865382312 865382329
865382350 865382367
865382395 865382412
865382407 865382424
865382434 865382451
865382453 865382470
865382557 865382574
865465009 865465026
865465246 865465263
865465277 865465294
865466253 865466270
865467078 865467095
865467155 865467172
865467249 865467266
865467278 865467295
865467321 865467338
865467754 865467771
865467781 865467798
865467826 865467843
865467906 865467923
865467975 865467992
865467994 865468011
865468005 865468022
865468824 865468841
865468852 865468869
865468950 865468967
865469345 865469362
865473684 865473701
865631607 865631624
865631809 865631826
865632482 865632499
865635940 865635957
865812172 865812189
865812496 865812513
865812656 865812673
865812710 865812727
865816605 865816622
865816917 865816934
865817549 865817566
865818144 865818161
865818532 865818549
865818689 865818706
866220941 866220958
866221091 866221108
866221132 866221149
866245301 866245318
866321094 866321111
866322706 866322723
866322830 866322847
866323236 866323253
866323696 866323713
866324618 866324635
866324861 866324878
866325027 866325044
866325748 866325765
866325863 866325880
866325968 866325985
866329478 866329495
866329623 866329640
866329875 866329892
866330172 866330189
866330314 866330331
866330366 866330383
866330422 866330439
866330634 866330651
866330685 866330702
866330730 866330747
866330799 866330816
866330835 866330852
866330901 866330918
866330930 866330947
866330950 866330967
866331032 866331049
866331079 866331096
866331242 866331259
866331365 866331382
866331410 866331427
866331444 866331461
866331472 866331489
866331632 866331649
866331807 866331824
866332094 866332111
866332331 866332348
866335634 866335651
866336023 866336040
866337063 866337080
866337302 866337319
866337670 866337687
867180472 867180489
867180565 867180582
867180699 867180716
867180864 867180881
867181078 867181095
867181136 867181153
867181208 867181225
867181260 867181277
867181306 867181323
867181329 867181346
867181408 867181425
867181461 867181478
867181643 867181660
867182505 867182522
867182554 867182571
867182568 867182585
867182599 867182616
867182636 867182653
867182671 867182688
867182708 867182725
867182762 867182779
867182816 867182833
867183073 867183090
867183208 867183225
867183411 867183428
867183699 867183716
867184100 867184117
867184340 867184357
867184571 867184588
867184702 867184719
867184840 867184857
867184897 867184914
867185094 867185111
867185218 867185235
867185909 867185926
867186052 867186069
867186181 867186198
867187058 867187075
867351834 867351851
867352018 867352035
867353664 867353681
867454900 867454917
867454987 867455004
867455076 867455093
867455105 867455122
867455137 867455154
867455181 867455198
867455232 867455249
867455274 867455291
867455307 867455324
867455415 867455432
867455476 867455494
867455508 867455525
867455536 867455553
867455606 867455623
867455674 867455691
867455693 867455710
867455747 867455764
867455840 867455857
867455905 867455922
867456022 867456039
867613543 867613560
867613729 867613746
867613948 867613965
867614029 867614046
867614227 867614244
867614282 867614299
867614390 867614407
867614585 867614602
867614840 867614857
867614905 867614922
867614940 867614957
867614977 867614994
867747099 867747116
867958439 867958456
867958754 867958771
867958802 867958819
867958886 867958903
867958940 867958957
867959012 867959029
867959056 867959073
867959158 867959175
867959202 867959219
867959576 867959593
867959773 867959790
867959825 867959842
867962399 867962416
867962523 867962540
867962581 867962598
867963477 867963494
868042629 868042646
868042765 868042782
868042988 868043005
868048091 868048108
868048304 868048321
868050116 868050133
868050222 868050239
868050333 868050350
868050523 868050540
868050866 868050883
868050901 868050918
868050952 868050969
868051089 868051106
868051148 868051165
868051190 868051207
868051355 868051372
868051727 868051744
868051871 868051888
868051986 868052003
868052776 868052793
868053424 868053441
868053522 868053539
868053571 868053588
868053679 868053696
868053706 868053723
868053937 868053954
868054135 868054152
868054192 868054209
868054344 868054361
868054358 868054375
868054388 868054405
868054429 868054446
868054473 868054490
868054588 868054605
868054611 868054628
868054671 868054688
868054714 868054731
868054760 868054777
868054801 868054818
868054935 868054952
868055022 868055039
868055041 868055059
868055123 868055140
868055159 868055176
868055206 868055223
868055256 868055273
868055311 868055328
868055330 868055347
868302686 868302703
868302719 868302736
868302812 868302829
868302934 868302951
868303133 868303150
868303233 868303250
868303480 868303497
868303538 868303555
868303962 868303979
868305115 868305132
868307549 868307566
868309694 868309711
868309773 868309790
868310117 868310134
868310876 868310893
868311753 868311770
868311813 868311830
868311857 868311874
868311884 868311901
868311908 868311925
868312023 868312040
868312099 868312116
868312155 868312172
868312226 868312243
868312824 868312841
868313718 868313735
868313736 868313753
868313780 868313797
868313862 868313879
868313882 868313899
868314052 868314069
868314092 868314109
868317076 868317093
868317561 868317578
868317725 868317742
868319053 868319070
868319289 868319306
868319525 868319542
868467983 868468000
868468219 868468236
868468260 868468277
868468305 868468322
868468351 868468368
868468406 868468423
868468476 868468493
868468543 868468560
868468698 868468715
868468837 868468854
868468915 868468932
868468998 868469015
868469362 868469379
868469460 868469477
868565492 868565509
869689135 869689152
869689515 869689532
869701830 869701847
869702810 869702827
869853680 869853697
869854367 869854384
869854478 869854495
869854699 869854716
869854753 869854770
869854789 869854806
869854855 869854872
869854865 869854882
869854920 869854937
869854954 869854971
869854973 869854990
869855047 869855064
869855302 869855319
869855356 869855373
869855468 869855485
869855484 869855501
869855512 869855529
869855541 869855558
869855671 869855688
869868204 869868221
869868487 869868504
869870837 869870854
869871215 869871232
869871288 869871305
869871311 869871328
869871476 869871493
869871700 869871717
869871788 869871805
869872214 869872231
869872395 869872412
869874321 869874338
869874384 869874401
869874713 869874730
869874784 869874801
869874874 869874891
869874965 869874982
869880221 869880238
869880610 869880627
869881558 869881575
869882271 869882288
869882489 869882506
869882730 869882747
869883340 869883357
869883595 869883612
869885155 869885172
869885545 869885562
870043067 870043084
870044502 870044519
870044629 870044646
870044738 870044755
870044782 870044799
870044849 870044866
870045112 870045129
870045164 870045181
870045218 870045235
870045234 870045251
870045266 870045283
872193862 872193879
872199333 872199350
872199387 872199404
872199704 872199721
872274180 872274197
872287046 872287063
872287595 872287612
872287688 872287705
872289891 872289908
872373940 872373957
872444260 872444277
872444473 872444490
872445103 872445120
872445710 872445727
872445749 872445766
872448725 872448742
872656465 872656482
872657183 872657200
872657293 872657310
872657485 872657502
872657581 872657598
872658342 872658359
872718702 872718719
872893298 872893315
872893360 872893377
872893849 872893866
872972932 872972949
872977132 872977149
872977294 872977311
872977447 872977464
872977771 872977788
872977850 872977867
872978041 872978058
872978188 872978205
872978250 872978267
872978325 872978342
872979566 872979583
873238368 873238385
873243696 873243713
873243841 873243858
873670342 873670359
873670734 873670751
873670761 873670778
873670827 873670844
873670880 873670897
873670972 873670989
873671018 873671035
873671121 873671138
873671245 873671262
873671303 873671320
873671345 873671362
873671393 873671410
873671452 873671469
873671495 873671512
873671539 873671556
873671637 873671654
873671713 873671730
873671783 873671800
873730197 873730214
873817077 873817094
874564968 874564985
874746506 874746523
