862089832 862089849
862089968 862089985
862090159 862090176
862129480 862129497
862132323 862132340
862133718 862133735
862136153 862136170
862136175 862136193
862140581 862140598
862146003 862146021
862213087 862213104
862221997 862222014
862229019 862229036
862231489 862231506
862233284 862233301
862234929 862234946
862237120 862237137
862238250 862238267
862245018 862245035
862245778 862245795
862245980 862245997
862246064 862246081
862246322 862246340
862246328 862246345
862246440 862246458
862246540 862246561
862246761 862246778
862246900 862246917
862247803 862247820
862247910 862247927
862248295 862248313
862248300 862248317
862248353 862248370
862248485 862248502
862248539 862248556
862251363 862251380
862258142 862258159
862270445 862270462
862286707 862286724
862286812 862286829
862286920 862286937
862296837 862296854
862301774 862301791
862306933 862306952
862327010 862327027
862327480 862327497
862327891 862327909
862327942 862327959
862328825 862328842
862328831 862328848
862336467 862336484
862340401 862340423
862342688 862342705
862347858 862347875
862347868 862347885
862347878 862347895
862347890 862347908
862347896 862347913
862348905 862348922
862348917 862348934
862348926 862348943
862351798 862351815
862352823 862352840
862355804 862355821
862364761 862364778
862379137 862379154
862379264 862379281
862379288 862379305
862407712 862407729
862408790 862408807
862425856 862425873
862427252 862427269
862442663 862442680
862507107 862507124
862517839 862517856
862571610 862571628
862601243 862601260
862621628 862621645
862648324 862648341
862650813 862650830
862657569 862657586
862659732 862659749
862659748 862659765
862659783 862659800
862660087 862660104
862662629 862662646
862713511 862713528
862716650 862716667
862719171 862719188
862721626 862721643
862721650 862721667
862724085 862724102
862724107 862724124
862726557 862726574
862726877 862726894
862726938 862726955
862728749 862728766
862730893 862730910
862733096 862733113
862737401 862737418
862739614 862739631
862741787 862741804
862743409 862743426
862743833 862743850
862745974 862745991
862748157 862748174
862750349 862750366
862752811 862752828
862809580 862809597
862812059 862812076
862816426 862816443
862818646 862818664
862823022 862823039
862825214 862825231
862829627 862829644
862829649 862829666
862833283 862833302
862834381 862834398
862836909 862836926
862850297 862850314
862857777 862857794
862879634 862879651
862888446 862888463
862891891 862891909
862894655 862894672
862894679 862894696
862895618 862895635
862897158 862897175
862904654 862904671
862909295 862909312
862911507 862911524
862913681 862913698
862916129 862916146
862918332 862918349
862920516 862920533
862920570 862920587
862932975 862932992
862938561 862938578
862977098 862977115
862980308 862980325
862983727 862983744
862986162 862986179
862986186 862986203
862991204 862991221
862993738 862993755
862993760 862993777
862996179 862996196
862998660 862998677
863001078 863001095
863003240 863003257
863003262 863003279
863005473 863005490
863007697 863007714
863010205 863010222
863014589 863014606
863029146 863029163
863065968 863065985
863069098 863069115
863072498 863072515
863075826 863075843
863078393 863078410
863080940 863080957
863083402 863083419
863086008 863086025
863087017 863087034
863088468 863088485
863088843 863088860
863090976 863090993
863093446 863093463
863110970 863110987
863118905 863118922
863118950 863118967
863122320 863122337
863127759 863127776
863130341 863130360
863154206 863154223
863157222 863157239
863157891 863157908
863164716 863164733
863167254 863167271
863170105 863170122
863170129 863170146
863172525 863172542
863172547 863172564
863175136 863175153
863177674 863177691
863180172 863180189
863206682 863206700
863206703 863206720
863207694 863207711
863207859 863207876
863232789 863232806
863233437 863233454
863235209 863235226
863237383 863237400
863239663 863239680
863241837 863241854
863244117 863244134
863246291 863246308
863250846 863250863
863253165 863253182
863255355 863255372
863255377 863255394
863257639 863257656
863259834 863259851
863262144 863262161
863264396 863264413
863265145 863265162
863268859 863268876
863271121 863271138
863296302 863296319
863296326 863296343
863298962 863298979
863299013 863299030
863299063 863299080
863303617 863303634
863304750 863304767
863309422 863309439
863311683 863311700
863313857 863313874
863316178 863316195
863318479 863318496
863320653 863320670
863322814 863322831
863324989 863325006
863327160 863327177
863329324 863329341
863331496 863331513
863333183 863333200
863333708 863333725
863335893 863335910
863338061 863338078
863338083 863338100
863340277 863340294
863342489 863342506
863344691 863344708
863351260 863351277
863353481 863353498
863355694 863355711
863357936 863357953
863360257 863360274
863362619 863362636
863365056 863365073
863367763 863367780
863373314 863373331
863375597 863375614
863378010 863378027
863378054 863378071
863384049 863384066
863384392 863384409
863386805 863386822
863389166 863389183
863391565 863391582
863393513 863393530
863393973 863393990
863393996 863394013
863396376 863396393
863398766 863398783
863401128 863401145
863403487 863403504
863405650 863405667
863407834 863407851
863410015 863410032
863412178 863412195
863414382 863414399
863416554 863416571
863418785 863418802
863420950 863420967
863423252 863423269
863425453 863425470
863427696 863427713
863429926 863429943
863432071 863432088
863434312 863434329
863438778 863438795
863439674 863439691
863440533 863440550
863440969 863440986
863440981 863440998
863443032 863443049
863443241 863443258
863445434 863445451
863447675 863447692
863447946 863447963
863452140 863452157
863454352 863454369
863456624 863456641
863458827 863458844
863465769 863465786
863467991 863468008
863470353 863470370
863479389 863479406
863481542 863481559
863482500 863482518
863483884 863483901
863485937 863485954
863488062 863488079
863490225 863490242
863492317 863492334
863494541 863494558
863496713 863496730
863498299 863498318
863498887 863498904
863499511 863499528
863501089 863501106
863503282 863503299
863505415 863505432
863507745 863507762
863510045 863510062
863512386 863512403
863514747 863514764
863517001 863517018
863519292 863519309
863521622 863521639
863523963 863523980
863526332 863526349
863527194 863527211
863528438 863528457
863528595 863528612
863530787 863530804
863532872 863532890
863532981 863532998
863535221 863535238
863536229 863536246
863537375 863537392
863539628 863539645
863541790 863541807
863544042 863544059
863546185 863546202
863548399 863548416
863566382 863566399
863568556 863568573
863570686 863570703
863570710 863570727
863572832 863572849
863575016 863575033
863577080 863577097
863579212 863579229
863581397 863581414
863583539 863583556
863585682 863585699
863587993 863588010
863590244 863590261
863592506 863592523
863597100 863597117
863599501 863599518
863601880 863601897
863604251 863604268
863606600 863606617
863608862 863608879
863611223 863611240
863613613 863613630
863615805 863615822
863617573 863617591
863617695 863617712
863618018 863618035
863618283 863618300
863620239 863620256
863622531 863622548
863624754 863624771
863627025 863627042
863629189 863629206
863633623 863633640
863634008 863634025
863635922 863635939
863635945 863635962
863638227 863638244
863640566 863640583
863644634 863644651
863645297 863645314
863647934 863647951
863650263 863650280
863650285 863650302
863652537 863652554
863654716 863654733
863654740 863654757
863656823 863656840
863658956 863658973
863661069 863661086
863663145 863663162
863665327 863665344
863667391 863667408
863669556 863669573
863669664 863669681
863671727 863671744
863673841 863673858
863676044 863676061
863678255 863678272
863680527 863680544
863682868 863682885
863685148 863685165
863687530 863687547
863689901 863689918
863692272 863692289
863693216 863693233
863694661 863694678
863697052 863697069
863699422 863699439
863701702 863701719
863703924 863703941
863708400 863708417
863712922 863712939
863715203 863715220
863717475 863717492
863719885 863719902
863720591 863720608
863722317 863722334
863724844 863724861
863725580 863725597
863727314 863727331
863729704 863729721
863729999 863730016
863730418 863730435
863730537 863730554
863730563 863730580
863730568 863730585
863732448 863732465
863734620 863734637
863735145 863735162
863737584 863737601
863739913 863739930
863739935 863739952
863742327 863742344
863744607 863744624
863746781 863746798
863748913 863748930
863751048 863751065
863753169 863753186
863755273 863755290
863757475 863757492
863759579 863759596
863761743 863761760
863763945 863763962
863768331 863768348
863770544 863770561
863772705 863772722
863774957 863774974
863777200 863777217
863781360 863781377
863781399 863781416
863781606 863781623
863783846 863783863
863786079 863786096
863787308 863787326
863788281 863788298
863789244 863789261
863790523 863790540
863795047 863795064
863797338 863797355
863799747 863799764
863802188 863802205
863804636 863804653
863805553 863805570
863807106 863807123
863809175 863809192
863809386 863809403
863809627 863809644
863809755 863809772
863824281 863824298
863826890 863826907
863829675 863829692
863831936 863831953
863834110 863834127
863836242 863836259
863838426 863838443
863840580 863840597
863842770 863842787
863844934 863844951
863846489 863846506
863847047 863847064
863849237 863849254
863849260 863849277
863851422 863851439
863853636 863853653
863855839 863855856
863858030 863858047
863860263 863860280
863862433 863862450
863862455 863862472
863864649 863864666
863866869 863866886
863869054 863869071
863871210 863871227
863871264 863871281
863873486 863873503
863906851 863906868
863911790 863911807
863916589 863916606
863918941 863918958
863921281 863921298
863923582 863923599
863925893 863925910
863928125 863928142
863930406 863930423
863936994 863937011
863939197 863939214
863943601 863943618
863945805 863945822
863948008 863948025
863950209 863950226
863952402 863952419
863954586 863954603
863956786 863956803
863958970 863958987
863962821 863962838
863962843 863962860
863967898 863967915
863970251 863970268
863972972 863972989
863972994 863973011
863973677 863973694
863975681 863975698
863980625 863980642
863981288 863981305
863981311 863981328
864032362 864032379
864034557 864034574
864036778 864036795
864038991 864039008
864041204 864041221
864045618 864045635
864047309 864047326
864052424 864052441
864062864 864062881
864072503 864072520
864113381 864113398
864115574 864115591
864117778 864117795
864118453 864118470
864119958 864119975
864122201 864122218
864124354 864124371
864126577 864126594
864142440 864142457
864153045 864153062
864156351 864156368
864157026 864157043
864161238 864161255
864163690 864163707
864163712 864163729
864201162 864201179
864201184 864201201
864203397 864203414
864205547 864205564
864205571 864205588
864207793 864207810
864209976 864209993
864212174 864212191
864212196 864212213
864214400 864214417
864216593 864216610
864218797 864218814
864220236 864220253
864221007 864221024
864223270 864223287
864225610 864225627
864227987 864228004
864228009 864228026
864230480 864230497
864232925 864232942
864232947 864232964
864235793 864235810
864239151 864239168
864242538 864242555
864248761 864248778
864252166 864252183
864252188 864252205
864256238 864256255
864259052 864259069
864261631 864261648
864263879 864263896
864263902 864263919
864266035 864266052
864268346 864268363
864270480 864270497
864272654 864272671
864274795 864274812
864276930 864276947
864279121 864279138
864281256 864281273
864283477 864283494
864287842 864287859
864290055 864290072
864292238 864292255
864294469 864294486
864296662 864296679
864298885 864298902
864299029 864299046
864301098 864301115
864303279 864303296
864305511 864305528
864307724 864307741
864311429 864311446
864312199 864312216
864314441 864314458
864316827 864316844
864316850 864316867
864319290 864319307
864321758 864321775
864324475 864324492
864325969 864325986
864327478 864327495
864330342 864330359
864334223 864334240
864338529 864338546
864339229 864339246
864341664 864341681
864341867 864341884
864345028 864345045
864348320 864348337
864348604 864348621
864350946 864350963
864353413 864353430
864355716 864355733
864358027 864358044
864360157 864360174
864360179 864360196
864362362 864362379
864364535 864364552
864366688 864366705
864368881 864368898
864373197 864373214
864375380 864375397
864377563 864377580
864379754 864379771
864381947 864381964
864384180 864384197
864384743 864384760
864385634 864385655
864385643 864385660
864386361 864386378
864388584 864388601
864388713 864388730
864388718 864388736
864388728 864388745
864390319 864390336
864390757 864390774
864392950 864392967
864394097 864394114
864395174 864395191
864397368 864397385
864397475 864397492
864402291 864402308
864402313 864402330
864404722 864404739
864407170 864407187
864407192 864407209
864408854 864408871
864409937 864409954
864411030 864411047
864415449 864415466
864418283 864418300
864422195 864422212
864425000 864425017
864428408 864428425
864431125 864431142
864433916 864433933
864433938 864433955
864436565 864436582
864438946 864438963
864443577 864443594
864445789 864445806
864448100 864448117
864450284 864450301
864452477 864452494
864454681 864454698
864457010 864457027
864459232 864459249
864461575 864461592
864463914 864463931
864466224 864466241
864468467 864468484
864470670 864470687
864472901 864472918
864473070 864473087
864473227 864473244
864473611 864473628
864477316 864477333
864478709 864478726
864479539 864479556
864484051 864484068
864484744 864484761
864485636 864485653
864485643 864485660
864504133 864504150
864504156 864504173
864506808 864506825
864506830 864506847
864511385 864511402
864512419 864512436
864518066 864518083
864520496 864520513
864523251 864523268
864525493 864525510
864527975 864527992
864530294 864530311
864532743 864532760
864534933 864534950
864534955 864534972
864537456 864537473
864539734 864539751
864539756 864539773
864540602 864540619
864544418 864544435
864546700 864546717
864548932 864548949
864551234 864551251
864553534 864553551
864555993 864556010
864558265 864558282
864562829 864562846
864569910 864569927
864572182 864572199
864574643 864574660
864576973 864576990
864579738 864579755
864582188 864582205
864583588 864583605
864583608 864583625
864586109 864586126
864588577 864588594
864589796 864589813
864598820 864598837
864601220 864601237
864603986 864604003
864606346 864606363
864608807 864608824
864611127 864611144
864613547 864613564
864615779 864615796
864618248 864618265
864620560 864620577
864622434 864622451
864623057 864623074
864625319 864625336
864627749 864627766
864629971 864629988
864634496 864634513
864636807 864636824
864639039 864639056
864641139 864641156
864641448 864641465
864643681 864643698
864646022 864646039
864648254 864648271
864652438 864652455
864652910 864652927
864652974 864652991
864655475 864655492
864657923 864657940
864660407 864660424
864661569 864661586
864664373 864664390
864667705 864667722
864672034 864672051
864673079 864673096
864673183 864673200
864673507 864673524
864673530 864673547
864673612 864673630
864673691 864673709
864673702 864673719
864673875 864673893
864673886 864673903
864675999 864676016
864676097 864676114
864677810 864677827
864678834 864678851
864681213 864681230
864684788 864684805
864687209 864687226
864689985 864690002
864692366 864692383
864695159 864695176
864697423 864697440
864699989 864700006
864702219 864702236
864702241 864702258
864704710 864704727
864706954 864706971
864709431 864709448
864711665 864711682
864713965 864713982
864716186 864716203
864717756 864717773
864718469 864718486
864720711 864720728
864729855 864729872
864729877 864729894
864732179 864732196
864734469 864734486
864736771 864736788
864739053 864739070
864741443 864741460
864746509 864746526
864748919 864748936
864755222 864755239
864756077 864756094
864756099 864756116
864762245 864762262
864783982 864783999
864784131 864784148
864788881 864788898
864791282 864791299
864793452 864793469
864793474 864793491
864795835 864795852
864798018 864798035
864800256 864800273
864800279 864800296
864802472 864802489
864809259 864809276
864811491 864811508
864813810 864813827
864816042 864816059
864818354 864818371
864819208 864819225
864820605 864820622
864822878 864822895
864824645 864824662
864825112 864825129
864827431 864827448
864829683 864829700
864832213 864832230
864838316 864838333
864839450 864839467
864839758 864839775
864839833 864839850
864859063 864859080
864871642 864871659
864874010 864874027
864876667 864876684
864877947 864877964
864878929 864878946
864881370 864881387
864883632 864883649
864886110 864886127
864890564 864890581
864892776 864892793
864895059 864895076
864897273 864897290
864899563 864899580
864900902 864900919
864901804 864901821
864904076 864904093
864904838 864904856
864906328 864906345
864908609 864908626
864910892 864910909
864913419 864913436
864915821 864915838
864918352 864918369
864919484 864919501
864922238 864922255
864922261 864922278
864925260 864925277
864927268 864927285
864931175 864931192
864931503 864931520
864942441 864942459
864942605 864942622
864942609 864942626
864943015 864943034
864943859 864943876
864944081 864944098
864944519 864944537
864945198 864945215
864947531 864947548
864948250 864948267
864956522 864956539
864956670 864956687
864959456 864959473
864961698 864961715
864963052 864963069
864964125 864964142
864964147 864964164
864966499 864966516
864969046 864969063
864971278 864971295
864976079 864976096
864978557 864978574
864979113 864979130
864980781 864980798
864983239 864983256
864985542 864985559
864987981 864987998
864990252 864990269
864997444 864997461
864999724 864999741
865002212 865002229
865004573 865004590
865007150 865007167
865020900 865020917
865026798 865026815
865026954 865026971
865030155 865030172
865032566 865032583
865035311 865035328
865037731 865037748
865040388 865040405
865042727 865042744
865045179 865045196
865047459 865047476
865049760 865049777
865051972 865051989
865054255 865054272
865056363 865056380
865056477 865056494
865058767 865058784
865060979 865060996
865061001 865061018
865063304 865063321
865065613 865065630
865067925 865067942
865070256 865070273
865072556 865072573
865074799 865074816
865077112 865077129
865079373 865079390
865079383 865079400
865081721 865081738
865083945 865083962
865086393 865086410
865122902 865122919
865135680 865135697
865135828 865135845
865138642 865138659
865141144 865141161
865141316 865141333
865141714 865141731
865144203 865144220
865146525 865146542
865149061 865149078
865149084 865149101
865153676 865153693
865153936 865153953
865155856 865155873
865155878 865155895
865158180 865158197
865160461 865160478
865162773 865162790
865164975 865164992
865174684 865174701
865178720 865178737
865184742 865184759
865184861 865184878
865185837 865185854
865195035 865195052
865195041 865195059
865196938 865196955
865208237 865208254
865208384 865208401
865212749 865212766
865223181 865223198
865225650 865225667
865228166 865228183
865230577 865230594
865233263 865233280
865235505 865235522
865240583 865240600
865243349 865243366
865245738 865245755
865248504 865248521
865253768 865253785
865254398 865254415
865256170 865256187
865258409 865258426
865260446 865260463
865263809 865263826
865276514 865276531
865281556 865281573
865317872 865317889
865325851 865325868
865328329 865328346
865331145 865331162
865333545 865333562
865335796 865335813
865336330 865336347
865338720 865338737
865339397 865339416
865341290 865341307
865341672 865341689
865342467 865342484
865344450 865344467
865344506 865344523
865361322 865361339
865381862 865381879
865397232 865397249
865397270 865397287
865397418 865397435
865400202 865400219
865400224 865400241
865402383 865402400
865402601 865402618
865402623 865402640
865405309 865405326
865407642 865407659
865410110 865410127
865412423 865412440
865414870 865414887
865417192 865417209
865419642 865419659
865421864 865421881
865424342 865424359
865425652 865425669
865426557 865426574
865427581 865427598
865429322 865429339
865438694 865438719
865440187 865440204
865440299 865440316
865440328 865440345
865441690 865441707
865442629 865442646
865442633 865442650
865442663 865442680
865443210 865443227
865444800 865444817
865450067 865450084
865450395 865450412
865463663 865463680
865463675 865463692
865464483 865464500
865464510 865464527
865465392 865465409
865465399 865465416
865466207 865466224
865466401 865466421
865466479 865466496
865467177 865467194
865467944 865467962
865469231 865469248
865476148 865476165
865476295 865476312
865479081 865479098
865480522 865480539
865481500 865481517
865484051 865484068
865486458 865486475
865489153 865489170
865489176 865489193
865491476 865491493
865493945 865493962
865496187 865496204
865498648 865498665
865500106 865500123
865500958 865500975
865503398 865503415
865505650 865505667
865508089 865508106
865508846 865508863
865510304 865510321
865512782 865512799
865515024 865515041
865517590 865517607
865520021 865520038
865524996 865525013
865529716 865529733
865531838 865531855
865531865 865531882
865536890 865536907
865554658 865554675
865554671 865554688
865573939 865573956
865574088 865574105
865575605 865575622
865576843 865576860
865581722 865581739
865584092 865584109
865586551 865586568
865588912 865588929
865591362 865591379
865593660 865593677
865593682 865593699
865600776 865600793
865603223 865603240
865609695 865609712
865613165 865613182
865613701 865613718
865616093 865616110
865619084 865619101
865622067 865622084
865632057 865632075
865632800 865632817
865635090 865635109
865642003 865642020
865652816 865652833
865652965 865652982
865655907 865655924
865658307 865658324
865660044 865660061
865660964 865660981
865663283 865663300
865663306 865663323
865665873 865665890
865668107 865668124
865670664 865670681
865672861 865672878
865675320 865675337
865677542 865677559
865680003 865680020
865684792 865684809
865733232 865733249
865735897 865735914
865735919 865735936
865740749 865740766
865743158 865743175
865743623 865743646
865745518 865745535
865750150 865750167
865752203 865752220
865752471 865752488
865752690 865752707
865752735 865752752
865754813 865754830
865757143 865757160
865761706 865761723
865764027 865764044
865766230 865766247
865768561 865768578
865773104 865773121
865775336 865775353
865777728 865777745
865778600 865778617
865778924 865778941
865780165 865780182
865782862 865782879
865785576 865785593
865794272 865794289
865821243 865821260
865823809 865823826
865823831 865823848
865828591 865828608
865830893 865830910
865833213 865833230
865833621 865833638
865835436 865835453
865839951 865839968
865842141 865842158
865844391 865844408
865844413 865844430
865846576 865846593
865848750 865848767
865850912 865850929
865853124 865853141
865855319 865855336
865857500 865857517
865859693 865859710
865861925 865861942
865867030 865867047
865870419 865870436
865871415 865871432
865879009 865879026
865879123 865879140
865882220 865882237
865898371 865898388
865906664 865906681
865906686 865906703
865909294 865909311
865911683 865911700
865914045 865914062
865916444 865916461
865916478 865916495
865918784 865918801
865921126 865921143
865923417 865923434
865925639 865925656
865927951 865927968
865930144 865930161
865932332 865932349
865932355 865932372
865934548 865934565
865935606 865935624
865936830 865936847
865937360 865937377
865939062 865939079
865941275 865941292
865943635 865943652
865956257 865956274
865956275 865956292
865956296 865956313
865961197 865961214
866077829 866077846
866080111 866080128
866082570 866082587
866083679 866083696
866084838 866084855
866084860 866084877
866087191 866087208
866089375 866089392
866091682 866091699
866091706 866091723
866093947 866093964
866096139 866096156
866098263 866098280
866100556 866100573
866102484 866102501
866102688 866102705
866104882 866104899
866107023 866107040
866109238 866109255
866111369 866111386
866113561 866113578
866115695 866115712
866115948 866115965
866117142 866117159
866117147 866117164
866117880 866117897
866120021 866120038
866122255 866122272
866124594 866124611
866125434 866125451
866125601 866125618
866127408 866127425
866130145 866130162
866134341 866134358
866168754 866168771
866171082 866171099
866171105 866171122
866173355 866173372
866173801 866173818
866176101 866176118
866178481 866178498
866180754 866180771
866183165 866183182
866194246 866194263
866194671 866194688
866196536 866196553
866198670 866198687
866200862 866200879
866203006 866203023
866205347 866205364
866210391 866210408
866210414 866210431
866213207 866213224
866215682 866215699
866232912 866232929
866234733 866234750
866235150 866235167
866235560 866235577
866238209 866238228
866240001 866240018
866240212 866240229
866243428 866243445
866243452 866243469
866245938 866245956
866246699 866246716
866247786 866247803
866250075 866250092
866250099 866250116
866250941 866250958
866252606 866252623
866254898 866254915
866257367 866257384
866259539 866259556
866261920 866261937
866264210 866264227
866266601 866266618
866271163 866271180
866273446 866273463
866275797 866275814
866277951 866277968
866280310 866280327
866282450 866282467
866282472 866282489
866284793 866284810
866286208 866286225
866286957 866286974
866289159 866289176
866296063 866296080
866299031 866299048
866299381 866299398
866299637 866299654
866299660 866299677
866299995 866300012
866322641 866322659
866322654 866322671
866324245 866324262
866324256 866324275
866324296 866324313
866329339 866329356
866329602 866329619
866330103 866330120
866330813 866330830
866331876 866331893
866332158 866332175
866332203 866332220
866332284 866332301
866337057 866337074
866337062 866337080
866337072 866337089
866337735 866337752
866348363 866348380
866351170 866351187
866353817 866353834
866356049 866356066
866358518 866358535
866363130 866363147
866364941 866364958
866365352 866365369
866366360 866366377
866367763 866367780
866369975 866369992
866371853 866371870
866372149 866372166
866374399 866374416
866374764 866374781
866376387 866376404
866376791 866376808
866381488 866381505
866381510 866381527
866383731 866383748
866383753 866383770
866387534 866387551
866388503 866388520
866391635 866391652
866425146 866425166
866425153 866425170
866433741 866433758
866433897 866433914
866438857 866438874
866441296 866441313
866443518 866443535
866445928 866445945
866448140 866448157
866450412 866450429
866452614 866452631
866454885 866454902
866457067 866457084
866457090 866457107
866458266 866458283
866459390 866459407
866461612 866461629
866466226 866466243
866468743 866468760
866469064 866469081
866470995 866471012
866474197 866474214
866476042 866476059
866476941 866476958
866477031 866477048
866480172 866480189
866480243 866480260
866482796 866482813
866484585 866484602
866487990 866488007
866491653 866491670
866491975 866491992
866511842 866511859
866515896 866515913
866518214 866518231
866518238 866518255
866520735 866520752
866522958 866522975
866524875 866524892
866525403 866525420
866527575 866527592
866529858 866529875
866532049 866532066
866534342 866534359
866536525 866536542
866538865 866538882
866539502 866539519
866541097 866541114
866543380 866543397
866545671 866545688
866548011 866548028
866550252 866550269
866552545 866552562
866576298 866576315
866587281 866587298
866600487 866600504
866600636 866600653
866603422 866603439
866605761 866605778
866610552 866610569
866613059 866613076
866615243 866615260
866619824 866619841
866619846 866619863
866622108 866622125
866624300 866624317
866626561 866626578
866627652 866627669
866627693 866627710
866628765 866628782
866631066 866631083
866633308 866633325
866635728 866635745
866637316 866637333
866637918 866637935
866637942 866637959
866640488 866640505
866642750 866642767
866644537 866644554
866690860 866690877
866691010 866691027
866694070 866694087
866696480 866696497
866696856 866696873
866698492 866698509
866698952 866698969
866701359 866701376
866703817 866703834
866703840 866703857
866706109 866706126
866706130 866706147
866709084 866709101
866711366 866711383
866711524 866711542
866713903 866713920
866716113 866716130
866716135 866716152
866718626 866718643
866720946 866720963
866723465 866723482
866725773 866725790
866725795 866725812
866726408 866726425
866731109 866731126
866734840 866734857
866737723 866737740
866738380 866738397
866745499 866745516
866776326 866776343
866776473 866776490
866779309 866779326
866781582 866781599
866784011 866784028
866784646 866784663
866786223 866786240
866788861 866788878
866791161 866791178
866793630 866793647
866795782 866795799
866798232 866798249
866800474 866800491
866802985 866803002
866804531 866804550
866804548 866804565
866805235 866805252
866807844 866807861
866822841 866822859
866824059 866824076
866839932 866839949
866840004 866840021
866840981 866840998
866841128 866841145
866846494 866846511
866846746 866846763
866846768 866846785
866849701 866849718
866852092 866852109
866854847 866854864
866857179 866857196
866859944 866859961
866862176 866862193
866864705 866864722
866866987 866867004
866869494 866869511
866871795 866871812
866872981 866872998
866874256 866874273
866879065 866879082
866881377 866881394
866883886 866883903
866886208 866886225
866888606 866888623
866890827 866890844
866890850 866890867
866893377 866893394
866898127 866898144
866898553 866898570
866900389 866900406
866959522 866959539
866961905 866961922
866964075 866964092
866964413 866964430
866968729 866968746
866971079 866971096
866971823 866971840
866973241 866973258
866975573 866975590
866977565 866977582
866977593 866977610
866977614 866977631
866977668 866977685
866977717 866977734
866978470 866978487
866979425 866979442
866979957 866979975
866982111 866982128
866983852 866983869
866984432 866984449
866998150 866998167
867000339 867000356
867051031 867051048
867053151 867053168
867053173 867053190
867055385 867055402
867057539 867057556
867059771 867059788
867061923 867061940
867064148 867064165
867086417 867086434
867086744 867086761
867117699 867117716
867120156 867120173
867122320 867122337
867124631 867124648
867126755 867126772
867127476 867127493
867129065 867129082
867131209 867131226
867133510 867133527
867135654 867135671
867137674 867137691
867137895 867137912
867140038 867140055
867142231 867142248
867144404 867144421
867146586 867146603
867148760 867148777
867150901 867150918
867150969 867150986
867150991 867151008
867153165 867153182
867155337 867155354
867163552 867163569
867165742 867165759
867167880 867167897
867169140 867169157
867169200 867169217
867170836 867170856
867176766 867176783
867180614 867180631
867182593 867182610
867183271 867183288
867184763 867184782
867185601 867185618
867189397 867189414
867191393 867191410
867193881 867193898
867195243 867195261
867196921 867196938
867196942 867196959
867199255 867199272
867200173 867200193
867201707 867201724
867201912 867201929
867204202 867204219
867206572 867206589
867208875 867208892
867211196 867211213
867213378 867213395
867213797 867213814
867215708 867215725
867217873 867217890
867220065 867220082
867222219 867222236
867224519 867224536
867225377 867225394
867226662 867226679
867228845 867228862
867231008 867231025
867233220 867233237
867235373 867235390
867237575 867237592
867239716 867239733
867239738 867239755
867241921 867241938
867244076 867244093
867246437 867246454
867248062 867248079
867248970 867248987
867249044 867249061
867249502 867249519
867254768 867254785
867254791 867254808
867256336 867256353
867263665 867263682
867264005 867264022
867278229 867278246
867280856 867280873
867283946 867283963
867286302 867286319
867288949 867288966
867289585 867289602
867291222 867291239
867293689 867293706
867295961 867295978
867298312 867298329
867300476 867300493
867302399 867302416
867302406 867302423
867302807 867302824
867303338 867303355
867304960 867304977
867307280 867307297
867309442 867309459
867311647 867311664
867313828 867313845
867316020 867316037
867318185 867318202
867320397 867320414
867322531 867322548
867324733 867324750
867326886 867326903
867329059 867329076
867330770 867330787
867331192 867331209
867332749 867332766
867333639 867333656
867333661 867333678
867334908 867334925
867336100 867336117
867342042 867342059
867343990 867344007
867344013 867344030
867371804 867371821
867374122 867374139
867374146 867374163
867376643 867376660
867378922 867378939
867378946 867378963
867381286 867381303
867383450 867383467
867384266 867384283
867385849 867385866
867387983 867388000
867390303 867390320
867392447 867392464
867393046 867393063
867394660 867394677
867396811 867396828
867399112 867399129
867401266 867401283
867403439 867403456
867405602 867405619
867407797 867407814
867409927 867409945
867412142 867412159
867414263 867414280
867421224 867421241
867421246 867421263
867423695 867423712
867423730 867423747
867434661 867434678
867438912 867438929
867440276 867440293
867460044 867460061
867461508 867461525
867462334 867462351
867464753 867464770
867467114 867467131
867469442 867469459
867469464 867469481
867471727 867471744
867474047 867474064
867476239 867476256
867476852 867476869
867476856 867476873
867478581 867478598
867480744 867480761
867483055 867483072
867485209 867485226
867496536 867496553
867498672 867498689
867500912 867500929
867503075 867503092
867552709 867552726
867553799 867553816
867553811 867553828
867553821 867553838
867554297 867554314
867556201 867556218
867558364 867558381
867560706 867560723
867562888 867562905
867565120 867565137
867567283 867567300
867569507 867569524
867571637 867571654
867571660 867571677
867573911 867573928
867576053 867576070
867578276 867578293
867579373 867579390
867580429 867580446
867582650 867582667
867584824 867584841
867586682 867586699
867587077 867587094
867589259 867589276
867591596 867591613
867591618 867591635
867593930 867593947
867595083 867595100
867595158 867595175
867596328 867596345
867596350 867596367
867598711 867598728
867600902 867600919
867601436 867601453
867602791 867602808
867604123 867604140
867613195 867613212
867613593 867613610
867620885 867620902
867621902 867621919
867622996 867623013
867623010 867623027
867623264 867623281
867623294 867623311
867625575 867625592
867627936 867627953
867630235 867630252
867630257 867630274
867632618 867632635
867634758 867634775
867634782 867634799
867637123 867637140
867639295 867639312
867641644 867641661
867643887 867643904
867646248 867646265
867648432 867648449
867650810 867650827
867653012 867653029
867657665 867657682
867660046 867660063
867661276 867661293
867662238 867662255
867664565 867664582
867664589 867664606
867666791 867666808
867669120 867669137
867673635 867673652
867680491 867680508
867683235 867683252
867685951 867685968
867686656 867686673
867703503 867703520
867705684 867705701
867706223 867706240
867706601 867706618
867708056 867708073
867710334 867710351
867710356 867710373
867712774 867712791
867712796 867712813
867713705 867713722
867714998 867715015
867716886 867716906
867717429 867717446
867726504 867726521
867728679 867728696
867730989 867731006
867733151 867733168
867735376 867735393
867737537 867737554
867741883 867741900
867744126 867744143
867746289 867746306
867748511 867748528
867750693 867750710
867752915 867752932
867755077 867755094
867757329 867757346
867766133 867766150
867766328 867766345
867768463 867768480
867768678 867768695
867769434 867769451
867771109 867771126
867773487 867773504
867776995 867777012
867779770 867779787
867781465 867781482
867785636 867785653
867788699 867788716
867798228 867798245
867806555 867806572
867809113 867809130
867811908 867811925
867814217 867814234
867814239 867814256
867816916 867816933
867819227 867819244
867820654 867820671
867821675 867821692
867822713 867822733
867823978 867823995
867826349 867826366
867828531 867828548
867830941 867830958
867831168 867831185
867833114 867833131
867835552 867835569
867837865 867837882
867839815 867839834
867840284 867840301
867842457 867842474
867844826 867844843
867847138 867847155
867849559 867849576
867851957 867851974
867855189 867855206
867857846 867857863
867861441 867861458
867862841 867862858
867865963 867865980
867869133 867869150
867871041 867871065
867871156 867871173
867874998 867875019
867896334 867896351
867898637 867898654
867901144 867901161
867902005 867902022
867903336 867903353
867905707 867905724
867906543 867906560
867907869 867907886
867908191 867908208
867910220 867910237
867912374 867912391
867914703 867914720
867914725 867914742
867919168 867919185
867921333 867921350
867923653 867923670
867925825 867925842
867928030 867928047
867930171 867930188
867930672 867930690
867931817 867931835
867932490 867932507
867932512 867932529
867934694 867934711
867937085 867937102
867939495 867939512
867942626 867942643
867946033 867946050
867949826 867949843
867958890 867958907
867959136 867959153
867961453 867961472
867961718 867961735
867962490 867962507
867962926 867962943
867969544 867969561
867969976 867969993
867972346 867972363
867976553 867976570
867978973 867978990
867981707 867981724
867984078 867984095
867986468 867986485
867988622 867988639
867989061 867989078
867991013 867991030
867993215 867993232
867995556 867995573
867997710 867997727
868002212 868002229
868004592 868004609
868006754 868006771
868009067 868009084
868011231 868011248
868013443 868013460
868015596 868015613
868017807 868017824
868019951 868019968
868022321 868022338
868024661 868024678
868028475 868028492
868033056 868033073
868033068 868033085
868042440 868042457
868044397 868044416
868045357 868045374
868046526 868046543
868050422 868050439
868051149 868051166
868052119 868052136
868052126 868052143
868052130 868052147
868054192 868054209
868054197 868054214
868055271 868055288
868055293 868055310
868055300 868055317
868059479 868059496
868061483 868061500
868064059 868064076
868066893 868066910
868069236 868069253
868071645 868071662
868073947 868073964
868076298 868076315
868078578 868078595
868080950 868080967
868083220 868083237
868085601 868085618
868087903 868087920
868090322 868090339
868092506 868092523
868094746 868094763
868096928 868096945
868099289 868099306
868101473 868101490
868103833 868103850
868110904 868110921
868112074 868112091
868112851 868112868
868112861 868112878
868145032 868145049
868147516 868147533
868154206 868154223
868165179 868165196
868165305 868165322
868165328 868165345
868167979 868167996
868168182 868168199
868170612 868170629
868173415 868173432
868175796 868175813
868178293 868178310
868178317 868178334
868180627 868180644
868183125 868183142
868185387 868185404
868187843 868187860
868187865 868187882
868190138 868190155
868192782 868192799
868192805 868192822
868195284 868195301
868215679 868215696
868215798 868215815
868228648 868228665
868236894 868236911
868240102 868240119
868244467 868244484
868259503 868259520
868261943 868261960
868264719 868264736
868267108 868267125
868268535 868268552
868269803 868269820
868269826 868269843
868272207 868272224
868273115 868273132
868274968 868274985
868274990 868275007
868276232 868276249
868277391 868277408
868307451 868307468
868313866 868313883
868314626 868314646
868314633 868314651
868315647 868315664
868317114 868317131
868317468 868317485
868317725 868317742
868318731 868318748
868318741 868318758
868318798 868318815
868322055 868322072
868323300 868323317
868324223 868324240
868324610 868324627
868324615 868324632
868324622 868324639
868330696 868330713
868330846 868330863
868333985 868334002
868336347 868336364
868339140 868339157
868341501 868341518
868344001 868344018
868347511 868347528
868348801 868348818
868351062 868351079
868352113 868352130
868353563 868353580
868355863 868355880
868358342 868358359
868360564 868360581
868363034 868363051
868365256 868365273
868367974 868367991
868370478 868370495
868370502 868370519
868381472 868381489
868385944 868385964
868387454 868387472
868387782 868387799
868405590 868405607
868407029 868407046
868420075 868420092
868420231 868420248
868422949 868422966
868425238 868425255
868427707 868427724
868429908 868429925
868429930 868429947
868432389 868432406
868433430 868433447
868437102 868437119
868441890 868441907
868444163 868444180
868446850 868446867
868448251 868448268
868449102 868449119
868451590 868451607
868453832 868453849
868454849 868454866
868456894 868456911
868459581 868459598
868462271 868462288
868467965 868467982
868468018 868468035
868468022 868468040
868468050 868468068
868468066 868468083
868468080 868468097
868468095 868468113
868470346 868470363
868471205 868471222
868471275 868471292
868473734 868473751
868475321 868475338
868476193 868476210
868478960 868478977
868479562 868479579
868481420 868481437
868484284 868484301
868486522 868486539
868486544 868486561
868489312 868489329
868491780 868491797
868494545 868494562
868496806 868496823
868499346 868499363
868504076 868504093
868506379 868506396
868508915 868508932
868511177 868511194
868513648 868513665
868515958 868515975
868518446 868518463
868520708 868520725
868523169 868523186
868525519 868525536
868527975 868527992
868527997 868528014
868530280 868530297
868535048 868535065
868535070 868535087
868537495 868537512
868537589 868537606
868538365 868538382
868539391 868539408
868539403 868539420
868539990 868540007
868556770 868556787
868558992 868559009
868559100 868559117
868561596 868561613
868561618 868561635
868563871 868563888
868566331 868566348
868568671 868568688
868569696 868569713
868571161 868571178
868572435 868572452
868573422 868573439
868575931 868575948
868578214 868578231
868580800 868580817
868583051 868583068
868595142 868595159
868597383 868597400
868599810 868599827
868599832 868599849
868602094 868602111
868606963 868606980
868609453 868609470
868611774 868611791
868614252 868614269
868616482 868616499
868616504 868616521
868618944 868618961
868621287 868621304
868622463 868622480
868626017 868626034
868651220 868651237
868651242 868651259
868652377 868652394
868654186 868654203
868655647 868655664
868665701 868665718
868674346 868674363
868676715 868676732
868679205 868679222
868686344 868686361
868689070 868689087
868693939 868693956
868696179 868696196
868696201 868696218
868697112 868697129
868698672 868698689
868700950 868700967
868700972 868700989
868703451 868703468
868710563 868710580
868713041 868713058
868752557 868752574
868754927 868754944
868764074 868764091
868766383 868766400
868768547 868768564
868769070 868769087
868770790 868770807
868772944 868772961
868775184 868775201
868777336 868777353
868781752 868781769
868784005 868784022
868786155 868786172
868786178 868786195
868788399 868788416
868790582 868790599
868797169 868797186
868799332 868799349
868801703 868801720
868804025 868804042
868806919 868806936
868809634 868809651
868811743 868811760
868849280 868849297
868851637 868851654
868851660 868851677
868854157 868854174
868857542 868857559
868858919 868858936
868861180 868861197
868867402 868867419
868868034 868868051
868870306 868870323
868872666 868872683
868874829 868874846
868877171 868877188
868879311 868879328
868879335 868879352
868881703 868881720
868893467 868893484
868893860 868893877
868895870 868895887
868896065 868896082
868896824 868896841
868897468 868897485
868898122 868898139
868901151 868901168
868911855 868911872
868911879 868911896
868914337 868914354
868921779 868921797
868922501 868922518
868923760 868923777
868929321 868929338
868931689 868931706
868934129 868934146
868936460 868936477
868936750 868936767
868938830 868938847
868941122 868941139
868943374 868943391
868945674 868945691
868950298 868950315
868952647 868952664
868954811 868954828
868957182 868957199
868959374 868959391
868961735 868961752
868961762 868961779
868963907 868963924
868966279 868966296
868968461 868968478
868977845 868977862
868980708 868980725
868983494 868983511
868986984 868987001
868987011 868987028
868987037 868987054
869006882 869006899
869007296 869007313
869008015 869008032
869009251 869009268
869011660 869011677
869013983 869014000
869016380 869016397
869016402 869016419
869018694 869018711
869021074 869021091
869023323 869023340
869023347 869023364
869025678 869025695
869026364 869026381
869026372 869026389
869027302 869027319
869027848 869027865
869030189 869030206
869032462 869032479
869034684 869034701
869036814 869036831
869036838 869036855
869041232 869041249
869043454 869043471
869045606 869045623
869047848 869047865
869049992 869050009
869052079 869052096
869052225 869052242
869054369 869054386
869056601 869056618
869058773 869058790
869059891 869059908
869066140 869066157
869066716 869066733
869107652 869107669
869109983 869110000
869112602 869112619
869114943 869114960
869117381 869117398
869119671 869119688
869124267 869124284
869125162 869125179
869126624 869126641
869128887 869128904
869131257 869131274
869133452 869133469
869135670 869135687
869135692 869135709
869137864 869137881
869140068 869140085
869150931 869150948
869154231 869154248
869155283 869155300
869175081 869175098
869193500 869193517
869195990 869196007
869198903 869198920
869201382 869201399
869201975 869201992
869203931 869203948
869206438 869206455
869216020 869216037
869218350 869218367
869220529 869220546
869220553 869220570
869222853 869222870
869224322 869224339
869224947 869224964
869227230 869227247
869229322 869229339
869234173 869234190
869238173 869238190
869241334 869241351
869244504 869244521
869279339 869279356
869279495 869279512
869282745 869282762
869288067 869288084
869288090 869288107
869288620 869288637
869290767 869290784
869293413 869293430
869295960 869295977
869305926 869305943
869308484 869308501
869310696 869310713
869313285 869313302
869315493 869315510
869315517 869315534
869318124 869318141
869318484 869318501
869318772 869318789
869322418 869322435
869359127 869359144
869374654 869374671
869377251 869377268
869393201 869393218
869397815 869397832
869400382 869400399
869408888 869408905
869409113 869409130
869409120 869409137
869411251 869411268
869411663 869411680
869415813 869415830
869416028 869416045
869416074 869416091
869422525 869422542
869437588 869437605
869437594 869437611
869460645 869460662
869476293 869476310
869476317 869476334
869481640 869481657
869484374 869484391
869490613 869490630
869501503 869501520
869501522 869501539
869505324 869505341
869506449 869506466
869509019 869509036
869513625 869513642
869514240 869514257
869555783 869555800
869569795 869569812
869584134 869584151
869597851 869597868
869600238 869600255
869601656 869601673
869606775 869606792
869654347 869654364
869656994 869657011
869657401 869657418
869677127 869677144
869682762 869682779
869684419 869684436
869740393 869740410
869740416 869740433
869750597 869750614
869760195 869760212
869761613 869761630
869765338 869765355
869776164 869776181
869777667 869777684
869779061 869779079
869779072 869779090
869780064 869780082
869780939 869780956
869816853 869816870
869816858 869816875
869841224 869841241
869871770 869871787
869873105 869873122
869877701 869877718
869877706 869877723
869878374 869878391
869892014 869892031
869892176 869892194
869911660 869911677
869926515 869926532
869926567 869926584
869927018 869927035
869970028 869970045
869970176 869970193
869976921 869976938
869979428 869979445
869979450 869979467
869983047 869983064
869984574 869984591
869984596 869984613
869986767 869986784
869987204 869987221
869992597 869992614
869999758 869999775
870002650 870002667
870006502 870006520
870009158 870009175
870017164 870017181
870020022 870020039
870020098 870020115
870021154 870021171
870022487 870022504
870023205 870023222
870043850 870043867
870044685 870044702
870045110 870045129
870058370 870058387
870074632 870074649
870079994 870080011
870082554 870082571
870085494 870085511
870085516 870085533
870088014 870088031
870090661 870090678
870093211 870093228
870096173 870096190
870099403 870099420
870105822 870105839
870105863 870105880
870110345 870110362
870142426 870142443
870145340 870145357
870149714 870149731
870151992 870152009
870152016 870152033
870152321 870152338
870152933 870152950
870155205 870155222
870157814 870157831
870161033 870161050
870163482 870163499
870166425 870166442
870168708 870168725
870171294 870171311
870173784 870173801
870176343 870176360
870177013 870177031
870178841 870178858
870238508 870238525
870242385 870242402
870242408 870242425
870242564 870242581
870246153 870246170
870247127 870247144
870247560 870247577
870249804 870249821
870255345 870255362
870258347 870258364
870260828 870260845
870263571 870263588
870266102 870266119
870284679 870284696
870287464 870287481
870324317 870324334
870332313 870332330
870335227 870335244
870339484 870339501
870341960 870341977
870341984 870342001
870344315 870344332
870345194 870345211
870347780 870347797
870350685 870350702
870356000 870356017
870356026 870356043
870362517 870362534
870365915 870365932
870370047 870370064
870374476 870374493
870410802 870410819
870430110 870430127
870430132 870430149
870430258 870430275
870430281 870430298
870434488 870434505
870437460 870437477
870447075 870447092
870452532 870452549
870453049 870453066
870461028 870461045
870462385 870462402
870476815 870476832
870511961 870511978
870512108 870512125
870513114 870513131
870517018 870517035
870519859 870519876
870519881 870519898
870521989 870522006
870550588 870550605
870558583 870558600
870581655 870581672
870590626 870590643
870604705 870604722
870671431 870671448
870672367 870672384
870691586 870691603
870692559 870692576
870698124 870698141
870699245 870699262
870762242 870762259
870791428 870791445
870791638 870791655
870809499 870809516
870843394 870843411
870847775 870847792
870927688 870927705
870951261 870951278
870951412 870951429
870955854 870955871
870959203 870959220
870966733 870966750
870996197 870996214
870996203 870996220
870996213 870996230
871012196 871012213
871017857 871017874
871021499 871021516
871051853 871051870
871097402 871097419
871097550 871097567
871099226 871099243
871138249 871138266
871138824 871138841
871185192 871185209
871189593 871189610
871210725 871210742
871224466 871224483
871284511 871284528
871285446 871285463
871314788 871314805
871315282 871315299
871462389 871462406
871481689 871481706
871507848 871507865
871507858 871507875
871535464 871535481
871543213 871543230
871562546 871562563
871568685 871568702
871576715 871576732
871610729 871610746
871647724 871647741
871647849 871647866
871647873 871647890
871655738 871655755
871664353 871664370
871783730 871783747
871785902 871785919
871788589 871788606
871791610 871791627
871793962 871793979
871796638 871796655
871798940 871798957
871801359 871801376
871803523 871803540
871808066 871808083
871810383 871810400
871810405 871810422
871812549 871812566
871814802 871814819
871816944 871816961
871819186 871819203
871821320 871821337
871823691 871823708
871826020 871826037
871873083 871873100
871873814 871873831
871875641 871875658
871878038 871878055
871878061 871878078
871880351 871880368
871882722 871882739
871884914 871884931
871887237 871887254
871889409 871889426
871891691 871891708
871893883 871893900
871896092 871896109
871896116 871896133
871898236 871898253
871898260 871898277
871900452 871900469
871902624 871902641
871904836 871904853
871906990 871907007
871909298 871909315
871909321 871909338
871911513 871911530
871959060 871959077
871961410 871961427
871964027 871964044
871966276 871966293
871966300 871966317
871968747 871968764
871970893 871970910
871977776 871977793
871979920 871979937
871982151 871982168
871984294 871984311
871986486 871986503
871988050 871988067
871988630 871988647
871990812 871990829
871992946 871992963
871995129 871995146
872002101 872002118
872009580 872009598
872033202 872033219
872046241 872046258
872048809 872048826
872051534 872051551
872053865 872053882
872056305 872056322
872058596 872058613
872059772 872059789
872060708 872060725
872060977 872060994
872063258 872063275
872065599 872065616
872067771 872067788
872070080 872070097
872070104 872070121
872072266 872072283
872074637 872074654
872076791 872076808
872079139 872079156
872081303 872081320
872083663 872083680
872085863 872085880
872085885 872085902
872088297 872088314
872089723 872089740
872090933 872090950
872094968 872094985
872101266 872101283
872108508 872108525
872113284 872113301
872113956 872113973
872125353 872125370
872127764 872127781
872130251 872130268
872132593 872132610
872134972 872134989
872137264 872137281
872139614 872139631
872141796 872141813
872144167 872144184
872146379 872146396
872148740 872148757
872153293 872153310
872153670 872153687
872155457 872155474
872157836 872157853
872160000 872160017
872162212 872162229
872164333 872164350
872164356 872164373
872166589 872166606
872168752 872168769
872171110 872171127
872173461 872173478
872176283 872176300
872176307 872176324
872181874 872181891
872198041 872198058
872198813 872198830
872201681 872201698
872201692 872201709
872208900 872208917
872211210 872211227
872213827 872213844
872216106 872216123
872216128 872216145
872218489 872218506
872220741 872220758
872223082 872223099
872225255 872225272
872227488 872227505
872229627 872229644
872229651 872229668
872234164 872234181
872236377 872236394
872238531 872238548
872240743 872240760
872242885 872242902
872245087 872245104
872247241 872247258
872248458 872248475
872249443 872249460
872251607 872251624
872255963 872255980
872258343 872258360
872267164 872267181
872272456 872272473
872284850 872284867
872285865 872285882
872286115 872286132
872297038 872297055
872299360 872299377
872301954 872301971
872301978 872301995
872304287 872304304
872306658 872306675
872308660 872308677
872308831 872308848
872311181 872311198
872313335 872313352
872315658 872315675
872317820 872317837
872320191 872320208
872322334 872322351
872324546 872324564
872324552 872324569
872324562 872324580
872326709 872326726
872328907 872328924
872328931 872328948
872331085 872331102
872333295 872333312
872335459 872335476
872337680 872337697
872339834 872339851
872342046 872342063
872378801 872378818
872393051 872393068
872393199 872393216
872395048 872395065
872396035 872396052
872398455 872398472
872401002 872401019
872403244 872403261
872405682 872405699
872405705 872405722
872407945 872407962
872412658 872412675
872415098 872415115
872417339 872417356
872419789 872419806
872422059 872422076
872426930 872426947
872429428 872429445
872439108 872439125
872475267 872475284
872475417 872475434
872478291 872478308
872480726 872480743
872480748 872480765
872483456 872483473
872483467 872483484
872485847 872485864
872488601 872488618
872490952 872490969
872493578 872493595
872495909 872495926
872498369 872498386
872500611 872500628
872503072 872503089
872505382 872505399
872507831 872507848
872523320 872523337
872555468 872555485
872555594 872555611
872555616 872555633
872558551 872558568
872560998 872561015
872563686 872563703
872570954 872570971
872573425 872573442
872578204 872578221
872580477 872580494
872585187 872585204
872589869 872589886
872592325 872592342
872592348 872592365
872594599 872594616
872597120 872597137
872599440 872599457
872639333 872639350
872640803 872640820
872642068 872642085
872642552 872642569
872647116 872647133
872649358 872649375
872651826 872651843
872654068 872654085
872656568 872656585
872658829 872658846
872661318 872661335
872663592 872663609
872666128 872666145
872668420 872668437
872670872 872670890
872670884 872670901
872670939 872670956
872673219 872673236
872673373 872673390
872675760 872675777
872676533 872676550
872678219 872678236
872680689 872680706
872683038 872683055
872685477 872685494
872687717 872687734
872687739 872687756
872690447 872690464
872692850 872692867
872692877 872692894
872700439 872700456
872700461 872700478
872704091 872704108
872706697 872706714
872706717 872706734
872707612 872707630
872707841 872707866
872709215 872709232
872709342 872709359
872727178 872727195
872727303 872727320
872727325 872727342
872747800 872747817
872750270 872750287
872752512 872752529
872755022 872755039
872759684 872759701
872761964 872761981
872764414 872764431
872766646 872766663
872771074 872771092
872771080 872771097
872771327 872771344
872773838 872773855
872775097 872775114
872775128 872775145
872775773 872775790
872776177 872776194
872781829 872781846
872789160 872789177
872822787 872822804
872822935 872822952
872825778 872825795
872825996 872826013
872828406 872828423
872830887 872830904
872833265 872833282
872835932 872835949
872838265 872838282
872840723 872840740
872842955 872842972
872844880 872844897
872845425 872845442
872847725 872847742
872850145 872850162
872852398 872852415
872854877 872854894
872859509 872859526
872861741 872861758
872864857 872864874
872871445 872871462
872893471 872893488
872900300 872900317
872914796 872914813
872914931 872914948
872914953 872914970
872918042 872918059
872918064 872918081
872920474 872920491
872923280 872923297
872925671 872925688
872928435 872928452
872930687 872930704
872933156 872933173
872935497 872935514
872937975 872937992
872940186 872940203
872940209 872940226
872942637 872942654
872972981 872972998
872973616 872973633
872974035 872974052
872974745 872974762
872979416 872979433
872982051 872982068
872982073 872982090
872984826 872984843
872984850 872984867
872987180 872987197
872989619 872989636
872991942 872991959
872992975 872992992
872994400 872994417
872996573 872996590
873003474 873003491
873003498 873003515
873005690 873005707
873007920 873007937
873010104 873010121
873014617 873014634
873016930 873016947
873019101 873019118
873021325 873021342
873023478 873023495
873025817 873025834
873027979 873027996
873030330 873030347
873032514 873032531
873037166 873037183
873040422 873040439
873040446 873040463
873044711 873044728
873052625 873052642
873077661 873077678
873080288 873080305
873083014 873083031
873083465 873083482
873085365 873085382
873090085 873090102
873091098 873091119
873092475 873092492
873094748 873094765
873097177 873097194
873099369 873099386
873106312 873106329
873108485 873108502
873110865 873110882
873113019 873113036
873115261 873115278
873115797 873115814
873117423 873117440
873119655 873119672
873147518 873147535
873162491 873162508
873167537 873167554
873169928 873169945
873172575 873172592
873174896 873174913
873176903 873176920
873177256 873177273
873179451 873179468
873181860 873181877
873184033 873184050
873186411 873186428
873190954 873190971
873193128 873193145
873195469 873195486
873197643 873197660
873199883 873199900
873202037 873202054
873204398 873204415
873206334 873206351
873206667 873206684
873206689 873206706
873209086 873209103
873209108 873209125
873211548 873211565
873221941 873221958
873243155 873243172
873251361 873251378
873253691 873253708
873254519 873254536
873256123 873256140
873258284 873258301
873260615 873260632
873262829 873262846
873265168 873265185
873267361 873267378
873269702 873269719
873271884 873271901
873276319 873276336
873278632 873278649
873280802 873280819
873283114 873283131
873285307 873285324
873287550 873287567
873289711 873289728
873294156 873294173
873296615 873296632
873298976 873298993
873301752 873301769
873304829 873304846
873307792 873307809
873338324 873338341
873339061 873339078
873341393 873341410
873343880 873343897
873346211 873346228
873348573 873348590
873350715 873350732
873353076 873353093
873355230 873355247
873357591 873357608
873359732 873359749
873362053 873362070
873366429 873366446
873368582 873368599
873370776 873370793
873372918 873372935
873375100 873375117
873377312 873377329
873379484 873379501
873379507 873379524
873379755 873379772
873381511 873381528
873381797 873381814
873396295 873396312
873422223 873422240
873440219 873440236
873442401 873442418
873444555 873444572
873448860 873448877
873451032 873451049
873453186 873453203
873455398 873455415
873457532 873457549
873459763 873459780
873476140 873476157
873495576 873495593
873508218 873508235
873509268 873509286
873511131 873511148
873513480 873513497
873513502 873513519
873520541 873520558
873520564 873520581
873520923 873520940
873522825 873522842
873525156 873525173
873527341 873527358
873529712 873529729
873531882 873531899
873534062 873534079
873534086 873534103
873536228 873536245
873538428 873538445
873538452 873538469
873540606 873540623
873542836 873542853
873544976 873544993
873545000 873545017
873547231 873547248
873553800 873553817
873556574 873556591
873557792 873557809
873557800 873557817
873595633 873595650
873614970 873614987
873662759 873662776
873663618 873663635
873731975 873731992
873732247 873732264
873732688 873732705
873733007 873733024
873733031 873733048
873733880 873733897
873781224 873781244
873781237 873781254
873830908 873830925
873875346 873875363
873875493 873875510
873879967 873879984
873882632 873882649
873882654 873882671
873890790 873890807
873890812 873890829
873895721 873895738
873898701 873898718
873898725 873898742
873908086 873908103
873910034 873910051
873940236 873940253
873952222 873952239
873953432 873953449
873953581 873953598
873957985 873958002
873960485 873960502
873963200 873963217
873965471 873965488
873968089 873968106
873972920 873972937
873975082 873975099
873977493 873977510
873979685 873979702
873979771 873979788
873982294 873982311
873983383 873983400
873984554 873984571
873987900 873987917
873987922 873987939
873990649 873990666
874004742 874004759
874012423 874012440
874013388 874013405
874033792 874033809
874033948 874033965
874037949 874037966
874040498 874040515
874043213 874043230
874045465 874045482
874048132 874048149
874050375 874050392
874055352 874055369
874056294 874056311
874058029 874058046
874060271 874060288
874062828 874062845
874065090 874065107
874065488 874065505
874065501 874065518
874065560 874065577
874066590 874066607
874067679 874067696
874068921 874068938
874069911 874069928
874073207 874073224
874073230 874073247
874073878 874073895
874074837 874074854
874074870 874074887
874076054 874076071
874083270 874083287
874083503 874083520
874083541 874083558
874083648 874083665
874083656 874083673
874083752 874083769
874084694 874084711
874088919 874088936
874089003 874089020
874093950 874093967
874096077 874096094
874096233 874096250
874096238 874096255
874154491 874154508
874156802 874156819
874161391 874161408
874216445 874216462
874216593 874216610
874221028 874221045
874223184 874223201
874223616 874223633
874229492 874229509
874232505 874232522
874234865 874234882
874237631 874237648
874244961 874244978
874260918 874260935
874260948 874260965
874261587 874261604
874262052 874262069
874266389 874266406
874276482 874276499
874291628 874291645
874300656 874300673
874303235 874303252
874306860 874306877
874309386 874309403
874312617 874312634
874324844 874324861
874327461 874327478
874337394 874337411
874381725 874381742
874381873 874381890
874386456 874386473
874389054 874389071
874392510 874392527
874394861 874394878
874400471 874400488
874403940 874403957
874406230 874406247
874406791 874406808
874406866 874406883
874409222 874409239
874411524 874411541
874414556 874414573
874416858 874416875
874430061 874430078
874438916 874438933
874442960 874442977
874466072 874466089
874493808 874493825
874496406 874496423
874601394 874601411
874605852 874605869
874608929 874608946
874624420 874624437
874655350 874655367
874667257 874667274
874696282 874696299
874726660 874726677
874731575 874731592
874731692 874731709
874809113 874809130
874824343 874824360
874827699 874827716
874832134 874832151
874834740 874834757
874834762 874834779
874838624 874838641
874841152 874841169
874844134 874844151
874887093 874887110
874903987 874904004
874912956 874912973
874915414 874915431
874919840 874919857
874921636 874921653
874922290 874922307
874926931 874926948
874929123 874929140
874932906 874932923
874943842 874943859
874944555 874944572
874958694 874958711
874991307 874991324
874997637 874997654
874999882 874999899
875003267 875003284
875008532 875008549
875010794 875010811
875013529 875013546
875040303 875040320
875070478 875070495
875072890 875072907
875073196 875073213
875078795 875078812
875081273 875081290
875091803 875091820
875094607 875094624
875096838 875096855
875099436 875099453
875101648 875101665
875104098 875104115
875106310 875106327
875109067 875109084
875111595 875111612
875118641 875118658
875118752 875118769
875119714 875119731
875121911 875121928
875124957 875124974
875125986 875126003
875132982 875132999
875142945 875142962
875180978 875180995
875197293 875197310
875198029 875198046
875201685 875201702
875202539 875202556
875209220 875209237
875217610 875217627
