832789137 832789154
832880340 832880357
832883083 832883100
832883205 832883222
832883284 832883301
832883355 832883372
832883486 832883503
832883591 832883608
832883686 832883703
832883748 832883765
832883801 832883818
832883993 832884010
832884441 832884458
832884631 832884648
832884770 832884787
832884831 832884849
832884849 832884866
832884868 832884885
832884932 832884949
832884998 832885015
832885075 832885092
832885126 832885143
832885204 832885221
832890186 832890203
833237523 833237540
833237608 833237625
833238002 833238019
834789211 834789228
834789327 834789344
834789446 834789463
834789619 834789636
834789823 834789840
834789855 834789872
834789893 834789910
834789947 834789964
834789974 834789991
834789995 834790012
834790034 834790051
834790048 834790065
834790058 834790075
834790091 834790108
834790115 834790132
834790195 834790212
834790226 834790243
834790277 834790294
834790311 834790328
834790322 834790339
834790362 834790379
834790408 834790426
834790531 834790548
834790565 834790582
834790619 834790636
834790678 834790695
834790696 834790713
834790725 834790742
834790742 834790759
834790749 834790766
835046037 835046054
835046090 835046107
835046164 835046181
835046278 835046295
835046426 835046443
835046505 835046522
835887267 835887284
835887290 835887307
835887316 835887333
835887340 835887357
835887351 835887368
835887376 835887393
835887403 835887420
835887441 835887458
835887491 835887508
835887553 835887570
835887687 835887704
835887784 835887801
835887919 835887936
835888552 835888569
835888639 835888656
835888765 835888782
835888851 835888868
835888918 835888935
835889315 835889332
835890601 835890618
835891159 835891176
835891210 835891227
835891325 835891342
835978059 835978076
836061858 836061875
836062272 836062289
836062351 836062368
836064279 836064296
836064380 836064397
836066242 836066259
836066443 836066460
836066791 836066808
836067342 836067359
836154164 836154181
836154242 836154259
836154254 836154271
836154293 836154310
836156390 836156407
836156647 836156664
836157275 836157292
836157791 836157808
836157883 836157900
836158059 836158076
836158232 836158249
836158247 836158264
836158700 836158717
836160560 836160577
836161767 836161784
836169815 836169832
836426835 836426852
836518004 836518021
836518097 836518114
836518161 836518178
836518207 836518224
836518264 836518281
836518362 836518379
836518458 836518475
836518517 836518534
836518805 836518822
836519166 836519183
836519276 836519293
836519821 836519838
836520309 836520326
836520658 836520675
836574027 836574044
836574109 836574126
836574158 836574175
836574217 836574234
836574265 836574282
836574297 836574314
836574337 836574354
836574372 836574389
836574426 836574443
836574553 836574571
836574835 836574852
836574964 836574981
836863270 836863287
836863310 836863327
836863338 836863355
836863380 836863397
836863415 836863432
836863479 836863496
836863583 836863600
836863624 836863642
836863664 836863681
836863731 836863748
836863775 836863792
836863836 836863853
836863867 836863884
836863909 836863926
836864023 836864040
836864104 836864121
836864430 836864447
836864556 836864573
836864576 836864593
836864711 836864728
836864982 836864999
836951918 836951935
837114389 837114406
837114450 837114467
837114512 837114529
837121363 837121380
837379524 837379541
837379621 837379638
837380009 837380026
837380090 837380107
837465713 837465730
837465796 837465813
837466361 837466378
837466380 837466397
837466849 837466866
837467052 837467069
837467229 837467246
837467265 837467282
837467409 837467426
837467582 837467599
837467633 837467650
837467680 837467697
837467719 837467736
837467727 837467744
837467831 837467848
837467865 837467882
837468082 837468099
837468104 837468121
837468116 837468133
837468171 837468188
837468260 837468277
837468309 837468326
837468332 837468349
837468340 837468357
837468364 837468381
837468374 837468391
837468425 837468442
837468454 837468471
837468486 837468503
837656962 837656979
837657790 837657807
837795982 837795999
837796428 837796445
837796514 837796531
837796645 837796662
837797194 837797211
837798696 837798713
837827128 837827145
838159211 838159228
838159253 838159270
838159325 838159342
838159373 838159390
838159397 838159414
838159477 838159494
838159534 838159551
838159735 838159752
838159891 838159908
838160406 838160423
838160484 838160501
838160509 838160526
838160527 838160544
838160551 838160568
838160587 838160604
838160606 838160623
838160630 838160647
838160668 838160685
838160704 838160721
838160735 838160752
838160771 838160788
838160807 838160824
838160862 838160879
838161576 838161593
838161669 838161686
838161840 838161857
838161890 838161907
838161989 838162006
838162729 838162746
838246114 838246131
838248234 838248251
838326100 838326117
838327852 838327869
838327921 838327938
838328151 838328168
838414767 838414784
838416103 838416120
838416363 838416380
838416432 838416449
838416629 838416646
838420698 838420715
838421192 838421209
838421462 838421479
838421584 838421601
838421608 838421625
838423389 838423406
838442691 838442708
838446154 838446171
838446820 838446837
838508782 838508799
838509242 838509259
838509272 838509289
838509282 838509299
838509302 838509319
838509349 838509366
838509379 838509396
838509476 838509493
838509767 838509784
838510008 838510025
838764158 838764175
838764345 838764362
838764632 838764649
838764799 838764816
838764884 838764901
838764962 838764979
838765005 838765022
838765050 838765067
838765131 838765148
838765336 838765353
838838602 838838619
838838619 838838636
838838677 838838694
838838776 838838793
838838798 838838815
838838919 838838936
838838980 838838997
838839046 838839063
838839289 838839306
838839479 838839496
838839587 838839604
838839603 838839620
838839614 838839631
838839640 838839657
838839653 838839670
838839695 838839712
838839822 838839839
838839888 838839905
838841457 838841474
838841482 838841499
838841498 838841515
838841527 838841544
838841558 838841575
838841570 838841587
838841619 838841636
838841674 838841691
838841790 838841807
838841902 838841919
838841920 838841937
838841929 838841946
838842003 838842020
838842056 838842073
838842073 838842090
838842116 838842133
838842209 838842226
838842351 838842368
838842438 838842455
838842449 838842466
838842460 838842477
838842695 838842712
838843125 838843142
839017831 839017848
839018743 839018760
839019029 839019046
839019134 839019151
839019336 839019353
839019664 839019681
839019697 839019714
839019780 839019797
839019811 839019828
839019834 839019851
839021319 839021336
839021354 839021371
839021389 839021406
839021463 839021480
839021476 839021493
839022544 839022561
839022633 839022650
839022680 839022698
839022713 839022730
839022748 839022765
839022788 839022805
839023234 839023251
839023296 839023313
839023409 839023426
839191473 839191490
839198732 839198749
839200836 839200853
839202352 839202369
839443712 839443729
839443807 839443824
839444131 839444148
839444197 839444214
839788134 839788151
839790469 839790486
839791192 839791209
839791208 839791225
839791223 839791240
839791254 839791271
840476304 840476321
840476369 840476386
840476512 840476529
840573850 840573867
840575441 840575458
840575694 840575711
840575829 840575846
840575930 840575947
840576110 840576127
840576831 840576848
840577009 840577026
840577186 840577203
840577297 840577314
840754552 840754569
840755675 840755692
840755946 840755963
840756150 840756167
842208910 842208927
842557837 842557854
842558210 842558227
842558340 842558357
842558702 842558719
842558881 842558898
842560176 842560193
842627654 842627671
842627955 842627972
842628005 842628022
842628094 842628111
842628121 842628138
842628258 842628275
842628329 842628346
842628526 842628543
842629496 842629513
842630719 842630736
842630788 842630805
842630909 842630926
843005485 843005502
843079735 843079752
843079979 843079996
843080013 843080030
843080532 843080549
843129796 843129813
846877080 846877097
846877197 846877214
846878627 846878644
846878950 846878967
846879668 846879685
