832497349 832497366
832884779 832884796
832884914 832884932
832953929 832953946
834053042 834053059
834484044 834484061
834511495 834511512
834789328 834789345
834789446 834789463
835137398 835137415
835402451 835402468
835887441 835887458
835887687 835887704
835887784 835887801
835888552 835888569
835888761 835888778
835888918 835888935
835889315 835889332
835976606 835976623
835977246 835977263
835977525 835977542
836014667 836014684
836064279 836064296
836066532 836066549
836141223 836141240
836156391 836156408
836156914 836156931
836157883 836157900
836158059 836158076
836158248 836158265
836158701 836158718
836159070 836159087
836174856 836174873
836575036 836575053
836576325 836576342
837106272 837106289
837108315 837108332
837114341 837114358
837120393 837120410
837120653 837120670
837120965 837120982
837122083 837122100
837379028 837379045
837465264 837465281
837465796 837465813
837466849 837466866
837467265 837467282
837468442 837468459
837644030 837644047
837656962 837656979
837657299 837657316
837657790 837657807
837827128 837827145
837828587 837828604
838159211 838159228
838159325 838159342
838159373 838159390
838159397 838159414
838159632 838159649
838416170 838416187
838416432 838416449
838423390 838423407
838647876 838647893
838687425 838687442
838687445 838687462
838690853 838690870
838839492 838839509
838839799 838839816
838839888 838839905
838842438 838842455
838849956 838849973
839198732 839198749
839804557 839804574
840577297 840577314
840755946 840755963
840880227 840880244
841334790 841334807
842208910 842208927
842558211 842558228
842627129 842627146
842630788 842630805
842630909 842630926
842631084 842631101
842633249 842633266
842634802 842634819
843079682 843079699
844040078 844040095
844268494 844268511
845007778 845007795
845583268 845583285
845730772 845730789
846877010 846877027
846877409 846877426
846877619 846877636
846878051 846878068
846878140 846878157
846878627 846878644
846878875 846878892
846879668 846879685
846879823 846879840
846880032 846880049
