847614943 847614960
847615127 847615144
847616643 847616660
847620208 847620225
847620457 847620474
847622054 847622071
847622207 847622224
847622476 847622494
847622569 847622586
847622658 847622675
847622761 847622778
847622944 847622961
847623028 847623045
847623047 847623064
847623099 847623116
847623159 847623176
847623324 847623341
847623608 847623625
847623639 847623656
847623686 847623704
847623729 847623746
847623758 847623775
847623810 847623827
847623909 847623926
847623963 847623980
847624081 847624098
847624147 847624164
847624371 847624388
847624920 847624937
847625141 847625158
847728820 847728837
847763901 847763918
847768199 847768216
847770342 847770359
847772534 847772551
847774666 847774683
847776800 847776817
847778915 847778932
847781067 847781084
847783171 847783188
847787428 847787445
847789570 847789587
847791694 847791711
847793876 847793893
847796000 847796017
847798123 847798140
847800237 847800254
847802380 847802397
847804484 847804501
847804597 847804614
847847999 847848016
847854648 847854665
847865659 847865676
847896119 847896136
847920297 847920316
847947383 847947400
848017753 848017770
848019988 848020005
848039959 848039976
848100094 848100111
848209823 848209840
848220908 848220925
848291705 848291722
848348974 848348991
848350038 848350055
848359451 848359468
848365869 848365886
848370234 848370251
848379094 848379111
848387935 848387952
848396696 848396713
848422929 848422946
848467889 848467906
848509499 848509516
848526277 848526294
848541283 848541300
848571526 848571543
848631982 848631999
848656398 848656415
848676241 848676258
848678425 848678442
848721666 848721683
848730307 848730324
848734682 848734699
848823568 848823585
848823600 848823617
848827916 848827933
848832232 848832249
848836548 848836565
848840874 848840891
848885442 848885459
848905699 848905716
848909778 848909795
848913768 848913785
848921788 848921805
848941719 848941736
848945709 848945726
848949719 848949736
848953709 848953726
849045494 849045511
849075153 849075170
849085485 849085502
849095995 849096012
849392366 849392383
849465721 849465738
849502195 849502212
849548863 849548880
849940259 849940276
849953307 849953324
850030647 850030664
850069534 850069551
850090482 850090499
850186101 850186118
850204382 850204399
850280977 850280994
850332605 850332622
850372259 850372276
850390966 850390983
850430455 850430472
850439007 850439024
850440658 850440675
850473883 850473900
850568435 850568452
850594006 850594023
850623617 850623634
850649879 850649896
850663273 850663290
850664849 850664866
850665251 850665268
850665486 850665503
850684291 850684308
850688479 850688496
850696696 850696713
850708894 850708911
850710250 850710267
850712873 850712890
850716963 850716980
850729062 850729079
850735607 850735624
850757448 850757465
850759336 850759353
850765478 850765495
850771859 850771876
850773343 850773360
850781559 850781576
850784378 850784395
850785658 850785675
850786583 850786600
850787208 850787225
850787589 850787606
850788366 850788383
850789508 850789525
850789674 850789691
850789826 850789843
850790449 850790466
850790586 850790603
850793914 850793931
850798092 850798109
850798370 850798387
850798754 850798771
850799422 850799439
850802360 850802377
850803451 850803468
850806437 850806454
850814813 850814830
850823190 850823207
850827437 850827454
850844494 850844511
850875022 850875039
850877056 850877073
850879141 850879158
850881235 850881252
850883338 850883355
850885462 850885479
850887614 850887631
850889767 850889784
850892009 850892026
850898587 850898604
850900779 850900796
850902993 850903010
850905184 850905201
850907366 850907383
850909631 850909648
850911841 850911858
850916275 850916292
850918450 850918467
850920692 850920709
850922903 850922920
850925155 850925172
850933747 850933764
850935881 850935898
850938006 850938023
850940129 850940146
850942233 850942250
850944287 850944304
850946342 850946359
850952785 850952802
850954898 850954915
850957022 850957039
850959116 850959133
850961249 850961266
850963373 850963390
850965505 850965522
850967661 850967678
850971977 850971994
850974159 850974176
850976350 850976367
850980717 850980734
850982871 850982888
850985053 850985070
850987224 850987241
850989407 850989424
850991619 850991636
850993823 850993840
850996007 850996024
850998227 850998244
851000379 851000396
851002553 851002570
851006969 851006986
851009151 851009168
851011313 851011330
851013497 851013514
851015669 851015686
851017851 851017868
851020046 851020063
851022189 851022206
851024401 851024418
851026603 851026620
851028815 851028832
851031017 851031034
851033182 851033199
851035364 851035381
851037547 851037564
851039709 851039726
851041881 851041898
851044075 851044092
851046247 851046264
851048450 851048467
851054988 851055005
851057161 851057178
851059306 851059323
851061437 851061454
851135957 851135974
851138189 851138206
851149532 851149549
851322277 851322294
851577246 851577263
851579853 851579870
851591694 851591711
851594303 851594320
851599568 851599585
851602026 851602043
851605107 851605124
851605287 851605304
851618304 851618321
851635489 851635506
851689061 851689078
851696035 851696052
851700726 851700743
851702927 851702944
851707432 851707449
851709674 851709691
851718730 851718747
851736519 851736536
851745656 851745673
851752441 851752458
851754744 851754761
851782209 851782226
851812967 851812984
851822005 851822022
851824247 851824264
851831050 851831067
851833254 851833271
851853284 851853301
851897868 851897885
851913236 851913253
851948370 851948387
851966833 851966850
851975304 851975321
851992048 851992065
851992687 851992704
851995639 851995656
852002382 852002399
852006317 852006334
852006940 852006957
852006989 852007006
852007268 852007285
852007619 852007636
852007809 852007826
852007987 852008004
852009853 852009870
852010128 852010145
852011302 852011319
852013271 852013288
852022535 852022552
852023904 852023921
852081007 852081024
852088334 852088351
852115111 852115128
852120285 852120302
852198357 852198374
852253235 852253252
852270686 852270703
852277806 852277823
852280138 852280155
852282252 852282269
852284861 852284878
852327844 852327861
852345673 852345690
852352586 852352603
852354858 852354875
852357188 852357205
852419900 852419917
852421925 852421942
852428011 852428028
852430152 852430169
852432246 852432263
852434399 852434416
852436541 852436558
852438705 852438722
852440879 852440896
852442973 852442990
852445038 852445055
852447180 852447197
852449293 852449310
852451407 852451424
852453510 852453527
852455574 852455591
852457648 852457665
852459743 852459760
852461817 852461834
852463872 852463889
852465984 852466001
852468049 852468066
852470182 852470199
852472236 852472253
852478419 852478436
852488720 852488737
852502587 852502604
852504514 852504531
852506468 852506485
852512673 852512690
852514727 852514744
852516880 852516897
852518993 852519010
852521077 852521094
852523151 852523168
852525234 852525251
852527358 852527375
852529441 852529458
852531535 852531552
852533681 852533698
852535772 852535789
852537856 852537873
852539972 852539989
852542017 852542034
852544081 852544098
852546144 852546161
852548209 852548226
852550283 852550300
852552406 852552423
852554538 852554555
852556603 852556620
852558826 852558843
852560861 852560878
852562965 852562982
852567014 852567031
852571062 852571079
852573086 852573103
852575121 852575138
852577155 852577172
852581285 852581302
852583319 852583336
852591496 852591513
852593561 852593578
852595586 852595603
852597581 852597598
852599526 852599543
852601552 852601569
852603537 852603554
852607506 852607523
852609523 852609540
852611528 852611545
852613521 852613538
852615546 852615563
852617571 852617588
852619607 852619624
852621632 852621649
852623637 852623654
852625701 852625718
852631705 852631722
852633739 852633756
852635715 852635732
852637817 852637834
852639774 852639791
852641946 852641963
852646213 852646230
852648329 852648346
852650756 852650773
852655795 852655812
852658421 852658438
852666935 852666952
852681591 852681608
852684149 852684166
852686609 852686626
852689009 852689026
852691479 852691496
852693838 852693855
852696270 852696287
852727577 852727594
852729760 852729777
852731944 852731961
852734107 852734124
852736604 852736621
852739074 852739091
852741888 852741905
852744773 852744790
852752171 852752188
852757642 852757659
852761455 852761472
852767332 852767349
852769829 852769846
852772536 852772553
852774975 852774992
852777327 852777344
852779530 852779547
852781731 852781748
852783874 852783891
852786037 852786054
852788211 852788228
852790393 852790410
852792783 852792800
852794997 852795014
852797207 852797224
852802096 852802113
852804299 852804316
852806778 852806795
852809001 852809018
852811440 852811457
852813920 852813937
852816370 852816387
852818591 852818608
852821061 852821078
852823568 852823585
852826067 852826084
852828872 852828889
852831726 852831743
852835154 852835171
852840615 852840632
852844428 852844445
852848746 852848763
852852388 852852405
852854967 852854985
852857426 852857443
852859934 852859951
852862404 852862421
852864884 852864901
852867342 852867359
852869781 852869798
852872201 852872218
852874404 852874421
852876884 852876901
852879105 852879122
852881278 852881295
852885633 852885650
852887667 852887684
852889793 852889810
852891984 852892001
852896310 852896327
852898523 852898540
852900695 852900712
852902888 852902905
852905830 852905847
852907303 852907320
852909801 852909818
852912340 852912357
852920558 852920575
852923028 852923045
852925159 852925176
852935699 852935716
852937801 852937818
852939906 852939923
852941991 852942008
852944182 852944199
852946305 852946322
852948449 852948466
852950611 852950628
852952766 852952783
852954947 852954964
852957112 852957129
852959333 852959350
852961409 852961426
852963778 852963795
852966011 852966028
852968251 852968268
852970445 852970462
852972648 852972665
852974889 852974906
852977180 852977197
852979384 852979401
852981486 852981503
852983698 852983715
852985821 852985838
852989980 852989997
852992083 852992100
852994187 852994204
852996332 852996349
853021932 853021949
853024056 853024073
853026129 853026146
853028193 853028210
853030217 853030234
853032293 853032310
853034417 853034434
853036548 853036565
853038672 853038689
853040786 853040803
853042869 853042886
853044884 853044901
853046908 853046925
853048993 853049010
853051097 853051114
853053182 853053199
853055265 853055282
853059423 853059440
853061458 853061475
853063503 853063520
853065527 853065544
853067572 853067589
853069617 853069634
853070599 853070616
853071731 853071748
853073833 853073850
853079937 853079954
853081951 853081968
853084005 853084022
853086101 853086118
853088183 853088200
853090278 853090295
853092411 853092428
853094495 853094512
853100619 853100636
853106761 853106778
853108856 853108873
853110929 853110946
853113033 853113050
853115117 853115134
853119285 853119302
853121349 853121366
853123432 853123449
853125516 853125533
853127571 853127588
853131731 853131748
853133783 853133800
853135907 853135924
853140055 853140072
853142070 853142087
853146159 853146176
853148233 853148250
853150318 853150335
853152381 853152398
853154455 853154472
853156510 853156527
853158584 853158601
853160648 853160665
853162653 853162670
853164716 853164733
853166743 853166760
853168806 853168823
853175083 853175100
853177208 853177225
853179301 853179318
853189651 853189668
853191775 853191792
853193867 853193884
853195971 853195988
853198076 853198093
853202304 853202321
853204417 853204434
853206473 853206490
853208556 853208573
853210649 853210666
853212773 853212790
853214856 853214873
853216920 853216937
853218974 853218991
853221059 853221076
853223152 853223169
853227291 853227308
853229375 853229392
853231507 853231524
853233633 853233650
853235736 853235753
853238018 853238035
853240151 853240168
853242293 853242310
853244466 853244483
853248694 853248711
853250808 853250825
853257158 853257175
853259251 853259268
853261365 853261382
853263488 853263505
853265592 853265609
853267708 853267725
853269811 853269828
853273999 853274016
853276082 853276099
853280269 853280286
853282392 853282409
853284466 853284483
853286571 853286588
853288659 853288676
853290734 853290751
853292846 853292863
853294921 853294938
853296975 853296992
853299068 853299085
853301143 853301160
853303287 853303304
853305421 853305438
853307535 853307552
853309667 853309684
853320335 853320352
853322457 853322474
853324620 853324637
853326694 853326711
853328788 853328805
853330962 853330979
853333026 853333043
853335159 853335176
853337233 853337250
853339326 853339343
853341390 853341407
853343465 853343482
853345560 853345577
853347612 853347629
853349706 853349723
853351721 853351738
853353706 853353723
853355703 853355720
853357686 853357703
853359672 853359689
853361667 853361684
853363673 853363690
853365747 853365764
853367860 853367877
853369915 853369932
853371959 853371976
853374052 853374069
853376157 853376174
853378259 853378276
853380334 853380351
853382410 853382427
853384524 853384541
853386617 853386634
853388601 853388618
853390615 853390632
853392640 853392657
853394655 853394672
853396671 853396688
853398686 853398703
853398845 853398862
853400709 853400726
853402704 853402721
853404719 853404736
853406744 853406761
853408798 853408815
853410813 853410830
853412810 853412827
853414874 853414891
853444660 853444677
853446884 853446901
853453164 853453181
853455269 853455286
853457402 853457419
853459507 853459524
853461589 853461606
853463683 853463700
853465779 853465796
853467862 853467879
853469974 853469991
853472049 853472066
853474122 853474139
853476228 853476245
853478301 853478318
853488779 853488796
853490845 853490862
853492948 853492965
853495327 853495344
853497413 853497430
853499545 853499562
853501897 853501914
854013042 854013059
854331553 854331570
854334693 854334710
854334849 854334866
854339487 854339504
854357563 854357580
854428302 854428319
854460865 854460882
854466965 854466982
854469057 854469074
854485958 854485975
854491354 854491371
854493458 854493475
854507893 854507910
854519411 854519428
854528792 854528809
854541005 854541022
854542339 854542356
854545459 854545476
854572784 854572801
854586265 854586282
854599039 854599056
854601074 854601091
854610612 854610629
854625064 854625081
854627118 854627135
854633075 854633092
854635170 854635187
854726776 854726793
854761570 854761587
854766066 854766083
854768287 854768304
854777365 854777382
854779625 854779642
854800928 854800945
854803052 854803069
854843570 854843587
854865771 854865788
854961745 854961762
855052039 855052056
855141618 855141635
855161767 855161784
855205620 855205637
855214607 855214624
855275316 855275333
855292927 855292944
855299723 855299740
855326856 855326873
855329058 855329075
855375212 855375229
855380326 855380343
855380438 855380455
855388515 855388532
855392951 855392968
855393142 855393159
855393455 855393472
855394163 855394180
855394376 855394393
855394604 855394621
855394669 855394686
855394712 855394729
855394801 855394818
855395015 855395032
855395127 855395144
855395256 855395273
855395276 855395293
855395335 855395352
855395367 855395384
855395485 855395502
855395495 855395512
855395508 855395525
855395530 855395547
855395569 855395586
855395586 855395603
855395611 855395628
855395616 855395633
855395636 855395653
855395661 855395678
855395692 855395709
855395720 855395737
855395743 855395760
855395762 855395779
855395794 855395811
855395824 855395841
855395864 855395881
855395902 855395919
855396035 855396052
855396058 855396075
855396087 855396104
855396124 855396141
855396142 855396159
855396146 855396163
855396174 855396191
855396205 855396222
855396254 855396271
855396268 855396285
855396320 855396337
855396362 855396379
855396397 855396414
855396413 855396430
855396435 855396452
855396451 855396468
855396471 855396488
855396494 855396511
855396505 855396522
855396520 855396537
855396541 855396558
855396604 855396621
855396616 855396633
855396623 855396640
855398775 855398792
855398847 855398864
855404704 855404721
855412499 855412516
855412647 855412664
855412796 855412813
855417912 855417929
855445735 855445752
855454385 855454402
855456608 855456625
855458662 855458679
855462830 855462847
855464993 855465010
855467118 855467135
855469280 855469297
855471512 855471529
855473674 855473691
855478050 855478067
855480242 855480259
855482418 855482435
855484620 855484637
855486802 855486819
855494023 855494040
855573624 855573641
855763624 855763641
855874778 855874795
855910137 855910154
855921701 855921718
855936519 855936536
855953923 855953940
855960520 855960537
855964836 855964853
856014419 856014436
856055150 856055167
856061809 856061826
856064021 856064038
856072841 856072858
856077215 856077232
856104565 856104582
856161396 856161413
856168123 856168140
856234456 856234473
856244431 856244448
856332850 856332867
856341652 856341669
856344000 856344017
856350657 856350674
856413846 856413863
856417618 856417635
856422276 856422293
856422506 856422523
856423139 856423156
856423186 856423203
856423367 856423384
856443006 856443023
856444445 856444462
856449999 856450016
856484540 856484557
856522713 856522730
856577825 856577842
856626283 856626300
856626511 856626528
856651588 856651605
856653850 856653867
856655942 856655959
856657967 856657984
856659962 856659979
856661968 856661985
856663963 856663980
856665950 856665967
856667945 856667962
856669980 856669997
856672112 856672129
856674246 856674263
856676387 856676404
856678501 856678518
856680644 856680661
856682788 856682805
856687114 856687131
856689306 856689323
856691471 856691488
856693594 856693611
856695766 856695783
856697888 856697905
856699983 856700000
856702067 856702084
856704141 856704158
856708329 856708346
856710393 856710410
856714532 856714549
856716655 856716672
856722936 856722953
856725070 856725087
856727242 856727259
856729378 856729395
856737268 856737285
856739805 856739822
856742404 856742421
856749831 856749848
856752321 856752338
856756982 856756999
856759205 856759222
856761643 856761660
856764073 856764090
856766502 856766519
856769030 856769047
856771530 856771547
856776588 856776605
856779402 856779419
856782196 856782213
856785060 856785077
856787618 856787635
856787864 856787881
856790414 856790431
856793023 856793040
856795540 856795557
856796449 856796466
856805644 856805661
856834345 856834362
856836470 856836487
856838524 856838541
856840616 856840633
856842731 856842748
856844855 856844872
856846858 856846875
856848814 856848831
856850908 856850925
856853061 856853078
856855224 856855241
856857347 856857364
856861693 856861710
856866090 856866107
856868282 856868299
856870424 856870441
856872596 856872613
856874762 856874779
856876974 856876991
856879096 856879113
856881220 856881237
856883383 856883400
856885466 856885483
856887550 856887567
856891649 856891666
856893684 856893701
856895738 856895755
856897814 856897831
856899868 856899885
856901951 856901968
856904024 856904041
856906099 856906116
856908163 856908180
856910327 856910344
856912390 856912407
856914434 856914451
856916429 856916446
856918474 856918491
856920519 856920536
856922573 856922590
856924686 856924703
856926850 856926867
856929063 856929080
856931215 856931232
856933358 856933375
856937753 856937770
856939955 856939972
856946694 856946711
856948946 856948963
856951197 856951214
856953449 856953466
856957952 856957969
856973628 856973645
856982408 856982425
857005077 857005094
857009303 857009320
857029186 857029203
857038202 857038219
857060575 857060592
857062797 857062814
857095214 857095231
857097474 857097491
857099688 857099705
857150277 857150294
857152489 857152506
857156795 857156812
857158898 857158915
857174465 857174482
857176528 857176545
857178682 857178699
857182969 857182986
857187432 857187449
857191926 857191943
857212264 857212281
857225973 857225990
857228176 857228193
857251598 857251615
857254050 857254067
857258542 857258559
857262809 857262826
857264904 857264921
857269170 857269187
857271343 857271360
857275688 857275705
857277882 857277899
857282326 857282343
857284577 857284594
857286825 857286842
857289086 857289103
857293551 857293568
857297995 857298012
857300220 857300237
857302482 857302499
857329177 857329194
857333947 857333964
857343795 857343812
857350314 857350331
857365297 857365314
857369781 857369798
857376499 857376516
857385504 857385521
857387747 857387764
857396648 857396665
857399115 857399132
857417634 857417651
857425052 857425069
857434960 857434977
857441320 857441337
857452144 857452161
857456530 857456547
857458742 857458759
857463216 857463233
857465440 857465457
857469914 857469931
857476689 857476706
857481182 857481199
857492197 857492214
857501529 857501546
857506497 857506514
857509341 857509358
857515238 857515255
857517618 857517635
857520326 857520343
857531052 857531069
857537461 857537478
857539565 857539582
857546143 857546160
857552801 857552818
857563960 857563977
857566153 857566170
857592940 857592957
857595656 857595673
857602876 857602893
857606353 857606370
857611000 857611017
857619800 857619817
857621874 857621891
857624028 857624045
857628394 857628411
857630615 857630632
857637479 857637496
857641944 857641961
857644187 857644204
857646388 857646405
857650884 857650901
857655318 857655335
857662104 857662121
857664326 857664343
857671693 857671710
857674391 857674408
857708061 857708078
857708208 857708225
857713729 857713746
857721235 857721252
857723715 857723732
857734480 857734497
857745285 857745302
857771421 857771438
857799174 857799191
857878596 857878613
857881074 857881091
857883296 857883313
857885479 857885496
857887888 857887905
857890071 857890088
857892274 857892291
857897243 857897260
857899741 857899758
857902231 857902248
857904787 857904804
857907287 857907304
857909766 857909783
857912392 857912409
857914961 857914978
857916858 857916875
857920964 857920981
857924353 857924370
857927218 857927235
857930111 857930128
857933825 857933842
857949964 857949981
857952847 857952864
857955426 857955443
857957934 857957951
857960671 857960688
857963129 857963146
857965361 857965378
857967861 857967878
857970281 857970298
857972173 857972191
857972418 857972435
857972462 857972479
857972822 857972839
857973298 857973315
857973534 857973551
857973664 857973681
857974368 857974387
857974644 857974661
857975043 857975060
857980768 857980785
857981351 857981368
857981518 857981535
857982739 857982756
857983753 857983770
857985973 857985990
857988165 857988182
857990378 857990395
857992562 857992579
857994753 857994770
857996917 857996934
857999100 857999117
858003525 858003542
858005746 858005763
858010764 858010781
858013242 858013259
858015841 858015858
858038201 858038218
858041133 858041150
858045795 858045812
858047949 858047966
858050101 858050118
858052364 858052381
858054459 858054476
858056603 858056620
858058695 858058712
858060788 858060805
858063228 858063245
858065727 858065744
858070270 858070287
858072385 858072402
858074478 858074495
858076602 858076619
858078755 858078772
858080927 858080944
858083062 858083079
858085254 858085271
858087447 858087464
858089895 858089912
858092068 858092085
858094320 858094337
858096888 858096905
858099396 858099413
858101955 858101972
858104582 858104599
858108426 858108443
858111376 858111393
858132809 858132826
858134894 858134911
858136987 858137004
858139111 858139128
858141294 858141311
858143525 858143542
858145748 858145765
858147979 858147996
858150221 858150238
858152444 858152461
858154628 858154645
858156838 858156855
858159022 858159039
858161235 858161252
858163436 858163453
858165621 858165638
858167842 858167859
858170024 858170041
858172228 858172245
858174399 858174416
858176601 858176618
858178805 858178822
858180958 858180975
858183071 858183088
858185135 858185152
858187210 858187227
858189286 858189303
858191369 858191386
858193432 858193449
858195506 858195523
858197572 858197589
858199723 858199740
858201957 858201974
858204088 858204105
858206331 858206348
858210745 858210762
858212810 858212827
858214846 858214863
858216948 858216965
858219081 858219098
858225621 858225638
858227833 858227850
858230036 858230053
858234489 858234506
858236673 858236690
858238875 858238892
858241108 858241125
858243329 858243346
858245522 858245539
858247734 858247751
858249956 858249973
858252178 858252195
858254371 858254388
858258755 858258772
858260950 858260967
858263073 858263090
858265186 858265203
858267318 858267335
858269404 858269421
858271517 858271534
858273671 858273688
858275803 858275820
858277936 858277953
858280190 858280207
858282510 858282527
858284781 858284798
858287053 858287070
858289344 858289361
858291597 858291614
858293917 858293934
858296120 858296137
858298233 858298250
858300298 858300315
858302391 858302408
858304446 858304463
858306519 858306536
858308595 858308612
858310629 858310646
858312714 858312731
858314787 858314804
858316959 858316976
858319161 858319178
858323546 858323563
858325730 858325747
858327942 858327959
858330144 858330161
858332329 858332346
858334529 858334546
858336724 858336741
858338945 858338962
858343290 858343307
858345464 858345481
858347656 858347673
858349739 858349756
858351855 858351872
858354016 858354033
858356179 858356196
858358343 858358360
858360604 858360621
858362737 858362754
858367389 858367406
858369750 858369767
858372072 858372089
858374432 858374449
858379044 858379061
858381404 858381421
858383685 858383702
858385997 858386014
858388467 858388484
858391677 858391694
858394047 858394064
858396201 858396218
858398570 858398587
858400712 858400729
858402838 858402855
858404989 858405006
858407104 858407121
858409454 858409471
858411570 858411587
858413701 858413718
858415914 858415931
858417909 858417926
858420031 858420048
858422226 858422243
858424663 858424680
858427163 858427180
858429722 858429739
858431425 858431442
858432082 858432099
858448429 858448446
858474592 858474609
858477731 858477748
858482245 858482262
858484379 858484396
858494739 858494756
858505527 858505544
858588620 858588637
858591504 858591521
858601529 858601546
858605637 858605654
858660267 858660284
858666292 858666309
858677482 858677499
858681869 858681886
858757823 858757840
858760083 858760100
858763914 858763931
858766366 858766383
858771619 858771636
858802917 858802934
858804853 858804870
858849441 858849458
858853863 858853880
858915599 858915616
858925645 858925662
858927807 858927824
858931017 858931034
858933212 858933229
858937111 858937128
858939620 858939637
858946743 858946760
858948915 858948932
859108180 859108197
859117021 859117038
859184222 859184239
859190919 859190936
859194198 859194215
859203720 859203737
859268355 859268372
859277510 859277527
859285431 859285448
859291674 859291691
859298783 859298800
859371598 859371615
859371745 859371762
859407725 859407742
859408064 859408081
859408394 859408411
859408698 859408715
859408763 859408780
859408798 859408815
859408863 859408880
859408958 859408975
859409012 859409029
859409049 859409066
859409098 859409115
859409378 859409395
859409928 859409945
859410093 859410110
859410197 859410214
859439383 859439400
859439530 859439547
859444033 859444050
859446485 859446502
859455017 859455034
859457250 859457267
859470387 859470404
859525034 859525051
859587279 859587296
859587361 859587378
859587524 859587541
859587694 859587711
859587984 859588001
859588095 859588112
859589098 859589115
859589113 859589130
859589310 859589327
859589524 859589541
859589551 859589568
859589711 859589728
859589825 859589842
859589893 859589910
859589936 859589953
859589973 859589990
859590019 859590036
859591336 859591353
859700804 859700821
859700953 859700970
859715037 859715054
859770901 859770918
859773104 859773121
859777014 859777031
859787187 859787204
859789352 859789369
859793738 859793755
859795939 859795956
859798091 859798108
859800344 859800361
859802576 859802593
859804838 859804855
859807040 859807057
859809301 859809318
859813778 859813795
859816010 859816027
859818251 859818268
859837876 859837893
859840050 859840067
859846568 859846585
859848869 859848886
859850992 859851009
859853156 859853173
859855250 859855267
859857444 859857461
859861790 859861807
859863961 859863978
859866192 859866209
859868387 859868404
859870629 859870646
859872851 859872868
859875113 859875130
859877325 859877342
859881838 859881855
859884109 859884126
859888654 859888671
859902233 859902250
859911053 859911070
859913167 859913184
859917404 859917421
859919569 859919586
859928349 859928366
859932705 859932722
859937041 859937058
859947788 859947805
859952171 859952188
859954434 859954451
859956665 859956682
859958947 859958964
859961189 859961206
859972440 859972457
859976962 859976979
859983767 859983784
859992913 859992930
859995194 859995211
859999698 859999715
860004113 860004130
860008529 860008546
860010780 860010797
860015206 860015223
860026267 860026284
860030724 860030741
860035217 860035234
860037459 860037476
860039731 860039748
860041952 860041969
860044184 860044201
860046416 860046433
860050813 860050830
860053123 860053140
860059732 860059749
860062012 860062029
860068522 860068539
860070742 860070759
860072957 860072974
860075209 860075226
860077381 860077398
860079613 860079630
860081787 860081804
860083928 860083945
860086062 860086079
860088274 860088291
860090390 860090407
860092600 860092617
860100976 860100993
860103031 860103048
860107139 860107156
860109225 860109242
860111258 860111275
860113353 860113370
860115455 860115472
860119762 860119779
860126340 860126357
860130765 860130782
860137422 860137439
860139654 860139671
860144098 860144115
860146323 860146340
860148584 860148601
860152998 860153015
860157414 860157431
860166313 860166330
860168457 860168474
860170618 860170635
860174886 860174903
860179201 860179218
860183478 860183495
860187914 860187931
860190065 860190082
860192447 860192464
860193965 860193982
860194560 860194577
860196861 860196878
860205434 860205451
860207558 860207575
860209673 860209690
860211863 860211880
860214058 860214075
860216219 860216236
860220686 860220703
860222966 860222983
860225208 860225225
860227421 860227438
860231807 860231824
860234019 860234036
860238895 860238912
860240605 860240622
860242739 860242756
860249229 860249246
860274872 860274889
860278515 860278532
860284868 860284885
860287394 860287411
860289912 860289929
860292490 860292507
860294972 860294989
860297500 860297517
860300137 860300154
860302665 860302682
860305577 860305594
860308115 860308132
860310705 860310722
860313233 860313250
860315721 860315738
860321135 860321152
860324560 860324577
860327651 860327668
860331098 860331115
860335782 860335799
860375159 860375176
860378081 860378098
860380207 860380224
860382644 860382661
860384819 860384836
860387543 860387560
860390331 860390348
860392917 860392934
860395228 860395245
860397301 860397318
860399466 860399483
860403920 860403937
860406102 860406119
860408336 860408353
860410556 860410573
860412779 860412796
860415001 860415018
860417195 860417212
860419415 860419432
860425944 860425961
860428107 860428124
860430241 860430258
860437007 860437024
860439317 860439334
860451319 860451336
860456218 860456235
860458537 860458554
860460562 860460579
860462617 860462634
860464653 860464670
860466726 860466743
860468820 860468837
860471021 860471038
860475407 860475424
860477560 860477577
860484187 860484204
860493006 860493023
860495229 860495246
860499653 860499670
860501876 860501893
860504068 860504085
860506251 860506268
860514874 860514891
860517078 860517095
860519437 860519454
860521748 860521765
860524129 860524146
860550815 860550832
860554578 860554595
860558844 860558861
860563180 860563197
860567693 860567710
860576405 860576422
860580168 860580185
860583161 860583178
860586066 860586083
860589293 860589310
860589360 860589377
860589974 860589991
860590012 860590029
860590102 860590119
860590289 860590306
860590384 860590401
860590757 860590774
860591499 860591516
860591821 860591838
860592402 860592419
860592637 860592654
860592761 860592778
860593095 860593112
860593237 860593254
860593326 860593343
860594501 860594518
860594860 860594877
860598729 860598746
860599419 860599436
860661583 860661600
860663783 860663800
860668189 860668206
860670372 860670389
860672574 860672591
860674768 860674785
860676940 860676957
860681344 860681361
860683559 860683576
860685799 860685816
860687943 860687960
860702699 860702716
860704772 860704789
860706856 860706873
860708959 860708976
860711043 860711060
860713108 860713125
860715203 860715220
860717265 860717282
860719301 860719318
860721424 860721441
860723606 860723623
860725770 860725787
860727982 860727999
860730195 860730212
860732408 860732425
860734629 860734646
860736872 860736889
860739074 860739091
860741297 860741314
860743518 860743535
860745732 860745749
860747953 860747970
860750145 860750162
860752338 860752355
860754550 860754567
860758876 860758893
860761048 860761065
860765464 860765481
860767677 860767694
860776101 860776118
860778185 860778202
860780281 860780298
860784507 860784524
860786779 860786796
860789109 860789126
860795755 860795772
860798078 860798095
860800378 860800395
860802619 860802636
860804674 860804691
860806740 860806757
860808735 860808752
860810788 860810805
860812990 860813007
860815153 860815170
860817316 860817333
860819480 860819497
860821682 860821699
860823893 860823910
860828299 860828316
860830492 860830509
860832704 860832721
860834906 860834923
860837141 860837158
860839351 860839368
860843765 860843782
860851015 860851032
860853248 860853265
860855371 860855388
860890403 860890420
860892644 860892661
860894720 860894737
860896980 860896997
860899076 860899093
860901317 860901334
860903480 860903497
860912180 860912197
860918778 860918795
860920962 860920979
860925357 860925374
860927647 860927664
860932033 860932050
860940736 860940753
860942948 860942965
860954830 860954847
860989913 860989930
860990069 860990086
860992333 860992350
860996706 860996723
860998890 860998907
861005557 861005574
861007729 861007746
861012165 861012182
861023356 861023373
861026564 861026581
861027769 861027786
861029994 861030011
861032264 861032281
861034496 861034513
861036974 861036991
861039267 861039284
861052955 861052972
861064809 861064826
861092078 861092095
861094202 861094219
861096414 861096431
861098617 861098634
861100889 861100906
861103091 861103108
861105413 861105430
861107624 861107641
861109887 861109904
861114293 861114310
861116504 861116521
861118726 861118743
861120920 861120937
861123319 861123336
861130588 861130605
861134739 861134756
861150714 861150731
861153044 861153061
861155118 861155135
861157262 861157279
861159315 861159332
861161448 861161465
861163632 861163649
861165854 861165871
861168047 861168064
861170289 861170306
861174743 861174760
861176926 861176943
861179198 861179215
861181382 861181399
861181638 861181655
861186024 861186041
861188214 861188231
861192661 861192678
861197164 861197181
861203960 861203977
861208651 861208668
861210843 861210860
861250727 861250744
861259360 861259377
861263911 861263928
861266146 861266163
861268397 861268414
861270668 861270685
861272891 861272908
861275151 861275168
861277364 861277381
861279616 861279633
861281858 861281875
861284090 861284107
861286263 861286280
861290757 861290774
861293543 861293560
861295882 861295899
861350593 861350610
861350749 861350766
861438723 861438740
861445241 861445258
861451751 861451768
861502377 861502394
861505200 861505217
861507709 861507726
861510900 861510917
861513486 861513503
861515995 861516012
861518435 861518452
861520945 861520962
861525685 861525702
861527916 861527933
861530079 861530096
861532284 861532301
861534524 861534541
861536706 861536723
861545151 861545168
861571192 861571209
861571250 861571267
861571292 861571309
861571450 861571467
861571561 861571578
861580557 861580574
861581566 861581583
861581693 861581710
861581833 861581850
861582407 861582424
861582557 861582574
861583300 861583317
861585677 861585694
861588679 861588696
861589103 861589120
861589153 861589170
861589231 861589248
861589647 861589664
861591611 861591628
861592001 861592018
861592085 861592102
861592598 861592615
861592917 861592934
861593154 861593171
861593531 861593548
861595820 861595837
861596384 861596401
861596452 861596469
861596577 861596594
861596741 861596758
861596773 861596790
861596866 861596883
861596936 861596953
861597082 861597099
861597414 861597431
861597455 861597472
861597839 861597856
861597923 861597940
861598017 861598034
861598125 861598142
861598172 861598189
861598363 861598380
861598434 861598451
861598493 861598511
861598511 861598528
861598557 861598574
861598836 861598854
861598913 861598930
861598967 861598984
861601824 861601841
861601882 861601899
861601988 861602005
861602146 861602164
861602263 861602280
861602393 861602410
861602513 861602530
861602883 861602900
861603030 861603047
861603141 861603158
861603450 861603467
861603918 861603935
861604352 861604369
861606831 861606848
861609408 861609425
861611909 861611926
861614476 861614493
861617044 861617061
861622053 861622070
861624450 861624467
861626930 861626947
861629508 861629525
861632461 861632478
861641488 861641505
861670436 861670453
861672866 861672883
861675069 861675086
861677459 861677476
861679642 861679659
861681794 861681811
861683930 861683947
861686327 861686344
861688521 861688538
861690903 861690920
861695375 861695392
861697607 861697624
861700128 861700145
861702250 861702267
861704383 861704400
861706517 861706534
861708699 861708716
861710922 861710939
861713152 861713169
861715298 861715315
861717449 861717466
861728274 861728291
861730448 861730465
861732996 861733013
861735336 861735353
861737933 861737950
861740600 861740617
861755644 861755661
861758536 861758553
861760928 861760945
861763437 861763454
861765619 861765636
861767801 861767818
861769973 861769990
861772048 861772065
861774162 861774179
861782882 861782899
861784857 861784874
861787041 861787058
861789431 861789448
861791781 861791798
861794212 861794229
861796512 861796529
861798695 861798712
861800700 861800717
861802921 861802938
861805421 861805438
861811406 861811423
861846292 861846309
861849363 861849380
861851783 861851800
861854280 861854297
861856454 861856471
861858568 861858585
861860759 861860776
861862913 861862930
861869580 861869597
861871969 861871986
861874162 861874179
861876561 861876578
861879012 861879029
861881184 861881201
861883248 861883265
861885422 861885439
861893026 861893043
861900339 861900356
861935211 861935228
861938500 861938517
861940998 861941015
861943536 861943553
861945928 861945945
861948434 861948451
861950608 861950625
861964010 861964027
861966192 861966209
861968318 861968335
861977671 861977688
862040673 862040690
862042836 862042853
862045059 862045076
862047252 862047269
862049403 862049420
862051625 862051642
862053770 862053787
862055883 862055900
862058115 862058132
862060308 862060325
862062807 862062824
