862093673 862093690
862129106 862129123
862129452 862129469
862129867 862129884
862130258 862130275
862131076 862131093
862131485 862131502
862131536 862131553
862131813 862131830
862132772 862132789
862134089 862134106
862135493 862135510
862137597 862137614
862138220 862138237
862138580 862138597
862138788 862138805
862138808 862138825
862139849 862139866
862162071 862162088
862174095 862174112
862210034 862210051
862210119 862210136
862210179 862210196
862226162 862226179
862227075 862227092
862227312 862227329
862228501 862228518
862231336 862231353
862231619 862231636
862233433 862233450
862235519 862235536
862235857 862235874
862243305 862243322
862245895 862245912
862250795 862250812
862251861 862251878
862257445 862257462
862264579 862264596
862266784 862266801
862270002 862270019
862272052 862272069
862276487 862276504
862276520 862276537
862283182 862283199
862284533 862284550
862285939 862285956
862287512 862287529
862302891 862302908
862307492 862307509
862345129 862345146
862356961 862356978
862362225 862362242
862365462 862365479
862381353 862381370
862382014 862382031
862386846 862386863
862399342 862399359
862408605 862408622
862416052 862416069
862418003 862418020
862422638 862422655
862432477 862432494
862432726 862432743
862449170 862449187
862467678 862467695
862471168 862471185
862479335 862479352
862490144 862490161
862490855 862490872
862497216 862497233
862500150 862500167
862504204 862504221
862518169 862518186
862556648 862556665
862571155 862571172
862575037 862575054
862579973 862579990
862581653 862581670
862583737 862583754
862584556 862584573
862590304 862590321
862591294 862591311
862600976 862600993
862604522 862604539
862605042 862605059
862610936 862610953
862626427 862626444
862630371 862630388
862636249 862636266
862646650 862646667
862653359 862653376
862696261 862696278
862696335 862696352
862702282 862702299
862704653 862704670
862705959 862705976
862710107 862710124
862733067 862733084
862735931 862735948
862738902 862738919
862769323 862769340
862775058 862775075
862775802 862775819
862831598 862831615
862836421 862836438
862848305 862848322
862854178 862854195
862856540 862856557
862868390 862868407
862868863 862868880
862875167 862875184
862881424 862881441
862889816 862889833
862890065 862890082
862897103 862897120
862904692 862904709
862905027 862905044
862910248 862910265
862912873 862912890
862932423 862932440
862953082 862953099
862953608 862953625
862955040 862955057
862961036 862961053
862963238 862963255
862965642 862965659
862968376 862968393
862973906 862973923
862980512 862980529
862995870 862995887
862997566 862997583
863051673 863051690
863070687 863070704
863071049 863071066
863074174 863074191
863123366 863123383
863129622 863129639
863140479 863140496
863141351 863141368
863145287 863145304
863147152 863147169
863147487 863147504
863147942 863147959
863150417 863150434
863159846 863159863
863160357 863160374
863166314 863166331
863168023 863168040
863169542 863169559
863180719 863180736
863207702 863207719
863208274 863208291
863208490 863208507
863210887 863210904
863232728 863232745
863233032 863233049
863233109 863233126
863233240 863233257
863233370 863233387
863233787 863233804
863233971 863233988
863234370 863234387
863234490 863234507
863234586 863234603
863234835 863234852
863234946 863234963
863235009 863235026
863235232 863235249
863235339 863235356
863235386 863235403
863235400 863235417
863235599 863235616
863235783 863235800
863236148 863236165
863236186 863236203
863236209 863236226
863236217 863236234
863236409 863236426
863236442 863236459
863237104 863237121
863239028 863239045
863239061 863239078
863239207 863239224
863239221 863239238
863239335 863239352
863239622 863239639
863239640 863239657
863240112 863240129
863240276 863240293
863240555 863240572
863240941 863240958
863241973 863241990
863242046 863242063
863242128 863242145
863242893 863242910
863243306 863243323
863243650 863243667
863244301 863244318
863244961 863244978
863245967 863245984
863253929 863253946
863255823 863255840
863262394 863262411
863295466 863295483
863295982 863295999
863296729 863296746
863297681 863297698
863298812 863298829
863299619 863299636
863299715 863299732
863299880 863299897
863299922 863299939
863302462 863302479
863302809 863302826
863302983 863303000
863303115 863303132
863307907 863307924
863308582 863308599
863309220 863309237
863309509 863309526
863313582 863313599
863319631 863319648
863320734 863320751
863324718 863324735
863352367 863352384
863361069 863361086
863365632 863365649
863368503 863368520
863369330 863369347
863372168 863372185
863372958 863372975
863378226 863378243
863385100 863385117
863389094 863389111
863393904 863393921
863408295 863408312
863412435 863412452
863414999 863415016
863429469 863429486
863432521 863432538
863433599 863433616
863437953 863437970
863439500 863439517
863464819 863464836
863465213 863465230
863466361 863466378
863468780 863468797
863479365 863479382
863479454 863479471
863479681 863479698
863479804 863479821
863480043 863480060
863480092 863480109
863480679 863480696
863481050 863481067
863481287 863481304
863482061 863482078
863482562 863482579
863482815 863482832
863482964 863482981
863483070 863483087
863483098 863483115
863483219 863483236
863483534 863483551
863484395 863484412
863484716 863484733
863486709 863486726
863487403 863487420
863487623 863487640
863489103 863489120
863490065 863490082
863491182 863491199
863491719 863491736
863493959 863493976
863495721 863495738
863510586 863510603
863510910 863510927
863536747 863536764
863544161 863544178
863564602 863564619
863564707 863564724
863564921 863564938
863565257 863565274
863570274 863570291
863571610 863571627
863572297 863572314
863597724 863597741
863600745 863600762
863603988 863604005
863610134 863610151
863629508 863629525
863638959 863638976
863641320 863641337
863656278 863656295
863658833 863658850
863660233 863660250
863684852 863684869
863692906 863692923
863698084 863698101
863711039 863711056
863713635 863713652
863720196 863720213
863720494 863720511
863720506 863720523
863727784 863727801
863729887 863729904
863731562 863731579
863732064 863732081
863732386 863732403
863736684 863736701
863737212 863737229
863738010 863738027
863740788 863740805
863741378 863741395
863767104 863767121
863776184 863776201
863777525 863777542
863782327 863782344
863797836 863797853
863798528 863798545
863801680 863801697
863803202 863803219
863806469 863806486
863808475 863808492
863808541 863808558
863808791 863808808
863809429 863809446
863810312 863810329
863811142 863811159
863811228 863811245
863812172 863812189
863821393 863821410
863821514 863821531
863825645 863825662
863829171 863829188
863830281 863830298
863832055 863832072
863832632 863832649
863832815 863832832
863832896 863832913
863832952 863832969
863836766 863836783
863837382 863837399
863837978 863837995
863839077 863839094
863839677 863839694
863841367 863841384
863850423 863850440
863851581 863851598
863858126 863858143
863859041 863859058
863869000 863869017
863870358 863870375
863912089 863912106
863917321 863917338
863917869 863917886
863918228 863918245
863918951 863918968
863922210 863922227
863922245 863922262
863923636 863923653
863924028 863924045
863924516 863924533
863924904 863924921
863925218 863925235
863927088 863927105
863930457 863930474
863931058 863931075
863939974 863939991
863949030 863949047
863956944 863956961
863958803 863958820
863970431 863970448
863976187 863976204
863980624 863980641
864031579 864031596
864033020 864033037
864039522 864039539
864039813 864039830
864041984 864042001
864042680 864042697
864045138 864045155
864053369 864053386
864053779 864053796
864060414 864060431
864062792 864062809
864073190 864073207
864074103 864074120
864074710 864074727
864075194 864075211
864076632 864076649
864116327 864116344
864117509 864117526
864120409 864120426
864122732 864122749
864153007 864153024
864154217 864154234
864156464 864156481
864157544 864157561
864157773 864157790
864158730 864158747
864161795 864161812
864163465 864163482
864164669 864164686
864206425 864206442
864211344 864211361
864211679 864211696
864214816 864214833
864220499 864220516
864226040 864226057
864227292 864227309
864227522 864227539
864232209 864232226
864237263 864237280
864241448 864241465
864242166 864242183
864243033 864243050
864248963 864248980
864249512 864249529
864255456 864255473
864257716 864257733
864258882 864258899
864260477 864260494
864269608 864269625
864280853 864280870
864288731 864288748
864293529 864293546
864313537 864313554
864316533 864316550
864323105 864323122
864326787 864326804
864335007 864335024
864340333 864340350
864341051 864341068
864346288 864346305
864350427 864350444
864365363 864365380
864365965 864365982
864373550 864373567
864380852 864380869
864386878 864386895
864387940 864387957
864406744 864406761
864414276 864414293
864417780 864417797
864419563 864419580
864423326 864423343
864452365 864452382
864453176 864453193
864466245 864466262
864469128 864469145
864469751 864469768
864519322 864519339
864522553 864522570
864528691 864528708
864529695 864529712
864540168 864540185
864548402 864548419
864548803 864548820
864571261 864571278
864587654 864587671
864591493 864591510
864620652 864620669
864622900 864622917
864623088 864623105
864634651 864634668
864641389 864641406
864642144 864642161
864648606 864648623
864649553 864649570
864657997 864658014
864666570 864666587
864681100 864681117
864681205 864681222
864700093 864700110
864703511 864703528
864705551 864705568
864740640 864740657
864829909 864829926
864838909 864838926
864856245 864856262
864882124 864882141
864900914 864900931
864906849 864906866
864910852 864910869
864991082 864991099
864999576 864999593
865004971 865004988
865008847 865008864
865045584 865045601
865066851 865066868
865076427 865076444
865102980 865102997
865103807 865103824
865104004 865104021
865104417 865104434
865104817 865104834
865105230 865105247
865105376 865105393
865115391 865115408
865116587 865116604
865164988 865165005
865182508 865182525
865228780 865228797
865229122 865229139
865264121 865264138
865294633 865294650
865295747 865295764
865332803 865332820
865343130 865343147
865358720 865358737
865380764 865380781
865381224 865381241
865387828 865387845
865397546 865397563
865401616 865401633
865411449 865411466
865435840 865435857
865466401 865466418
865483924 865483941
865484180 865484197
865518035 865518052
865557046 865557063
865561824 865561841
865572854 865572871
865577586 865577603
865579769 865579786
865624947 865624964
865632477 865632494
865651925 865651942
865683526 865683543
865724438 865724455
865725025 865725042
865725353 865725370
865725918 865725935
865726309 865726326
865726684 865726701
865735466 865735483
865740087 865740104
865740711 865740728
865741096 865741113
865742357 865742374
865742650 865742667
865744477 865744494
865745081 865745098
865746220 865746237
865746307 865746324
865747406 865747423
865750060 865750077
865753493 865753510
865754156 865754173
865755864 865755881
865769866 865769883
865772829 865772846
865774966 865774983
865776471 865776488
865776845 865776862
865778833 865778850
865781853 865781870
865788271 865788288
865797190 865797207
865812992 865813009
865815383 865815400
865823869 865823886
865828502 865828519
865836460 865836477
865841876 865841893
865846078 865846095
865847728 865847745
865855923 865855940
865856358 865856375
865858664 865858681
865863830 865863847
865867739 865867756
865868452 865868469
865882524 865882541
865898295 865898312
865905513 865905530
865915594 865915611
865934837 865934854
865940738 865940755
865956601 865956618
866078272 866078289
866078673 866078690
866078853 866078870
866080328 866080345
866082907 866082924
866091519 866091536
866093115 866093132
866096407 866096424
866127436 866127453
866132500 866132517
866175776 866175793
866203371 866203388
866217214 866217231
866254873 866254890
866257120 866257137
866278183 866278200
866319066 866319083
866320404 866320421
866320979 866320996
866321459 866321476
866323162 866323179
866323662 866323679
866325731 866325748
866330125 866330142
866330969 866330986
866347630 866347647
866351764 866351781
866375014 866375031
866375928 866375945
866384007 866384024
866384419 866384436
866401360 866401377
866411066 866411083
866441495 866441512
866444222 866444239
866447270 866447287
866450202 866450219
866453925 866453942
866454388 866454405
866458767 866458784
866485706 866485723
866493059 866493076
866498333 866498350
866524814 866524831
866534101 866534118
866534245 866534262
866535882 866535899
866542378 866542395
866552117 866552134
866564659 866564676
866587353 866587370
866589228 866589245
866590890 866590907
866621744 866621761
866636426 866636443
866659080 866659097
866690398 866690415
866708428 866708445
866735950 866735967
866771535 866771552
866792307 866792324
866794929 866794946
866795347 866795364
866803715 866803732
866844675 866844692
866854226 866854243
866859912 866859929
866889357 866889374
866896603 866896620
866960244 866960261
866972018 866972035
867050921 867050938
867053099 867053116
867088594 867088611
867131878 867131895
867142072 867142089
867150572 867150589
867188407 867188424
867190138 867190155
867311446 867311463
867317044 867317061
867321094 867321111
867322756 867322773
867353946 867353963
867356166 867356183
867362404 867362421
867368062 867368079
867389827 867389844
867398613 867398630
867399989 867400006
867408658 867408675
867425761 867425778
867426043 867426060
867469989 867470006
867472783 867472800
867580784 867580801
867620690 867620707
867623146 867623163
867624964 867624981
867626609 867626626
867627567 867627584
867638717 867638734
867657940 867657957
867687499 867687516
867689891 867689908
867703497 867703514
867726408 867726425
867740983 867741000
867741282 867741299
867745980 867745997
867765809 867765826
867795250 867795267
867803249 867803266
867817633 867817650
867818459 867818476
867824294 867824311
867832862 867832879
867833973 867833990
867845574 867845591
867859999 867860016
867861784 867861801
867867980 867867997
867872436 867872453
867914555 867914572
867927850 867927867
867940843 867940860
867960111 867960128
867971865 867971882
868040135 868040152
868046608 868046625
868086697 868086714
868169704 868169721
868172813 868172830
868174940 868174957
868189016 868189033
868265234 868265251
868267773 868267790
868305203 868305220
868324522 868324539
868336842 868336859
868396225 868396242
868511412 868511429
868529073 868529090
868555786 868555803
868565529 868565546
868606374 868606391
868648669 868648686
868970248 868970265
868989192 868989209
869101282 869101299
869193675 869193692
869203885 869203902
869232925 869232942
869400747 869400764
869413928 869413945
869685972 869685989
869694878 869694895
869783902 869783919
869854554 869854571
869893775 869893792
869916645 869916662
869977426 869977443
870098004 870098021
870130192 870130209
870130861 870130878
870429443 870429460
870453361 870453378
870454658 870454675
870551776 870551793
870563452 870563469
870666354 870666371
870688969 870688986
870730631 870730648
870793215 870793232
870832429 870832446
870868492 870868509
871214484 871214501
871839079 871839096
871842603 871842620
871848132 871848149
871895340 871895357
871895914 871895931
871907515 871907532
871909006 871909023
871931821 871931838
871942596 871942613
871943023 871943040
871951021 871951038
871953365 871953382
871963576 871963593
871968126 871968143
871968206 871968223
871970147 871970164
871977851 871977868
871978731 871978748
871981371 871981388
871982200 871982217
871987506 871987523
871988270 871988287
872002827 872002844
872005141 872005158
872009261 872009278
872009280 872009297
872009506 872009523
872009709 872009726
872009776 872009793
872010151 872010168
872010253 872010270
872010410 872010427
872010601 872010618
872010871 872010888
872011069 872011086
872011466 872011483
872011506 872011523
872011936 872011953
872012225 872012242
872012576 872012593
872013309 872013326
872014307 872014324
872014601 872014618
872015546 872015563
872015720 872015737
872015893 872015910
872019717 872019734
872019867 872019884
872032198 872032215
872040526 872040543
872043910 872043927
872045650 872045667
872047741 872047758
872056178 872056195
872057216 872057233
872060822 872060839
872062662 872062679
872063259 872063276
872067890 872067907
872074892 872074909
872085530 872085547
872091362 872091379
872094396 872094413
872095891 872095908
872112088 872112105
872115714 872115731
872116760 872116777
872122121 872122138
872124782 872124799
872131575 872131592
872132546 872132563
872134190 872134207
872134698 872134715
872137021 872137038
872140319 872140336
872147412 872147429
872149071 872149088
872162207 872162224
872164427 872164444
872166038 872166055
872173323 872173340
872180156 872180173
872182620 872182637
872199137 872199154
872219999 872220016
872222919 872222936
872244990 872245007
872249644 872249661
872255867 872255884
872273786 872273803
872285267 872285284
872298728 872298745
872303961 872303978
872309464 872309481
872310825 872310842
872313172 872313189
872313902 872313919
872327595 872327612
872334731 872334748
872342997 872343014
872373388 872373405
872373705 872373722
872374515 872374532
872374697 872374714
872375451 872375468
872376018 872376035
872376605 872376622
872376775 872376792
872377241 872377258
872377749 872377766
872377969 872377986
872378228 872378245
872378739 872378756
872380428 872380445
872380461 872380478
872380684 872380701
872380909 872380926
872383105 872383122
872383871 872383888
872383896 872383913
872383996 872384013
872385926 872385943
872386133 872386150
872388687 872388704
872389564 872389581
872390293 872390310
872390578 872390595
872394381 872394398
872394611 872394628
872396304 872396321
872396331 872396348
872398821 872398838
872407899 872407916
872409075 872409092
872411780 872411797
872414499 872414516
872428937 872428954
872440633 872440650
872463216 872463233
872463277 872463294
872463288 872463305
872467993 872468010
872482321 872482338
872494886 872494903
872495941 872495958
872503210 872503227
872503311 872503328
872505073 872505090
872506858 872506875
872548597 872548614
872548673 872548690
872549804 872549821
872550211 872550228
872550845 872550862
872551347 872551364
872558693 872558710
872558908 872558925
872560870 872560887
872573342 872573359
872574022 872574039
872577501 872577518
872577762 872577779
872578920 872578937
872591490 872591507
872638624 872638641
872638942 872638959
872638967 872638984
872640006 872640023
872640386 872640403
872640624 872640641
872640833 872640850
872641545 872641562
872641684 872641701
872642365 872642382
872642648 872642665
872645218 872645235
872647969 872647986
872652427 872652444
872661589 872661606
872662271 872662288
872672865 872672882
872675135 872675152
872687363 872687380
872689669 872689686
872722241 872722258
872723529 872723546
872723830 872723847
872726891 872726908
872727081 872727098
872748048 872748065
872748955 872748972
872756389 872756406
872758265 872758282
872770487 872770504
872781599 872781616
872794688 872794705
872802684 872802701
872802736 872802753
872810652 872810669
872815682 872815699
872818876 872818893
872829303 872829320
872832149 872832166
872837837 872837854
872845508 872845525
872845549 872845566
872857684 872857701
872861590 872861607
872863137 872863154
872878330 872878347
872880098 872880115
872882914 872882931
872883041 872883058
872897416 872897433
872900567 872900584
872908218 872908235
872910778 872910795
872918654 872918671
872928277 872928294
872939672 872939689
872944204 872944221
872992952 872992969
873002449 873002466
873024867 873024884
873030265 873030282
873038384 873038401
873040760 873040777
873045994 873046011
873061220 873061237
873064303 873064320
873068357 873068374
873074000 873074017
873082295 873082312
873083366 873083383
873084848 873084865
873090787 873090804
873114710 873114727
873115769 873115786
873120573 873120590
873145182 873145199
873157921 873157938
873159942 873159959
873169087 873169104
873171764 873171781
873172690 873172707
873178988 873179005
873179298 873179315
873188326 873188343
873195142 873195159
873202444 873202461
873203732 873203749
873209322 873209339
873209353 873209370
873233534 873233551
873235085 873235102
873235527 873235544
873236260 873236277
873240431 873240448
873256756 873256773
873266840 873266857
873267041 873267058
873267061 873267078
873267598 873267615
873268498 873268515
873269962 873269979
873277846 873277863
873283783 873283800
873300905 873300922
873318953 873318970
873319863 873319880
873331724 873331741
873333728 873333745
873335977 873335994
873344152 873344169
873344311 873344328
873345529 873345546
873353520 873353537
873353578 873353595
873355231 873355248
873355662 873355679
873357845 873357862
873360501 873360518
873360868 873360885
873383685 873383702
873389990 873390007
873395135 873395152
873396256 873396273
873407243 873407260
873407362 873407379
873422562 873422579
873440210 873440227
873440285 873440302
873441369 873441386
873443200 873443217
873453073 873453090
873453265 873453282
873457718 873457735
873490759 873490776
873504533 873504550
873508262 873508279
873513049 873513066
873513876 873513893
873522421 873522438
873526089 873526106
873545410 873545427
873576495 873576512
873577045 873577062
873577188 873577205
873577240 873577257
873578085 873578102
873578285 873578302
873578315 873578332
873578362 873578379
873578981 873578998
873580071 873580088
873580634 873580651
873586518 873586535
873588531 873588548
873597497 873597514
873599801 873599818
873604473 873604490
873605038 873605055
873713410 873713427
873745304 873745321
873753529 873753546
873754602 873754619
873756097 873756114
873759455 873759472
873768852 873768869
873776567 873776584
873776616 873776633
873783103 873783120
873783522 873783539
873786233 873786250
873786293 873786310
873786401 873786418
873803848 873803865
873807531 873807548
873808141 873808158
873834191 873834208
873844823 873844840
873864394 873864411
873885354 873885371
873893786 873893803
873899788 873899805
873945733 873945750
873946927 873946944
873949653 873949670
873962002 873962019
873963923 873963940
873967510 873967527
873983470 873983487
873996016 873996033
873996123 873996140
873998848 873998865
874002732 874002749
874003739 874003756
874009815 874009832
874039552 874039569
874042598 874042615
874060137 874060154
874067847 874067864
874073165 874073182
874075205 874075222
874076633 874076650
874077872 874077889
874079908 874079925
874083242 874083259
874091168 874091185
874108479 874108496
874109192 874109209
874112675 874112692
874113053 874113070
874119973 874119990
874124608 874124625
874126785 874126802
874133325 874133342
874138356 874138373
874138381 874138398
874144223 874144240
874146535 874146552
874149953 874149970
874151864 874151881
874152749 874152766
874153071 874153088
874154580 874154597
874159728 874159745
874192868 874192885
874194439 874194456
874202350 874202367
874229450 874229467
874236249 874236266
874255179 874255196
874260939 874260956
874262275 874262292
874286424 874286441
874296321 874296338
874296795 874296812
874307450 874307467
874307518 874307535
874338126 874338143
874400810 874400827
874400902 874400919
874401032 874401049
874404967 874404984
874406429 874406446
874410810 874410827
874417612 874417629
874418533 874418550
874419504 874419521
874419994 874420011
874464200 874464217
874464971 874464988
874469975 874469992
874470313 874470330
874480667 874480684
874483357 874483374
874484955 874484972
874512103 874512120
874528636 874528653
874536758 874536775
874544778 874544795
874545838 874545855
874556626 874556643
874558716 874558733
874571898 874571915
874572333 874572350
874575455 874575472
874581676 874581693
874587295 874587312
874595032 874595049
874601504 874601521
874609718 874609735
874622377 874622394
874622580 874622597
874634037 874634054
874635732 874635749
874639751 874639768
874656269 874656286
874699635 874699652
874703429 874703446
874707078 874707095
874710061 874710078
874727703 874727720
874732173 874732190
874734252 874734269
874737913 874737930
874750649 874750666
874751396 874751413
874795660 874795677
874795819 874795836
874795925 874795942
874796333 874796350
874797512 874797529
874798070 874798087
874798277 874798294
874799162 874799179
874803508 874803525
874819032 874819049
874822652 874822669
874823530 874823547
874827105 874827122
874841634 874841651
874875893 874875910
874876689 874876706
874882701 874882718
874901911 874901928
874971637 874971654
874991322 874991339
874993787 874993804
875004896 875004913
875007303 875007320
875008139 875008156
875009463 875009480
875012430 875012447
875041479 875041496
875054508 875054525
875070693 875070710
875095705 875095722
875097532 875097549
875104936 875104953
875106846 875106863
875106881 875106898
875106910 875106927
875107058 875107075
875108249 875108266
875109468 875109485
875109547 875109564
875117264 875117281
875117285 875117302
875117372 875117389
875117930 875117947
875118268 875118285
875118335 875118352
875120764 875120781
875121805 875121822
875125257 875125274
875125374 875125391
875125780 875125797
875128730 875128747
875133872 875133889
875148854 875148871
875149968 875149985
875151301 875151318
875181439 875181456
875209459 875209476
875215135 875215152
875217975 875217992
875218734 875218751
875220425 875220442
875223391 875223408
875226162 875226179
875226981 875226998
