816066553 816066675
816076093 816076113
816096193 816096196
816097633 816097655
816099133 816099177
816259153 816259200
816260113 816260163
816269353 816269360
816276853 816276886
816288553 816288584
816290893 816290921
816308893 816308906
816311473 816311507
816318253 816318259
816323953 816323981
816324613 816324654
816330433 816330443
816337573 816337610
816341953 816342006
816348253 816348292
816358873 816358899
816359533 816359577
816364873 816364906
816368173 816368191
816370333 816370375
816376273 816376289
816416533 816416541
816440353 816440393
816445993 816446040
816473713 816473726
816484633 816484637
816488413 816488466
816518473 816518479
816526093 816526108
816527413 816527457
816557353 816557403
816560293 816560312
816567553 816567583
816578653 816578689
816581353 816581398
816593713 816593758
816615313 816615361
816619573 816619606
816654973 816655008
816662893 816662934
816665653 816665698
816675853 816675870
816693853 816693904
816707353 816707400
816749413 816749449
816752833 816752851
816759493 816759496
816769453 816769469
816771673 816771707
816773173 816773204
816775573 816775595
816783793 816783833
816825793 816825851
816830653 816830707
816864073 816864100
816913393 816913394
816916273 816916297
816918973 816919027
816966433 816966436
816980593 816980628
817027273 817027287
817034113 817034162
817061473 817061517
817125673 817125700
817142773 817142780
817147273 817147325
817212013 817212018
817218013 817218061
817229293 817229337
817231693 817231725
817232713 817232769
817242193 817242200
817248433 817248454
817287073 817287117
817308613 817308618
817365373 817365381
817401493 817401539
817402794 817402813
817403053 817403111
817403893 817403899
817416013 817416043
817426393 817426418
817447573 817447629
817462753 817462803
817473073 817473120
817476613 817476645
817477573 817477590
817542133 817542186
817552573 817552626
817565893 817565898
817587313 817587346
817632913 817632943
817635073 817635097
817638193 817638222
817661773 817661819
817698553 817698585
817700173 817700188
817719073 817719094
817748053 817748101
817750513 817750516
817769293 817769324
817771753 817771780
817781893 817781925
817817233 817817250
817855693 817855741
817860373 817860423
817879093 817879125
817900453 817900471
817901473 817901525
817908733 817908754
817909633 817909664
817995493 817995501
818060413 818060417
818071033 818071088
818079733 818079770
818082553 818082566
818169973 818170027
818239520 818239573
818239633 818239675
818259613 818259654
818326333 818326363
818328433 818328440
818334253 818334297
818339593 818339623
818347813 818347851
818383753 818383765
818393773 818393796
818409493 818409514
818419933 818419982
818427133 818427179
818480353 818480368
818495053 818495097
818504233 818504272
818515033 818515088
818578213 818578247
818586493 818586540
818587436 818587453
818601853 818601883
818605933 818605962
818610493 818610516
818615593 818615642
818621233 818621271
818623813 818623816
818624473 818624501
818634013 818634051
818637673 818637684
818639053 818639064
818641033 818641041
818642833 818642873
818643433 818643459
818645653 818645686
818646373 818646380
818647033 818647053
818648353 818648359
818660653 818660671
818661133 818661145
818666593 818666612
818745613 818745644
818760853 818760885
818762674 818762713
818763253 818763264
818763312 818763313
818763553 818763597
818763683 818763733
818764273 818764292
818772613 818772672
818772822 818772853
818775313 818775326
818779393 818779402
818779693 818779720
818794393 818794410
818795953 818795988
818831773 818831783
818839993 818840004
818843653 818843697
818920213 818920233
818931733 818931741
818935993 818936006
818955673 818955684
818957953 818957983
818984413 818984430
818986813 818986859
818987271 818987293
818992513 818992564
819007873 819007894
819019993 819020029
819035473 819035492
819036733 819036780
819037241 819037273
819039193 819039239
819040993 819041030
819054073 819054074
819054613 819054639
819075133 819075164
819092293 819092311
819093073 819093086
819096673 819096711
819114896 819114913
819122893 819122929
819183913 819183941
819205739 819205753
819205813 819205816
819205841 819205873
819206593 819206597
819278773 819278815
819291073 819291096
819307753 819307765
819307791 819307813
819316513 819316546
819320593 819320597
819323833 819323852
819360613 819360639
819361134 819361153
819384013 819384065
819410173 819410190
819480853 819480900
819542293 819542295
819557233 819557287
819646933 819646985
819686413 819686429
819686466 819686473
819725533 819725560
819727933 819727948
819765733 819765765
819776173 819776219
819792380 819792455
819793993 819794028
819800353 819800392
819810613 819810636
819879553 819879577
819891793 819891826
819898993 819899016
819900181 819900193
819917233 819917277
819961033 819961071
819965833 819965877
819978373 819978378
819979153 819979171
819985453 819985470
819986173 819986174
820011373 820011402
820019593 820019639
820044013 820044022
820049833 820049848
820075753 820075784
820093573 820093609
820108933 820108952
820137373 820137387
820138513 820138521
820158913 820158917
820173193 820173250
820179793 820179848
820183993 820184044
820201873 820201887
820218553 820218608
820244233 820244242
820262653 820262663
820268953 820268995
820274773 820274780
820308973 820308982
820316833 820316839
820326733 820326756
820327813 820327825
820332613 820332645
820340233 820340245
820342033 820342047
820372393 820372416
820382233 820382262
820398973 820399029
820415773 820415776
820419613 820419632
820438213 820438244
820448473 820448476
820455073 820455121
820473613 820473630
820485433 820485443
820489753 820489800
820493653 820493655
820494367 820494373
820500193 820500202
820501213 820501215
820554313 820554349
820587193 820587245
820589293 820589349
820592653 820592661
820658473 820658486
820681153 820681170
820684213 820684228
820691053 820691061
820704793 820704838
820718773 820718786
820744873 820744910
820756093 820756097
820792393 820792443
820807333 820807343
820827913 820827932
820844353 820844368
820847893 820847929
820851493 820851553
820892713 820892753
820905973 820906000
820911013 820911026
820928773 820928799
820930513 820930541
820931833 820931838
820965913 820965959
821008393 821008426
821009833 821009860
821019793 821019829
821022793 821022833
821022952 821022973
821023153 821023204
821024473 821024492
821039113 821039131
821050513 821050515
821053093 821053141
821089513 821089526
821106373 821106423
821109133 821109150
821109902 821109913
821110813 821110855
821112733 821112778
821123113 821123160
821127253 821127267
821127913 821127919
821143393 821143396
821148673 821148715
821150353 821150372
821161573 821161591
821167213 821167223
821173753 821173798
821178613 821178645
821181313 821181321
821184253 821184279
821187853 821187900
821198053 821198058
821230213 821230224
821237773 821237813
821247853 821247870
821253913 821253924
821263573 821263620
821268373 821268389
821269453 821269473
821278693 821278714
821289853 821289860
821290813 821290825
821297053 821297079
821299033 821299053
821302633 821302634
821302753 821302781
821346733 821346735
821348473 821348477
821361133 821361156
821361433 821361451
821363893 821363922
821367973 821367993
821376673 821376688
821381773 821381792
821382193 821382212
821383333 821383340
821384413 821384441
821388793 821388819
821433073 821433108
821445373 821445375
821450173 821450198
821460733 821460759
821467453 821467493
821469013 821469036
821475553 821475578
821479273 821479314
821519353 821519374
821670073 821670099
821671273 821671287
821672823 821672833
821673373 821673407
821673473 821673493
821674513 821674515
821676553 821676562
821676611 821676613
821690113 821690164
821714893 821714900
821715193 821715230
821750773 821750776
821750879 821750893
821757253 821757272
821776393 821776401
821780293 821780344
821783713 821783741
821788093 821788096
821788873 821788881
821789473 821789514
821789523 821789533
821789593 821789625
821790013 821790029
821790913 821790936
821792173 821792175
821805913 821805953
821928313 821928325
821933593 821933612
821942233 821942245
821954173 821954216
821966233 821966256
821983933 821983945
821984653 821984698
821985973 821986009
821997373 821997415
822000793 822000813
822004093 822004140
822027373 822027387
822031813 822031854
822033073 822033103
822054433 822054439
822065833 822065842
822068713 822068736
822070093 822070122
822070933 822070937
822075733 822075749
822081613 822081619
822083173 822083215
822084973 822085025
822093313 822093328
822104893 822104930
822119413 822119439
822119833 822119845
822135193 822135243
822139813 822139866
822140773 822140829
822169633 822169670
822169791 822169813
822170473 822170494
822189193 822189232
822191833 822191876
822194148 822194173
822195193 822195212
822206353 822206384
822208753 822208758
822228313 822228345
822230533 822230586
822243553 822243591
822248473 822248503
822250933 822250951
822262693 822262723
822274093 822274128
822293653 822293698
822295633 822295646
822302533 822302564
822306493 822306523
822309313 822309335
822311653 822311671
822315733 822315765
822318553 822318586
822320053 822320075
822320533 822320574
822326293 822326343
822333193 822333228
822348193 822348212
822349633 822349652
822381733 822381744
822385393 822385423
822387013 822387067
822400153 822400158
822402313 822402317
822403573 822403581
822417433 822417474
822459913 822459921
822463093 822463135
822471793 822471819
822481933 822481967
822498793 822498807
822510613 822510652
822513373 822513392
822520033 822520087
822522613 822522668
822523693 822523704
822524833 822524870
822544993 822545009
822548173 822548213
822557473 822557479
822562933 822562957
822586033 822586072
822600073 822600080
822629293 822629323
822662953 822663005
822664753 822664769
822668173 822668227
822679093 822679134
822680053 822680057
822680353 822680369
822681193 822681200
822727813 822727835
822733993 822734000
822734533 822734546
822734953 822734973
822746593 822746634
822748393 822748395
822749713 822749727
822754213 822754226
822800713 822800721
822816433 822816443
822833773 822833778
822834913 822834933
822836173 822836183
822837133 822837161
822838572 822838573
822840193 822840246
822842833 822842872
822845773 822845786
822846073 822846100
822848893 822848916
822850333 822850348
822853873 822853930
822856633 822856679
822866293 822866341
822868633 822868644
822894373 822894413
822900493 822900527
822903733 822903777
822920473 822920502
822927613 822927625
822938053 822938101
822948793 822948828
822980113 822980120
822985573 822985618
822996673 822996716
822997447 822997453
823008673 823008675
823021993 823022029
823025953 823025962
823027993 823028013
823030273 823030297
823036453 823036508
823067233 823067246
823067578 823067593
823074613 823074654
823076053 823076077
823076171 823076173
823080493 823080538
823098733 823098755
823100233 823100281
823108273 823108318
823111453 823111473
823131193 823131212
823150153 823150171
823150254 823150273
823159753 823159776
823164073 823164117
823167073 823167111
823168135 823168153
823169533 823169554
823169651 823169653
823189573 823189610
823193533 823193568
823194553 823194600
823199113 823199146
823242613 823242636
823247593 823247626
823266133 823266188
823270813 823270817
823272133 823272139
823275193 823275203
823292113 823292118
823297093 823297148
823300813 823300827
823333813 823333865
823346053 823346105
823348513 823348517
823350253 823350277
823353373 823353422
823414693 823414748
823424653 823424675
823440373 823440387
823442173 823442208
823444453 823444469
823445593 823445639
823446793 823446829
823449913 823449968
823454353 823454369
823461073 823461119
823463173 823463178
823507933 823507954
823526653 823526659
823528813 823528834
823532353 823532377
823545313 823545345
823547893 823547947
823580113 823580170
823613593 823613616
823616173 823616225
823633513 823633538
823662433 823662439
823663753 823663779
823669573 823669575
823670053 823670066
823670348 823670353
823671785 823671793
823672444 823672453
823672573 823672599
823755673 823755723
823773673 823773679
823776133 823776152
823778593 823778595
823778703 823778713
823779433 823779434
823794073 823794086
823869013 823869060
823870933 823870966
823873633 823873660
823880353 823880383
823885513 823885535
823887253 823887256
823889413 823889435
823891753 823891777
823894393 823894400
823930933 823930983
823937533 823937576
823938553 823938571
823941433 823941434
823941492 823941493
823950913 823950959
823951378 823951393
823958893 823958932
824013013 824013020
824040013 824040061
824045113 824045154
824056153 824056175
824064613 824064628
824095753 824095794
824128393 824128414
824131213 824131244
824131453 824131497
824135533 824135548
824138773 824138800
824147593 824147597
824147893 824147939
824151793 824151821
824151973 824152013
824214493 824214543
824312833 824312865
824364793 824364795
824370073 824370080
824370212 824370253
824373073 824373130
824387473 824387529
824395273 824395709
824407093 824407153
824454313 824454314
824459473 824459505
824476813 824476973
824480353 824480364
824492293 824492333
824506873 824506905
824543533 824543550
824558593 824558631
824570533 824570540
824608513 824608532
824629873 824629911
824652673 824652700
824655373 824655416
824659693 824659717
824669893 824669911
824679733 824679759
824701453 824701479
824704333 824704366
824706433 824706471
824731153 824731197
824734513 824734534
824735533 824735561
824738833 824738843
824764993 824765037
824778553 824778589
824790853 824790908
824804173 824804222
824821933 824821972
824823793 824823832
824831233 824831240
824834413 824834465
824851753 824851804
824865973 824865997
824890273 824890285
824902093 824902113
824924113 824924166
824929453 824929474
824935573 824935588
824936533 824936553
824950093 824950108
824950573 824950582
824951413 824951420
824956573 824956602
824960353 824960405
824965573 824965618
824971993 824972018
824973733 824973751
824988433 824988459
824991253 824991283
825004333 825004337
825026113 825026154
825031453 825031479
825039133 825039163
825048253 825048289
825049873 825049875
825053833 825053889
825060133 825060163
825061693 825061737
825064153 825064163
825066193 825066221
825069373 825069376
825072733 825072773
825083113 825083117
825084253 825084272
825088993 825089012
825096904 825096913
825106873 825106913
825109633 825109662
825110593 825110629
825113593 825113633
825117193 825117217
825119353 825119365
825121813 825121850
825127993 825127994
825130153 825130169
825135733 825135784
825143353 825143364
825216973 825216980
825238513 825238537
825247813 825247837
825250633 825250643
825256633 825256648
825257713 825257769
825259273 825259302
825265753 825265757
825292093 825292133
825292633 825292658
825302893 825302919
825304513 825304552
825328693 825328737
825338653 825338662
825403873 825403915
825404593 825404609
825405913 825405920
825409033 825409056
825410053 825410076
825411733 825411757
825411913 825411935
825412453 825412480
825416653 825416668
825417433 825417475
825418453 825418473
825423553 825423599
825424873 825424913
825425773 825425822
825427273 825427287
825428353 825428380
825433753 825433793
825434893 825434946
825469333 825469338
825495433 825495451
825518953 825519008
825522668 825522673
825536233 825536256
825541153 825541187
825541933 825541944
825544213 825544229
825550033 825550064
825567073 825567118
825585733 825585751
825589933 825589935
825591853 825591859
825605353 825605371
825606905 825606913
825610393 825610430
825618433 825618450
825618547 825618553
825625513 825625554
825629773 825629798
825682993 825683001
825691753 825691755
825695053 825695077
825697573 825697591
825698353 825698381
825709333 825709371
825719173 825719196
825721693 825721736
825748093 825748130
825751633 825751663
825771253 825771270
825777073 825777084
825780133 825780159
825862753 825862767
825867793 825867804
825880093 825880133
825888553 825888594
825897313 825897363
825901573 825901601
825905833 825905867
825909373 825909400
825914653 825914694
825921013 825921059
825922453 825922459
825928333 825928341
825931093 825931135
825932773 825932789
825933733 825933754
825943753 825943808
825947233 825947282
825989713 825989726
826003393 826003431
826006213 826006263
826009322 826009333
826011973 826011976
826014793 826014810
826023313 826023319
826025293 826025318
826031893 826031912
826036033 826036073
826037173 826037225
826040173 826040184
826041673 826041716
826050493 826050503
826059313 826059327
826073533 826073560
826081273 826081314
826094713 826094741
826097113 826097144
826118293 826118313
826123453 826123479
826124533 826124543
826135333 826135377
826139233 826139234
826155793 826155841
826167613 826167648
826170493 826170518
826194013 826194038
826207333 826207387
826215253 826215285
826221553 826221604
826235833 826235839
826243273 826243279
826250473 826250495
826264213 826264263
826265113 826265139
826278793 826278846
826282633 826282658
826289173 826289179
826295293 826295324
826311133 826311169
826322233 826322242
826342153 826342200
826356073 826356114
826370773 826370806
826372273 826372289
826373893 826373937
826374046 826374073
826375633 826375644
826376053 826376059
826411453 826411482
826429753 826429780
826463293 826463313
826465573 826465587
826471453 826471466
826484773 826484800
826489153 826489163
826494493 826494515
826498873 826498882
826531573 826531622
826541653 826541673
826548853 826548878
826557433 826557485
826560253 826560304
826567933 826567944
826574413 826574422
826574953 826574984
826592953 826592964
826593373 826593390
826593426 826593433
826593853 826593884
826599913 826599955
826628113 826628155
826636693 826636705
826639213 826639261
826643833 826643858
826648993 826649004
826651273 826651324
826653373 826653382
826657933 826657946
826660333 826660344
826663153 826663196
826671433 826671459
826676713 826676748
826681093 826681118
826704613 826704617
826834573 826834592
826887853 826887910
826907173 826907183
826912093 826912104
826916533 826916567
826928113 826928133
826930033 826930060
826932973 826933027
826936333 826936361
826939513 826939562
826945453 826945464
826955773 826955830
826980853 826980892
826981633 826981647
826985773 826985779
826987273 826987291
826991533 826991574
827007793 827007821
827014753 827014799
827032333 827032354
827042413 827042422
827058553 827058564
827062033 827062058
827066413 827066439
827069173 827069227
827074333 827074365
827076493 827076500
827076733 827076749
827085133 827085181
827090413 827090426
827090582 827090593
827093533 827093576
827095573 827095578
827126713 827126747
827148793 827148825
827150593 827150626
827154253 827154287
827155273 827155290
827161393 827161409
827167093 827167141
827172073 827172091
827172553 827172571
827173909 827173933
827174053 827174068
827175733 827175738
827176693 827176721
827178613 827178620
827182333 827182352
827185573 827185589
827187013 827187028
827190193 827190207
827193313 827193344
827195833 827195888
827213053 827213096
827220553 827220561
827226733 827226734
827226789 827226793
827231593 827231609
827234533 827234564
827236573 827236591
827237353 827237389
827240113 827240164
827249833 827249880
827250493 827250541
827259313 827259315
827260213 827260223
827278333 827278341
827292973 827292985
827311273 827311301
827316073 827316078
827319973 827319999
827332093 827332107
827339593 827339622
827352193 827352224
827357173 827357177
827365333 827365368
827417593 827417624
827430253 827430293
827441413 827441454
827447533 827447534
827451133 827451171
827461153 827461160
827496673 827496722
827499613 827499664
827505913 827505937
827514913 827514947
827519953 827519974
827522173 827522184
827525833 827525852
827528293 827528294
827529913 827529920
827533033 827533054
827536333 827536340
827539993 827540039
827545993 827545997
827583253 827583273
827586493 827586549
827589913 827589944
827593213 827593257
827594653 827594698
827596753 827596756
827612953 827612956
827615408 827615413
827615713 827615734
827615810 827615833
827615953 827615956
827616133 827616154
827618593 827618602
827620213 827620219
827620453 827620494
827621053 827621110
827655165 827655193
827664553 827664589
827664726 827664733
827664793 827664852
827665136 827665153
827669233 827669286
827670673 827670689
827677753 827677783
827679013 827679039
827680813 827680846
827683873 827683902
827685913 827685917
827688013 827688033
827693533 827693585
827695153 827695178
827700793 827700825
827712193 827712204
827742373 827742400
827743447 827743453
827751373 827751415
827755033 827755037
827758153 827758170
827758873 827758887
827760733 827760744
827765893 827765902
827769553 827769567
827775973 827776026
827778613 827778616
827781673 827781708
827782993 827783041
827796613 827796615
827800873 827800923
827806213 827806264
827827093 827827107
827841613 827841649
827845273 827845303
827847913 827847959
827869033 827869062
827873293 827873326
827874553 827874575
827879173 827879185
827883062 827883073
827885473 827885524
827902573 827902589
827907553 827907581
827912113 827912153
827924533 827924564
827936413 827936453
827940793 827940806
827951353 827951368
827955553 827955563
827956213 827956265
827961373 827961394
827963593 827963639
827965213 827965260
827973673 827973716
827977393 827977423
827986333 827986376
827986573 827986613
827997133 827997190
827998933 827998947
828002233 828002246
828017353 828017377
828020653 828020683
828027373 828027376
828028453 828028459
828028993 828029033
828030193 828030220
828031273 828031283
828031573 828031595
828047173 828047198
828060973 828060994
828063793 828063830
828082153 828082162
828094153 828094172
828099013 828099055
828104773 828104775
828106693 828106732
828181993 828182024
828185413 828185455
828265333 828265350
828270373 828270392
828272353 828272397
828272953 828272987
828273553 828273600
828276733 828276765
828344953 828345000
828345973 828346007
828431113 828431126
828435673 828435696
828447493 828447514
828449713 828449724
828452293 828452318
828528793 828528801
828531013 828531046
828536353 828536364
828710685 828710713
828711853 828711884
828711985 828712033
828712273 828712326
828713624 828713653
828713893 828713921
828958813 828958837
828965953 828965976
828967453 828967461
828969073 828969081
829035133 829035159
829048333 829048352
829052773 829052805
829053373 829053386
829057513 829057552
829136653 829136669
829150933 829150950
829156693 829156709
829175533 829175555
829206493 829206495
829213993 829214016
829229293 829229307
829231333 829231354
829239433 829239470
829246393 829246423
829293553 829293559
829303573 829303615
829311193 829311196
829317313 829317370
829322473 829322498
829322965 829323013
829325713 829325731
829331893 829331944
829332193 829332239
829342453 829342484
829342693 829342750
829343086 829343113
829343893 829343953
829344320 829344373
829345993 829346025
829356313 829356324
829366693 829366753
829373233 829373274
829377553 829377586
829391893 829391935
829395733 829395770
829399513 829399555
829400953 829400978
829406713 829406717
829411393 829411432
829422493 829422544
829423873 829423882
829439953 829439967
829446433 829446459
829447753 829447799
829452553 829452575
829458313 829458320
829465273 829465319
829481113 829481115
829482373 829482399
829493833 829493847
829493955 829494013
829496233 829496244
829496305 829496353
829500853 829500860
829501044 829501093
829505233 829505278
829515193 829515228
829517535 829517593
829517833 829517887
829517963 829518013
829518073 829518104
829518256 829518313
829533373 829533425
829543633 829543657
829553173 829553218
829562353 829562404
829571833 829571873
829578733 829578766
829580893 829580926
829581133 829581184
829584073 829584116
829585213 829585255
829593613 829593650
829604053 829604105
829609624 829609633
829611373 829611383
829637773 829637791
829642693 829642747
829654453 829654495
829664413 829664460
829665913 829665946
829668133 829668155
829675873 829675912
829678033 829678067
829679494 829679533
829681753 829681777
829683958 829683973
829686973 829686987
829689133 829689157
829693213 829693262
829704673 829704717
829704841 829704853
829727953 829727994
829736353 829736373
829753393 829753434
829754833 829754844
829788193 829788230
829788435 829788493
829795153 829795177
829809493 829809514
829813153 829813159
829824973 829824982
829835893 829835916
829849033 829849047
829855813 829855855
829858758 829858813
829865413 829865439
829870114 829870153
829877233 829877241
829878541 829878553
829884733 829884789
829886519 829886533
829895953 829895955
829897850 829897873
829909693 829909725
829910763 829910773
829916713 829916727
829925653 829925672
829927249 829927273
829927693 829927747
829927753 829927813
829928893 829928918
829937113 829937146
829941493 829941500
829941577 829941613
829942393 829942424
829943513 829943533
829943653 829943659
829943685 829943713
829946293 829946335
829948228 829948273
829964293 829964301
829965199 829965253
829983193 829983236
829986242 829986253
829997233 829997250
829999385 829999393
830005153 830005164
830006837 830006893
830007433 830007485
830043913 830043957
830072173 830072223
830085853 830085859
830088493 830088500
830089453 830089477
830094733 830094747
830113213 830113217
830135773 830135818
830158273 830158286
830173993 830174020
830180173 830180174
830180893 830180932
830182993 830183006
830192533 830192548
830193313 830193339
830194213 830194261
830227933 830227939
830229973 830230005
830242033 830242064
830260873 830260874
830269873 830269921
830270050 830270053
830270113 830270123
830272273 830272315
830273620 830273653
830274373 830274395
830275513 830275558
830283193 830283219
830285293 830285339
830290906 830290933
830297233 830297239
830301733 830301736
830302933 830302946
830304373 830304410
830310431 830310433
830311033 830311034
830320093 830320104
830328433 830328454
830343913 830343962
830344873 830344893
830347513 830347521
830361493 830361515
830400193 830400207
830404873 830404900
830405893 830405907
830406733 830406759
830409373 830409406
830411713 830411753
830414593 830414643
830417773 830417814
830419333 830419342
830427973 830427974
830433193 830433213
830434213 830434225
830438773 830438792
830443453 830443497
830448853 830448902
830450533 830450542
830455453 830455505
830457133 830457178
830460313 830460357
830489833 830489838
830502193 830502221
830505253 830505269
830518393 830518394
830523133 830523158
830524813 830524819
830527813 830527830
830529493 830529501
830539453 830539468
830540173 830540183
830542993 830542996
830550673 830550689
830553433 830553473
830568493 830568518
830574613 830574652
830587813 830587846
830591173 830591196
830607013 830607025
830607313 830607319
830611153 830611154
830614933 830614963
830615018 830615053
831180133 831180144
831181573 831181625
831183313 831183324
831191233 831191267
831194413 831194421
831200533 831200566
831202933 831202938
831209893 831209905
831213493 831213540
831215833 831215847
831217213 831217227
831255973 831255976
831283693 831283712
831291073 831291113
831295993 831296017
831306613 831306655
831348433 831348434
831356773 831356802
831365053 831365096
831369193 831369243
831372373 831372425
831406355 831406393
831406513 831406551
831437113 831437156
831451393 831451398
831462613 831462617
831466453 831466479
831468295 831468313
831469693 831469739
831469814 831469873
831477433 831477465
831477681 831477733
831480493 831480502
831480555 831480613
831481153 831481184
831481289 831481333
831483553 831483595
831492253 831492301
831496693 831496743
831516613 831516641
831524773 831524793
831527293 831527304
831536353 831536362
831543433 831543480
831546073 831546107
831564493 831564519
831568393 831568395
831571993 831571998
831576133 831576137
831594193 831594230
831598213 831598235
831609433 831609474
831626773 831626821
831650113 831650133
831657193 831657202
831659833 831659848
831665053 831665102
831668713 831668727
831669613 831669643
831672853 831672874
831676993 831677024
831679333 831679348
831694393 831694411
831716773 831716789
831718273 831718318
831725053 831725106
831734293 831734317
831735853 831735891
831736499 831736513
831738373 831738379
831740593 831740619
831744253 831744280
831748753 831748755
831749773 831749777
831752893 831752924
831753673 831753702
831759853 831759891
831760213 831760227
831776893 831776930
831791053 831791069
831791413 831791463
831797473 831797482
831798553 831798572
831806773 831806774
831811183 831811213
831812053 831812065
831825613 831825625
831851413 831851445
831856933 831856947
831858613 831858623
831860713 831860730
831873433 831873463
831880393 831880435
831885013 831885049
831898513 831898556
831903973 831904014
831905653 831905657
831906051 831906073
831906133 831906172
831908113 831908120
831910633 831910637
831910856 831910873
831921373 831921392
831922213 831922253
831924373 831924404
831929533 831929582
831930853 831930867
831934093 831934123
831936553 831936579
831941533 831941564
831946873 831946915
831966853 831966907
831973513 831973550
831975013 831975034
831978433 831978453
831980053 831980077
831990193 831990213
832031053 832031058
832038793 832038827
832051333 832051362
832054093 832054141
832057453 832057457
832069993 832070042
832074853 832074890
832075198 832075213
832122733 832122750
832132693 832132742
832136833 832136857
832139833 832139842
832144153 832144176
832165273 832165324
832167733 832167742
832171453 832171491
832171933 832171952
832174153 832174198
832184953 832184970
832208053 832208102
832213093 832213146
832221433 832221448
832228573 832228613
832247413 832247463
832255633 832255646
832278733 832278743
832305913 832305947
832316458 832316473
832332733 832332764
832382593 832382624
832383733 832383743
832397293 832397335
832414393 832414445
832421053 832421104
832480273 832480305
832505533 832505575
832507273 832507286
832514353 832514361
832521493 832521508
832527553 832527592
832530133 832530156
832541713 832541732
832581553 832581589
832592833 832592882
832614973 832615012
832658713 832658741
832660813 832660820
832696753 832696793
832724113 832724116
832733233 832733240
832735033 832735077
832747573 832747576
832777235 832777273
832777633 832777680
832777808 832777813
832789513 832789522
832790953 832791007
832802053 832802108
832822933 832822937
832835773 832835775
832860193 832860233
832867933 832867941
832881073 832881113
832882513 832882518
832885273 832885316
832904353 832904357
832939813 832939855
832951393 832951416
833006713 833006744
833026393 833026394
833026753 833026799
833027053 833027085
833030353 833030378
833096353 833096364
833110513 833110515
833111413 833111445
833118733 833118747
833122333 833122378
833125993 833126033
833129233 833129254
833132413 833132422
833142973 833142996
833143272 833143273
833183533 833183574
833199613 833199625
833201773 833201797
833203693 833203714
833214371 833214373
833214673 833214695
833217133 833217153
833217279 833217313
833218513 833218539
833218808 833218813
833219173 833219218
833222173 833222203
833225593 833225596
833226051 833226073
833226733 833226750
833228473 833228507
833228929 833228953
833232673 833232726
833236065 833236093
833237350 833237353
833242093 833242140
833255593 833255649
833261473 833261515
833269633 833269673
833270454 833270473
833275033 833275072
833289733 833289755
833290567 833290573
833290873 833290886
833290983 833290993
833292493 833292501
833303953 833303965
833307733 833307757
833310253 833310299
833310582 833310613
833352793 833352797
833358013 833358046
833358110 833358133
833372353 833372383
833386573 833386596
833440573 833440622
833456113 833456116
833465413 833465435
833465532 833465533
833485213 833485225
833485480 833485513
833487613 833487621
833490973 833490976
833491132 833491153
833507953 833507974
833522533 833522535
833544253 833544286
833559013 833559045
833566273 833566284
833568913 833568942
833569448 833569453
833573533 833573577
833588893 833588894
833589913 833589939
833591053 833591080
833612413 833612424
833629453 833629497
833631253 833631255
833639773 833639816
833704093 833704111
833715013 833715056
833717953 833717980
833750893 833750895
833785093 833785097
833803273 833803303
833810773 833810804
833831833 833831878
833836393 833836435
833837713 833837758
833842993 833843029
833843333 833843353
833868853 833868869
833889133 833889156
833890753 833890790
833891817 833891833
833895493 833895519
833915413 833915449
833917273 833917323
833948893 833948943
833955373 833955419
833959993 833960004
833974393 833974397
833979853 833979880
833985013 833985037
833985889 833985913
833999893 833999904
834000056 834000073
834000733 834000756
834003733 834003739
834006553 834006594
834006721 834006733
834007933 834007981
834008402 834008413
834009553 834009565
834079033 834079082
834079237 834079273
834094153 834094192
834127393 834127420
834149713 834149729
834154693 834154726
834157813 834157862
834170353 834170377
834177553 834177607
834216013 834216045
834230953 834230962
834236593 834236598
834267973 834268024
834295153 834295171
834321433 834321476
834322273 834322325
834327313 834327328
834330253 834330272
834332053 834332070
834333073 834333099
834334033 834334048
834349693 834349731
834390853 834390865
834414793 834414824
834418153 834418163
834422833 834422847
834426253 834426266
834429193 834429229
834480313 834480333
834501073 834501105
834501853 834501872
834511873 834511880
834511977 834511993
834514393 834514412
834519253 834519290
834524353 834524366
834563833 834563862
834590233 834590258
834592813 834592834
834650473 834650515
834691333 834691388
834700093 834700112
834753193 834753204
834765313 834765320
834769273 834769298
834774013 834774055
834776233 834776247
834780253 834780286
834784333 834784341
834790873 834790902
834791833 834791843
834793513 834793532
834810733 834810786
834839653 834839677
834842893 834842941
834850933 834850969
834851233 834851258
834871153 834871160
834911353 834911389
834923953 834923971
834928753 834928796
834938833 834938877
834941713 834941739
834946273 834946311
834953353 834953372
834960253 834960260
834968053 834968083
834969673 834969680
834974773 834974782
834974891 834974893
834981553 834981565
834982393 834982419
834986113 834986138
835033573 835033620
835039333 835039376
835043833 835043862
835045573 835045600
835056007 835056013
835082653 835082690
835084272 835084273
835096573 835096615
835096691 835096693
835102753 835102794
835107013 835107043
835109833 835109847
835114873 835114898
835117573 835117591
835118473 835118496
835120273 835120302
835126153 835126176
835126267 835126273
835152288 835152313
835159273 835159309
835169053 835169100
835178113 835178124
835185433 835185483
835188433 835188464
835191913 835191918
835195573 835195624
835198933 835198936
835199052 835199053
835213933 835213959
835222813 835222856
835251673 835251714
835255393 835255402
835258561 835258573
835277893 835277914
835282153 835282181
835285633 835285638
835287733 835287758
835291573 835291580
835294453 835294463
835339513 835339535
835361533 835361560
835361893 835361932
835372273 835372307
835373215 835373233
835375273 835375287
835388473 835388481
835388757 835388773
835426993 835427003
835443253 835443270
835446493 835446519
835448833 835448835
835489753 835489784
835495633 835495637
835507693 835507697
835516573 835516574
835533733 835533772
835541533 835541547
835557373 835557381
835557973 835557994
835586173 835586194
835605853 835605865
835615153 835615173
835619833 835619834
835626073 835626074
835626171 835626193
835626613 835626640
835626694 835626733
835629973 835629995
835636033 835636067
835644073 835644108
835701853 835701887
835712233 835712269
835716707 835716733
835728133 835728180
835772833 835772868
835805953 835805968
835818613 835818631
835841353 835841367
835849813 835849826
835858153 835858188
835861633 835861679
835880053 835880060
835889533 835889574
835890253 835890269
835896973 835897009
835944193 835944218
835966393 835966428
835978633 835978655
835988353 835988356
836000053 836000056
836000633 836000653
836029513 836029553
836030170 836030173
836042293 836042305
836054293 836054321
836064673 836064684
836074033 836074078
836109553 836109555
836122453 836122478
836154373 836154374
836155933 836155978
836165053 836165077
836197033 836197070
836203153 836203177
836220553 836220559
836228533 836228541
836233753 836233790
836238613 836238646
836242208 836242213
836258653 836258677
836259613 836259646
836260260 836260273
836260333 836260334
836293513 836293541
836295073 836295083
836307313 836307342
836314333 836314356
836317033 836317078
836323633 836323655
836334051 836334073
836334733 836334740
836393053 836393089
836427013 836427060
836515633 836515652
836550973 836551024
836562373 836562410
836563586 836563633
836566873 836566877
836577733 836577747
836592733 836592760
836596933 836596973
836600173 836600221
836652493 836652495
836652550 836652553
836653453 836653477
836659513 836659529
836659568 836659573
836661973 836661975
836713693 836713700
836737273 836737318
836739433 836739470
836741113 836741148
836742373 836742400
836744413 836744427
836749633 836749652
836755393 836755425
836757972 836757973
836762353 836762371
836812333 836812380
836829793 836829836
836835651 836835673
836839333 836839372
836844193 836844236
836879113 836879149
836923273 836923304
836924773 836924799
836934013 836934038
836953933 836953974
836974033 836974081
836975473 836975511
836983633 836983656
837005173 837005174
837009302 837009313
837017233 837017262
837023353 837023375
837036973 837036974
837071533 837071590
837086473 837086505
837099313 837099345
837114553 837114600
837119233 837119234
837123493 837123532
837123585 837123613
837124319 837124333
837126133 837126143
837126913 837126921
837146713 837146715
837150406 837150433
837157453 837157462
837160813 837160841
837182653 837182661
837188953 837188987
837242893 837242911
837269593 837269632
837270433 837270452
837304873 837304899
837307873 837307892
837308168 837308173
837324853 837324899
837331993 837332045
837341833 837341848
837345073 837345123
837345493 837345543
837356053 837356071
837357073 837357100
837359713 837359760
837363073 837363109
837370573 837370614
837392593 837392644
837402613 837402664
837416593 837416599
837432433 837432473
837434593 837434594
837437473 837437511
837438433 837438477
837438540 837438553
837439273 837439329
837443593 837443626
837444733 837444753
837452293 837452317
837454633 837454640
837458593 837458598
837460993 837461028
837466093 837466135
837471013 837471045
837473653 837473702
837503773 837503799
837520153 837520155
837520915 837520933
837522284 837522313
837548893 837548899
837612313 837612339
837623173 837623183
837644113 837644147
837651853 837651875
837654193 837654199
837655933 837655936
837696913 837696963
837711433 837711443
837717373 837717377
837758653 837758703
837761173 837761195
837777913 837777919
837780733 837780762
837783553 837783594
837784033 837784043
837794403 837794413
837798793 837798838
837808813 837808849
837827233 837827266
837838093 837838145
837844273 837844282
837869113 837869158
837869223 837869233
837911893 837911915
837921733 837921765
837927373 837927376
837927416 837927433
837935713 837935727
837955093 837955095
837955618 837955633
837957793 837957845
837961213 837961249
837986653 837986684
838005073 838005081
838017553 838017561
838038613 838038620
838051213 838051243
838053853 838053890
838056253 838056289
838056473 838056493
838058473 838058496
838058588 838058593
838059553 838059561
838063152 838063153
838066813 838066880
838105693 838105724
838108213 838108221
838111453 838111503
838114993 838115027
838128133 838128186
838158313 838158356
838162420 838162453
838200193 838200215
838213273 838213288
838238353 838238372
838248433 838248456
838248885 838248913
838257913 838257942
838280413 838280432
838284853 838284857
838313173 838313184
838321633 838321651
838339453 838339507
838345393 838345428
838364593 838364626
838379713 838379744
838387273 838387274
838398253 838398259
838401733 838401760
838406353 838406356
838409593 838409605
838416853 838416876
838426093 838426095
838449313 838449327
838457833 838457837
838461673 838461699
838472233 838472235
838475533 838475558
838479493 838479529
838503913 838503933
838511473 838511486
838543153 838543159
838561513 838561544
838571833 838571836
838577053 838577098
838579693 838579694
838583953 838583973
838588633 838588681
838600873 838600919
838605133 838605177
838607773 838607783
838609633 838609680
838610773 838610814
838615033 838615057
838618453 838618508
838620553 838620568
838629433 838629441
838631833 838631887
838633633 838633671
838637053 838637091
838644879 838644913
838646953 838646996
838650553 838650570
838659373 838659386
838739593 838739628
838766869 838766893
838767433 838767485
838781953 838781982
838831693 838831706
838841375 838841413
838847173 838847185
838847987 838848013
838850953 838850999
838851109 838851133
838851193 838851237
838854253 838854309
838866973 838866999
838868601 838868653
838869493 838869511
838886341 838886353
838888573 838888609
838900513 838900533
838905493 838905514
838968493 838968521
838981753 838981764
839001733 839001778
839021593 839021601
839022416 839022433
839025793 839025825
839042293 839042315
839078833 839078857
839081413 839081422
839082373 839082380
839082793 839082826
839103193 839103223
839110813 839110833
839110916 839110933
839111593 839111594
839126773 839126793
839127262 839127313
839136493 839136520
839146153 839146163
839150293 839150306
839162413 839162429
839168953 839168979
839174173 839174179
839183473 839183485
839188153 839188185
839188389 839188393
839193253 839193303
839194333 839194360
839197033 839197083
839197200 839197213
839206453 839206486
839209333 839209359
839210447 839210473
839213113 839213161
839229673 839229724
839247733 839247749
839250253 839250278
839259433 839259440
839261593 839261632
839264173 839264209
839265098 839265133
839270353 839270399
839281033 839281071
839315173 839315219
839333353 839333393
839342053 839342066
839367433 839367462
839401333 839401355
839444413 839444419
839445410 839445433
839457193 839457224
839462593 839462621
839476153 839476184
839487253 839487304
839518153 839518186
839541313 839541348
839554333 839554371
839554595 839554633
839572993 839573034
839591233 839591279
839597173 839597209
839609053 839609080
839635693 839635726
839642473 839642485
839642648 839642653
839659873 839659878
839678893 839678920
839682313 839682318
839714413 839714421
839716033 839716054
839740513 839740522
839748733 839748773
839763553 839763588
839766673 839766695
839779513 839779556
839780593 839780599
839781709 839781733
839791333 839791336
839791573 839791592
839792401 839792413
839792593 839792595
839793535 839793553
839794153 839794202
839796553 839796601
839796648 839796673
839796793 839796823
839797489 839797513
839797573 839797604
839798692 839798713
839840233 839840238
839847853 839847880
839850853 839850864
839853913 839853942
839873773 839873792
839879893 839879909
839884513 839884540
839919073 839919088
839939293 839939328
839940613 839940619
839949613 839949656
839950993 839951021
839951233 839951248
840001693 840001694
840006853 840006897
840021553 840021600
840024853 840024892
840029593 840029640
840034067 840034093
840035473 840035504
840122233 840122242
840169993 840170031
840180133 840180146
840194173 840194218
840197833 840197877
840197939 840197953
840205573 840205587
840214813 840214846
840220693 840220733
840224893 840224924
840225786 840225793
840226753 840226799
840227053 840227082
840231073 840231120
840280333 840280386
840281953 840281986
840323353 840323391
840363973 840364001
840366973 840367015
840370693 840370723
840374533 840374582
840375973 840375995
840451213 840451227
840457573 840457574
840462493 840462542
840465913 840465950
840466633 840466670
840470113 840470164
840470773 840470778
840476773 840476817
840477553 840477601
840478273 840478284
840478393 840478442
840478993 840479017
840479713 840479727
840482413 840482422
840483493 840483522
840485653 840485673
840528253 840528271
840540253 840540254
840557353 840557362
840562153 840562164
840563100 840563113
840563413 840563418
840563468 840563473
840565273 840565297
840565513 840565535
840613453 840613465
840625693 840625715
840625868 840625873
840626413 840626425
840627313 840627347
840635773 840635813
840638893 840638940
840645253 840645270
840667093 840667141
840673153 840673159
840694453 840694471
840696765 840696793
840697393 840697433
840697446 840697453
840698233 840698277
840710533 840710560
840735193 840735226
840743113 840743138
840749773 840749829
840761953 840761990
840784851 840784873
840798673 840798715
840799507 840799513
840799933 840799934
840802753 840802782
840868873 840868881
840884053 840884092
840885853 840885905
840926473 840926497
840928033 840928048
840956653 840956667
840965533 840965561
840966733 840966743
840968533 840968562
840971593 840971603
840989473 840989490
840990733 840990787
841010833 841010855
841010916 841010953
841014433 841014471
841015573 841015608
841015873 841015902
841042153 841042186
841057993 841057996
841097893 841097925
841108933 841108938
841109473 841109487
841113973 841113982
841116193 841116221
841118353 841118372
841122313 841122351
841125493 841125497
841140853 841140857
841142893 841142922
841178713 841178717
841179013 841179025
841183393 841183426
841188913 841188950
841216393 841216394
841218253 841218276
841232713 841232739
841256953 841256960
841260253 841260263
841261213 841261257
841266733 841266787
841278313 841278361
841278673 841278714
841278773 841278793
841288933 841288954
841296193 841296220
841304593 841304614
841305348 841305373
841316053 841316098
841325581 841325593
841344673 841344708
841380553 841380584
841386973 841386988
841405273 841405299
841411273 841411276
841415473 841415484
841466593 841466645
841473553 841473557
841490893 841490911
841495753 841495810
841496953 841496973
841500253 841500273
841546093 841546129
841573633 841573665
841577593 841577638
841625953 841625993
841626613 841626618
841634413 841634417
841636333 841636364
841644133 841644161
841644733 841644746
841645453 841645499
841646953 841646987
841652593 841652617
841653793 841653807
841654273 841654314
841656493 841656526
841662673 841662676
841667173 841667225
841669993 841670033
841684693 841684714
841684873 841684888
841684914 841684933
841692433 841692466
841692541 841692553
841698733 841698736
841734973 841734977
841750453 841750509
841752913 841752937
841755913 841755939
841761913 841761928
841763990 841764013
841769893 841769943
841780873 841780920
841792213 841792264
841806253 841806267
841820173 841820186
841825033 841825085
841845793 841845800
841849693 841849714
841908253 841908279
841923313 841923341
841965553 841965586
841992313 841992333
842013073 842013078
842030353 842030363
842038633 842038682
842050033 842050037
842054653 842054681
842074633 842074648
842104213 842104255
842139013 842139065
842141953 842141976
842170093 842170131
842188873 842188881
842190973 842190991
842195593 842195622
842199493 842199537
842203633 842203659
842205973 842206023
842210233 842210284
842246473 842246506
842253013 842253021
842266333 842266351
842269933 842269943
842286830 842286853
842354173 842354215
842417953 842417989
842418373 842418402
842419513 842419529
842425033 842425055
842436553 842436603
842447953 842447996
842511253 842511260
842521993 842522026
842529793 842529802
842588293 842588329
842596213 842596235
842596800 842596813
842621173 842621205
842635633 842635641
842683933 842683987
842702833 842702835
842706613 842706664
842712547 842712553
842767633 842767640
842772613 842772642
842781313 842781335
842791933 842791984
842798173 842798174
842807413 842807419
842853553 842853578
842857093 842857113
842881873 842881876
842884873 842884884
842886913 842886961
842909533 842909549
842909642 842909653
842928133 842928136
842930473 842930517
842943433 842943439
843021193 843021217
843053293 843053301
843067033 843067049
843071593 843071615
843075193 843075205
843080713 843080717
843095833 843095840
843116353 843116381
843121633 843121649
843154693 843154694
843196933 843196959
843202033 843202058
843216013 843216039
843231433 843231481
843240311 843240313
843240733 843240754
843242473 843242522
843246553 843246589
843265273 843265296
843287593 843287605
843292633 843292663
843302713 843302716
843305593 843305642
843306613 843306634
843309373 843309397
843334333 843334335
843379513 843379518
843390313 843390341
843394813 843394862
843401353 843401380
843403633 843403650
843404653 843404711
843405853 843405895
843409813 843409840
843415453 843415502
843423553 843423575
843426733 843426746
843443953 843444008
843457153 843457183
843460513 843460542
843485953 843485983
843489433 843489440
843491053 843491067
843492973 843493003
843525673 843525677
843570973 843570996
843577393 843577403
843587353 843587387
843597673 843597681
843603913 843603943
843606073 843606112
843619453 843619472
843635473 843635491
843662233 843662260
843663313 843663363
843675193 843675216
843716293 843716318
843721513 843721565
843730153 843730157
843765253 843765296
843770833 843770872
843810373 843810380
843826933 843826969
843832333 843832382
843833053 843833062
843836293 843836332
843858253 843858258
843891073 843891098
843949033 843949044
843981613 843981622
843988033 843988072
843992953 843992989
843998833 843998870
843999973 843999985
844001533 844001568
844001644 844001653
844013293 844013324
844020553 844020559
844024393 844024412
844026373 844026422
844029673 844029683
844030652 844030693
844030813 844030872
844044193 844044230
844085353 844085359
844088173 844088212
844097567 844097593
844097653 844097705
844114273 844114275
844127293 844127307
844154053 844154084
844167973 844167991
844177093 844177102
844183753 844183771
844187353 844187393
844192153 844192156
844193653 844193656
844199113 844199155
844215613 844215654
844241053 844241089
844270273 844270312
844271533 844271590
844316053 844316090
844321453 844321485
844328113 844328151
844352713 844352731
844368349 844368373
844394293 844394332
844413793 844413798
844416913 844416937
844425913 844425943
844438033 844438038
844439053 844439089
844440553 844440571
844447153 844447182
844450993 844450999
844463653 844463666
844469206 844469233
844470133 844470160
844471813 844471833
844472053 844472072
844474389 844474393
844498093 844498120
844509493 844509515
844517053 844517100
844519993 844520040
844521193 844521196
844525153 844525164
844562773 844562790
844582273 844582281
844586773 844586779
844590073 844590103
844596733 844596765
844599913 844599958
844607413 844607434
844608793 844608838
844612393 844612418
844614013 844614033
844615813 844615838
844620853 844620878
844646833 844646863
844674013 844674027
844684633 844684643
844691413 844691415
844696213 844696215
844700953 844700990
844702753 844702769
844773793 844773804
844782433 844782471
844797313 844797352
844801813 844801852
844806313 844806359
844808293 844808326
844813333 844813367
844813746 844813753
844837633 844837678
844861633 844861668
844863973 844864017
844869673 844869709
844880413 844880457
844882813 844882830
844890253 844890273
844891393 844891406
844891565 844891573
844908493 844908542
844912213 844912249
844916713 844916748
844923433 844923445
844923543 844923553
844924333 844924335
844929793 844929794
844958113 844958136
844967893 844967914
844995373 844995397
844995702 844995733
844996513 844996544
844996749 844996753
845011693 845011701
845017033 845017082
845031973 845032015
845039953 845039997
845279413 845279437
845283133 845283168
845291773 845291801
845296213 845296222
845299273 845299277
845301553 845301584
845307193 845307241
845318233 845318244
845325433 845325436
845331613 845331643
845332187 845332213
845356693 845356698
845357173 845357205
845364733 845364769
845376673 845376675
845393713 845393754
845399893 845399928
845403853 845403887
845415193 845415215
845444653 845444660
845449813 845449837
845466133 845466160
845468833 845468849
845469073 845469106
845473333 845473336
845478253 845478291
845482033 845482059
845484073 845484120
845490673 845490674
845493853 845493871
845536093 845536099
845540713 845540743
845547973 845548021
845575633 845575668
845620693 845620706
845638633 845638677
845648893 845648935
845650753 845650777
845657053 845657102
845659753 845659778
845661493 845661519
845665453 845665500
845675593 845675605
845732113 845732155
845733793 845733801
845795533 845795534
845798893 845798932
845809093 845809114
845817253 845817308
845860753 845860812
845882413 845882430
845886433 845886465
845896813 845896855
845902453 845902462
845906053 845906062
845912833 845912838
846098953 846098966
846099913 846099924
846104653 846104675
846115453 846115491
846115563 846115573
846116233 846116279
846116344 846116353
846117913 846117920
846119413 846119420
846124416 846124453
846124753 846124768
846125713 846125748
846168613 846168657
846175213 846175238
846230533 846230575
846238333 846238347
846239626 846239653
846250093 846250137
846271093 846271113
846275473 846275481
846279913 846279966
846408613 846408633
846432013 846432024
846432848 846432853
846436153 846436161
846442633 846442659
846444913 846444952
846454213 846454242
846460813 846460850
846465913 846465929
846475693 846475696
846493873 846493905
846495493 846495504
846512293 846512346
846519973 846519996
846546313 846546331
846547213 846547260
846577453 846577490
846604093 846604111
846605113 846605122
846620713 846620740
846623533 846623578
846662773 846662814
846666373 846666393
846689653 846689654
846691693 846691736
846702553 846702607
846728173 846728200
846728269 846728293
846743893 846743897
846753310 846753313
846781993 846782034
846782590 846782593
846833773 846833785
846842233 846842261
846843793 846843808
846871726 846871753
846874453 846874465
846878293 846878321
846889993 846890002
846945553 846945609
847009453 847009469
847029373 847029379
847035553 847035589
847040173 847040197
847077133 847077162
847094413 847094442
847115473 847115524
847119433 847119466
847120693 847120698
847126333 847126358
847127893 847127907
847135513 847135560
847137253 847137262
847139233 847139266
847144033 847144053
847148893 847148942
847151293 847151309
847182013 847182055
847192213 847192230
847201813 847201849
847204873 847204879
847212013 847212041
847219573 847219590
847222033 847222086
847224733 847224748
847225813 847225826
847243693 847243705
847279153 847279173
847289293 847289303
847292173 847292195
847294933 847294936
847295893 847295898
847314433 847314434
847328533 847328557
847329133 847329136
847332913 847332936
847334413 847334425
847338613 847338631
847345933 847345939
847355353 847355365
847374793 847374811
847379473 847379483
847383073 847383075
847394773 847394786
847416973 847416987
847441333 847441363
847442098 847442113
847452073 847452084
847453213 847453236
847459753 847459762
847465993 847466045
847471213 847471243
847482673 847482684
847482820 847482853
847483213 847483250
847484893 847484895
847487640 847487653
847489213 847489250
847491193 847491213
847505233 847505285
847517533 847517583
847525393 847525412
847527253 847527265
847527359 847527373
847528513 847528544
847530673 847530711
847530774 847530793
847534453 847534463
847545253 847545265
847546273 847546307
847549753 847549801
847554133 847554184
847560509 847560553
847560793 847560812
847560986 847561033
847617133 847617144
847619875 847619893
847625233 847625253
847729633 847729639
847731673 847731726
847764373 847764382
847811763 847811773
847812422 847812433
847816333 847816340
847824613 847824618
847836553 847836599
847880653 847880663
847894993 847895006
847949173 847949226
847963213 847963221
847978873 847978917
847983313 847983326
847990273 847990293
847998613 847998669
848021053 848021078
848042773 848042802
848048953 848048961
848060413 848060419
848061973 848062001
848063293 848063332
848066653 848066667
848073313 848073333
848095633 848095661
848132533 848132552
848147876 848147893
848148373 848148411
848152333 848152384
848154313 848154347
848158007 848158033
848161933 848161985
848164933 848164943
848194513 848194554
848196913 848196950
848215153 848215205
848222833 848222877
848226373 848226389
848235433 848235475
848236753 848236781
848240953 848240971
848243773 848243784
848247373 848247427
848259493 848259498
848272813 848272847
848275153 848275162
848303653 848303695
848323393 848323408
848329693 848329731
848332393 848332418
848334493 848334506
848334773 848334793
848344993 848345011
848361613 848361653
848390653 848390659
848409073 848409079
848425513 848425558
848430973 848431012
848434273 848434307
848435713 848435748
848439133 848439176
848445832 848445853
848502433 848502438
848507953 848507967
848562553 848562565
848566033 848566048
848566142 848566153
848568733 848568740
848577373 848577397
848647573 848647601
848661973 848661994
848665453 848665478
848671273 848671304
848677333 848677354
848696413 848696446
848717893 848717920
848735053 848735069
848744173 848744224
848755453 848755504
848756953 848756986
848760913 848760969
848841493 848841516
848843893 848843911
848846473 848846497
848903173 848903196
848910133 848910142
848917693 848917703
848922673 848922690
848923573 848923583
848938933 848938956
849049753 849049767
849052393 849052429
849070453 849070469
849071643 849071653
849085196 849085213
849090493 849090539
849093853 849093870
849098173 849098194
849101173 849101187
849109753 849109771
849111133 849111170
849114839 849114853
849114913 849114917
849116713 849116756
849119593 849119621
849120359 849120373
849130933 849130934
849131041 849131053
849131447 849131473
849131533 849131563
849131754 849131773
849132013 849132044
849132189 849132193
849133453 849133478
849133626 849133633
849143953 849143985
849144114 849144133
849145273 849145303
849149893 849149927
849150049 849150073
849158833 849158864
849172513 849172532
849178693 849178720
849183553 849183577
849189973 849190009
849190453 849190463
849214573 849214588
849254233 849254240
849255311 849255313
849268933 849268969
849269653 849269684
849274933 849274968
849321793 849321809
849340753 849340770
849356833 849356854
849383137 849383173
849384433 849384448
849384613 849384664
849388393 849388420
849388678 849388693
849396853 849396868
849406093 849406139
849428113 849428140
849435553 849435568
849450193 849450196
849467413 849467446
849470473 849470487
849473768 849473773
849488893 849488911
849491713 849491715
849514753 849514770
849526453 849526476
849527978 849528013
849531913 849531927
849542953 849542967
849544813 849544853
849552373 849552423
849567613 849567655
849601933 849601969
849614353 849614379
849614458 849614473
849616813 849616827
849617953 849617978
849645493 849645501
849647053 849647074
849648373 849648380
849649333 849649335
849649693 849649738
849686533 849686571
849687661 849687673
849688153 849688179
849688627 849688633
849705193 849705195
849709153 849709196
849710653 849710663
849717073 849717119
849717913 849717943
849718333 849718357
849720373 849720379
849743413 849743431
849745813 849745829
849746023 849746053
849750013 849750018
849877153 849877177
849878173 849878190
849880273 849880291
849881773 849881814
849888133 849888166
849890113 849890152
849890413 849890446
849894433 849894488
849947773 849947810
849948373 849948379
849966613 849966642
850004168 850004173
850004687 850004713
850005466 850005493
850012333 850012355
850047193 850047203
850047433 850047446
850054333 850054363
850080296 850080313
850080373 850080377
850087993 850087995
850089004 850089013
850132990 850132993
850142113 850142149
850144813 850144843
850145644 850145653
850150093 850150129
850160953 850160965
850169053 850169082
850191673 850191693
850204633 850204667
850221613 850221639
850227913 850227942
850229713 850229733
850232893 850232908
850236913 850236922
850239493 850239525
850242073 850242129
850243333 850243370
850243500 850243513
850243633 850243662
850247173 850247214
850247281 850247293
850251913 850251921
850258753 850258785
850258908 850258933
850258993 850259035
850259094 850259113
850287613 850287647
850313353 850313364
850318273 850318325
850328893 850328897
850344786 850344793
850345693 850345699
850347553 850347557
850374073 850374086
850376773 850376789
850379233 850379235
850380896 850380913
850398373 850398397
850425553 850425562
850433653 850433685
850452913 850452946
850458673 850458684
850462453 850462458
850482313 850482365
850489633 850489659
850494733 850494770
850496353 850496372
850502833 850502884
850505473 850505494
850510453 850510472
850510627 850510633
850511953 850512008
850514233 850514266
850515953 850515973
850519033 850519049
850536313 850536369
850547533 850547566
850549213 850549220
850556653 850556688
850569313 850569331
850610533 850610542
850648393 850648440
850657333 850657387
850660633 850660676
850669093 850669117
850689733 850689736
850689909 850689913
850720573 850720595
850740973 850740996
850743433 850743474
850749193 850749239
850760593 850760605
850760762 850760773
850761374 850761481
850761490 850761493
850762093 850762108
850773553 850773580
850774993 850775030
850776793 850776801
850776877 850776913
850793173 850793186
850809913 850809945
850822393 850822430
850832473 850832479
850856893 850856936
850912513 850912538
850920433 850920455
850920525 850920553
850925653 850925662
850925771 850925773
850927453 850927506
850946953 850947009
850969273 850969318
850985113 850985144
851049973 851050028
851062573 851062613
851132353 851132358
851149933 851149960
851159713 851159767
851170153 851170177
851171773 851171814
851196013 851196055
851226433 851226436
851244073 851244121
851247433 851247482
851264533 851264543
851312593 851312609
851326393 851326407
851352073 851352106
851360833 851360858
851369053 851369057
851373913 851373959
851392055 851392093
851433613 851433644
851437093 851437138
851443609 851443633
851454493 851454541
851454715 851454733
851462173 851462193
851498533 851498536
851501053 851501061
851502373 851502402
851502793 851502826
851583193 851583211
851618893 851618920
851619292 851619313
851658973 851658981
851661732 851661733
851664853 851664864
851686933 851686944
851766973 851767019
851770933 851770943
851783473 851783490
851783732 851783773
851784133 851784136
851786953 851787006
851789953 851789978
851800753 851800755
851860393 851860425
851871553 851871591
851878873 851878885
851888533 851888589
851892373 851892377
851907853 851907862
851928973 851928988
851951053 851951059
851954233 851954259
851957533 851957552
851973853 851973873
851974197 851974213
851993953 851993970
852017713 852017744
852025693 852025716
852031273 852031291
852048433 852048461
852065533 852065547
852070633 852070660
852076273 852076293
852102793 852102818
852134593 852134623
852134981 852135013
852156193 852156200
852213193 852213234
852213853 852213899
852214295 852214333
852216463 852216493
852216913 852216927
852255673 852255709
852292933 852292955
852310513 852310556
852315553 852315556
852320893 852320929
852325273 852325298
852330613 852330616
852331513 852331529
852338713 852338734
852351553 852351563
852382813 852382863
852389413 852389435
852390853 852390868
852393248 852393253
852393793 852393825
852425053 852425056
852426133 852426147
852426237 852426253
852473233 852473264
852475753 852475784
852476946 852476953
852479413 852479437
852483073 852483098
852486133 852486180
852491233 852491267
852499573 852499628
852507553 852507597
852509053 852509060
852533113 852533142
852535873 852535893
852556753 852556776
852563593 852563635
852564253 852564290
852566293 852566299
852568617 852568633
852569413 852569459
852569528 852569533
852573253 852573286
852577633 852577653
852579519 852579553
852585013 852585063
852588493 852588526
852589273 852589280
852626053 852626082
852643033 852643053
852644173 852644189
852644593 852644624
852651133 852651143
852652513 852652538
852660193 852660196
852670093 852670109
852674413 852674419
852676213 852676241
852684253 852684257
852747613 852747660
852764113 852764162
852798973 852798978
852893113 852893152
852898633 852898668
852903793 852903850
852913213 852913216
852917473 852917495
852926473 852926480
852930133 852930138
852932653 852932666
852973633 852973655
852998233 852998236
853034533 853034543
853056073 853056106
853072153 853072196
853075213 853075230
853086373 853086386
853086509 853086574
853086704 853086733
853086793 853086799
853087029 853087033
853095913 853095932
853115233 853115288
853128733 853128786
853137253 853137291
853170493 853170540
853172533 853172563
853180093 853180147
853181473 853181503
853183033 853183053
853184773 853184819
853187413 853187417
853189093 853189120
853206973 853206983
853236793 853236820
853243153 853243164
853245973 853246000
853246513 853246553
853246753 853246775
853252773 853252813
853254433 853254463
853256233 853256256
853256386 853256413
853256653 853256662
853256737 853256773
853259353 853259411
853270993 853271022
853311793 853311833
853316713 853316751
853322953 853322964
853333813 853333848
853338253 853338254
853393393 853393447
853401313 853401341
853415293 853415320
853439173 853439176
853440193 853440217
853444333 853444350
853447093 853447112
853448653 853448677
853451233 853451273
853479733 853479756
853502473 853502489
