815916114 815916150
815992871 815992881
816066502 816066562
816076054 816076114
816096137 816096197
816097595 816097655
816099118 816099178
816259141 816259201
816260104 816260164
816269301 816269361
816276827 816276887
816288525 816288585
816290861 816290921
816305413 816305473
816308846 816308906
816311448 816311508
816314352 816314412
816318201 816318261
816323922 816323982
816324595 816324655
816330384 816330444
816337551 816337611
816341947 816342007
816348233 816348293
816358841 816358901
816359518 816359578
816364847 816364907
816368131 816368191
816370315 816370375
816376230 816376290
816416482 816416542
816437892 816437952
816440334 816440394
816445980 816446040
816473668 816473728
816480911 816480971
816484579 816484639
816488408 816488468
816512234 816512294
816518419 816518479
816526049 816526109
816527397 816527457
816557345 816557405
816560254 816560314
816567524 816567584
816578630 816578690
816581340 816581400
816593699 816593759
816615308 816615364
816619547 816619607
816654949 816655009
816662875 816662935
816665639 816665699
816675811 816675871
816693845 816693905
816698534 816698587
816707342 816707402
816749389 816749449
816752792 816752852
816759437 816759497
816769410 816769470
816771648 816771708
816773146 816773206
816775536 816775596
816783775 816783835
816792074 816792134
816825791 816825851
816830649 816830709
816864042 816864102
816913335 816913395
816916238 816916298
816918968 816919028
816966377 816966437
816980569 816980629
817027227 817027287
817034104 817034164
817061457 817061517
817120094 817120154
817125641 817125701
817142721 817142781
817147265 817147325
817211958 817212018
817218003 817218063
817229278 817229338
817231667 817231727
817232710 817232770
817242142 817242202
817247532 817247592
817248395 817248455
817264152 817264212
817287058 817287118
817299613 817299673
817308558 817308618
817365322 817365382
817395134 817395194
817401481 817401541
817403841 817403901
817415984 817416044
817426358 817426418
817447570 817447630
817462744 817462804
817473060 817473120
817476586 817476646
817477531 817477591
817542127 817542187
817552567 817552627
817565839 817565899
817587287 817587347
817588104 817588105
817588111 817588128
817594094 817594154
817632884 817632944
817635038 817635098
817638163 817638223
817661761 817661821
817698526 817698586
817700129 817700189
817719034 817719094
817748042 817748102
817750457 817750517
817769266 817769326
817771721 817771781
817781866 817781926
817817191 817817251
817855682 817855742
817860364 817860424
817879066 817879126
817900412 817900472
817901466 817901526
817908695 817908755
817909604 817909664
817995442 817995502
818060359 818060419
818064974 818065034
818071028 818071088
818079710 818079770
818082507 818082567
818169968 818170028
818259595 818259655
818266273 818266330
818279055 818279115
818318833 818318893
818326305 818326365
818328381 818328441
818334238 818334298
818339565 818339625
818347792 818347852
818371431 818371438
818383706 818383766
818393737 818393797
818409455 818409515
818419923 818419983
818427120 818427180
818480309 818480369
818495043 818495100
818504218 818504275
818515029 818515089
818601825 818601885
818615583 818615643
818621212 818621272
818623757 818623817
818624443 818624503
818633992 818634052
818637626 818637686
818640983 818641043
818643401 818643461
818648301 818648361
818661087 818661147
818666553 818666613
818737982 818737989
818764234 818764294
818775275 818775328
818794351 818794411
818795929 818795989
818831724 818831784
818839946 818840006
818920175 818920235
818935947 818936007
818992506 818992566
819040971 819041031
819054581 819054641
819075106 819075166
819088873 819088933
819093028 819093088
819096652 819096712
819122870 819122930
819181938 819181978
819183883 819183943
819206556 819206600
819249851 819249911
819291038 819291098
819303733 819303793
819316488 819316548
819320539 819320599
819323794 819323854
819384007 819384067
819410131 819410191
819480887 819480903
819542236 819542296
819557228 819557288
819646926 819646986
819725519 819725562
819727899 819727950
819765707 819765767
819776161 819776221
819787339 819787389
819800333 819800393
819917219 819917279
819961013 819961073
819986115 819986175
819996582 819996614
820011344 820011404
820019580 820019640
820049789 820049849
820137328 820137388
820138462 820138522
820160653 820160713
820173191 820173251
820179790 820179850
820183986 820184046
820201828 820201888
820204032 820204092
820218549 820218609
820244183 820244243
820262605 820262665
820268937 820268997
820274722 820274782
820316781 820316841
820327767 820327827
820341989 820342049
820372357 820372417
820382203 820382263
820398970 820399030
820415717 820415777
820419626 820419635
820422698 820422743
820438185 820438245
820455063 820455123
820473571 820473631
820489741 820489801
820500144 820500204
820501156 820501216
820554303 820554351
820589290 820589350
820704780 820704840
820718728 820718788
820756039 820756099
820772834 820772894
820792384 820792444
820847873 820847931
820884835 820884860
820892694 820892754
820913893 820913932
820926443 820926475
820933397 820933456
820965900 820965960
821008370 821008429
821009802 821009862
821019771 821019831
821023145 821023205
821024433 821024493
821039072 821039132
821045193 821045220
821050457 821050517
821053083 821053143
821106364 821106424
821109092 821109152
821110797 821110857
821123101 821123161
821127871 821127922
821173739 821173799
821187842 821187902
821197999 821198059
821230166 821230226
821237755 821237815
821243112 821243172
821284094 821284154
821290767 821290827
821445326 821445377
821458476 821458514
821467445 821467495
821468977 821469037
821519316 821519376
821664912 821664972
821690106 821690166
821732714 821732774
821757214 821757274
821780285 821780345
821783683 821783743
821928267 821928327
821984639 821984699
821985951 821986011
821997360 821997418
822027328 822027388
822033044 822033104
822054380 822054440
822065784 822065844
822084966 822085026
822093269 822093329
822104872 822104932
822135186 822135246
822139808 822139868
822140771 822140831
822170450 822170497
822228287 822228347
822230528 822230588
822243534 822243594
822250897 822250953
822262664 822262724
822293640 822293700
822295587 822295647
822309276 822309336
822320515 822320575
822326285 822326345
822333169 822333229
822348154 822348214
822349594 822349654
822350223 822350243
822387009 822387069
822387627 822387687
822403522 822403582
822406524 822406567
822417416 822417476
822459863 822459923
822463076 822463136
822471761 822471821
822498748 822498808
822510594 822510654
822513334 822513394
822520029 822520089
822522609 822522669
822524812 822524872
822531437 822531494
822544951 822545011
822548154 822548214
822629264 822629324
822664711 822664771
822668169 822668229
822669075 822669135
822746575 822746635
822748337 822748397
822749668 822749728
822752504 822752522
822754168 822754228
822834874 822834934
822836125 822836185
822837102 822837162
822846042 822846102
822848857 822848917
822850289 822850349
822853871 822853931
822856620 822856680
822860356 822860416
822866283 822866343
822868586 822868646
822894354 822894414
822920443 822920503
822927566 822927626
822938043 822938103
822980061 822980121
823021971 823022031
823030241 823030300
823036449 823036509
823074595 823074655
823080479 823080539
823100222 823100282
823108259 823108319
823111415 823111475
823131154 823131214
823164059 823164119
823193510 823193570
823194541 823194601
823242578 823242638
823266130 823266190
823272081 823272141
823275145 823275205
823292060 823292120
823297089 823297149
823300769 823300829
823333807 823333867
823346046 823346106
823353364 823353424
823354275 823354335
823414689 823414749
823440328 823440388
823440844 823440890
823442150 823442210
823444410 823444470
823446770 823446830
823449911 823449970
823454311 823454371
823456575 823456634
823461061 823461121
823463120 823463180
823526601 823526661
823545286 823545346
823547888 823547948
823580111 823580171
823930924 823930984
823938513 823938573
823958874 823958934
824012961 824013021
824040003 824040063
824045096 824045156
824056118 824056178
824064569 824064629
824095736 824095796
824128356 824128416
824131440 824131500
824135490 824135550
824138741 824138801
824147881 824147941
824189713 824189773
824214485 824214545
824312807 824312867
824364737 824364797
824373072 824373132
824387471 824387531
824390294 824390350
824454255 824454315
824479672 824479704
824480335 824480367
824506847 824506907
824558573 824558633
824561635 824561646
824570483 824570543
824646320 824646375
824649915 824649975
824652641 824652701
824655357 824655417
824659659 824659719
824669852 824669912
824677752 824677812
824679700 824679760
824701420 824701480
824706412 824706472
824731137 824731197
824734476 824734536
824738784 824738844
824743034 824743094
824764979 824765039
824778531 824778591
824790850 824790910
824804164 824804224
824821913 824821973
824831182 824831242
824851745 824851805
824865939 824865999
824866586 824866594
824902055 824902115
824924107 824924167
824936494 824936554
824951361 824951421
824960346 824960406
824965560 824965620
824971959 824972019
824973692 824973752
824988400 824988460
824991225 824991285
825004279 825004339
825006194 825006254
825026095 825026155
825031421 825031481
825039105 825039165
825048230 825048290
825049816 825049876
825053830 825053890
825060104 825060164
825061678 825061738
825064105 825064165
825066163 825066223
825069318 825069378
825072714 825072774
825077174 825077234
825084213 825084273
825106879 825106916
825109604 825109664
825113574 825113634
825117159 825117219
825119306 825119366
825121791 825121851
825127936 825127996
825130110 825130170
825135726 825135786
825143682 825143722
825216921 825216981
825250585 825250645
825256589 825256649
825257711 825257771
825259244 825259304
825265699 825265759
825304532 825304555
825338630 825338664
825405861 825405921
825423540 825423600
825425764 825425824
825427228 825427288
825428321 825428381
825433733 825433793
825434887 825434947
825469280 825469340
825471816 825471831
825495406 825495454
825518949 825519009
825536198 825536258
825541886 825541946
825544171 825544231
825550005 825550065
825585692 825585752
825589876 825589936
825591801 825591861
825603555 825603613
825605312 825605372
825610371 825610431
825625496 825625556
825629740 825629800
825682943 825683003
825691699 825691758
825698323 825698383
825709312 825709372
825719137 825719197
825721715 825721738
825751605 825751665
825771214 825771274
825777028 825777087
825867746 825867806
825880075 825880135
825897305 825897365
825901542 825901602
825905808 825905868
825914636 825914696
825921001 825921061
825928282 825928342
825932730 825932790
825943750 825943810
825947223 825947283
825989669 825989729
826003385 826003434
826006204 826006264
826011918 826011978
826014751 826014811
826023260 826023320
826025259 826025319
826031853 826031913
826036014 826036074
826037166 826037226
826041658 826041718
826059269 826059329
826073502 826073562
826081256 826081316
826094682 826094742
826097085 826097145
826106712 826106772
826118254 826118314
826123420 826123480
826124484 826124544
826135320 826135380
826139176 826139236
826155783 826155843
826167590 826167650
826170459 826170519
826207328 826207388
826215227 826215287
826221546 826221606
826235781 826235841
826243220 826243280
826250437 826250497
826265080 826265140
826278787 826278847
826282600 826282660
826289149 826289182
826293674 826293734
826295267 826295327
826311111 826311171
826314499 826314547
826322183 826322243
826342142 826342202
826356056 826356116
826376001 826376061
826463255 826463315
826471407 826471467
826474348 826474385
826484742 826484802
826489105 826489165
826494457 826494517
826498880 826498884
826531564 826531624
826541614 826541674
826548820 826548880
826560277 826560307
826574925 826574985
826579953 826579994
826580509 826580534
826593826 826593886
826599896 826599956
826636647 826636707
826639203 826639263
826646654 826646714
826648945 826649005
826651264 826651324
826653324 826653384
826657888 826657948
826660287 826660347
826663137 826663197
826676690 826676750
826681059 826681119
826887850 826887910
826892832 826892892
826907125 826907185
826912046 826912106
826928074 826928134
826932968 826933028
826936303 826936363
826945405 826945465
826955771 826955831
826981956 826981999
826985721 826985781
826987235 826987295
826991518 826991576
827007762 827007822
827014741 827014801
827032296 827032356
827042364 827042424
827058506 827058566
827064135 827064195
827069169 827069229
827076693 827076752
827085122 827085182
827093518 827093578
827095520 827095580
827126689 827126749
827155231 827155291
827161350 827161410
827167083 827167143
827172512 827172572
827178562 827178622
827182293 827182353
827183902 827183919
827190148 827190208
827193285 827193345
827195829 827195889
827201714 827201774
827213038 827213098
827240105 827240165
827250483 827250543
827260165 827260225
827278282 827278342
827292926 827292986
827311242 827311302
827352166 827352226
827357119 827357179
827365309 827365369
827441395 827441455
827447476 827447536
827451113 827451173
827458529 827458533
827496664 827496724
827499607 827499667
827522126 827522186
827525793 827525853
827529862 827529922
827532995 827533055
827539981 827540041
827545941 827546000
827583262 827583276
827586490 827586550
827590634 827590684
827593199 827593259
827594643 827594701
827596698 827596758
827616154 827616157
827618544 827618604
827621052 827621112
827646072 827646132
827670676 827670692
827680788 827680848
827685858 827685918
827687975 827688035
827695120 827695180
827700779 827700828
827755039 827755040
827760685 827760745
827769513 827769570
827775967 827776027
827781649 827781709
827782983 827783043
827796557 827796617
827800865 827800925
827806206 827806266
827845908 827845957
827847901 827847961
827869004 827869064
827879127 827879187
827902530 827902590
827907523 827907583
827912095 827912155
827924506 827924566
827936395 827936455
827951309 827951369
827956207 827956267
827965201 827965261
827973657 827973717
827977365 827977425
827989032 827989092
827997131 827997191
828017319 828017379
828020625 828020685
828030161 828030221
828060935 828060995
828066733 828066793
828099018 828099058
828104770 828104778
828106674 828106734
828181966 828182026
828185396 828185456
828265292 828265352
828270333 828270393
828276707 828276767
828344941 828345001
828352398 828352408
828435638 828435698
828447491 828447516
828452260 828452320
828965918 828965978
828976941 828976986
829054392 829054451
829057493 829057553
829175497 829175557
829213958 829214018
829229249 829229309
829231321 829231357
829239411 829239471
829242733 829242793
829293500 829293560
829303556 829303616
829317311 829317371
829325673 829325733
829332181 829332241
829345966 829346026
829356266 829356326
829366694 829366754
829373215 829373275
829391877 829391937
829395718 829395773
829406659 829406719
829411381 829411435
829423824 829423884
829447740 829447800
829465260 829465320
829481057 829481117
829482340 829482400
829505219 829505279
829533367 829533427
829543599 829543659
829553160 829553220
829562345 829562405
829571814 829571874
829581126 829581186
829584058 829584118
829585197 829585257
829593592 829593652
829604046 829604106
829611326 829611385
829637733 829637793
829642690 829642750
829664402 829664462
829668097 829668157
829675853 829675913
829678009 829678069
829681719 829681779
829686928 829686988
829693204 829693264
829727935 829727995
829736315 829736375
829754786 829754846
829795118 829795178
829824924 829824984
829835858 829835918
829855796 829855856
829865381 829865441
829877182 829877242
829895902 829895958
829909667 829909727
829916669 829916729
829928859 829928919
829937087 829937147
829942366 829942426
829946278 829946338
829964243 829964303
829983178 829983238
829997192 829997252
830005106 830005166
830007463 830007488
830072164 830072224
830089418 830089478
830094691 830094749
830158227 830158287
830173962 830174022
830180116 830180176
830180914 830180935
830180966 830180974
830182948 830183008
830194203 830194263
830227880 830227940
830242006 830242066
830260816 830260876
830272272 830272318
830274337 830274397
830285281 830285341
830301678 830301738
830310976 830311036
830328395 830328455
830347463 830347523
830361457 830361517
830400149 830400209
830404842 830404902
830405315 830405337
830405849 830405909
830406701 830406761
830409347 830409407
830411694 830411754
830412792 830412852
830414584 830414644
830415299 830415301
830416645 830416687
830417755 830417815
830419284 830419344
830427916 830427976
830433154 830433214
830434167 830434227
830438734 830438794
830443439 830443499
830448844 830448904
830450484 830450544
830455447 830455507
830457120 830457180
830460299 830460359
830489780 830489840
830502163 830502223
830505211 830505271
830524761 830524821
830530754 830530814
830535912 830535972
830540124 830540184
830542938 830542998
830550631 830550691
830553414 830553474
830568459 830568519
830574595 830574654
830587787 830587847
830591138 830591198
830611122 830611157
831180086 831180146
831181566 831181626
831183266 831183326
831191208 831191268
831194363 831194423
831195061 831195086
831200508 831200568
831209847 831209907
831213481 831213541
831215789 831215849
831217635 831217695
831255918 831255978
831283654 831283714
831291055 831291115
831295958 831296018
831306597 831306657
831348394 831348437
831356743 831356803
831365038 831365098
831369185 831369245
831372366 831372426
831374058 831374062
831406492 831406552
831437097 831437157
831466421 831466481
831483537 831483597
831492242 831492302
831494052 831494112
831496685 831496745
831516582 831516642
831524735 831524795
831527245 831527305
831536314 831536365
831543421 831543481
831546048 831546108
831568337 831568397
831571939 831571999
831576079 831576139
831594172 831594232
831598177 831598237
831609415 831609475
831626763 831626823
831627876 831627919
831650074 831650134
831657143 831657203
831659790 831659850
831662113 831662173
831665043 831665103
831668669 831668729
831669585 831669645
831672815 831672875
831676966 831677026
831679290 831679350
831694352 831694412
831716730 831716790
831718260 831718320
831725047 831725107
831734259 831734319
831738321 831738381
831740560 831740620
831744222 831744282
831749719 831749779
831772394 831772454
831776872 831776932
831791405 831791465
831798513 831798573
831806716 831806776
831812007 831812067
831825566 831825626
831850154 831850170
831851387 831851447
831856888 831856948
831858565 831858625
831860671 831860731
831871888 831871948
831873405 831873465
831880376 831880436
831884990 831885050
831898498 831898558
831903969 831904016
831908070 831908122
831911599 831911654
831936520 831936580
831941505 831941565
831946856 831946916
831966848 831966908
831973492 831973552
831974975 831975035
831978394 831978454
831980018 831980078
832030999 832031059
832038768 832038828
832051303 832051363
832054082 832054142
832057399 832057459
832069984 832070044
832122692 832122752
832136799 832136859
832165266 832165326
832167683 832167743
832174139 832174199
832208043 832208103
832213088 832213148
832228555 832228615
832332706 832332766
832382565 832382625
832397277 832397337
832414387 832414447
832421047 832421106
832480247 832480307
832507228 832507288
832514303 832514363
832521495 832521511
832527558 832527595
832530136 832530159
832592824 832592884
832614981 832615015
832658682 832658742
832679178 832679228
832696795 832696796
832724058 832724118
832747518 832747578
832790949 832791009
832802050 832802110
832822879 832822939
833006686 833006746
833027038 833027088
833030320 833030380
833096307 833096367
833111395 833111447
833118688 833118748
833122319 833122379
833125975 833126035
833129222 833129257
833146579 833146630
833183515 833183575
833199569 833199628
833201743 833201800
833232668 833232728
833242082 833242142
833255591 833255651
833275014 833275074
833292443 833292503
833352738 833352798
833440563 833440623
833487562 833487622
833522476 833522536
833544227 833544287
833566225 833566285
833631197 833631257
833675159 833675164
833714997 833715057
833717926 833717983
833807235 833807295
833810751 833810806
833837700 833837760
833868837 833868871
833895462 833895522
833917265 833917325
833948893 833948946
833955360 833955420
833959946 833960006
834127361 834127421
834157805 834157864
834170318 834170378
834177549 834177609
834230904 834230964
834267966 834268026
834295112 834295172
834322267 834322327
834327270 834327330
834349994 834350054
834390806 834390866
834414766 834414826
834418110 834418165
834422788 834422848
834426207 834426267
834429170 834429230
834436935 834436995
834480275 834480335
834501814 834501874
834514354 834514414
834519231 834519291
834524308 834524368
834585975 834586034
834592776 834592836
834636862 834636901
834650457 834650517
834691329 834691389
834753146 834753206
834769240 834769300
834773997 834774057
834776188 834776248
834780227 834780287
834784282 834784342
834793488 834793534
834810728 834810788
834834043 834834072
834839619 834839679
834842884 834842944
834851224 834851261
834923912 834923972
834941680 834941740
834946252 834946312
834953314 834953374
834960202 834960262
834969621 834969681
834986097 834986141
835033562 835033622
835039318 835039378
835102735 835102795
835106984 835107044
835114840 835114900
835120244 835120304
835169042 835169102
835185424 835185484
835191859 835191919
835195566 835195626
835213901 835213961
835222797 835222857
835251656 835251716
835285579 835285639
835287699 835287759
835291522 835291582
835292188 835292244
835294404 835294464
835375229 835375289
835446460 835446520
835448776 835448836
835495579 835495639
835516516 835516576
835533714 835533774
835557325 835557383
835586136 835586196
835605807 835605867
835629937 835629997
835636008 835636068
835772809 835772869
835818573 835818633
835849768 835849828
835861620 835861680
835896951 835897011
835978597 835978657
835988298 835988358
836064626 836064686
836109496 836109556
836122419 836122479
836197011 836197071
836233732 836233792
836295052 836295085
836307286 836307344
836334687 836334742
836550965 836551025
836566823 836566880
836665113 836665141
836713642 836713702
836737259 836737319
836739419 836739473
836744371 836744430
836745735 836745795
836749594 836749654
836771774 836771834
836826614 836826664
836829779 836829838
836879090 836879150
836883433 836883492
836920908 836920934
836933982 836934041
836974024 836974083
836983597 836983657
837071531 837071591
837086447 837086507
837146656 837146716
837160782 837160842
837188929 837188989
837270393 837270453
837331986 837332046
837341790 837341850
837345484 837345544
837357042 837357102
837359701 837359761
837363050 837363110
837370556 837370616
837371352 837371412
837392585 837392645
837402607 837402667
837432416 837432476
837434535 837434595
837435252 837435312
837439271 837439331
837444694 837444754
837452259 837452319
837460972 837461031
837473644 837473704
837552023 837552070
837566115 837566175
837587585 837587645
837612280 837612340
837623125 837623185
837696912 837696965
837758645 837758705
837762107 837762166
837777860 837777920
837838086 837838146
837935669 837935729
837957787 837957847
837961202 837961252
838017503 838017563
838038561 838038621
838051184 838051244
838053832 838053892
838108162 838108222
838111445 838111505
838114969 838115029
838128127 838128187
838200156 838200216
838238313 838238373
838257884 838257944
838280374 838280434
838284799 838284859
838313126 838313186
838321593 838321653
838339449 838339509
838345370 838345430
838387216 838387276
838398200 838398260
838403754 838403814
838406297 838406357
838409546 838409606
838416818 838416878
838424664 838424724
838426005 838426095
838457779 838457839
838461642 838461702
838475499 838475559
838503874 838503934
838511428 838511488
838543100 838543160
838559774 838559834
838561486 838561546
838571777 838571837
838577040 838577100
838579635 838579695
838583924 838583976
838600861 838600921
838605119 838605179
838607725 838607785
838609621 838609681
838610756 838610816
838614999 838615059
838618449 838618509
838620510 838620570
838629383 838629443
838631831 838631891
838633613 838633673
838637032 838637092
838650515 838650573
838659327 838659387
838661535 838661595
838739569 838739629
838767426 838767486
838779494 838779554
838781931 838781985
838847126 838847186
838851178 838851238
838854251 838854311
838866941 838867001
838905455 838905515
839025767 839025827
839042256 839042316
839078800 839078860
839082768 839082828
839103167 839103226
839136463 839136522
839194301 839194361
839206430 839206489
839213104 839213164
839229665 839229725
839250220 839250280
839281012 839281072
839315161 839315221
839342008 839342068
839367403 839367463
839401297 839401357
839445557 839445608
839457165 839457225
839462563 839462623
839487245 839487305
839518127 839518187
839591221 839591281
839597151 839597211
839670433 839670493
839682290 839682321
839715996 839716056
839740464 839740524
839748714 839748774
839780542 839780602
839794144 839794204
839832251 839832311
839850806 839850866
839853884 839853944
839873736 839873795
839879860 839879912
840001636 840001696
840021543 840021603
840194159 840194219
840205528 840205588
840214790 840214850
840220675 840220735
840280329 840280389
840281928 840281988
840323332 840323392
840337152 840337203
840351132 840351192
840363942 840364002
840374523 840374583
840379899 840379931
840462484 840462544
840466793 840466816
840483464 840483524
840485614 840485674
840528213 840528273
840613406 840613466
840627289 840627349
840635801 840635816
840638881 840638941
840645211 840645271
840646718 840646745
840667084 840667144
840673100 840673160
840694417 840694474
840710503 840710562
840743080 840743140
840749771 840749831
840761932 840761992
840799876 840799936
840802723 840802783
840809369 840809377
840811516 840811532
840884033 840884093
840885846 840885906
840887857 840887909
840927990 840928050
840968534 840968566
840989432 840989492
840990729 840990789
841042128 841042188
841057937 841057997
841097866 841097926
841099210 841099250
841109428 841109488
841118314 841118374
841122293 841122353
841140798 841140858
841142863 841142923
841178966 841179026
841183367 841183427
841188892 841188952
841197794 841197817
841216335 841216395
841218218 841218278
841232680 841232740
841255969 841255982
841256901 841256961
841257856 841257864
841260204 841260264
841261198 841261258
841266729 841266789
841380526 841380586
841405241 841405301
841411218 841411278
841466586 841466646
841490853 841490913
841495752 841495812
841496915 841496975
841500214 841500274
841556232 841556292
841573606 841573666
841656467 841656527
841662618 841662678
841667167 841667227
841698677 841698737
841750451 841750511
841752878 841752938
841755880 841755940
841761869 841761929
841769885 841769945
841780862 841780922
841792205 841792265
841806209 841806269
841820128 841820188
841825027 841825087
841845741 841845801
841849655 841849715
841908221 841908281
841923283 841923343
841965528 841965588
841992280 841992336
842013020 842013080
842054622 842054682
842104197 842104257
842139007 842139067
842170073 842170133
842188823 842188883
842195564 842195624
842199517 842199540
842203601 842203661
842205964 842206024
842210226 842210286
842246448 842246508
842354157 842354217
842436544 842436604
842521967 842522027
842588271 842588331
842621147 842621207
842635583 842635643
842683929 842683989
842706605 842706665
842772583 842772643
842781276 842781336
842807360 842807420
842881841 842881879
842886903 842886963
842928078 842928138
842930459 842930519
842975892 842975952
843021159 843021219
843075147 843075207
843154635 843154695
843199763 843199804
843202000 843202060
843202978 843202985
843210796 843210854
843231423 843231483
843233715 843233775
843242463 843242523
843246530 843246590
843248655 843248715
843265238 843265298
843292605 843292665
843302657 843302717
843305583 843305643
843306575 843306635
843309339 843309399
843311772 843311832
843334284 843334338
843390309 843390344
843394804 843394864
843401322 843401382
843403591 843403651
843404652 843404712
843405837 843405897
843409807 843409843
843415443 843415503
843423517 843423577
843426688 843426748
843443949 843444009
843460484 843460544
843491008 843491068
843492944 843493004
843570938 843570998
843587353 843587389
843597624 843597684
843600436 843600495
843603892 843603946
843619413 843619473
843663306 843663366
843675157 843675217
843721509 843721568
843730098 843730158
843765238 843765298
843770814 843770874
843833003 843833063
843836320 843836335
843846913 843846973
843858200 843858260
843891040 843891100
843981563 843981623
843988013 843988073
843992930 843992990
843999927 843999987
844002176 844002189
844026364 844026424
844029625 844029685
844088155 844088215
844118712 844118772
844127249 844127309
844167933 844167993
844177045 844177105
844183753 844183774
844187478 844187482
844193598 844193658
844241031 844241091
844271531 844271591
844316032 844316092
844328092 844328152
844416878 844416938
844437981 844438041
844439030 844439090
844463618 844463668
844519982 844520042
844521138 844521198
844521978 844522007
844582222 844582282
844607376 844607436
844608785 844608841
844611367 844611373
844612397 844612421
844613974 844614034
844615796 844615840
844620830 844620881
844622293 844622353
844696156 844696216
844702871 844702931
844773746 844773806
844778052 844778112
844782413 844782473
844797293 844797353
844801794 844801854
844808268 844808328
844837620 844837680
844861610 844861670
844863959 844864019
844869651 844869711
844880399 844880459
844882773 844882833
844908484 844908544
844912200 844912252
844967856 844967916
845017024 845017084
845031957 845032017
845039938 845039998
845283110 845283170
845291743 845291803
845296164 845296224
845307183 845307243
845318186 845318246
845325378 845325438
845376617 845376677
845393696 845393756
845399870 845399930
845403830 845403890
845413153 845413213
845415156 845415216
845444602 845444662
845466102 845466162
845473278 845473338
845478233 845478293
845484062 845484122
845490615 845490675
845493812 845493872
845547962 845548022
845648877 845648937
845657045 845657105
845659720 845659780
845661461 845661521
845665441 845665501
845675547 845675607
845733743 845733803
845809056 845809116
845817250 845817310
845818819 845818861
845860777 845860815
845896796 845896856
845902404 845902464
845906004 845906064
845912779 845912839
846104617 846104677
846124952 846124972
846125712 846125750
846142116 846142122
846250079 846250139
846271060 846271116
846273974 846274034
846275422 846275482
846279907 846279967
846337068 846337093
846423794 846423854
846436103 846436163
846442602 846442662
846454185 846454245
846457535 846457560
846460792 846460852
846512288 846512348
846519937 846519997
846547203 846547263
846598873 846598933
846623519 846623579
846666335 846666395
846691677 846691737
846702549 846702609
846743839 846743899
846842203 846842263
846843760 846843810
846874408 846874468
846945551 846945611
847029321 847029381
847040139 847040199
847115466 847115526
847121856 847121884
847126300 847126360
847135502 847135562
847137204 847137264
847148908 847148944
847201791 847201851
847204821 847204881
847222028 847222088
847225768 847225828
847243647 847243707
847247713 847247773
847314430 847314436
847374753 847374813
847394728 847394788
847416929 847416989
847459703 847459763
847465987 847466047
847471185 847471245
847483191 847483251
847484837 847484897
847489192 847489252
847491155 847491215
847505226 847505286
847517526 847517586
847534405 847534465
847545206 847545266
847549743 847549803
847554126 847554186
847625194 847625254
847729581 847729641
847731668 847731728
847812674 847812734
847816282 847816342
847824560 847824620
847836541 847836601
847880604 847880664
847894948 847895008
847925775 847925835
847949167 847949227
847954875 847954935
847998610 847998670
848063274 848063334
848066609 848066669
848073274 848073334
848095603 848095663
848148353 848148413
848152326 848152386
848154288 848154348
848158692 848158752
848161927 848161987
848164885 848164945
848194495 848194555
848215147 848215207
848226331 848226391
848235417 848235477
848236723 848236783
848240915 848240973
848243725 848243785
848247368 848247428
848259439 848259499
848275103 848275163
848332360 848332420
848361595 848361655
848425500 848425560
848430954 848431014
848434249 848434309
848435690 848435750
848439118 848439178
848577344 848577399
848671246 848671306
848744166 848744226
848755445 848755505
848760911 848760971
848841457 848841517
848846439 848846499
849052371 849052431
849111111 849111171
849116698 849116758
849126493 849126553
849172473 849172533
849178672 849178723
849214530 849214590
849274910 849274970
849340711 849340771
849384605 849384665
849396810 849396870
849406080 849406140
849435510 849435570
849450138 849450198
849470429 849470489
849479657 849479707
849531868 849531928
849544795 849544855
849552364 849552424
849617921 849617981
849645442 849645502
849649679 849649739
849705137 849705197
849713413 849713473
849720321 849720381
849749960 849750020
849878131 849878191
849880358 849880360
849894430 849894490
849966584 849966644
850012297 850012357
850054305 850054365
850142091 850142151
850150070 850150130
850169024 850169084
850221581 850221641
850229674 850229734
850232849 850232909
850236864 850236924
850239466 850239526
850242071 850242131
850243604 850243664
850251863 850251923
850308488 850308490
850318267 850318327
850347498 850347558
850379176 850379236
850398338 850398398
850482307 850482367
850489601 850489661
850494712 850494772
850496314 850496374
850502826 850502886
850505436 850505496
850511950 850512010
850536310 850536370
850569272 850569332
850571651 850571711
850601315 850601331
850657328 850657388
850660617 850660677
850669059 850669119
850749182 850749242
850773521 850773581
850809887 850809947
850856878 850856938
850927448 850927508
850946951 850947011
850969260 850969320
850977253 850977313
851049969 851050029
851062555 851062615
851132300 851132360
851159709 851159769
851170118 851170178
851171756 851171816
851195996 851196056
851226378 851226438
851247423 851247483
851264485 851264545
851352048 851352108
851360799 851360859
851365574 851365634
851373900 851373960
851433586 851433646
851437080 851437140
851447292 851447352
851462135 851462195
851502775 851502828
851686885 851686945
851766961 851767021
851770884 851770944
851786947 851787007
851789919 851789979
851861715 851861775
851871533 851871593
851878836 851878888
851888530 851888590
851892319 851892379
851954200 851954260
852025657 852025717
852048402 852048462
852065489 852065549
852076234 852076294
852216869 852216929
852292897 852292957
852310497 852310557
852315497 852315557
852320871 852320931
852325239 852325299
852331471 852331531
852338676 852338736
852382804 852382864
852389377 852389437
852390809 852390869
852393767 852393827
852473205 852473265
852479379 852479439
852483040 852483100
852486126 852486183
852491209 852491269
852496737 852496760
852499570 852499630
852556717 852556777
852564231 852564291
852585004 852585064
852644565 852644625
852651084 852651144
852652479 852652539
852660138 852660198
852670051 852670111
852676182 852676242
852698113 852698173
852747601 852747661
852764103 852764163
852893094 852893154
852903791 852903851
852913157 852913217
852917436 852917496
852926573 852926578
852930079 852930139
852998178 852998238
853075171 853075231
853095874 853095934
853115226 853115286
853128728 853128788
853137232 853137292
853162875 853162935
853170481 853170541
853180089 853180149
853181445 853181505
853184760 853184820
853187359 853187419
853206924 853206984
853236761 853236821
853259351 853259411
853311775 853311835
853338194 853338254
853393389 853393449
853415261 853415321
853440158 853440218
853448619 853448679
853502430 853502490
854024396 854024456
854036100 854036160
854352680 854352740
854372775 854372835
854438737 854438797
854463154 854463214
854465197 854465257
854469969 854470029
854474558 854474618
854494366 854494426
854548837 854548897
854556005 854556065
854559314 854559341
854658020 854658080
854681491 854681551
854719457 854719517
854725603 854725663
854744739 854744799
854748312 854748372
854807171 854807231
854831114 854831174
854888197 854888257
854893668 854893728
854907769 854907829
854974365 854974425
854984005 854984065
854990910 854990970
854993911 854993971
855007435 855007495
855062450 855062510
855066766 855066826
855068713 855068769
855073328 855073388
855082890 855082950
855085442 855085502
855088526 855088586
855154832 855154892
855167362 855167422
855302303 855302363
855313869 855313929
855351938 855351998
855382195 855382255
855396649 855396709
855414372 855414432
855419528 855419588
855443529 855443563
855581545 855581605
855671086 855671146
855703629 855703689
855708685 855708745
855792956 855793014
855820811 855820871
855852069 855852129
855871041 855871101
855878118 855878178
855929759 855929819
855934253 855934313
855961064 855961124
855979760 855979820
855983206 855983266
855995799 855995859
856023378 856023438
856033588 856033648
856051889 856051904
856094658 856094718
856112036 856112096
856114638 856114696
856117448 856117508
856163548 856163608
856187673 856187733
856190127 856190187
856195713 856195773
856201802 856201858
856213111 856213171
856217853 856217913
856250683 856250743
856279566 856279626
856282150 856282210
856292140 856292200
856301315 856301375
856308780 856308840
856317584 856317644
856363212 856363272
856383975 856384035
856388538 856388598
856434425 856434457
856451063 856451123
856458853 856458913
856494073 856494133
856497645 856497705
856528575 856528635
856535720 856535780
856541070 856541130
856546649 856546709
856549597 856549657
856554901 856554961
856560846 856560906
856562376 856562436
856616053 856616113
856627493 856627553
856695806 856695866
856718403 856718463
856730330 856730390
856733514 856733574
856734593 856734653
856742716 856742776
856754665 856754725
856793097 856793157
856798924 856798984
856803099 856803159
856826015 856826074
856862412 856862472
856866810 856866870
856934734 856934794
856985502 856985562
856991337 856991397
857066861 857066921
857086225 857086238
857159577 857159637
857192770 857192830
857200184 857200244
857222541 857222601
857231989 857232017
857254666 857254726
857307019 857307079
857308135 857308195
857319638 857319698
857340251 857340311
857342147 857342207
857391424 857391484
857404455 857404515
857406443 857406503
857409386 857409446
857427553 857427613
857477396 857477456
857484401 857484461
857498038 857498098
857511653 857511713
857523774 857523834
857580683 857580743
857659332 857659392
857684398 857684458
857761742 857761802
857764325 857764385
857769112 857769172
857790170 857790230
857828885 857828945
857917084 857917144
857931217 857931277
857939187 857939247
857945494 857945554
857976566 857976626
858007934 858007994
858017208 858017268
858104893 858104953
858207200 858207260
858219667 858219727
858339952 858340012
858354073 858354133
858364860 858364920
858375621 858375681
858432783 858432803
858457775 858457835
858459781 858459841
858464353 858464413
858486912 858486972
858525638 858525698
858543459 858543519
858555483 858555543
858558698 858558758
858609039 858609099
858611554 858611614
858629537 858629597
858632174 858632234
858636333 858636341
858657905 858657965
858693611 858693671
858696719 858696779
858718520 858718580
858725881 858725941
858819517 858819577
858869050 858869104
858941633 858941693
858949830 858949890
858957591 858957651
858964398 858964458
858971834 858971894
858976759 858976819
858985138 858985198
859034161 859034221
859036999 859037059
859042492 859042542
859066346 859066406
859123940 859124000
859127968 859128028
859143885 859143945
859147340 859147400
859166209 859166269
859168255 859168315
859305669 859305729
859314258 859314318
859359478 859359538
859383530 859383590
859496089 859496149
859520179 859520239
859530792 859530852
859549694 859549754
859584888 859584948
859594639 859594699
859633115 859633121
859640691 859640751
859647124 859647136
859668159 859668219
859670464 859670524
859685929 859685989
859705395 859705455
859719871 859719931
859734349 859734409
859740257 859740317
859741599 859741650
859747877 859747936
859781628 859781688
859819717 859819749
859823063 859823083
859826014 859826074
859831235 859831295
859832983 859833043
859842615 859842675
859894794 859894854
859897837 859897897
859903051 859903111
859914063 859914123
859924078 859924086
859965992 859966052
859979723 859979783
860046687 860046747
860134727 860134787
860157989 860158049
860164056 860164116
860176173 860176233
860246112 860246172
860247192 860247252
860328616 860328676
860410756 860410816
860421263 860421323
860433434 860433494
860440405 860440465
860447961 860448021
860473213 860473273
860478326 860478383
860507846 860507906
860526218 860526278
860539085 860539145
860576864 860576924
860622901 860622961
860664998 860665058
860673042 860673102
860679103 860679163
860688541 860688601
860755557 860755617
860769091 860769151
860781222 860781282
860790532 860790592
860840782 860840842
860846581 860846641
860875740 860875800
860880005 860880065
860921873 860921933
860928234 860928294
860945800 860945860
861055568 861055628
861060986 861061046
861067677 861067737
861101517 861101577
861124613 861124673
861145908 861145968
861189229 861189289
861211587 861211647
861214499 861214559
861301311 861301371
861361862 861361922
861372271 861372331
861393582 861393642
861394733 861394793
861397570 861397630
861446229 861446289
861477080 861477140
861479261 861479321
861483093 861483153
861487020 861487024
861541838 861541898
861546436 861546496
861559218 861559278
861567220 861567280
861593641 861593701
861632715 861632775
861635941 861636000
861653619 861653679
861717683 861717741
861720555 861720615
861748849 861748909
861774425 861774485
861796635 861796695
861816566 861816626
861971383 861971443
861997514 861997574
862002931 862002991
862006844 862006904
862094704 862094764
862141524 862141584
862170922 862170982
862239513 862239573
862274157 862274217
862309574 862309634
862329083 862329143
862394209 862394269
862400984 862401044
862491589 862491649
862576538 862576598
862595748 862595808
862598407 862598467
862733182 862733242
862751038 862751098
862755722 862755782
862758168 862758228
862759991 862760051
862764801 862764861
862777551 862777611
862821400 862821460
862825800 862825860
862831633 862831693
862841869 862841929
862843041 862843101
862844707 862844767
862851167 862851227
862852233 862852293
862858002 862858030
862859335 862859395
862877315 862877375
862883138 862883198
862898561 862898621
862900892 862900952
862906313 862906373
862925102 862925162
862926734 862926794
862927435 862927495
862930451 862930511
862940635 862940695
862943075 862943135
862945733 862945789
863031059 863031119
863096194 863096254
863123829 863123889
863265292 863265301
863294529 863294589
863344849 863344909
863361196 863361256
863379748 863379808
863434432 863434492
863435934 863435994
863449304 863449364
863533234 863533294
863539808 863539867
863563061 863563121
863629790 863629850
863632221 863632281
863642894 863642954
863708477 863708537
863791481 863791541
863813204 863813264
863817253 863817313
863819599 863819659
863907229 863907289
863913034 863913094
863931422 863931482
863963268 863963328
863965456 863965506
863977035 863977095
863978705 863978765
864047745 864047805
864053995 864054055
864064682 864064742
864069595 864069655
864076964 864077024
864127648 864127656
864133388 864133448
864136475 864136535
864138767 864138827
864143785 864143845
864146795 864146855
864149131 864149191
864154675 864154735
864244495 864244555
864331638 864331698
864481643 864481703
864486073 864486133
864498694 864498754
864513078 864513138
864563412 864563472
864592986 864593046
864661827 864661887
864670290 864670350
864676365 864676425
864722795 864722855
864727630 864727690
864742104 864742164
864750076 864750136
864758476 864758536
864785869 864785929
864806366 864806426
864834913 864834973
864843519 864843579
864859301 864859361
864887044 864887104
864992690 864992750
865010938 865010998
865014332 865014392
865105478 865105538
865167399 865167427
865177141 865177201
865180707 865180767
865198719 865198779
865214055 865214115
865251268 865251328
865282713 865282769
865344923 865344983
865355968 865356028
865429530 865429590
865456326 865456374
865547874 865547934
865596875 865596923
865605308 865605368
865626908 865626967
865630239 865630299
865687522 865687582
865693759 865693819
865736428 865736488
865780204 865780264
865798376 865798436
865824633 865824650
865875728 865875788
865952301 865952361
865963015 865963074
866210827 866210887
866221246 866221299
866683742 866683802
866736205 866736265
866813748 866813808
866824212 866824272
866833827 866833887
866894427 866894487
866900938 866900997
866984939 866984999
866993894 866993954
867006727 867006787
867065358 867065418
867070684 867070744
867075980 867076031
867088766 867088825
867155652 867155712
867269422 867269482
867416842 867416902
867426395 867426455
867434730 867434790
867443555 867443615
867487498 867487558
867503506 867503566
867507081 867507141
867533508 867533568
867535975 867536035
867550271 867550331
867615161 867615221
867618780 867618811
867675465 867675525
867690163 867690223
867691843 867691903
867700347 867700404
867719512 867719572
867915007 867915067
867963520 867963580
868034634 868034694
868055492 868055552
868114426 868114486
868157901 868157961
868199155 868199202
868203648 868203708
868207619 868207679
868219861 868219921
868254087 868254147
868280588 868280648
868288819 868288879
868299861 868299921
868320732 868320792
868372596 868372656
868862714 868862774
868884060 868884120
868902364 868902368
868910397 868910457
868916303 868916363
868970458 868970518
868996816 868996876
869060010 869060070
869068278 869068337
869144470 869144530
869206541 869206601
869245190 869245250
869253082 869253142
869258172 869258232
869265363 869265423
869297265 869297325
869324503 869324563
869380107 869380167
869446614 869446674
869464938 869464998
869492146 869492206
869502753 869502813
869509182 869509242
869536611 869536671
869586060 869586120
869614895 869614955
869618957 869619017
869668520 869668580
869710958 869711018
869722405 869722465
869855713 869855773
869909715 869909775
869916796 869916856
869960030 869960090
870024449 870024509
870045294 870045354
870058867 870058927
870115883 870115943
870180156 870180216
870273641 870273701
870385231 870385291
870435112 870435172
870440376 870440436
870483909 870483969
870609403 870609455
870615842 870615902
870623339 870623391
870703384 870703435
870716788 870716848
870727897 870727957
870735347 870735389
870873743 870873803
870892486 870892546
870985908 870985968
871036967 871037027
871044724 871044784
871060529 871060589
871066072 871066132
871074990 871075050
871106957 871107017
871131074 871131134
871229620 871229680
871244326 871244386
871306487 871306547
871320224 871320284
871359378 871359438
871381128 871381188
871393059 871393119
871406681 871406730
871441658 871441718
871495717 871495777
871523416 871523476
871621588 871621648
871627866 871627926
871656413 871656473
871675183 871675241
871804781 871804841
871827863 871827904
871849257 871849317
871919413 871919473
871922426 871922486
871956696 871956756
871973081 871973132
871996128 871996188
871998840 871998900
872005891 872005951
872018081 872018141
872150470 872150530
872230623 872230674
872252988 872253048
872261716 872261762
872446059 872446096
872452817 872452877
872513650 872513710
872516344 872516349
872524425 872524485
872527215 872527274
872530930 872530990
872533915 872533975
872563843 872563903
872575181 872575241
872580670 872580730
872600443 872600503
872603757 872603817
872643120 872643180
872683146 872683206
872697289 872697349
872709471 872709531
872728065 872728125
872731430 872731490
872766980 872767040
872819637 872819697
872873824 872873884
872975027 872975087
872997542 872997602
873033178 873033238
873058012 873058072
873069961 873070021
873086531 873086591
873120903 873120963
873130081 873130141
873136265 873136325
873140223 873140283
873184283 873184343
873216424 873216484
873227654 873227704
873230731 873230791
873244751 873244795
873301993 873302053
873311156 873311216
873390347 873390407
873419668 873419728
873424491 873424551
873465225 873465285
873472363 873472423
873486902 873486962
873496641 873496701
873501750 873501810
873515871 873515921
873547339 873547399
873551570 873551630
873611081 873611141
873631787 873631847
873653742 873653802
873659524 873659584
873664956 873665016
873676036 873676095
873715841 873715901
873787038 873787098
873821947 873822007
873887597 873887657
874024028 874024088
874052232 874052292
874103692 874103752
874157069 874157129
874163227 874163287
874185378 874185434
874238615 874238624
874242218 874242278
874247671 874247731
874252261 874252321
874262975 874263035
874329186 874329246
874343168 874343228
874346845 874346904
874348690 874348750
874349254 874349285
874351991 874352051
874353477 874353537
874355311 874355371
874379779 874379839
874384309 874384346
874422222 874422282
874432859 874432919
874516503 874516563
874700266 874700326
874761914 874761974
874847177 874847236
874933292 874933350
874947009 874947069
874952059 874952119
874955898 874955958
874961452 874961512
874978178 874978238
875015144 875015204
875023051 875023111
875047355 875047415
875084522 875084582
875133944 875134004
875154812 875154872
875182671 875182731
