817775922 817775939
817775978 817775996
817780171 817780189
817781573 817781591
817781671 817781688
817781907 817781925
818633915 818633933
818637638 818637656
818639933 818639951
818641024 818641041
818647390 818647407
818648047 818648064
818648073 818648091
818648079 818648097
818648121 818648139
818648134 818648152
818648173 818648191
818648251 818648269
818648337 818648355
818658490 818658508
818660394 818660412
818774338 818774356
819460904 819460922
819499937 819499954
820671465 820671483
821186300 821186318
821186583 821186601
821187167 821187185
821187429 821187447
821187693 821187711
821994608 821994625
822000773 822000791
822001099 822001117
822001174 822001192
822003341 822003359
822004132 822004149
822077863 822077880
822077878 822077895
822347028 822347045
822900361 822900378
822900503 822900521
822902561 822902578
822906311 822906328
823659688 823659706
823659795 823659813
823659924 823659941
823660889 823660907
823661972 823661990
823662240 823662258
823663736 823663754
828524041 828524059
828524923 828524940
828525060 828525077
828525433 828525451
828526490 828526507
829677690 829677708
829677728 829677745
829677788 829677806
829677831 829677849
829677863 829677881
830043864 830043882
830081068 830081086
830081431 830081449
830081626 830081644
830082245 830082262
830084151 830084168
830084391 830084409
830085820 830085838
830086362 830086380
830086454 830086472
830087963 830087980
830089432 830089450
830533066 830533084
830614852 830614869
831322829 831322846
832497349 832497367
832789488 832789505
832790222 832790240
832881082 832881100
832881520 832881538
832881546 832881563
832881606 832881624
832881656 832881673
832881715 832881733
832881762 832881780
832881799 832881817
832881930 832881948
832881981 832881998
832882010 832882028
832882055 832882073
832882088 832882106
832882128 832882145
832882303 832882321
832882412 832882430
832882442 832882460
832882470 832882488
832882503 832882521
832883083 832883101
832883284 832883301
832883591 832883609
832883748 832883766
832883993 832884011
832884440 832884458
832884630 832884648
832884831 832884850
832884849 832884867
832884867 832884885
832884941 832884958
832884998 832885016
832885074 832885092
832885094 832885112
832885145 832885162
832885293 832885311
832890185 832890203
832952389 832952406
832953928 832953946
833235879 833235897
833236413 833236431
833236648 833236666
833237231 833237249
833937237 833937254
834053041 834053059
834065695 834065713
834148834 834148852
834165636 834165653
834235756 834235773
834484044 834484061
834511495 834511513
834511775 834511793
834511863 834511881
834511981 834511999
834512976 834512994
834513084 834513101
834513931 834513948
834514088 834514106
834514177 834514194
834514241 834514259
834514325 834514342
834514400 834514418
834699926 834699944
834699993 834700011
834700096 834700114
834701321 834701339
834789327 834789345
834790678 834790695
834790725 834790742
834790742 834790760
834791080 834791097
834791782 834791800
834791817 834791835
835101471 835101488
835135345 835135363
835140021 835140038
835165920 835165938
835402451 835402469
835706830 835706847
835878187 835878205
835887919 835887937
835888551 835888569
835888639 835888656
835888761 835888779
835888851 835888869
835888856 835888874
835888917 835888935
835889315 835889333
835889550 835889568
835889748 835889766
835889985 835890003
835890234 835890251
835978059 835978076
836014667 836014685
836054060 836054077
836054268 836054286
836064279 836064297
836085081 836085099
836085097 836085115
836085318 836085335
836089839 836089856
836141223 836141240
836154791 836154808
836155414 836155432
836155930 836155947
836156390 836156408
836156646 836156664
836156914 836156932
836157275 836157292
836157883 836157900
836158059 836158077
836158247 836158265
836158700 836158718
836426835 836426852
836427029 836427047
836519121 836519138
836519276 836519294
836519427 836519444
836519820 836519838
836574553 836574570
836576325 836576342
836910386 836910404
836922832 836922850
837114341 837114358
837114389 837114406
837114450 837114467
837114511 837114529
837114542 837114559
837114579 837114597
837115081 837115099
837115437 837115456
837115501 837115519
837115541 837115559
837115555 837115572
837115569 837115587
837115608 837115626
837115650 837115668
837115971 837115989
837115996 837116014
837116012 837116030
837116035 837116053
837116075 837116093
837118336 837118354
837118730 837118748
837118856 837118873
837119065 837119083
837119186 837119204
837119207 837119226
837120393 837120411
837122372 837122390
837123495 837123513
837124222 837124240
837125526 837125544
837125761 837125779
837126105 837126123
837230075 837230093
837379028 837379045
837379422 837379440
837379524 837379541
837380009 837380026
837380090 837380107
837380160 837380177
837380170 837380188
837380486 837380504
837380543 837380560
837380627 837380645
837380665 837380683
837380727 837380745
837380761 837380778
837380784 837380801
837380800 837380818
837380838 837380856
837465263 837465281
837466118 837466136
837467265 837467283
837467679 837467697
837468441 837468459
837468909 837468926
837471019 837471037
837595581 837595598
837595583 837595601
837603167 837603185
837644030 837644048
837649902 837649920
837650992 837651010
837651095 837651113
837653123 837653141
837653589 837653607
837653698 837653716
837653747 837653765
837656623 837656641
837657790 837657808
837796513 837796531
837797194 837797212
837798823 837798841
837827128 837827146
837827238 837827256
838157121 838157139
838157217 838157235
838157347 838157364
838157501 838157519
838157589 838157607
838157633 838157651
838157648 838157666
838157684 838157701
838157735 838157753
838157738 838157756
838157837 838157856
838157876 838157894
838158019 838158037
838158041 838158059
838158044 838158062
838158139 838158157
838158274 838158292
838158326 838158344
838158342 838158359
838159144 838159161
838159192 838159210
838159211 838159228
838159253 838159271
838159290 838159308
838159325 838159343
838159373 838159391
838159397 838159414
838159439 838159456
838159477 838159495
838159485 838159502
838159523 838159541
838159534 838159551
838159583 838159600
838159611 838159629
838159631 838159649
838159660 838159677
838159734 838159752
838159834 838159852
838159864 838159881
838159890 838159908
838159973 838159990
838159997 838160015
838160041 838160059
838160054 838160071
838160080 838160097
838160153 838160171
838160186 838160204
838160201 838160219
838160273 838160290
838160298 838160315
838160405 838160423
838160484 838160502
838160509 838160527
838160527 838160544
838160533 838160551
838160551 838160569
838160563 838160581
838160587 838160605
838160595 838160613
838160606 838160623
838160627 838160645
838160630 838160647
838160667 838160685
838160704 838160722
838160716 838160734
838160734 838160752
838160771 838160788
838160807 838160825
838160834 838160852
838160861 838160879
838160922 838160939
838161026 838161043
838161498 838161516
838161576 838161593
838161616 838161634
838161669 838161687
838161775 838161793
838161820 838161838
838161840 838161857
838161890 838161908
838161913 838161931
838161989 838162007
838162729 838162747
838162861 838162879
838162932 838162949
838163302 838163319
838245371 838245389
838245532 838245549
838245577 838245595
838245731 838245749
838245750 838245768
838245806 838245824
838245876 838245893
838245912 838245930
838245929 838245946
838245943 838245960
838245958 838245976
838246056 838246073
838246073 838246090
838246114 838246131
838246132 838246150
838246189 838246207
838246229 838246247
838246298 838246316
838246384 838246402
838246498 838246516
838246734 838246752
838247282 838247299
838247378 838247396
838248234 838248251
838326081 838326098
838326100 838326117
838326139 838326157
838327852 838327869
838327921 838327939
838328001 838328019
838328151 838328169
838414767 838414784
838416102 838416120
838416141 838416158
838416170 838416187
838416205 838416223
838416363 838416380
838416432 838416450
838416628 838416647
838421584 838421601
838421608 838421625
838422981 838422998
838423029 838423046
838423257 838423274
838423389 838423407
838423605 838423623
838442691 838442709
838443113 838443130
838446154 838446172
838446383 838446401
838446820 838446838
838509281 838509299
838509349 838509367
838647875 838647893
838687424 838687442
838687445 838687463
838687469 838687486
838688725 838688743
838690853 838690871
838764282 838764300
838764365 838764382
838764438 838764455
838764468 838764486
838764535 838764553
838764621 838764639
838764741 838764759
838764768 838764786
838764799 838764817
838764813 838764830
838764837 838764855
838764873 838764891
838764902 838764919
838764940 838764957
838764962 838764979
838764978 838764995
838764993 838765011
838765005 838765022
838765051 838765069
838765131 838765149
838765161 838765179
838765230 838765248
838765255 838765273
838765303 838765321
838765336 838765354
838765384 838765401
838765409 838765426
838838399 838838416
838838468 838838486
838838980 838838998
838839233 838839251
838839289 838839308
838839479 838839496
838839492 838839509
838839603 838839620
838839799 838839817
838839888 838839905
838839937 838839954
838839958 838839976
838841408 838841426
838841425 838841443
838841482 838841500
838841498 838841516
838841557 838841575
838841674 838841692
838842003 838842020
838842438 838842455
838844589 838844606
838849956 838849973
838996162 838996179
839018742 839018760
839019133 839019151
839019601 839019618
839019697 839019714
839020048 839020065
839020126 839020144
839020185 839020203
839021319 839021337
839021463 839021481
839021549 839021566
839021580 839021598
839022418 839022436
839022680 839022698
839022748 839022765
839022788 839022805
839023234 839023251
839193641 839193658
839206465 839206483
839212166 839212183
839714390 839714408
839792506 839792524
839792581 839792599
839793568 839793585
840226724 840226742
840230921 840230938
840231076 840231093
840231305 840231322
840478688 840478706
840478996 840479013
840479148 840479166
840479707 840479725
840575694 840575711
840577009 840577027
840653414 840653431
840754552 840754569
840754803 840754820
840755946 840755963
840926447 840926464
840927072 840927090
840966628 840966646
840968529 840968547
841009218 841009235
841669805 841669822
842208910 842208928
842294594 842294612
842630909 842630927
842635607 842635625
843066721 843066738
843067340 843067358
843071568 843071585
843074833 843074850
843129796 843129813
843566076 843566093
843759769 843759786
844014917 844014935
844268494 844268512
844814880 844814897
845007761 845007779
845007778 845007795
845007797 845007814
845264670 845264687
845305701 845305720
845307195 845307213
845583267 845583285
845583585 845583602
846877197 846877215
847615127 847615145
848350038 848350055
849465720 849465738
849888029 849888047
851501033 851501050
851502228 851502245
851502805 851502823
852905830 852905847
852984726 852984744
853038183 853038201
853164598 853164616
854374078 854374096
854390786 854390804
854478290 854478307
854752946 854752963
854995257 854995275
855094507 855094525
855329794 855329811
855357126 855357144
855380326 855380343
855380438 855380455
855380569 855380586
855381235 855381252
855381428 855381446
855381846 855381864
855381927 855381945
855382024 855382041
855382111 855382129
855382187 855382205
855382236 855382254
855383320 855383337
855385629 855385647
855385778 855385795
855385926 855385943
855386155 855386173
855388233 855388251
855388865 855388883
855389518 855389536
855393142 855393160
855393514 855393532
855393891 855393909
855394163 855394180
855394376 855394393
855394470 855394488
855394604 855394622
855394669 855394686
855394711 855394729
855394801 855394819
855394865 855394882
855394940 855394957
855395015 855395033
855395126 855395144
855395256 855395273
855395276 855395294
855395335 855395353
855395366 855395384
855395421 855395438
855395439 855395456
855395484 855395502
855395495 855395512
855395507 855395525
855395530 855395548
855395547 855395565
855395569 855395586
855395585 855395603
855395611 855395629
855395616 855395634
855395636 855395653
855395660 855395678
855395677 855395695
855395691 855395709
855395702 855395720
855395720 855395737
855395742 855395760
855395762 855395779
855395775 855395793
855395793 855395811
855395817 855395835
855395824 855395841
855395829 855395846
855395902 855395920
855395959 855395977
855395986 855396003
855396014 855396031
855396035 855396052
855396057 855396075
855396082 855396100
855396142 855396159
855396173 855396191
855396210 855396228
855396232 855396249
855396254 855396272
855396319 855396337
855396337 855396354
855396362 855396379
855396413 855396431
855396435 855396452
855396470 855396487
855396489 855396507
855396494 855396511
855396520 855396538
855396541 855396560
855396568 855396585
855396603 855396621
855396616 855396634
855396623 855396641
855396647 855396665
855396657 855396674
855396670 855396688
855396689 855396707
855398701 855398719
855399417 855399434
855399495 855399512
855399603 855399621
855399682 855399700
855407201 855407218
855407443 855407461
855444768 855444785
855494071 855494089
855573378 855573395
856011685 856011703
856136848 856136865
856210225 856210243
856381114 856381132
856413258 856413275
856413585 856413602
856413846 856413863
856414021 856414038
856414777 856414794
856414825 856414842
856414975 856414993
856415307 856415324
856415494 856415511
856415861 856415879
856415951 856415968
856417618 856417635
856423367 856423385
856423544 856423561
856444445 856444463
856472034 856472051
856654550 856654567
856702649 856702667
856740690 856740707
856787934 856787951
857228384 857228402
857394797 857394815
857431128 857431145
857601234 857601251
857769108 857769126
857771420 857771438
857825490 857825507
857908747 857908765
857970483 857970500
857972173 857972191
857972417 857972435
857972578 857972595
857972822 857972840
857973297 857973315
857973534 857973551
857973664 857973681
857974368 857974387
857975043 857975060
857976594 857976612
857978819 857978836
857980156 857980174
857980768 857980785
857982739 857982757
857998977 857998994
858513698 858513716
858550521 858550539
858600594 858600611
858629139 858629156
858780153 858780170
858802917 858802935
858804853 858804871
859408064 859408082
859409011 859409029
859409098 859409116
859409377 859409395
859409492 859409510
859418905 859418923
859570665 859570682
859587279 859587297
859587361 859587378
859587524 859587542
859587694 859587711
859588095 859588112
859589098 859589116
859589524 859589542
859589551 859589569
859589617 859589634
859589711 859589729
859589825 859589843
859589893 859589911
859589936 859589953
859589973 859589991
859590018 859590036
859591336 859591353
859758887 859758905
860161453 860161471
860193965 860193983
860195368 860195385
860355717 860355735
860518981 860518998
860567083 860567100
860589360 860589377
860589974 860589992
860590012 860590029
860590032 860590050
860590123 860590141
860590288 860590306
860590522 860590540
860590757 860590775
860590770 860590787
860590803 860590820
860591045 860591063
860591114 860591132
860591139 860591157
860591340 860591358
860591464 860591482
860591498 860591516
860591679 860591696
860591820 860591838
860592003 860592021
860592045 860592063
860592161 860592178
860592637 860592655
860592760 860592778
860592860 860592878
860592869 860592887
860592930 860592948
860593094 860593112
860593237 860593254
860593326 860593343
860593390 860593408
860594501 860594519
860595998 860596015
860596142 860596160
860596302 860596320
860598729 860598747
860602395 860602413
860602526 860602543
860605454 860605471
860684296 860684313
860851549 860851566
861026563 861026581
861026566 861026583
861026569 861026586
861109192 861109210
861558141 861558158
861571192 861571210
861571249 861571267
861571292 861571310
861571450 861571468
861576569 861576587
861576785 861576803
861579270 861579287
861581566 861581584
861582406 861582424
861582556 861582574
861582751 861582768
861583233 861583251
861583300 861583317
861583637 861583654
861584036 861584054
861584220 861584237
861584545 861584562
861585436 861585454
861585786 861585804
861588679 861588697
861588978 861588996
861588981 861588998
861589153 861589170
861589231 861589249
861590719 861590736
861591664 861591682
861591754 861591771
861592000 861592018
861592025 861592042
861592085 861592102
861592917 861592935
861593089 861593107
861593154 861593171
861595109 861595127
861595840 861595858
861596383 861596401
861596452 861596469
861596577 861596595
861596740 861596758
861596866 861596884
861597081 861597099
861597414 861597431
861597454 861597472
861597923 861597940
861598017 861598035
861598125 861598142
861598172 861598189
861598363 861598381
861598493 861598510
861598511 861598528
861598836 861598853
861598967 861598984
861599040 861599058
861599389 861599407
861599465 861599482
861599507 861599524
861599530 861599548
861599593 861599611
861599849 861599867
861600148 861600166
861600659 861600677
861600764 861600781
861600896 861600914
861600991 861601009
861601195 861601213
861601698 861601716
861601823 861601841
861601988 861602006
861602146 861602163
861602392 861602410
861602883 861602901
861603141 861603158
861603450 861603468
861603917 861603935
861604067 861604085
861641880 861641898
861983709 861983726
861984655 861984673
862243194 862243211
862243751 862243769
862244088 862244105
862245824 862245841
862246348 862246366
862246549 862246567
862246609 862246627
862246735 862246753
862246857 862246874
862247025 862247043
862247058 862247075
862247198 862247215
862247404 862247421
862247423 862247441
862247458 862247476
862247521 862247539
862247532 862247550
862247556 862247573
862247571 862247589
862247581 862247599
862247605 862247623
862247648 862247666
862247680 862247698
862247690 862247707
862247703 862247720
862247728 862247746
862247738 862247755
862247756 862247774
862247784 862247802
862247809 862247827
862247889 862247907
862247928 862247946
862247979 862247996
862247997 862248015
862248047 862248065
862248057 862248074
862248075 862248093
862248119 862248139
862248143 862248161
862248171 862248189
862248193 862248211
862248213 862248231
862248216 862248234
862248234 862248252
862248256 862248274
862248280 862248298
862248307 862248324
862248310 862248328
862248323 862248341
862248345 862248363
862248376 862248394
862248389 862248406
862248404 862248421
862248416 862248433
862248437 862248455
862248463 862248481
862248486 862248503
862248504 862248522
862248521 862248539
862248549 862248567
862248564 862248582
862248587 862248605
862248625 862248643
862248689 862248707
862248708 862248725
862248717 862248734
862248733 862248750
862248796 862248814
862248835 862248852
862249711 862249728
862249775 862249793
862249834 862249853
862249848 862249866
862249862 862249879
862249914 862249932
862249959 862249976
862249989 862250006
862250016 862250033
862250030 862250048
862250069 862250087
862250390 862250408
862264217 862264235
862264408 862264426
862264879 862264897
862264941 862264959
862264978 862264996
862265351 862265369
862265424 862265442
862265485 862265503
862265639 862265656
862285031 862285049
862285313 862285330
862285456 862285473
862286646 862286663
862286803 862286821
862287105 862287123
862287257 862287275
862287389 862287407
862287399 862287417
862287566 862287584
862287861 862287879
862287890 862287908
862287914 862287932
862287934 862287951
862287950 862287968
862287964 862287981
862287976 862287993
862288026 862288044
862288068 862288086
862288108 862288125
862288136 862288154
862288166 862288184
862288181 862288198
862288229 862288247
862288288 862288306
862288374 862288391
862288495 862288512
862288546 862288564
862288609 862288627
862288624 862288642
862288647 862288665
862288672 862288690
862288682 862288700
862288696 862288713
862289252 862289269
862289292 862289310
862292999 862293016
862293017 862293034
862293053 862293070
862293062 862293079
862293114 862293132
862293175 862293192
862293263 862293280
862293442 862293460
862293449 862293466
862293465 862293483
862293501 862293519
862293537 862293555
862294015 862294033
862294256 862294273
862294259 862294277
862294375 862294393
862294474 862294492
862294922 862294940
862295077 862295095
862295327 862295346
862296878 862296895
862297472 862297490
862306786 862306803
862306813 862306830
862307257 862307274
862307529 862307547
862307603 862307621
862307644 862307661
862308005 862308023
862308123 862308141
862308453 862308471
862308579 862308597
862308921 862308938
862309433 862309451
862312389 862312407
862312494 862312512
862312581 862312598
862312600 862312618
862312639 862312657
862312679 862312696
862312779 862312797
862312845 862312863
862312877 862312895
862312950 862312968
862312974 862312992
862313315 862313333
862313354 862313371
862313358 862313375
862313366 862313384
862313388 862313405
862313424 862313441
862313503 862313520
862313527 862313544
862313543 862313562
862313561 862313579
862313583 862313601
862313614 862313632
862313679 862313697
862323983 862324000
862324076 862324093
862324128 862324145
862324168 862324186
862324199 862324217
862324240 862324258
862324272 862324290
862324318 862324335
862324486 862324504
862324571 862324589
862324643 862324660
862324735 862324752
862325152 862325169
862325305 862325323
862325446 862325463
862325650 862325668
862325833 862325851
862325867 862325885
862325912 862325929
862325940 862325958
862326097 862326115
862326121 862326138
862326155 862326173
862326319 862326337
862326657 862326675
862326749 862326766
862326768 862326786
862326792 862326809
862326824 862326841
862326920 862326937
862326929 862326946
862326939 862326957
862326995 862327013
862327081 862327099
862327194 862327212
862327575 862327593
862327689 862327706
862327833 862327851
862327869 862327886
862327878 862327895
862327999 862328016
862328043 862328060
862328123 862328141
862328153 862328170
862328167 862328185
862328228 862328245
862328250 862328267
862328286 862328303
862328295 862328313
862328321 862328339
862328403 862328420
862328410 862328428
862328478 862328495
862328591 862328609
862328707 862328725
862328734 862328752
862328786 862328804
862328805 862328822
862328831 862328848
862328844 862328862
862328908 862328926
862328954 862328972
862328967 862328985
862328995 862329012
862329047 862329065
862329064 862329082
862329092 862329110
862330018 862330036
862330158 862330176
862330184 862330202
862330212 862330229
862330219 862330237
862330237 862330255
862330263 862330281
862330300 862330318
862330343 862330361
862330382 862330400
862330411 862330429
862330449 862330467
862330471 862330490
862335037 862335055
862335117 862335134
862335144 862335162
862335212 862335231
862335235 862335253
862335309 862335326
862335324 862335342
862335400 862335418
862335562 862335580
862335597 862335614
862335774 862335792
862335900 862335917
862336092 862336109
862336269 862336287
862336311 862336328
862336376 862336394
862336507 862336525
862336812 862336829
862336913 862336931
862337157 862337174
862337191 862337209
862337240 862337257
862337268 862337286
862337629 862337646
862337815 862337832
862339814 862339831
862341618 862341635
862342996 862343013
862343621 862343639
862343916 862343933
862345968 862345985
862347827 862347844
862351289 862351307
862357642 862357660
862527790 862527808
862959206 862959224
862965799 862965817
863127758 863127776
863130986 863131003
863209472 863209490
863209596 863209613
863209685 863209702
863209734 863209752
863209768 863209786
863209964 863209981
863209997 863210014
863210026 863210043
863210067 863210085
863210097 863210115
863210148 863210165
863210244 863210262
863210270 863210287
863210274 863210291
863210417 863210434
863210447 863210464
863210485 863210503
863210501 863210518
863210519 863210536
863210533 863210550
863210571 863210589
863210585 863210603
863210634 863210652
863210646 863210664
863210667 863210685
863210690 863210708
863210706 863210724
863210754 863210772
863210769 863210787
863210790 863210808
863210837 863210855
863210868 863210885
863210901 863210918
863210912 863210930
863210928 863210945
863210953 863210970
863210982 863211000
863210997 863211015
863211026 863211043
863211050 863211068
863211069 863211086
863211076 863211094
863211094 863211112
863211112 863211130
863211130 863211148
863211139 863211157
863211142 863211160
863211179 863211197
863211209 863211226
863211218 863211235
863211237 863211254
863211256 863211274
863211266 863211284
863211294 863211312
863211304 863211321
863211317 863211335
863211335 863211352
863211348 863211366
863211359 863211377
863211658 863211676
863211676 863211694
863211702 863211720
863211723 863211740
863211734 863211751
863211753 863211771
863211781 863211799
863211814 863211832
863211836 863211854
863211875 863211893
863211892 863211910
863211904 863211922
863211928 863211946
863211940 863211958
863211950 863211968
863211974 863211992
863211981 863211998
863211983 863212000
863212002 863212021
863212036 863212054
863212054 863212072
863296367 863296384
863299159 863299176
863299312 863299329
863299789 863299807
863299968 863299986
863301839 863301856
863303586 863303604
863304348 863304365
863305465 863305483
863305882 863305899
863306127 863306145
863306806 863306823
863306915 863306932
863307073 863307091
863307207 863307225
863307820 863307838
863308076 863308093
863368189 863368206
863369262 863369280
863369300 863369318
863369535 863369553
863370493 863370510
863370548 863370566
863370624 863370641
863370644 863370661
863370684 863370702
863370769 863370786
863370796 863370814
863370830 863370847
863370864 863370881
863370893 863370911
863370911 863370928
863370969 863370986
863371017 863371034
863371049 863371067
863371088 863371106
863371187 863371204
863371234 863371252
863371298 863371315
863371319 863371336
863371343 863371360
863371352 863371369
863371398 863371417
863371457 863371475
863371501 863371519
863371531 863371549
863372160 863372177
863372201 863372219
863372354 863372372
863372408 863372426
863372437 863372455
863372472 863372490
863372513 863372532
863372626 863372644
863372674 863372691
863372745 863372763
863372835 863372852
863372903 863372920
863373008 863373025
863373078 863373096
863384711 863384728
863384857 863384874
863385701 863385719
863385809 863385827
863385866 863385883
863385893 863385911
863385950 863385967
863385980 863385998
863386024 863386042
863386137 863386154
863386337 863386355
863386414 863386431
863386466 863386484
863386535 863386552
863386636 863386653
863386743 863386761
863386841 863386859
863386924 863386942
863386978 863386995
863387616 863387634
863387662 863387680
863388543 863388561
863388735 863388752
863388936 863388953
863389598 863389615
863389975 863389992
863390166 863390184
863390359 863390376
863390677 863390695
863390851 863390868
863437271 863437289
863446446 863446464
863534335 863534353
863693216 863693234
863912112 863912129
863962821 863962839
864255737 864255755
864314147 864314164
864502160 864502177
864502162 864502179
864509282 864509299
864563045 864563062
864563047 864563064
864575134 864575151
864575169 864575187
864582456 864582473
864583588 864583606
864666000 864666017
864666149 864666167
864666195 864666213
864666379 864666397
864666432 864666450
864666487 864666505
864666618 864666635
864666783 864666800
864666854 864666872
864666926 864666943
864667028 864667046
864667173 864667191
864667873 864667891
864668035 864668053
864668084 864668102
864668148 864668166
864668455 864668473
864668552 864668570
864668593 864668611
864668674 864668692
864668711 864668729
864668797 864668814
864668862 864668880
864668949 864668966
864669089 864669107
864669285 864669303
864669361 864669378
864669387 864669405
864669440 864669457
864669458 864669476
864669482 864669500
864669492 864669510
864669500 864669517
864669521 864669539
864669555 864669573
864669591 864669609
864669639 864669657
864669886 864669904
864669906 864669923
864669931 864669948
864669970 864669988
864669986 864670004
864670000 864670018
864670100 864670118
864670129 864670147
864670210 864670228
864670274 864670292
864670340 864670357
864671887 864671904
864671964 864671982
864672072 864672090
864672377 864672395
864672983 864673001
864673364 864673381
864673492 864673510
864673551 864673568
864673808 864673826
864673829 864673846
864674085 864674102
864674468 864674485
864674483 864674501
864674544 864674562
864674921 864674939
864678576 864678594
864678880 864678898
864679225 864679242
864682258 864682275
864682552 864682569
864688455 864688472
864990346 864990364
864992684 864992702
864992711 864992729
864995902 864995920
864997012 864997029
865014140 865014157
865036181 865036198
865037300 865037318
865037812 865037830
865038500 865038517
865186431 865186449
865186985 865187002
865192732 865192750
865192911 865192929
865193251 865193269
865193316 865193334
865193923 865193941
865194073 865194091
865194186 865194203
865194244 865194262
865194424 865194441
865194480 865194497
865194549 865194566
865194574 865194592
865194678 865194696
865194746 865194764
865194893 865194910
865194958 865194976
865195026 865195044
865195108 865195126
865195218 865195236
865195357 865195375
865195386 865195404
865195441 865195459
865196053 865196070
865196960 865196978
865198732 865198749
865201040 865201057
865201061 865201079
865201122 865201140
865201149 865201167
865201182 865201200
865201290 865201308
865201330 865201348
865201382 865201399
865201467 865201484
865201576 865201593
865201633 865201651
865201701 865201719
865201767 865201785
865201778 865201796
865201841 865201859
865201868 865201886
865201939 865201957
865201963 865201980
865202035 865202053
865202049 865202066
865202097 865202114
865202119 865202136
865202126 865202144
865202174 865202191
865202206 865202223
865202347 865202365
865202378 865202396
865202528 865202546
865202552 865202570
865202666 865202684
865202717 865202734
865202966 865202984
865203191 865203209
865203699 865203716
865203712 865203730
865205646 865205664
865209060 865209077
865280638 865280656
865379356 865379373
865379395 865379412
865379432 865379449
865379528 865379546
865379575 865379592
865379624 865379642
865379928 865379945
865380248 865380265
865380478 865380495
865380520 865380537
865380671 865380688
865380718 865380736
865380757 865380774
865380817 865380835
865380989 865381007
865381208 865381226
865381333 865381351
865381801 865381819
865381834 865381852
865381840 865381858
865381862 865381880
865381882 865381900
865381912 865381929
865382025 865382042
865382099 865382117
865382227 865382245
865382262 865382279
865382312 865382330
865382350 865382368
865382370 865382388
865382377 865382394
865382395 865382413
865382407 865382424
865382434 865382451
865382452 865382470
865382524 865382541
865382556 865382574
865382673 865382691
865382767 865382785
865382792 865382809
865462663 865462680
865463352 865463370
865463408 865463426
865463869 865463886
865464510 865464528
865464711 865464729
865464811 865464829
865464839 865464857
865464859 865464877
865464871 865464889
865464908 865464926
865465071 865465089
865465198 865465216
865465221 865465238
865465246 865465263
865465276 865465295
865465304 865465321
865465340 865465358
865465359 865465377
865465416 865465434
865465444 865465462
865465540 865465558
865465776 865465794
865465822 865465840
865465876 865465893
865466194 865466211
865466232 865466249
865466253 865466271
865466265 865466283
865466358 865466376
865466400 865466418
865466442 865466459
865466492 865466510
865466544 865466562
865466567 865466585
865466701 865466719
865466737 865466754
865466847 865466865
865467017 865467034
865467061 865467079
865467078 865467096
865467155 865467172
865467293 865467311
865467320 865467338
865467447 865467464
865467710 865467727
865467754 865467772
865467781 865467798
865467826 865467843
865467906 865467924
865467958 865467976
865467975 865467992
865468005 865468023
865468035 865468053
865468121 865468139
865468175 865468193
865468277 865468295
865468361 865468379
865468799 865468817
865468824 865468842
865469042 865469059
865469112 865469129
865469346 865469363
865469492 865469509
865469908 865469925
865470178 865470195
865470398 865470415
865470599 865470616
865471791 865471809
865473684 865473701
865484009 865484026
865537433 865537450
865628970 865628988
865628979 865628997
865629024 865629041
865629039 865629057
865629051 865629068
865629069 865629087
865629085 865629103
865629093 865629111
865629105 865629122
865629111 865629129
865629122 865629139
865629136 865629153
865629142 865629159
865629163 865629180
865629168 865629185
865629180 865629197
865629192 865629210
865629204 865629221
865629222 865629239
865629234 865629251
865629242 865629260
865629247 865629265
865629255 865629273
865629266 865629284
865629271 865629289
865629288 865629305
865629315 865629333
865629323 865629341
865629336 865629354
865629352 865629369
865629361 865629379
865629384 865629402
865629391 865629409
865629414 865629431
865629431 865629449
865629448 865629466
865629464 865629482
865629483 865629501
865629503 865629520
865629519 865629536
865629549 865629567
865629564 865629582
865629581 865629598
865629601 865629618
865629627 865629645
865629660 865629678
865629719 865629736
865629739 865629757
865629748 865629765
865629762 865629780
865629785 865629802
865629807 865629825
865629966 865629984
865630074 865630091
865630094 865630113
865630107 865630124
865630212 865630229
865630247 865630264
865631511 865631528
865631607 865631625
865631710 865631728
865631808 865631826
865632273 865632291
865632434 865632451
865632482 865632499
865632571 865632589
865632874 865632892
865635033 865635050
865635284 865635302
865635461 865635479
865635558 865635575
865635736 865635754
865635777 865635795
865635798 865635816
865635939 865635957
865636068 865636086
865636281 865636299
865636318 865636335
865636410 865636428
865636597 865636614
865636604 865636622
865636836 865636854
865636981 865636998
865637001 865637018
865724589 865724607
865724600 865724618
865724634 865724652
865725135 865725153
865725323 865725341
865725463 865725480
865725987 865726005
865734712 865734729
865812172 865812189
865812496 865812514
865812656 865812674
865812710 865812728
865812759 865812777
865816167 865816185
865816187 865816204
865816219 865816236
865816319 865816336
865816430 865816448
865816486 865816503
865816558 865816575
865816605 865816623
865816649 865816667
865816789 865816807
865816917 865816935
865817154 865817172
865817166 865817183
865817252 865817270
865817317 865817335
865817393 865817411
865817513 865817530
865817549 865817567
865817591 865817609
865817635 865817652
865817956 865817974
865818083 865818101
865818144 865818162
865818335 865818353
865818532 865818550
865818688 865818706
866134056 866134073
866134274 866134291
866152683 866152701
866218072 866218090
866219042 866219060
866219605 866219623
866220017 866220035
866220050 866220067
866220144 866220161
866220197 866220215
866220202 866220220
866220237 866220255
866220249 866220267
866220312 866220330
866220327 866220344
866220368 866220386
866220384 866220402
866220481 866220499
866220528 866220545
866220570 866220588
866220639 866220656
866220667 866220684
866220716 866220733
866220801 866220819
866220917 866220935
866220941 866220959
866220972 866220989
866221015 866221033
866221047 866221065
866221091 866221109
866221105 866221123
866221120 866221138
866221131 866221149
866221170 866221187
866221206 866221225
866221248 866221266
866221286 866221304
866224446 866224463
866224631 866224648
866225881 866225899
866232972 866232989
866243972 866243990
866244909 866244926
866245300 866245318
866319851 866319869
866320558 866320575
866320801 866320819
866320909 866320926
866320990 866321007
866321059 866321077
866321081 866321099
866321094 866321112
866321304 866321322
866321330 866321348
866321766 866321783
866321852 866321869
866321958 866321976
866321999 866322016
866322345 866322362
866322411 866322429
866322505 866322522
866322533 866322550
866322597 866322614
866322657 866322674
866322672 866322689
866322706 866322723
866322803 866322820
866322831 866322849
866323070 866323087
866323084 866323102
866323122 866323140
866323236 866323254
866323383 866323401
866323696 866323713
866323754 866323771
866323780 866323797
866323898 866323915
866323960 866323977
866324085 866324103
866324104 866324121
866324149 866324167
866324221 866324238
866324310 866324328
866324339 866324357
866324397 866324415
866324466 866324483
866324528 866324545
866324618 866324636
866324634 866324652
866324753 866324771
866324861 866324879
866325027 866325045
866325402 866325420
866325747 866325765
866325775 866325793
866325863 866325880
866325968 866325985
866326238 866326255
866326255 866326273
866326297 866326315
866329159 866329176
866329178 866329195
866329189 866329207
866329230 866329248
866329377 866329394
866329478 866329496
866329601 866329619
866329623 866329640
866329699 866329717
866329770 866329787
866329803 866329821
866329875 866329893
866329962 866329980
866330174 866330192
866330235 866330252
866330485 866330503
866330634 866330651
866330668 866330685
866330685 866330702
866330730 866330747
866330799 866330817
866330834 866330852
866330838 866330855
866330901 866330919
866330929 866330947
866330950 866330967
866331032 866331050
866331241 866331259
866331305 866331323
866331364 866331382
866331404 866331421
866331409 866331427
866331443 866331461
866331471 866331489
866331566 866331584
866331611 866331629
866331632 866331649
866331711 866331729
866331806 866331824
866331832 866331850
866331894 866331911
866331942 866331959
866332090 866332108
866332093 866332111
866332182 866332200
866332263 866332281
866332390 866332407
866335248 866335266
866335419 866335438
866335478 866335495
866335506 866335523
866335523 866335541
866335633 866335651
866335832 866335850
866336023 866336041
866336272 866336290
866336464 866336481
866336572 866336590
866336899 866336916
866337063 866337080
866337119 866337136
866337301 866337319
866337345 866337363
866337513 866337530
866337670 866337688
866337862 866337879
866339809 866339827
866340199 866340217
866345069 866345087
866665624 866665641
866725101 866725118
866726470 866726488
866748110 866748128
866832391 866832408
866839678 866839696
866840004 866840022
866841095 866841113
866850332 866850349
866852244 866852262
866977614 866977631
866996038 866996055
867003774 867003792
867180308 867180326
867180351 867180369
867180404 867180421
867180444 867180461
867180472 867180489
867180504 867180521
867180565 867180582
867180590 867180608
867180620 867180637
867180656 867180674
867180774 867180791
867180864 867180882
867180916 867180934
867181001 867181018
867181045 867181063
867181061 867181078
867181078 867181096
867181136 867181154
867181205 867181222
867181207 867181225
867181260 867181277
867181306 867181324
867181328 867181346
867181364 867181382
867181408 867181426
867181421 867181439
867181461 867181478
867181500 867181517
867181643 867181660
867181764 867181782
867182237 867182255
867182444 867182462
867182504 867182522
867182553 867182571
867182568 867182586
867182599 867182617
867182636 867182653
867182671 867182689
867182708 867182725
867182762 867182779
867182816 867182834
867183073 867183091
867183138 867183155
867183208 867183226
867183271 867183288
867183411 867183428
867183699 867183717
867183743 867183761
867184100 867184117
867184339 867184357
867184499 867184517
867184571 867184589
867184702 867184720
867184714 867184731
867184840 867184858
867184897 867184915
867185094 867185112
867185218 867185235
867186052 867186070
867186181 867186199
867186320 867186338
867187058 867187075
867189587 867189605
867263665 867263683
867265514 867265532
867265576 867265594
867265779 867265797
867349905 867349923
867349949 867349967
867350094 867350112
867350153 867350171
867350194 867350211
867350245 867350263
867350430 867350448
867350496 867350513
867350555 867350572
867350664 867350681
867350926 867350943
867350978 867350996
867351426 867351444
867351494 867351512
867351631 867351648
867351656 867351674
867351834 867351851
867351909 867351927
867352018 867352035
867352061 867352079
867352078 867352095
867352151 867352169
867352170 867352188
867352184 867352201
867352402 867352419
867353506 867353524
867353663 867353681
867357169 867357187
867357201 867357219
867357229 867357247
867357265 867357283
867357299 867357316
867357358 867357375
867357413 867357431
867357587 867357604
867357731 867357749
867357865 867357883
867358636 867358654
867359779 867359796
867359802 867359819
867359850 867359867
867359933 867359950
867359970 867359988
867360191 867360209
867360268 867360285
867360374 867360392
867454535 867454553
867454549 867454567
867454568 867454586
867454602 867454620
867454622 867454640
867454660 867454678
867454899 867454917
867454987 867455004
867455076 867455093
867455105 867455122
867455137 867455155
867455181 867455199
867455231 867455249
867455257 867455274
867455274 867455292
867455307 867455325
867455330 867455348
867455356 867455374
867455381 867455399
867455410 867455429
867455415 867455433
867455430 867455448
867455460 867455477
867455476 867455494
867455507 867455526
867455535 867455553
867455552 867455570
867455587 867455604
867455589 867455606
867455591 867455608
867455606 867455624
867455640 867455657
867455674 867455691
867455693 867455711
867455747 867455765
867455782 867455800
867455840 867455858
867455905 867455923
867456022 867456040
867456054 867456072
867456230 867456248
867456392 867456410
867456683 867456701
867456864 867456882
867456902 867456920
867457020 867457038
867457737 867457755
867457814 867457832
867457884 867457902
867457991 867458009
867458072 867458090
867459404 867459421
867506417 867506434
867533212 867533230
867535611 867535628
867551720 867551738
867554989 867555006
867555184 867555202
867610805 867610822
867612736 867612754
867612912 867612929
867613011 867613028
867613124 867613141
867613412 867613430
867613444 867613461
867613543 867613561
867613637 867613654
867613653 867613670
867613728 867613746
867613752 867613769
867613768 867613785
867613797 867613815
867613807 867613825
867613877 867613894
867613890 867613907
867613947 867613965
867614029 867614047
867614036 867614054
867614124 867614141
867614198 867614216
867614227 867614245
867614260 867614278
867614268 867614286
867614282 867614300
867614287 867614305
867614303 867614320
867614321 867614338
867614344 867614362
867614406 867614423
867614436 867614454
867614543 867614561
867614576 867614593
867614585 867614602
867614622 867614640
867614678 867614696
867614686 867614704
867614714 867614731
867614744 867614761
867614825 867614842
867614839 867614857
867614884 867614902
867614905 867614922
867614977 867614994
867615018 867615036
867615096 867615114
867615173 867615191
867690820 867690838
867690971 867690989
867691132 867691150
867691488 867691506
867693364 867693381
867693444 867693461
867693509 867693526
867693608 867693625
867693640 867693658
867694526 867694544
867694572 867694589
867694625 867694643
867694642 867694659
867694658 867694675
867694688 867694706
867694895 867694912
867694913 867694931
867694989 867695007
867700377 867700395
867747099 867747116
867772953 867772971
867839011 867839029
867865736 867865753
867867300 867867317
867870408 867870425
867958890 867958907
867958940 867958958
867959202 867959220
867959365 867959383
867959844 867959862
867960263 867960281
867960393 867960411
867960511 867960528
867960552 867960570
867960634 867960652
867960671 867960689
867960694 867960711
867960720 867960737
867960751 867960769
867960776 867960794
867960823 867960841
867960858 867960876
867960917 867960934
867960932 867960950
867961013 867961031
867961053 867961071
867961255 867961272
867961284 867961301
867961668 867961686
867962228 867962245
867962268 867962286
867962398 867962416
867962438 867962456
867962522 867962540
867962581 867962598
867962646 867962663
867962697 867962714
867963242 867963259
867963269 867963287
867963302 867963320
867963335 867963353
867963344 867963362
867963352 867963370
867963356 867963374
867963371 867963388
867963385 867963402
867963404 867963422
867963416 867963433
867963435 867963453
867963445 867963462
867963454 867963471
867963476 867963496
867963486 867963503
867963491 867963509
867963496 867963514
867963509 867963526
867963514 867963532
867963519 867963536
867963534 867963552
867963541 867963559
867963548 867963565
867963555 867963572
867969232 867969249
868038032 868038049
868038220 868038237
868038245 868038263
868038627 868038644
868038641 868038659
868038925 868038943
868038965 868038982
868039036 868039053
868039141 868039159
868039240 868039258
868039320 868039337
868039329 868039347
868039487 868039505
868039532 868039550
868039746 868039764
868039793 868039811
868039900 868039918
868039937 868039954
868039976 868039994
868040277 868040295
868040297 868040315
868040444 868040462
868040826 868040844
868041064 868041081
868041694 868041712
868042135 868042153
868042420 868042437
868042497 868042515
868042629 868042646
868042670 868042688
868042764 868042782
868042867 868042884
868042987 868043005
868044397 868044414
868048091 868048108
868048303 868048321
868048397 868048415
868049765 868049783
868049953 868049970
868050079 868050097
868050116 868050133
868050138 868050155
868050178 868050195
868050206 868050224
868050221 868050239
868050250 868050268
868050333 868050351
868050421 868050439
868050455 868050472
868050523 868050540
868050552 868050569
868050602 868050619
868050845 868050862
868050866 868050883
868050901 868050918
868050928 868050946
868050952 868050970
868050990 868051008
868051005 868051022
868051046 868051064
868051089 868051107
868051148 868051166
868051190 868051207
868051237 868051254
868051355 868051372
868051628 868051646
868051727 868051744
868051871 868051889
868051985 868052003
868052293 868052311
868052479 868052497
868052775 868052793
868053083 868053100
868053124 868053142
868053371 868053389
868053424 868053441
868053522 868053540
868053571 868053588
868053679 868053697
868053706 868053723
868053936 868053954
868054135 868054152
868054192 868054210
868054429 868054447
868054473 868054491
868054554 868054572
868054587 868054605
868054610 868054628
868054670 868054688
868054713 868054731
868054760 868054778
868054832 868054849
868054891 868054909
868054935 868054953
868055022 868055040
868055041 868055059
868055122 868055140
868055158 868055176
868055206 868055224
868055256 868055273
868055310 868055328
868055329 868055347
868055439 868055457
868055494 868055512
868055534 868055551
868091602 868091619
868137773 868137790
868137804 868137822
868143685 868143702
868143957 868143974
868144623 868144641
868144938 868144956
868145219 868145237
868145827 868145845
868147392 868147409
868147430 868147448
868147516 868147533
868147685 868147702
868236382 868236400
868244467 868244485
868299488 868299505
868299848 868299866
868301446 868301463
868301479 868301496
868301506 868301523
868301523 868301540
868301528 868301545
868301551 868301569
868301564 868301582
868301611 868301628
868301630 868301648
868301665 868301683
868301687 868301705
868301719 868301737
868301742 868301759
868301760 868301777
868301776 868301794
868301782 868301799
868301799 868301817
868301819 868301837
868301830 868301848
868301857 868301874
868301860 868301878
868301886 868301904
868301908 868301925
868301917 868301934
868301925 868301942
868301941 868301958
868301949 868301967
868301959 868301977
868301979 868301997
868301994 868302012
868302004 868302022
868302027 868302045
868302042 868302060
868302053 868302070
868302071 868302089
868302086 868302104
868302366 868302383
868302392 868302409
868302403 868302420
868302423 868302441
868302437 868302455
868302457 868302474
868302466 868302484
868302547 868302565
868302559 868302577
868302596 868302614
868302615 868302633
868302658 868302676
868302672 868302689
868302676 868302693
868302685 868302703
868302695 868302712
868302719 868302737
868302735 868302752
868302773 868302790
868302784 868302801
868302812 868302830
868302853 868302871
868302866 868302884
868302891 868302909
868302902 868302920
868302933 868302951
868302971 868302988
868302998 868303015
868303037 868303055
868303061 868303079
868303080 868303098
868303090 868303107
868303108 868303126
868303133 868303151
868303159 868303176
868303198 868303215
868303233 868303250
868303260 868303278
868303285 868303303
868303303 868303321
868303361 868303379
868303408 868303426
868303442 868303459
868303480 868303498
868303538 868303556
868303600 868303617
868303636 868303654
868303656 868303673
868303681 868303698
868303702 868303720
868303728 868303746
868303803 868303821
868303962 868303980
868304032 868304050
868304109 868304126
868304187 868304205
868304306 868304323
868304335 868304353
868304417 868304434
868304498 868304516
868304547 868304565
868304883 868304901
868304900 868304917
868304924 868304942
868304944 868304961
868304962 868304979
868304984 868305001
868305007 868305024
868305036 868305053
868305115 868305133
868305229 868305246
868305248 868305266
868305526 868305543
868305643 868305661
868305847 868305865
868306138 868306156
868306268 868306285
868306396 868306414
868306512 868306530
868306642 868306660
868306723 868306741
868306771 868306789
868306802 868306819
868306854 868306872
868306883 868306900
868306918 868306935
868306959 868306976
868307005 868307022
868307027 868307044
868307043 868307061
868307085 868307102
868307164 868307181
868307197 868307215
868307210 868307228
868307249 868307267
868307270 868307287
868307315 868307332
868307355 868307373
868307374 868307392
868307399 868307417
868307438 868307455
868307549 868307566
868307569 868307587
868307599 868307617
868307668 868307686
868307707 868307724
868307747 868307764
868307759 868307777
868307787 868307805
868307838 868307856
868307884 868307901
868307984 868308002
868308035 868308053
868308052 868308070
868308117 868308134
868308144 868308162
868308248 868308266
868308268 868308286
868308350 868308368
868308432 868308450
868308521 868308538
868308771 868308789
868309142 868309160
868309444 868309462
868309473 868309491
868309541 868309559
868309587 868309605
868309693 868309711
868309735 868309753
868309773 868309790
868309864 868309882
868309930 868309947
868309998 868310016
868310117 868310135
868310419 868310437
868311857 868311874
868311884 868311901
868311908 868311926
868312022 868312040
868312155 868312172
868312400 868312418
868312582 868312599
868312824 868312841
868312907 868312924
868313486 868313503
868313529 868313546
868313642 868313660
868313718 868313735
868313736 868313753
868313862 868313879
868313882 868313900
868313911 868313929
868314052 868314069
868314092 868314109
868314155 868314173
868314323 868314340
868315213 868315231
868315439 868315457
868317188 868317205
868317266 868317283
868317724 868317742
868318274 868318291
868318297 868318315
868318374 868318392
868318569 868318587
868318691 868318708
868318923 868318940
868318970 868318988
868318982 868319000
868319053 868319070
868319104 868319122
868319119 868319136
868319158 868319176
868319177 868319195
868319191 868319208
868319216 868319234
868319224 868319242
868319249 868319267
868319288 868319306
868319311 868319329
868319337 868319354
868319345 868319363
868319361 868319378
868319394 868319412
868319414 868319431
868319452 868319469
868319467 868319485
868319494 868319511
868319525 868319543
868319550 868319568
868319600 868319618
868319608 868319626
868319708 868319725
868319764 868319781
868319971 868319988
868320037 868320054
868320104 868320122
868320232 868320249
868320548 868320565
868320729 868320746
868320770 868320787
868321681 868321699
868321738 868321756
868323300 868323317
868323349 868323367
868323642 868323660
868323705 868323722
868323810 868323828
868323957 868323974
868324609 868324627
868330079 868330097
868330230 868330248
868406671 868406688
868410075 868410092
868410151 868410168
868410702 868410720
868410728 868410745
868410758 868410775
868410810 868410827
868410884 868410902
868411134 868411151
868411263 868411281
868411281 868411298
868411348 868411365
868411436 868411454
868411876 868411893
868411998 868412016
868412241 868412259
868412304 868412322
868412785 868412803
868412849 868412867
868412960 868412978
868467323 868467341
868468259 868468277
868468305 868468322
868468351 868468368
868468406 868468424
868468476 868468494
868468542 868468560
868468837 868468855
868468915 868468932
868468998 868469016
868469362 868469380
868469460 868469477
868475758 868475775
868476699 868476717
868534734 868534752
868538595 868538613
868538749 868538767
868539026 868539043
868539167 868539185
868540083 868540100
868540085 868540103
868555948 868555966
868556060 868556077
868556882 868556900
868558705 868558723
868559307 868559325
868559622 868559639
868560135 868560153
868560477 868560495
868560809 868560826
868561207 868561224
868561675 868561693
868562340 868562358
868562674 868562692
868565492 868565509
868565735 868565753
868565940 868565957
868570435 868570452
868621580 868621597
868622807 868622825
868625900 868625917
868626835 868626853
868911276 868911294
868911592 868911609
868979459 868979476
868995544 868995562
868995842 868995859
868995877 868995894
868995902 868995920
868995947 868995964
868995993 868996011
868996288 868996306
868996701 868996718
868996841 868996859
869006280 869006298
869007322 869007339
869092693 869092711
869434720 869434738
869434733 869434751
869434867 869434885
869437088 869437105
869515997 869516014
869520127 869520145
869520983 869521001
869608841 869608858
869683694 869683711
869687640 869687657
869687816 869687834
869687919 869687936
869688471 869688489
869688524 869688542
869688616 869688633
869688678 869688695
869688749 869688766
869689035 869689053
869689134 869689152
869689515 869689533
869689800 869689817
869690248 869690266
869690479 869690496
869693478 869693495
869693761 869693778
869701634 869701651
869701829 869701847
869702339 869702357
869702810 869702828
869703310 869703327
869705190 869705207
869850867 869850884
869851681 869851699
869851893 869851910
869852231 869852249
869853087 869853104
869853296 869853313
869853943 869853961
869854045 869854062
869854146 869854164
869854208 869854226
869854367 869854384
869854460 869854478
869854477 869854495
869854499 869854517
869854515 869854532
869854537 869854554
869854564 869854581
869854605 869854623
869854643 869854660
869854662 869854679
869854675 869854693
869854698 869854716
869854717 869854734
869854752 869854770
869854768 869854785
869854789 869854807
869854804 869854821
869854821 869854838
869854840 869854857
869854855 869854873
869854865 869854882
869854887 869854904
869854920 869854938
869854954 869854971
869854973 869854991
869855046 869855065
869855229 869855247
869855253 869855271
869855302 869855320
869855355 869855373
869855410 869855428
869855452 869855470
869855468 869855485
869855484 869855501
869855512 869855530
869855541 869855559
869855559 869855577
869855581 869855598
869855671 869855688
869855700 869855717
869861505 869861522
869864838 869864856
869865255 869865273
869868204 869868222
869868487 869868504
869870837 869870855
869871287 869871305
869871311 869871328
869871476 869871494
869871565 869871583
869871656 869871674
869871700 869871717
869871788 869871805
869871918 869871935
869871987 869872004
869872214 869872232
869872395 869872412
869874321 869874339
869874384 869874402
869874713 869874730
869874784 869874801
869874874 869874892
869874965 869874983
869875209 869875226
869878277 869878295
869879123 869879140
869879932 869879950
869879983 869880000
869880048 869880066
869880071 869880088
869880114 869880132
869880221 869880238
869880230 869880248
869880262 869880280
869880395 869880413
869880502 869880519
869880578 869880596
869880610 869880628
869880724 869880742
869880811 869880829
869880838 869880856
869880862 869880880
869880937 869880954
869881012 869881030
869881125 869881142
869881139 869881157
869881196 869881214
869881250 869881267
869881465 869881483
869881558 869881575
869881689 869881707
869881724 869881742
869881823 869881841
869881855 869881872
869881885 869881902
869881909 869881926
869882162 869882180
869882192 869882210
869882238 869882256
869882271 869882288
869882486 869882504
869882489 869882506
869882513 869882531
869882637 869882655
869882661 869882679
869882730 869882748
869882769 869882787
869882778 869882795
869882899 869882917
869882990 869883007
869883179 869883197
869883277 869883295
869883340 869883358
869883378 869883396
869883509 869883527
869883594 869883612
869883777 869883795
869883968 869883986
869884092 869884110
869884198 869884216
869884260 869884278
869884422 869884440
869884540 869884558
869884651 869884669
869884754 869884772
869884887 869884905
869884962 869884980
869884988 869885005
869885101 869885119
869885155 869885172
869885382 869885400
869885545 869885562
869885704 869885722
869885970 869885988
869886098 869886116
869886238 869886255
869886657 869886675
869886968 869886985
869887276 869887294
869921166 869921184
869926256 869926274
869957083 869957101
869957476 869957493
869958839 869958857
870043067 870043084
870043869 870043886
870043953 870043971
870044247 870044265
870044501 870044519
870044628 870044646
870044738 870044755
870044753 870044770
870044781 870044799
870044849 870044867
870044903 870044920
870044966 870044983
870045085 870045103
870045112 870045130
870045164 870045181
870045234 870045252
870045265 870045283
870045328 870045346
870049689 870049707
870050440 870050457
870057048 870057066
870120999 870121017
870121199 870121217
870121250 870121268
870121856 870121874
870125844 870125862
870127134 870127153
870128570 870128588
870128849 870128866
870129943 870129961
870130229 870130247
870217313 870217330
870404587 870404604
870471486 870471504
870471491 870471508
870581655 870581673
870794603 870794620
870795186 870795204
870928648 870928666
870943470 870943488
870954316 870954334
871042205 871042222
871086747 871086765
871089888 871089906
871181711 871181729
871492677 871492694
871529333 871529352
871595108 871595126
871595185 871595202
871595335 871595352
871595441 871595459
871595531 871595549
872051239 872051257
872113430 872113447
872114068 872114086
872114189 872114206
872115920 872115937
872192484 872192502
872192832 872192849
872193375 872193393
872193451 872193469
872193587 872193604
872193723 872193741
872193793 872193811
872193861 872193879
872193927 872193945
872193937 872193955
872199333 872199350
872199386 872199404
872199485 872199502
872199704 872199722
872199835 872199853
872199974 872199991
872200079 872200096
872200170 872200188
872201184 872201202
872201273 872201291
872201806 872201823
872201861 872201879
872201963 872201981
872201983 872202000
872207617 872207634
872258538 872258555
872284348 872284366
872284873 872284891
872287595 872287613
872287644 872287662
872287662 872287679
872287688 872287705
872287690 872287707
872287702 872287719
872287715 872287733
872287732 872287750
872287759 872287776
872289701 872289719
872289760 872289778
872289891 872289909
872290505 872290522
872290735 872290753
872312910 872312927
872379207 872379224
872432044 872432061
872443540 872443558
872443932 872443949
872443978 872443995
872444031 872444049
872444062 872444079
872444115 872444133
872444168 872444185
872444260 872444278
872444302 872444319
872444439 872444456
872444473 872444490
872444495 872444513
872444746 872444763
872444867 872444885
872444917 872444935
872444976 872444994
872445059 872445076
872445162 872445180
872445266 872445284
872445289 872445307
872445465 872445482
872445562 872445579
872445612 872445630
872445661 872445679
872445709 872445727
872445733 872445751
872445765 872445783
872445894 872445912
872447888 872447906
872447944 872447962
872448352 872448370
872448725 872448742
872532557 872532575
872532932 872532949
872533133 872533150
872533205 872533222
872544277 872544295
872544387 872544404
872545341 872545359
872545975 872545992
872546037 872546055
872546106 872546123
872546260 872546277
872546657 872546675
872548578 872548596
872656170 872656188
872656236 872656254
872656367 872656384
872656465 872656483
872656597 872656614
872656797 872656815
872656853 872656871
872656993 872657011
872657183 872657201
872657293 872657310
872657485 872657502
872657581 872657598
872657726 872657744
872657986 872658004
872658051 872658069
872658341 872658359
872658601 872658619
872707922 872707940
872707961 872707978
872708001 872708019
872708089 872708107
872708131 872708149
872708197 872708214
872708269 872708286
872708447 872708465
872708571 872708589
872708844 872708862
872708882 872708899
872708956 872708973
872709004 872709022
872709020 872709038
872709034 872709052
872709052 872709070
872709067 872709085
872709085 872709103
872709103 872709120
872709114 872709132
872709133 872709151
872709150 872709167
872709176 872709194
872709215 872709233
872709237 872709255
872709315 872709332
872709364 872709381
872709423 872709441
872709453 872709470
872709504 872709522
872718702 872718720
872721651 872721669
872725312 872725330
872773253 872773271
872773256 872773273
872805250 872805267
872893044 872893062
872893298 872893315
872893360 872893378
872893849 872893866
872900349 872900366
872900395 872900412
872900622 872900640
872972456 872972473
872972511 872972529
872972672 872972689
872972759 872972776
872972783 872972800
872972819 872972836
872972853 872972870
872972868 872972886
872972932 872972950
872973041 872973059
872973102 872973120
872973151 872973168
872973397 872973414
872973504 872973522
872973552 872973570
872973584 872973602
872973597 872973614
872973615 872973633
872973677 872973695
872973714 872973732
872973730 872973748
872973765 872973782
872973831 872973848
872973892 872973910
872973916 872973934
872973944 872973962
872973995 872974013
872974017 872974035
872974035 872974053
872974100 872974118
872974190 872974207
872974223 872974241
872974290 872974308
872974370 872974388
872974490 872974507
872974544 872974562
872974752 872974769
872976072 872976089
872976259 872976277
872976331 872976349
872977352 872977370
872977384 872977402
872977644 872977662
872977850 872977868
872977912 872977930
872978041 872978059
872978117 872978134
872978187 872978205
872978324 872978342
872978361 872978379
872978973 872978991
872979566 872979584
872981252 872981270
873229991 873230009
873236089 873236107
873242724 873242742
873242993 873243011
873243564 873243581
873243696 873243713
873243840 873243858
873323748 873323765
873614970 873614988
873670128 873670146
873670880 873670897
873670971 873670989
873671018 873671036
873671121 873671139
873671245 873671262
873671303 873671321
873671345 873671362
873671392 873671410
873671452 873671469
873671495 873671513
873671637 873671654
873671713 873671730
873671783 873671801
873672072 873672089
873672301 873672318
873672713 873672731
873673132 873673149
873673272 873673290
873673348 873673367
873673555 873673572
873673641 873673659
873673814 873673832
873673860 873673878
873673989 873674007
873674027 873674045
873674047 873674064
873674122 873674140
873674447 873674464
873674610 873674628
873674811 873674829
873675147 873675164
873675265 873675283
873675432 873675449
873675487 873675505
873675934 873675952
873728679 873728697
873729121 873729139
873729655 873729673
873729818 873729836
873730197 873730215
873732873 873732890
873733291 873733309
873744468 873744485
873749424 873749441
873749723 873749741
873812564 873812582
873817077 873817094
873820819 873820837
873848706 873848723
874065501 874065518
874088919 874088936
874161391 874161409
874410677 874410694
874564968 874564986
874691454 874691474
874696369 874696387
874696644 874696661
874746506 874746524
874750973 874750991
874887552 874887570
875106049 875106067
875123401 875123418
875127864 875127881
875127866 875127883
