1132810224.5 8.4201 -14.6436 367 491 31.5498 0  42.5 0 0 0  1132884889.5
1129280581 2.2302 40.4988 1603 1712 31.5358 0  32.5 0 0 0  1129289331
1133147490 0.95234 25.5248 335 448 31.1394 0  28.5 0 0 0  1133157240
1129109904.5 18.3167 -20.7496 1331 1409 30.5547 0  54.5 0 0 0  1129245877.5
