1 1124096858 1124099199 2341
1 1124113517 1124136285 22768
1 1124286797 1124304405 17608
1 1124376361 1124387203 10842
1 1124452773 1124453208 435
1 1124458052 1124464216 6164
1 1124530660 1124540057 9397
1 1124613706 1124626558 12852
1 1124864642 1124880435 15793
1 1124936651 1124943184 6533
1 1124944286 1124945073 787
1 1125205357 1125209280 3923
1 1125234202 1125234519 317
1 1125291733 1125295383 3650
1 1125319372 1125320199 827
1 1125320614 1125323354 2740
1 1125323510 1125330205 6695
1 1125334610 1125335679 1069
1 1125335867 1125338029 2162
1 1125340838 1125341385 547
1 1125381649 1125392626 10977
1 1125392637 1125418769 26132
1 1125419349 1125423380 4031
1 1125465189 1125472555 7366
1 1125511380 1125514061 2681
1 1125516766 1125525833 9067
1 1125582584 1125583709 1125
1 1125584474 1125589123 4649
1 1125591482 1125593230 1748
1 1125593926 1125594465 539
1 1125594531 1125597255 2724
1 1125599526 1125601590 2064
1 1125601754 1125606254 4500
1 1125606497 1125610273 3776
1 1125610447 1125611729 1282
1 1125612082 1125612783 701
1 1125612862 1125615588 2726
1 1125624363 1125640422 16059
1 1125641651 1125645860 4209
1 1125713789 1125714620 831
1 1125714731 1125719967 5236
1 1125721801 1125723321 1520
1 1125723406 1125731417 8011
1 1125816219 1125820454 4235
1 1125909383 1125916264 6881
1 1126038529 1126038943 414
1 1126073342 1126086553 13211
1 1126088363 1126098729 10366
1 1126099994 1126111138 11144
1 1126164541 1126165915 1374
1 1126256591 1126264691 8100
1 1126301023 1126301382 359
1 1126301535 1126302050 515
1 1126302126 1126304365 2239
1 1126308522 1126331060 22538
1 1126400448 1126401453 1005
1 1126401543 1126410042 8499
1 1126415040 1126420940 5900
1 1126423475 1126425848 2373
1 1126552535 1126552974 439
1 1126553006 1126553627 621
1 1126553653 1126555046 1393
1 1126555086 1126603333 48247
1 1126626009 1126627282 1273
1 1126627298 1126628100 802
1 1126643296 1126645233 1937
1 1126645803 1126675574 29771
1 1126686546 1126691334 4788
1 1126730166 1126731309 1143
1 1126731655 1126731926 271
1 1126732033 1126733225 1192
1 1126736678 1126771420 34742
1 1126787376 1126788161 785
1 1126791061 1126821941 30880
1 1126829345 1126832426 3081
1 1126832486 1126835921 3435
1 1126837038 1126849861 12823
1 1126868784 1126873675 4891
1 1126884576 1126893057 8481
1 1126908775 1126909054 279
1 1126910419 1126915782 5363
1 1126917983 1126942368 24385
1 1126954909 1126963846 8937
1 1126989824 1126991568 1744
1 1126994536 1126999495 4959
1 1127000092 1127059230 59138
1 1127059246 1127072295 13049
1 1127072307 1127074207 1900
